NAME;STATION-P;STATION-Q;STATION-R
0,0,0,0.000
1,0,2.55,0.000
2,2.25,1.35,0.000
3,2.25,-1.35,0.000
4,0,-2.55,0.000
5,-2.25,-1.35,0.000
6,-2.25,1.35,0.000
7,-3.409,-4.692,0.000
8,-5.628,-1.403,0.000
9,-5.213,2.543,0.000
10,-2.359,5.299,0.000
11,1.599,5.575,0.000
12,4.808,3.243,0.000
13,5.768,-0.606,0.000
14,4.029,-4.172,0.000
15,0.405,-5.786,0.000
16,-0.166,-9.325,0.000
17,-3.817,-9.118,0.000
18,-8.079,-6.43,0.000
19,-10.083,0.565,0.000
20,-9.454,3.731,0.000
21,-7.007,7.259,0.000
22,-3.011,8.733,0.000
23,2.779,8.543,0.000
24,7.229,6.784,0.000
25,9.601,3.096,0.000
26,9.275,-0.835,0.000
27,7.342,-5.283,0.000
28,3.84,-8.366,0.000
29,-1.641,-14.253,0.000
30,-5.426,-13.756,0.000
31,-7.849,-11.784,0.000
32,-12.182,-5.068,0.000
33,-14.72,-3.48,0.000
34,-12.778,3.756,0.000
35,-10.264,8.166,0.000
36,-7.866,12.907,0.000
37,-4.514,12.723,0.000
38,0.228,13.045,0.000
39,6.991,11.221,0.000
40,9.478,9.963,0.000
41,12.142,5.346,0.000
42,14.933,2.27,0.000
43,12.659,-6.3,0.000
44,10.217,-9.448,0.000
45,6.141,-13.117,0.000
46,-33.505,-55.762,0.000
47,-55.762,33.505,0.000
48,4.632,-17.347,0.000
49,3.094,-20.009,0.000
50,-12.023,-16.47,0.000
51,-19.687,-2.292,0.000
52,-20.388,2.587,0.000
53,-13.398,12.51,0.000
54,-1.239,17.861,0.000
55,6.582,19.355,0.000
56,15.987,8.416,0.000
57,19.828,1.202,0.000
58,16.802,-8.278,0.000
59,18.818,-16.218,0.000
60,8.121,-23.63,0.000
61,-4.688,-24.945,0.000
62,-10.727,-23.249,0.000
63,-18.285,-19.495,0.000
64,-23.802,-2.743,0.000
65,-23.894,5.232,0.000
66,-18.853,18.138,0.000
67,-6.093,24.396,0.000
68,3.098,25.865,0.000
69,13.631,20.695,0.000
70,25.28,9.554,0.000
71,25.76,-8.183,0.000
72,26.794,-21.96,0.000
73,13.353,-28.399,0.000
74,-0.977,-31.278,0.000
75,-8.983,-31.403,0.000
76,-24.241,-20.25,0.000
77,-33.809,-4.946,0.000
78,-33.285,7.337,0.000
79,-26.59,13.891,0.000
80,-20.633,27.276,0.000
81,-2.778,33.814,0.000
82,6.17,33.231,0.000
83,21.079,27.543,0.000
84,25.112,20.37,0.000
85,33.259,1.44,0.000
86,30.323,-4.6,0.000
87,36.032,-7.212,0.000
88,13.727,-39.455,0.000
89,-11.894,-38.203,0.000
90,-29.945,-29.42,0.000
91,-37.364,-15.148,0.000
92,-29.071,29.15,0.000
93,-7.688,35.743,0.000
94,7.92,40.684,0.000
95,37.631,9.372,0.000
