NAME,STATION-P,STATION-Q,STATION-R
C0,-3.699,-63.821,0.000
C1,-1.769,-68.596,0.000
C2,-10.403,-60.975,0.000
C3,-8.474,-65.750,0.000
C4,-6.544,-70.525,0.000
C5,-4.615,-75.300,0.000
C6,-17.107,-58.130,0.000
C7,-15.178,-62.905,0.000
C8,-13.249,-67.680,0.000
C9,-11.319,-72.454,0.000
C10,-9.390,-77.229,0.000
C11,-7.461,-82.004,0.000
C12,-21.882,-60.059,0.000
C13,-19.953,-64.834,0.000
C14,-18.024,-69.609,0.000
C15,-16.094,-74.384,0.000
C16,-14.165,-79.159,0.000
C17,-12.236,-83.934,0.000
C18,-24.728,-66.763,0.000
C19,-22.799,-71.538,0.000
C20,-20.869,-76.313,0.000
C21,-18.940,-81.088,0.000
C22,-27.574,-73.467,0.000
C23,-25.644,-78.242,0.000
A0,0.112,-59.504,0.000
A1,2.041,-64.279,0.000
A2,3.970,-69.054,0.000
A3,-6.592,-56.659,0.000
A4,-4.663,-61.434,0.000
A5,-2.734,-66.209,0.000
A6,-0.805,-70.984,0.000
A7,1.124,-75.759,0.000
A8,-13.297,-53.813,0.000
A9,-11.367,-58.588,0.000
A10,-9.438,-63.363,0.000
A11,-7.509,-68.138,0.000
A12,-5.580,-72.913,0.000
A13,-3.651,-77.688,0.000
A14,-1.721,-82.463,0.000
A15,-18.072,-55.742,0.000
A16,-16.142,-60.517,0.000
A17,-14.213,-65.292,0.000
A18,-12.284,-70.067,0.000
A19,-10.355,-74.842,0.000
A20,-8.426,-79.617,0.000
A21,-6.496,-84.392,0.000
A22,-22.847,-57.671,0.000
A23,-20.917,-62.446,0.000
A24,-18.988,-67.221,0.000
A25,-17.059,-71.996,0.000
A26,-15.130,-76.771,0.000
A27,-13.201,-81.546,0.000
A28,-11.271,-86.321,0.000
A29,-25.692,-64.375,0.000
A30,-23.763,-69.150,0.000
A31,-21.834,-73.925,0.000
A32,-19.905,-78.700,0.000
A33,-17.976,-83.475,0.000
A34,-28.538,-71.080,0.000
A35,-26.609,-75.855,0.000
A36,-24.680,-80.630,0.000
D101,-6.260,-52.210,0.000
D102,-12.964,-49.364,0.000
D103,-17.739,-51.293,0.000
D104,-22.514,-53.223,0.000
D105,-27.289,-55.152,0.000
D106,-30.135,-61.856,0.000
D107,-26.707,-70.340,0.000
D108,-23.861,-63.636,0.000
D109,-21.015,-56.931,0.000
D110,-16.240,-55.002,0.000
D111,-9.536,-57.848,0.000
D112,-2.832,-60.694,0.000
D113,0.062,-67.856,0.000
D114,-2.784,-74.560,0.000
D115,-5.630,-81.265,0.000
D116,-10.405,-83.194,0.000
D117,-17.109,-80.348,0.000
D118,-23.813,-77.502,0.000
R0,-1.867,-63.081,0.000
R1,0.062,-67.856,0.000
R2,-8.572,-60.235,0.000
R3,-6.642,-65.010,0.000
R4,-4.713,-69.785,0.000
R5,-2.784,-74.560,0.000
R6,-15.276,-57.390,0.000
R7,-13.347,-62.165,0.000
R8,-11.417,-66.940,0.000
R9,-9.488,-71.715,0.000
R10,-7.559,-76.490,0.000
R11,-5.630,-81.265,0.000
R12,-20.051,-59.319,0.000
R13,-18.122,-64.094,0.000
R14,-16.192,-68.869,0.000
R15,-14.263,-73.644,0.000
R16,-12.334,-78.419,0.000
R17,-10.405,-83.194,0.000
R18,-22.897,-66.023,0.000
R19,-20.967,-70.798,0.000
R20,-19.038,-75.573,0.000
R21,-17.109,-80.348,0.000
R22,-25.742,-72.727,0.000
R23,-23.813,-77.502,0.000
C24,-37.086,60.784,0.000
C25,-35.156,56.009,0.000
C26,-43.790,63.630,0.000
C27,-41.861,58.855,0.000
C28,-39.931,54.080,0.000
C29,-38.002,49.305,0.000
C30,-50.494,66.475,0.000
C31,-48.565,61.700,0.000
C32,-46.636,56.925,0.000
C33,-44.706,52.151,0.000
C34,-42.777,47.376,0.000
C35,-40.848,42.601,0.000
C36,-55.269,64.546,0.000
C37,-53.340,59.771,0.000
C38,-51.411,54.996,0.000
C39,-49.481,50.221,0.000
C40,-47.552,45.446,0.000
C41,-45.623,40.671,0.000
C42,-58.115,57.842,0.000
C43,-56.186,53.067,0.000
C44,-54.256,48.292,0.000
C45,-52.327,43.517,0.000
C46,-60.961,51.138,0.000
C47,-59.031,46.363,0.000
A37,-33.275,65.101,0.000
A38,-31.346,60.326,0.000
A39,-29.417,55.551,0.000
A40,-39.979,67.946,0.000
A41,-38.050,63.171,0.000
A42,-36.121,58.396,0.000
A43,-34.192,53.621,0.000
A44,-32.263,48.846,0.000
A45,-46.684,70.792,0.000
A46,-44.754,66.017,0.000
A47,-42.825,61.242,0.000
A48,-40.896,56.467,0.000
A49,-38.967,51.692,0.000
A50,-37.038,46.917,0.000
A51,-35.108,42.142,0.000
A52,-51.459,68.863,0.000
A53,-49.529,64.088,0.000
A54,-47.600,59.313,0.000
A55,-45.671,54.538,0.000
A56,-43.742,49.763,0.000
A57,-41.813,44.988,0.000
A58,-39.883,40.213,0.000
A59,-56.234,66.934,0.000
A60,-54.304,62.159,0.000
A61,-52.375,57.384,0.000
A62,-50.446,52.609,0.000
A63,-48.517,47.834,0.000
A64,-46.588,43.059,0.000
A65,-44.658,38.284,0.000
A66,-59.079,60.230,0.000
A67,-57.150,55.455,0.000
A68,-55.221,50.680,0.000
A69,-53.292,45.905,0.000
A70,-51.363,41.130,0.000
A71,-61.925,53.525,0.000
A72,-59.996,48.750,0.000
A73,-58.067,43.975,0.000
D119,-63.978,61.675,0.000
D120,-66.823,54.971,0.000
D121,-64.894,50.196,0.000
D122,-62.965,45.421,0.000
D123,-61.036,40.646,0.000
D124,-54.331,37.800,0.000
D125,-45.848,41.228,0.000
D126,-52.552,44.073,0.000
D127,-59.256,46.919,0.000
D128,-61.185,51.694,0.000
D129,-58.340,58.398,0.000
D130,-55.494,65.103,0.000
D131,-50.163,67.257,0.000
D132,-43.458,64.411,0.000
D133,-36.754,61.565,0.000
D134,-34.825,56.790,0.000
D135,-37.671,50.086,0.000
D136,-40.516,43.382,0.000
R24,-36.529,61.009,0.000
R25,-34.600,56.234,0.000
R26,-43.234,63.854,0.000
R27,-41.304,59.079,0.000
R28,-39.375,54.304,0.000
R29,-37.446,49.529,0.000
R30,-49.938,66.700,0.000
R31,-48.009,61.925,0.000
R32,-46.079,57.150,0.000
R33,-44.150,52.375,0.000
R34,-42.221,47.600,0.000
R35,-40.292,42.825,0.000
R36,-54.713,64.771,0.000
R37,-52.784,59.996,0.000
R38,-50.854,55.221,0.000
R39,-48.925,50.446,0.000
R40,-46.996,45.671,0.000
R41,-45.067,40.896,0.000
R42,-57.559,58.067,0.000
R43,-55.629,53.292,0.000
R44,-53.700,48.517,0.000
R45,-51.771,43.742,0.000
R46,-60.404,51.363,0.000
R47,-58.475,46.588,0.000
N46,-32.537,-54.848,0.000
M46,-32.587,-56.398,0.000
S46,-32.537,-57.778,0.000
N47,-56.348,34.017,0.000
M47,-56.398,32.467,0.000
S47,-56.348,31.087,0.000
