NAME;ETRS-X;ETRS-Y;ETRS-Z;STATION-P;STATION-Q;STATION-R
1000;3826676.812;462008.425;5064729.407;89.945;-0.856;-0.003
1001;3826676.694;462006.263;5064729.758;87.813;-0.345;0.050
1002;3826676.226;462002.927;5064730.331;84.557;0.690;-0.014
1003;3826675.955;462000.008;5064730.840;81.691;1.490;0.019
1004;3826675.627;461996.763;5064731.353;78.508;2.369;-0.002
1005;3826675.352;461993.674;5064731.868;75.474;3.192;0.022
1006;3826675.109;461990.907;5064732.291;72.756;3.903;0.014
1007;3826674.840;461988.008;5064732.825;69.911;4.715;0.070
1008;3826674.377;461984.659;5064733.402;66.641;5.750;0.012
1009;3826674.073;461981.769;5064733.911;63.808;6.573;0.027
1010;3826673.606;461978.386;5064734.515;60.505;7.629;-0.014
1011;3826673.328;461975.527;5064735.006;57.700;8.419;0.004
1012;3826673.041;461972.761;5064735.520;54.988;9.220;0.044
1013;3826672.740;461969.953;5064736.007;52.237;10.020;0.049
1014;3826672.320;461966.623;5064736.589;48.981;11.021;0.023
1015;3826672.077;461963.768;5064737.072;46.175;11.777;0.056
1016;3826671.653;461960.417;5064737.590;42.899;12.745;-0.026
1017;3826671.332;461957.254;5064738.069;39.797;13.590;-0.064
1018;3826671.070;461954.207;5064738.571;36.804;14.391;-0.040
1019;3826670.807;461950.950;5064739.093;33.601;15.225;-0.017
1020;3826673.303;461950.330;5064737.308;32.687;12.231;0.010
1021;3826673.551;461953.097;5064736.818;35.405;11.475;-0.033
1022;3826673.840;461955.944;5064736.394;38.197;10.719;0.007
1023;3826674.175;461958.865;5064735.894;41.056;9.874;0.019
1024;3826674.465;461961.922;5064735.357;44.057;9.028;-0.015
1025;3826674.751;461965.026;5064734.859;47.104;8.205;-0.018
1026;3826675.043;461967.778;5064734.387;49.802;7.427;-0.021
1027;3826675.383;461970.577;5064733.930;52.540;6.615;0.020
1028;3826675.717;461973.850;5064733.357;55.749;5.692;-0.001
1029;3826676.070;461976.888;5064732.788;58.723;4.780;-0.025
1030;3826676.363;461979.688;5064732.344;61.468;4.013;-0.001
1031;3826676.706;461982.866;5064731.785;64.583;3.101;-0.012
1032;3826676.988;461986.058;5064731.222;67.718;2.233;-0.063
1033;3826677.358;461988.854;5064730.767;70.449;1.399;-0.002
1034;3826677.775;461991.933;5064730.142;73.457;0.398;-0.029
1035;3826678.129;461995.005;5064729.581;76.464;-0.514;-0.043
1036;3826678.446;461998.140;5064729.092;79.538;-1.359;-0.018
1037;3826678.693;462000.785;5064728.692;82.135;-2.048;0.002
1038;3826679.036;462003.890;5064728.102;85.176;-2.972;-0.040
1039;3826679.407;462007.018;5064727.609;88.237;-3.861;0.015
1040;3826682.211;462007.729;5064725.407;88.608;-7.478;-0.011
1041;3826681.970;462005.267;5064725.863;86.193;-6.777;0.030
1042;3826681.624;462002.007;5064726.386;82.997;-5.877;0.006
1043;3826681.347;461998.768;5064726.874;79.815;-5.054;-0.005
1044;3826681.072;461995.936;5064727.338;77.036;-4.286;-0.003
1045;3826680.781;461993.028;5064727.841;74.184;-3.474;0.014
1046;3826680.352;461989.669;5064728.425;70.901;-2.462;-0.019
1047;3826680.063;461986.809;5064728.939;68.095;-1.651;0.011
1048;3826679.760;461984.062;5064729.452;65.404;-0.839;0.041
1049;3826679.473;461980.856;5064729.933;62.256;-0.016;0.022
1050;3826679.106;461977.600;5064730.466;59.067;0.907;-0.007
1051;3826678.757;461974.535;5064730.998;56.066;1.797;-0.013
1052;3826678.430;461971.440;5064731.518;53.032;2.664;-0.017
1053;3826678.136;461968.274;5064732.032;49.924;3.510;-0.012
1054;3826677.806;461965.388;5064732.544;47.098;4.355;-0.008
1055;3826677.453;461962.310;5064733.086;44.084;5.256;-0.010
1056;3826677.192;461959.405;5064733.556;41.232;6.023;-0.0004
1057;3826676.754;461955.930;5064734.184;37.834;7.080;-0.013
1058;3826676.457;461952.960;5064734.688;34.921;7.903;-0.002
1059;3826676.113;461949.605;5064735.237;31.631;8.826;-0.012
1060;3826678.549;461948.456;5064733.529;30.199;5.977;0.001
1061;3826678.881;461951.295;5064733.013;32.978;5.131;-0.007
1062;3826679.193;461954.327;5064732.519;35.951;4.297;0.005
1063;3826679.506;461957.306;5064732.000;38.871;3.452;-0.008
1064;3826679.906;461960.444;5064731.436;41.939;2.495;0.008
1065;3826680.160;461963.612;5064730.944;45.054;1.695;-0.004
1066;3826680.459;461966.271;5064730.502;47.657;0.939;0.015
1067;3826680.847;461969.462;5064729.894;50.779;-0.040;-0.009
1068;3826681.207;461972.507;5064729.336;53.759;-0.952;-0.018
1069;3826681.392;461975.240;5064728.979;56.450;-1.575;0.004
1070;3826681.695;461978.312;5064728.443;59.464;-2.431;-0.020
1071;3826682.087;461981.388;5064727.877;62.472;-3.377;-0.015
1072;3826682.471;461984.409;5064727.310;65.425;-4.311;-0.019
1073;3826682.770;461987.149;5064726.901;68.109;-5.056;0.031
1074;3826683.081;461990.202;5064726.335;71.103;-5.934;-0.014
1075;3826683.465;461993.237;5064725.753;74.070;-6.880;-0.029
1076;3826683.726;461996.304;5064725.290;77.084;-7.658;-0.022
1077;3826684.095;461999.500;5064724.731;80.213;-8.592;-0.016
1078;3826684.352;462002.207;5064724.372;82.870;-9.271;0.047
1079;3826684.821;462005.821;5064723.623;86.402;-10.439;-0.009
1080;3826684.991;462007.529;5064723.305;88.077;-10.928;-0.038
1081;3826687.752;462007.856;5064721.243;88.071;-14.389;-0.006
1082;3826687.426;462004.970;5064721.743;85.246;-13.555;-0.011
1083;3826687.025;462001.805;5064722.319;82.151;-12.587;-0.019
1084;3826686.763;461998.622;5064722.836;79.022;-11.764;0.007
1085;3826686.377;461995.459;5064723.397;75.928;-10.819;-0.005
1086;3826686.111;461992.323;5064723.915;72.846;-9.996;0.023
1087;3826685.674;461989.560;5064724.471;70.155;-9.051;0.006
1088;3826685.399;461986.484;5064724.952;67.135;-8.250;0.003
1089;3826685.028;461983.444;5064725.496;64.161;-7.338;-0.004
1090;3826684.766;461980.390;5064725.977;61.160;-6.548;0.002
1091;3826684.352;461977.508;5064726.528;58.348;-5.614;-0.015
1092;3826684.096;461974.272;5064727.025;55.166;-4.802;-0.005
1093;3826683.733;461971.375;5064727.583;52.334;-3.901;0.014
1094;3826683.433;461968.405;5064728.048;49.421;-3.101;-0.008
1095;3826683.094;461965.254;5064728.616;46.333;-2.189;0.014
1096;3826682.776;461962.349;5064729.104;43.487;-1.366;0.004
1097;3826682.468;461959.263;5064729.631;40.459;-0.510;0.017
1098;3826682.103;461956.583;5064730.147;37.842;0.347;0.017
1099;3826681.818;461953.228;5064730.644;34.546;1.192;0.001
1100;3826681.433;461950.132;5064731.197;31.518;2.126;-0.011
1101;3826681.008;461947.343;5064731.766;28.800;3.072;-0.013
1102;3826683.737;461946.487;5064729.826;27.624;-0.178;0.012
1103;3826684.107;461949.330;5064729.286;30.402;-1.068;0.007
1104;3826684.461;461952.382;5064728.758;33.389;-1.958;0.018
1105;3826684.750;461955.073;5064728.309;36.026;-2.714;0.027
1106;3826685.114;461958.369;5064727.723;39.256;-3.670;0.015
1107;3826685.532;461961.516;5064727.110;42.330;-4.671;0.003
1108;3826685.734;461964.163;5064726.725;44.934;-5.316;0.008
1109;3826686.089;461967.032;5064726.188;47.739;-6.195;-0.001
1110;3826686.388;461969.690;5064725.766;50.343;-6.940;0.033
1111;3826686.846;461973.161;5064725.072;53.734;-8.052;0.005
1112;3826687.138;461975.859;5064724.610;56.378;-8.820;0.005
1113;3826687.463;461978.778;5064724.078;59.237;-9.676;-0.014
1114;3826687.794;461981.921;5064723.571;62.318;-10.543;0.006
1115;3826688.065;461984.814;5064723.057;65.157;-11.344;-0.033
1116;3826688.404;461987.856;5064722.527;68.138;-12.223;-0.034
1117;3826688.773;461991.167;5064721.986;71.380;-13.157;-0.005
1118;3826689.101;461993.904;5064721.522;74.058;-13.958;0.018
1119;3826689.427;461997.114;5064720.947;77.207;-14.870;-0.014
1120;3826689.776;462000.192;5064720.417;80.221;-15.759;-0.006
1121;3826690.110;462003.261;5064719.847;83.228;-16.660;-0.039
1122;3826690.476;462006.064;5064719.314;85.966;-17.539;-0.044
1123;3826693.193;462006.486;5064717.266;86.061;-20.966;-0.019
1124;3826692.835;462003.536;5064717.804;83.175;-20.077;-0.017
1125;3826692.495;462000.331;5064718.381;80.033;-19.153;0.008
1126;3826692.097;461997.450;5064718.897;77.221;-18.253;-0.026
1127;3826691.772;461994.287;5064719.445;74.119;-17.363;-0.012
1128;3826691.462;461991.526;5064719.910;71.415;-16.573;-0.025
1129;3826691.158;461988.507;5064720.434;68.455;-15.728;-0.008
1130;3826690.756;461985.342;5064721.010;65.360;-14.761;-0.017
1131;3826690.440;461982.261;5064721.546;62.339;-13.893;-0.001
1132;3826690.073;461979.303;5064722.071;59.446;-13.003;-0.015
1133;3826689.775;461976.448;5064722.575;56.647;-12.191;0.003
1134;3826689.440;461973.216;5064723.117;53.479;-11.291;0.002
1135;3826689.097;461970.159;5064723.658;50.485;-10.401;0.007
1136;3826688.839;461967.276;5064724.099;47.653;-9.656;-0.003
1137;3826688.487;461964.191;5064724.642;44.632;-8.755;-0.003
1138;3826688.185;461961.240;5064725.125;41.739;-7.943;-0.011
1139;3826687.953;461958.522;5064725.589;39.068;-7.220;0.024
1140;3826687.480;461955.328;5064726.215;35.953;-6.164;0.010
1141;3826687.158;461952.301;5064726.714;32.986;-5.318;-0.003
1142;3826686.833;461949.172;5064727.249;29.918;-4.440;0.004
1143;3826686.446;461946.489;5064727.829;27.301;-3.528;0.041
1144;3826688.932;461944.831;5064726.051;25.358;-6.410;-0.008
1145;3826689.240;461947.707;5064725.583;28.176;-7.211;0.010
1146;3826689.526;461950.310;5064725.116;30.726;-7.967;-0.003
1147;3826689.935;461953.578;5064724.547;33.922;-8.946;0.023
1148;3826690.236;461956.501;5064724.004;36.788;-9.791;-0.019
1149;3826690.561;461959.325;5064723.532;39.553;-10.603;0.002
1150;3826690.975;461962.594;5064722.895;42.749;-11.627;-0.022
1151;3826691.337;461965.795;5064722.365;45.884;-12.538;0.002
1152;3826691.644;461968.861;5064721.834;48.891;-13.395;-0.016
1153;3826691.937;461971.560;5064721.392;51.535;-14.151;0.001
1154;3826692.396;461974.773;5064720.750;54.670;-15.208;-0.004
1155;3826692.726;461977.631;5064720.234;57.469;-16.053;-0.013
1156;3826693.089;461980.535;5064719.658;60.308;-16.965;-0.045
1157;3826693.366;461983.353;5064719.214;63.073;-17.721;-0.030
1158;3826693.682;461986.407;5064718.711;66.067;-18.566;-0.022
1159;3826694.020;461989.429;5064718.194;69.027;-19.434;-0.014
1160;3826694.412;461992.329;5064717.637;71.859;-20.357;-0.015
1161;3826694.722;461995.246;5064717.160;74.719;-21.169;0.001
1162;3826695.091;461998.232;5064716.586;77.639;-22.092;-0.021
1163;3826695.444;462001.087;5064716.062;80.431;-22.959;-0.021
1164;3826695.965;462004.368;5064715.385;83.626;-24.094;-0.013
1165;3826698.512;462004.411;5064713.495;83.365;-27.254;0.008
1166;3826698.142;462001.690;5064713.999;80.707;-26.398;-0.008
1167;3826697.773;461998.535;5064714.546;77.619;-25.475;-0.020
1168;3826697.536;461995.478;5064715.005;74.612;-24.719;-0.017
1169;3826697.209;461992.687;5064715.535;71.880;-23.874;0.009
1170;3826696.817;461989.638;5064716.087;68.900;-22.939;-0.005
1171;3826696.451;461986.538;5064716.646;65.866;-22.016;-0.002
1172;3826696.163;461983.874;5064717.120;63.255;-21.249;0.012
1173;3826695.831;461980.554;5064717.651;59.999;-20.348;-0.003
1174;3826695.476;461977.645;5064718.164;57.153;-19.481;-0.016
1175;3826695.120;461974.763;5064718.678;54.334;-18.613;-0.027
1176;3826694.839;461972.005;5064719.146;51.630;-17.846;-0.020
1177;3826694.533;461969.149;5064719.638;48.831;-17.034;-0.017
1178;3826694.144;461965.992;5064720.270;45.743;-16.044;0.027
1179;3826693.784;461963.116;5064720.762;42.931;-15.188;-0.004
1180;3826693.506;461960.141;5064721.217;40.011;-14.409;-0.022
1181;3826693.085;461957.156;5064721.834;37.098;-13.419;0.003
1182;3826692.746;461954.120;5064722.364;34.124;-12.541;0.003
1183;3826692.498;461951.014;5064722.838;31.070;-11.762;0.010
1184;3826692.151;461948.214;5064723.360;28.332;-10.906;0.016
1185;3826691.789;461945.243;5064723.890;25.426;-10.016;0.008
1186;3826691.545;461943.052;5064724.273;23.279;-9.382;0.009
1187;3826694.166;461942.921;5064722.324;22.836;-12.621;0.015
1188;3826694.482;461945.778;5064721.845;25.635;-13.432;0.028
1189;3826694.703;461948.671;5064721.376;28.480;-14.166;-0.005
1190;3826695.086;461951.814;5064720.809;31.555;-15.112;-0.002
1191;3826695.383;461954.398;5064720.336;34.085;-15.879;-0.015
1192;3826695.764;461957.588;5064719.737;37.206;-16.847;-0.035
1193;3826696.123;461960.505;5064719.230;40.059;-17.714;-0.014
1194;3826696.463;461963.405;5064718.716;42.898;-18.571;-0.012
1195;3826696.713;461966.275;5064718.244;45.717;-19.327;-0.031
1196;3826697.136;461969.565;5064717.679;48.933;-20.317;0.008
1197;3826697.448;461972.448;5064717.181;51.758;-21.140;0.006
1198;3826697.752;461975.304;5064716.666;54.557;-21.963;-0.016
1199;3826698.060;461978.018;5064716.192;57.215;-22.752;-0.015
1200;3826698.423;461981.165;5064715.654;60.296;-23.664;0.001
1201;3826698.689;461984.036;5064715.166;63.115;-24.443;-0.023
1202;3826699.048;461986.926;5064714.657;65.940;-25.310;-0.005
1203;3826699.373;461989.886;5064714.169;68.840;-26.144;0.013
1204;3826699.667;461992.747;5064713.661;71.645;-26.956;-0.009
1205;3826700.068;461995.987;5064713.058;74.814;-27.946;-0.017
1206;3826700.354;461998.312;5064712.640;77.088;-28.647;-0.011
1207;3826700.855;462001.530;5064711.926;80.223;-29.781;-0.049
1208;3826703.382;462001.611;5064710.054;80.002;-32.919;-0.023
1209;3826703.110;461999.302;5064710.549;77.741;-32.185;0.042
1210;3826702.700;461996.108;5064711.092;74.620;-31.229;-0.0005
1211;3826702.363;461993.242;5064711.615;71.814;-30.373;0.008
1212;3826702.073;461990.286;5064712.076;68.915;-29.583;-0.011
1213;3826701.885;461987.695;5064712.506;66.365;-28.927;0.033
1214;3826701.554;461984.721;5064713.003;63.452;-28.082;0.016
1215;3826701.169;461981.686;5064713.530;60.485;-27.170;-0.012
1216;3826700.781;461978.638;5064714.086;57.504;-26.236;-0.021
1217;3826700.459;461975.624;5064714.625;54.551;-25.368;-0.001
1218;3826700.179;461972.670;5064715.081;51.651;-24.590;-0.018
1219;3826699.985;461970.261;5064715.514;49.283;-23.945;0.038
1220;3826699.663;461967.098;5064716.048;46.182;-23.066;0.043
1221;3826699.224;461964.260;5064716.590;43.417;-22.121;0.008
1222;3826698.855;461961.417;5064717.095;40.638;-21.253;-0.015
1223;3826698.546;461958.493;5064717.610;37.772;-20.419;-0.001
1224;3826698.306;461955.578;5064718.069;34.906;-19.674;0.012
1225;3826697.920;461952.665;5064718.595;32.060;-18.773;-0.010
1226;3826697.553;461950.032;5064719.116;29.490;-17.917;-0.003
1227;3826697.290;461947.235;5064719.564;26.745;-17.171;-0.006
1228;3826696.965;461944.411;5064720.092;23.980;-16.326;0.018
1229;3826696.527;461941.553;5064720.687;21.195;-15.347;0.024
1230;3826699.161;461941.146;5064718.731;20.476;-18.575;0.011
1231;3826699.463;461943.757;5064718.268;23.032;-19.342;0.011
1232;3826699.712;461946.335;5064717.821;25.562;-20.054;-0.010
1233;3826700.042;461949.187;5064717.324;28.354;-20.888;-0.004
1234;3826700.370;461952.059;5064716.807;31.166;-21.733;-0.012
1235;3826700.683;461954.977;5064716.333;34.025;-22.545;0.007
1236;3826701.027;461957.797;5064715.811;36.784;-23.402;-0.0001
1237;3826701.407;461961.021;5064715.235;39.939;-24.358;0.0004
1238;3826701.731;461963.811;5064714.718;42.670;-25.192;-0.017
1239;3826702.072;461966.691;5064714.220;45.489;-26.037;-0.002
1240;3826702.395;461969.644;5064713.710;48.382;-26.883;-0.003
1241;3826702.744;461972.586;5064713.177;51.262;-27.761;-0.007
1242;3826703.119;461975.430;5064712.607;54.040;-28.673;-0.032
1243;3826703.433;461978.294;5064712.108;56.846;-29.496;-0.035
1244;3826703.769;461981.180;5064711.623;59.671;-30.330;-0.013
1245;3826704.057;461983.973;5064711.134;62.410;-31.120;-0.029
1246;3826704.363;461987.005;5064710.651;65.383;-31.943;-0.013
1247;3826704.687;461989.985;5064710.109;68.303;-32.810;-0.036
1248;3826704.984;461992.819;5064709.656;71.082;-33.589;-0.016
1249;3826705.562;461996.006;5064708.966;74.176;-34.768;0.010
1250;3826705.926;461998.496;5064708.453;76.605;-35.602;-0.001
1251;3826707.954;461996.336;5064707.102;74.217;-37.817;-0.021
1252;3826707.684;461993.715;5064707.551;71.647;-37.083;-0.013
1253;3826707.353;461990.673;5064708.090;68.667;-36.205;-0.001
1254;3826707.019;461987.644;5064708.611;65.700;-35.337;-0.003
1255;3826706.674;461984.824;5064709.095;62.942;-34.503;-0.028
1256;3826706.359;461981.764;5064709.636;59.941;-33.636;-0.006
1257;3826706.135;461978.857;5064710.081;57.082;-32.913;0.006
1258;3826705.791;461976.098;5064710.575;54.384;-32.079;-0.005
1259;3826705.378;461972.958;5064711.177;51.316;-31.089;0.002
1260;3826705.057;461970.243;5064711.691;48.659;-30.266;0.023
1261;3826704.772;461967.187;5064712.105;45.658;-29.498;-0.037
1262;3826704.441;461964.700;5064712.605;43.229;-28.698;-0.016
1263;3826704.163;461962.044;5064713.129;40.626;-27.908;0.045
1264;3826703.849;461959.188;5064713.575;37.827;-27.118;0.006
1265;3826703.546;461956.400;5064714.081;35.096;-26.306;0.027
1266;3826703.268;461953.486;5064714.565;32.236;-25.517;0.037
1267;3826702.809;461950.240;5064715.164;29.068;-24.482;0.006
1268;3826702.462;461947.331;5064715.687;26.222;-23.615;0.006
1269;3826702.260;461944.529;5064716.103;23.463;-22.937;0.014
1270;3826701.899;461941.497;5064716.643;20.497;-22.036;0.011
1271;3826701.752;461939.548;5064716.915;18.579;-21.569;-0.001
1272;3826704.376;461939.614;5064714.946;18.331;-24.841;0.004
1273;3826704.688;461942.369;5064714.465;21.029;-25.641;0.006
1274;3826705.044;461945.217;5064713.944;23.814;-26.509;0.009
1275;3826705.439;461948.260;5064713.376;26.788;-27.454;0.012
1276;3826705.774;461951.146;5064712.871;29.613;-28.299;0.018
1277;3826706.028;461953.962;5064712.397;32.378;-29.056;-0.006
1278;3826706.347;461957.294;5064711.868;35.648;-29.945;0.004
1279;3826706.610;461960.171;5064711.414;38.474;-30.702;0.006
1280;3826706.887;461962.942;5064710.943;41.192;-31.469;-0.003
1281;3826707.201;461965.786;5064710.423;43.977;-32.303;-0.025
1282;3826707.536;461968.875;5064709.913;47.004;-33.171;-0.009
1283;3826707.881;461971.736;5064709.398;49.803;-34.027;-0.007
1284;3826708.218;461974.731;5064708.895;52.736;-34.883;0.010
1285;3826708.564;461977.585;5064708.363;55.528;-35.751;-0.002
1286;3826708.869;461980.420;5064707.866;58.307;-36.563;-0.011
1287;3826709.140;461983.137;5064707.434;60.971;-37.297;0.003
1288;3826709.475;461986.382;5064706.857;64.153;-38.220;-0.023
1289;3826709.843;461989.130;5064706.336;66.838;-39.087;-0.020
1290;3826710.314;461992.189;5064705.669;69.818;-40.155;-0.050
1291;3826711.870;461988.562;5064704.867;66.031;-41.525;-0.020
1292;3826711.659;461985.921;5064705.278;63.434;-40.857;-0.009
1293;3826711.301;461982.815;5064705.829;60.393;-39.945;-0.007
1294;3826711.005;461979.628;5064706.338;57.265;-39.100;-0.008
1295;3826710.636;461976.595;5064706.904;54.298;-38.177;0.004
1296;3826710.352;461973.708;5064707.383;51.465;-37.387;0.007
1297;3826710.094;461970.811;5064707.841;48.620;-36.631;0.010
1298;3826709.804;461967.719;5064708.316;45.585;-35.819;-0.008
1299;3826709.406;461964.920;5064708.845;42.854;-34.919;-0.026
1300;3826709.127;461962.047;5064709.352;40.035;-34.118;0.004
1301;3826708.840;461959.133;5064709.841;37.176;-33.317;0.013
1302;3826708.572;461956.458;5064710.209;34.552;-32.628;-0.048
1303;3826708.323;461953.758;5064710.690;31.901;-31.882;-0.008
1304;3826708.020;461950.882;5064711.184;29.082;-31.071;-0.002
1305;3826707.650;461947.842;5064711.730;26.109;-30.159;-0.008
1306;3826707.431;461945.146;5064712.177;23.458;-29.458;0.024
1307;3826707.103;461941.989;5064712.686;20.363;-28.591;0.005
1308;3826706.704;461939.285;5064713.227;17.726;-27.690;0.003
1309;3826709.259;461937.899;5064711.417;16.045;-30.672;-0.011
1310;3826709.543;461940.665;5064710.974;18.756;-31.429;0.006
1311;3826709.833;461943.512;5064710.514;21.548;-32.207;0.017
1312;3826710.145;461946.456;5064709.988;24.434;-33.052;-0.003
1313;3826710.443;461949.413;5064709.501;27.334;-33.864;-0.001
1314;3826710.822;461952.393;5064708.940;30.247;-34.787;-0.006
1315;3826711.136;461955.277;5064708.463;33.072;-35.599;0.010
1316;3826711.424;461958.123;5064707.963;35.864;-36.400;-0.012
1317;3826711.777;461961.425;5064707.400;39.100;-37.334;-0.011
1318;3826712.029;461964.214;5064706.954;41.839;-38.068;-0.015
1319;3826712.370;461967.236;5064706.443;44.799;-38.936;-0.0003
1320;3826712.738;461970.235;5064705.889;47.732;-39.848;-0.006
1321;3826713.069;461973.236;5064705.378;50.672;-40.704;0.001
1322;3826713.247;461975.677;5064705.038;53.074;-41.282;0.012
1323;3826713.559;461978.622;5064704.512;55.960;-42.127;-0.008
1324;3826713.906;461981.462;5064703.979;58.739;-42.995;-0.021
1325;3826667.420;461910.339;5064745.331;-6.314;25.545;0.003
1326;3826666.991;461907.034;5064745.943;-9.543;26.568;-0.003
1327;3826666.547;461904.209;5064746.554;-12.294;27.558;0.014
1328;3826666.144;461901.355;5064747.104;-15.080;28.482;0.006
1329;3826665.792;461898.399;5064747.613;-17.973;29.349;-0.012
1330;3826665.360;461895.494;5064748.227;-20.805;30.339;0.010
1331;3826664.929;461892.481;5064748.825;-23.745;31.329;0.012
1332;3826664.529;461889.431;5064749.368;-26.725;32.263;-0.015
1333;3826664.148;461886.512;5064749.918;-29.578;33.175;-0.014
1334;3826663.775;461883.567;5064750.492;-32.457;34.098;0.007
1335;3826663.331;461880.599;5064751.082;-35.350;35.088;-0.001
1336;3826663.102;461877.428;5064751.551;-38.472;35.856;0.007
1337;3826662.692;461874.431;5064752.125;-41.398;36.812;0.003
1338;3826662.290;461871.597;5064752.661;-44.163;37.724;-0.014
1339;3826661.852;461868.427;5064753.244;-47.258;38.725;-0.040
1340;3826661.557;461865.024;5064753.830;-50.602;39.637;0.006
1341;3826661.210;461861.879;5064754.389;-53.683;40.549;0.016
1342;3826660.834;461859.069;5064754.889;-56.428;41.417;-0.012
1343;3826660.278;461855.546;5064755.650;-59.859;42.652;0.008
1344;3826659.954;461852.667;5064756.114;-62.678;43.464;-0.024
1345;3826659.672;461849.591;5064756.623;-65.698;44.287;-0.008
1346;3826659.498;461846.494;5064757.065;-68.753;44.987;0.017
1347;3826659.219;461843.255;5064757.570;-71.935;45.821;0.020
1348;3826661.331;461839.559;5064756.325;-75.856;43.751;0.025
1349;3826661.622;461841.919;5064755.845;-73.549;43.006;-0.014
1350;3826661.956;461845.116;5064755.295;-70.414;42.105;-0.022
1351;3826662.192;461847.869;5064754.898;-67.709;41.415;0.0004
1352;3826662.561;461851.051;5064754.355;-64.594;40.492;0.018
1353;3826662.901;461854.161;5064753.763;-61.547;39.569;-0.026
1354;3826663.142;461857.280;5064753.337;-58.479;38.824;0.003
1355;3826663.384;461859.600;5064752.934;-56.205;38.168;-0.006
1356;3826663.926;461863.074;5064752.222;-52.821;36.977;0.0003
1357;3826664.379;461866.029;5064751.605;-49.942;35.965;-0.007
1358;3826664.620;461868.748;5064751.154;-47.271;35.242;-0.026
1359;3826665.002;461871.741;5064750.617;-44.344;34.330;-0.011
1360;3826665.418;461874.956;5064750.031;-41.202;33.340;0.003
1361;3826665.791;461877.854;5064749.466;-38.370;32.428;-0.016
1362;3826666.071;461880.374;5064749.089;-35.901;31.739;0.033
1363;3826666.588;461883.554;5064748.335;-32.806;30.571;-0.029
1364;3826666.939;461886.361;5064747.838;-30.062;29.725;-0.013
1365;3826667.020;461886.709;5064747.759;-29.725;29.581;-0.003
1366;3826667.430;461889.652;5064747.196;-26.852;28.635;0.006
1367;3826667.864;461892.510;5064746.613;-24.067;27.668;0.006
1368;3826668.216;461895.405;5064746.076;-21.235;26.789;-0.002
1369;3826668.408;461896.987;5064745.786;-19.687;26.311;-0.004
1370;3826670.729;461895.038;5064744.225;-21.900;23.717;-0.001
1371;3826670.481;461892.650;5064744.629;-24.242;24.385;0.001
1372;3826670.096;461889.622;5064745.156;-27.202;25.297;-0.027
1373;3826669.747;461886.497;5064745.734;-30.263;26.220;-0.001
1374;3826669.383;461883.878;5064746.225;-32.819;27.054;-0.016
1375;3826668.973;461880.691;5064746.824;-35.934;28.044;-0.014
1376;3826668.593;461877.853;5064747.388;-38.706;28.956;0.005
1377;3826668.321;461875.273;5064747.802;-41.236;29.668;-0.014
1378;3826667.883;461872.191;5064748.437;-44.243;30.691;0.008
1379;3826667.544;461869.365;5064748.910;-47.008;31.514;-0.021
1380;3826667.159;461866.479;5064749.478;-49.827;32.437;-0.007
1381;3826666.810;461863.652;5064749.956;-52.592;33.272;-0.038
1382;3826666.413;461860.718;5064750.556;-55.458;34.228;-0.009
1383;3826666.144;461857.833;5064751.038;-58.290;35.007;0.006
1384;3826665.853;461854.911;5064751.521;-61.156;35.807;0.007
1385;3826665.510;461851.976;5064752.027;-64.029;36.664;-0.007
1386;3826665.093;461848.721;5064752.660;-67.211;37.687;0.014
1387;3826664.819;461846.316;5064753.082;-69.565;38.388;0.013
1388;3826664.505;461843.581;5064753.602;-72.243;39.211;0.042
1389;3826664.314;461840.766;5064753.976;-75.015;39.856;0.024
1390;3826663.894;461837.782;5064754.519;-77.928;40.801;-0.010
1391;3826666.142;461835.749;5064753.070;-80.215;38.342;0.034
1392;3826666.361;461838.025;5064752.668;-77.981;37.708;0.008
1393;3826666.807;461841.006;5064752.065;-75.075;36.707;0.009
1394;3826667.116;461843.964;5064751.556;-72.175;35.872;0.002
1395;3826667.424;461846.542;5064751.113;-69.652;35.116;0.018
1396;3826667.799;461849.501;5064750.561;-66.760;34.204;0.016
1397;3826668.092;461852.477;5064750.035;-63.840;33.370;-0.014
1398;3826668.508;461855.475;5064749.506;-60.913;32.436;0.030
1399;3826668.853;461858.220;5064748.991;-58.229;31.590;0.024
1400;3826669.203;461860.919;5064748.458;-55.592;30.734;0.002
1401;3826669.576;461863.898;5064747.925;-52.679;29.833;0.016
1402;3826669.891;461866.707;5064747.400;-49.927;28.999;-0.012
1403;3826670.268;461869.314;5064746.943;-47.384;28.176;0.037
1404;3826670.689;461872.204;5064746.385;-44.565;27.230;0.052
1405;3826671.008;461875.150;5064745.850;-41.679;26.374;0.028
1406;3826671.355;461878.451;5064745.223;-38.443;25.406;-0.026
1407;3826671.630;461881.025;5064744.830;-35.920;24.705;0.011
1408;3826671.983;461884.110;5064744.270;-32.899;23.793;-0.002
1409;3826672.366;461887.077;5064743.729;-30.000;22.881;0.010
1410;3826672.738;461889.724;5064743.235;-27.416;22.036;0.029
1411;3826673.120;461893.009;5064742.615;-24.201;21.046;0.001
1412;3826673.361;461895.145;5064742.292;-22.108;20.457;0.042
1413;3826675.935;461895.056;5064740.325;-22.505;17.240;0.007
1414;3826675.686;461892.526;5064740.741;-24.987;17.930;0.007
1415;3826675.340;461889.455;5064741.259;-27.994;18.809;-0.008
1416;3826675.043;461886.553;5064741.755;-30.840;19.620;0.0001
1417;3826674.706;461883.714;5064742.265;-33.619;20.466;0.001
1418;3826674.340;461880.736;5064742.789;-36.532;21.356;-0.015
1419;3826674.050;461877.760;5064743.320;-39.452;22.190;0.020
1420;3826673.691;461874.776;5064743.851;-42.371;23.080;0.014
1421;3826673.272;461871.811;5064744.419;-45.264;24.036;0.002
1422;3826672.921;461869.133;5064744.917;-47.881;24.870;-0.003
1423;3826672.527;461865.840;5064745.484;-51.104;25.838;-0.025
1424;3826672.168;461862.950;5064746.049;-53.929;26.739;0.002
1425;3826671.776;461860.016;5064746.582;-56.795;27.651;-0.019
1426;3826671.368;461857.060;5064747.164;-59.682;28.608;-0.012
1427;3826671.065;461854.171;5064747.656;-62.514;29.419;-0.008
1428;3826670.763;461851.539;5064748.134;-65.090;30.198;0.002
1429;3826670.434;461848.179;5064748.664;-68.387;31.099;-0.015
1430;3826670.103;461845.314;5064749.196;-71.192;31.955;0.005
1431;3826669.846;461842.464;5064749.643;-73.991;32.701;0.002
1432;3826669.536;461839.438;5064750.140;-76.958;33.535;-0.005
1433;3826669.268;461836.614;5064750.597;-79.730;34.291;-0.005
1434;3826669.065;461834.509;5064750.936;-81.795;34.858;-0.008
1435;3826671.546;461833.928;5064749.138;-82.669;31.864;0.002
1436;3826671.915;461837.218;5064748.595;-79.447;30.930;0.027
1437;3826672.294;461841.011;5064747.959;-75.726;29.885;0.020
1438;3826672.723;461844.790;5064747.295;-72.026;28.784;0.019
1439;3826673.084;461848.215;5064746.687;-68.669;27.805;-0.002
1440;3826673.460;461851.194;5064746.104;-65.756;26.870;-0.028
1441;3826673.886;461853.841;5064745.606;-63.179;25.981;0.021
1442;3826674.268;461857.417;5064744.958;-59.674;24.946;-0.009
1443;3826674.666;461860.826;5064744.379;-56.337;23.956;0.013
1444;3826675.052;461864.132;5064743.768;-53.101;22.966;-0.005
1445;3826675.379;461867.498;5064743.235;-49.798;22.066;0.008
1446;3826675.880;461870.744;5064742.563;-46.636;20.953;0.007
1447;3826676.151;461873.616;5064742.101;-43.817;20.186;0.007
1448;3826676.480;461876.705;5064741.582;-40.790;19.318;0.013
1449;3826676.793;461879.812;5064741.084;-37.742;18.473;0.027
1450;3826677.131;461883.431;5064740.514;-34.190;17.517;0.036
1451;3826677.502;461886.728;5064739.901;-30.961;16.538;0.006
1452;3826677.858;461889.854;5064739.368;-27.900;15.637;0.020
1453;3826677.996;461893.008;5064738.980;-24.785;14.992;0.021
1454;3826680.852;461893.197;5064736.799;-24.939;11.398;0.004
1455;3826680.482;461890.008;5064737.377;-28.061;12.343;0.014
1456;3826680.026;461886.944;5064738.027;-31.048;13.388;0.039
1457;3826679.788;461883.853;5064738.461;-34.089;14.134;0.019
1458;3826679.390;461880.525;5064739.035;-37.345;15.112;-0.001
1459;3826679.029;461877.514;5064739.578;-40.291;16.013;-0.001
1460;3826678.591;461874.134;5064740.201;-43.595;17.059;-0.010
1461;3826678.216;461871.087;5064740.777;-46.575;17.993;0.005
1462;3826677.967;461867.777;5064741.290;-49.831;18.816;0.026
1463;3826677.619;461864.672;5064741.799;-52.872;19.695;0.001
1464;3826677.231;461861.488;5064742.371;-55.987;20.651;-0.006
1465;3826676.888;461858.289;5064742.945;-59.122;21.574;0.017
1466;3826676.558;461855.173;5064743.476;-62.176;22.453;0.018
1467;3826676.236;461852.335;5064743.950;-64.955;23.265;-0.001
1468;3826675.967;461849.274;5064744.459;-67.962;24.077;0.023
1469;3826675.568;461846.272;5064745.010;-70.895;25.011;0.007
1470;3826675.268;461843.396;5064745.507;-73.714;25.823;0.016
1471;3826674.718;461840.199;5064746.216;-76.822;26.991;0.022
1472;3826674.270;461837.123;5064746.819;-79.823;28.003;0.013
1473;3826673.869;461833.917;5064747.408;-82.958;28.982;0.012
1474;3826676.692;461833.641;5064745.333;-83.570;25.521;0.027
1475;3826677.057;461836.653;5064744.777;-80.623;24.609;0.019
1476;3826677.600;461839.802;5064744.088;-77.562;23.463;0.022
1477;3826677.990;461842.912;5064743.525;-74.521;22.518;0.030
1478;3826678.356;461846.174;5064742.917;-71.325;21.550;-0.0002
1479;3826678.792;461849.703;5064742.277;-67.874;20.482;0.004
1480;3826679.113;461852.567;5064741.786;-65.069;19.659;0.012
1481;3826679.594;461855.810;5064741.105;-61.907;18.558;-0.010
1482;3826679.983;461858.954;5064740.509;-58.832;17.590;-0.026
1483;3826680.381;461862.166;5064739.935;-55.690;16.623;-0.013
1484;3826680.823;461865.432;5064739.317;-52.501;15.588;-0.007
1485;3826681.181;461868.592;5064738.739;-49.407;14.654;-0.025
1486;3826681.591;461871.982;5064738.153;-46.090;13.653;-0.003
1487;3826681.886;461875.155;5064737.678;-42.975;12.830;0.024
1488;3826682.109;461878.014;5064737.243;-40.163;12.118;0.016
1489;3826682.401;461881.024;5064736.738;-37.209;11.295;0.006
1490;3826682.746;461883.973;5064736.182;-34.323;10.405;-0.019
1491;3826683.173;461887.277;5064735.606;-31.094;9.404;0.016
1492;3826683.454;461890.340;5064735.132;-28.087;8.604;0.027
1493;3826683.717;461893.583;5064734.607;-24.898;7.770;-0.001
1494;3826686.125;461892.180;5064732.951;-26.579;4.998;0.019
1495;3826685.620;461889.354;5064733.594;-29.324;6.055;0.026
1496;3826685.275;461886.250;5064734.107;-32.365;6.934;0.005
1497;3826684.977;461883.063;5064734.613;-35.493;7.779;-0.0000
1498;3826684.698;461879.939;5064735.099;-38.561;8.591;-0.005
1499;3826684.286;461876.766;5064735.678;-41.663;9.570;-0.019
1500;3826683.935;461873.546;5064736.221;-44.818;10.482;-0.028
1501;3826683.591;461870.130;5064736.832;-48.168;11.449;0.008
1502;3826683.182;461867.153;5064737.374;-51.075;12.384;-0.020
1503;3826682.869;461863.883;5064737.958;-54.284;13.296;0.023
1504;3826682.559;461860.830;5064738.432;-57.277;14.119;-0.005
1505;3826682.107;461857.726;5064739.044;-60.305;15.142;-0.011
1506;3826681.778;461854.522;5064739.580;-63.447;16.032;-0.011
1507;3826681.474;461851.524;5064740.090;-66.387;16.866;-0.003
1508;3826681.140;461848.475;5064740.607;-69.374;17.733;-0.010
1509;3826680.697;461845.020;5064741.287;-72.751;18.823;0.018
1510;3826680.295;461842.153;5064741.835;-75.550;19.747;0.008
1511;3826679.860;461839.173;5064742.434;-78.456;20.737;0.010
1512;3826679.274;461836.026;5064743.141;-81.510;21.927;-0.004
1513;3826679.090;461833.436;5064743.540;-84.060;22.561;0.018
1514;3826681.930;461831.725;5064741.537;-86.098;19.266;-0.003
1515;3826682.202;461834.198;5064741.124;-83.676;18.566;0.009
1516;3826682.511;461836.844;5064740.639;-81.086;17.776;-0.002
1517;3826682.872;461840.004;5064740.100;-77.991;16.864;0.012
1518;3826683.221;461843.136;5064739.542;-74.923;15.952;0.002
1519;3826683.524;461845.924;5064739.071;-72.192;15.162;0.008
1520;3826683.869;461848.967;5064738.493;-69.212;14.250;-0.027
1521;3826684.144;461851.745;5064738.077;-66.487;13.516;0.006
1522;3826684.464;461855.023;5064737.522;-63.271;12.615;-0.009
1523;3826684.843;461857.921;5064736.985;-60.439;11.714;-0.001
1524;3826685.135;461860.579;5064736.571;-57.835;10.980;0.034
1525;3826685.439;461863.651;5064736.092;-54.821;10.157;0.057
1526;3826685.787;461867.000;5064735.455;-51.538;9.178;-0.001
1527;3826686.061;461869.770;5064735.054;-48.820;8.456;0.042
1528;3826686.479;461873.080;5064734.393;-45.584;7.410;0.004
1529;3826686.758;461876.000;5064733.931;-42.718;6.631;0.013
1530;3826687.143;461879.164;5064733.333;-39.624;5.664;-0.006
1531;3826687.420;461882.233;5064732.854;-36.610;4.863;-0.001
1532;3826687.758;461885.262;5064732.339;-33.643;3.996;0.009
1533;3826688.071;461888.309;5064731.831;-30.656;3.150;0.012
1534;3826688.186;461890.952;5064731.515;-28.045;2.617;0.019
1535;3826691.032;461891.180;5064729.364;-28.159;-0.956;0.023
1536;3826690.706;461888.593;5064729.819;-30.689;-0.177;0.005
1537;3826690.323;461885.518;5064730.397;-33.696;0.768;0.014
1538;3826690.082;461882.914;5064730.812;-36.253;1.458;0.014
1539;3826689.700;461879.703;5064731.352;-39.394;2.392;-0.016
1540;3826689.472;461876.979;5064731.801;-42.072;3.104;0.010
1541;3826689.144;461873.856;5064732.314;-45.133;3.971;-0.003
1542;3826688.770;461870.782;5064732.867;-48.140;4.895;-0.008
1543;3826688.426;461867.603;5064733.407;-51.255;5.795;-0.011
1544;3826688.063;461864.496;5064733.969;-54.296;6.719;-0.005
1545;3826687.770;461861.581;5064734.452;-57.155;7.519;-0.005
1546;3826687.483;461858.694;5064734.909;-59.988;8.298;-0.021
1547;3826687.109;461855.789;5064735.452;-62.827;9.199;-0.021
1548;3826686.837;461852.924;5064735.914;-65.639;9.966;-0.022
1549;3826686.504;461849.651;5064736.470;-68.848;10.878;-0.014
1550;3826686.108;461846.710;5064737.053;-71.721;11.824;0.003
1551;3826685.782;461843.777;5064737.545;-74.593;12.658;-0.012
1552;3826685.531;461840.799;5064737.997;-77.520;13.414;-0.016
1553;3826685.213;461837.759;5064738.501;-80.500;14.259;-0.024
1554;3826684.905;461834.829;5064739.035;-83.373;15.105;0.006
1555;3826687.409;461833.498;5064737.239;-84.994;12.167;-0.023
1556;3826687.695;461835.931;5064736.875;-82.612;11.488;0.034
1557;3826687.987;461838.765;5064736.361;-79.834;10.676;0.002
1558;3826688.384;461841.794;5064735.776;-76.873;9.720;-0.008
1559;3826688.667;461844.776;5064735.291;-73.947;8.919;-0.011
1560;3826689.020;461847.719;5064734.782;-71.067;8.051;0.007
1561;3826689.335;461850.305;5064734.313;-68.538;7.273;0.008
1562;3826689.791;461853.219;5064733.713;-65.699;6.272;0.012
1563;3826690.044;461856.103;5064733.285;-62.866;5.538;0.031
1564;3826690.313;461859.137;5064732.771;-59.886;4.726;0.0004
1565;3826690.514;461861.783;5064732.403;-57.283;4.092;0.018
1566;3826690.990;461865.114;5064731.729;-54.033;2.991;0.006
1567;3826691.261;461867.782;5064731.308;-51.416;2.268;0.024
1568;3826691.543;461870.649;5064730.823;-48.604;1.478;0.013
1569;3826691.894;461873.483;5064730.294;-45.832;0.610;0.005
1570;3826692.200;461876.312;5064729.833;-43.060;-0.179;0.025
1571;3826692.534;461879.374;5064729.281;-40.060;-1.069;0.006
1572;3826692.936;461882.384;5064728.699;-37.120;-2.026;-0.001
1573;3826693.231;461885.286;5064728.219;-34.274;-2.826;0.002
1574;3826693.475;461888.175;5064727.778;-31.435;-3.560;0.004
1575;3826693.733;461890.828;5064727.357;-28.831;-4.272;0.014
1576;3826696.109;461890.993;5064725.558;-28.952;-7.255;0.014
1577;3826695.832;461888.303;5064726.004;-31.589;-6.509;0.010
1578;3826695.454;461884.829;5064726.599;-34.993;-5.520;0.008
1579;3826695.193;461882.453;5064727.024;-37.321;-4.830;0.019
1580;3826694.922;461879.493;5064727.509;-40.227;-4.040;0.030
1581;3826694.479;461876.275;5064728.078;-43.369;-3.039;-0.013
1582;3826694.159;461873.451;5064728.594;-46.134;-2.205;0.004
1583;3826693.967;461870.616;5064729.019;-48.926;-1.527;0.023
1584;3826693.642;461867.555;5064729.527;-51.927;-0.670;0.012
1585;3826693.153;461864.467;5064730.148;-54.934;0.386;-0.007
1586;3826692.975;461861.491;5064730.570;-57.867;1.065;0.008
1587;3826692.609;461858.614;5064731.072;-60.679;1.932;-0.018
1588;3826692.224;461855.370;5064731.658;-63.855;2.900;-0.015
1589;3826691.944;461852.476;5064732.142;-66.694;3.690;-0.005
1590;3826691.670;461849.753;5064732.586;-69.365;4.435;-0.011
1591;3826691.284;461846.739;5064733.134;-72.312;5.358;-0.023
1592;3826691.033;461843.808;5064733.613;-75.191;6.125;-0.002
1593;3826690.696;461840.738;5064734.159;-78.198;7.015;0.010
1594;3826690.337;461837.727;5064734.687;-81.145;7.905;-0.0004
1595;3826693.190;461839.169;5064732.425;-80.054;4.144;0.007
1596;3826693.456;461842.041;5064731.957;-77.236;3.376;0.0003
1597;3826693.875;461845.391;5064731.339;-73.959;2.353;-0.0001
1598;3826694.231;461848.266;5064730.805;-71.147;1.474;-0.005
1599;3826694.546;461851.374;5064730.309;-68.099;0.629;0.011
1600;3826694.841;461854.432;5064729.798;-65.099;-0.205;0.001
1601;3826695.124;461857.590;5064729.285;-61.998;-1.039;-0.012
1602;3826695.463;461860.680;5064728.799;-58.970;-1.896;0.027
1603;3826695.792;461863.871;5064728.243;-55.842;-2.797;0.010
1604;3826696.180;461867.116;5064727.661;-52.666;-3.764;0.012
1605;3826696.555;461870.190;5064727.146;-49.659;-4.665;0.047
1606;3826696.822;461873.597;5064726.598;-46.309;-5.533;0.016
1607;3826697.188;461876.792;5064726.052;-43.180;-6.456;0.030
1608;3826697.511;461879.894;5064725.529;-40.139;-7.323;0.030
1609;3826697.870;461883.359;5064724.944;-36.742;-8.291;0.028
1610;3826698.123;461886.581;5064724.458;-33.573;-9.092;0.024
1611;3826698.210;461889.444;5064724.123;-30.741;-9.636;0.016
1612;3826700.799;461889.079;5064722.205;-31.413;-12.808;0.009
1613;3826700.613;461886.346;5064722.616;-34.104;-12.152;0.028
1614;3826700.229;461883.169;5064723.177;-37.212;-11.207;0.017
1615;3826699.972;461880.028;5064723.652;-40.300;-10.417;0.015
1616;3826699.658;461877.097;5064724.141;-43.173;-9.594;0.007
1617;3826699.379;461873.851;5064724.662;-46.362;-8.749;0.021
1618;3826699.104;461870.924;5064725.110;-49.235;-7.981;0.003
1619;3826698.785;461867.891;5064725.632;-52.208;-7.125;0.009
1620;3826698.449;461864.727;5064726.165;-55.310;-6.235;0.006
1621;3826698.200;461861.491;5064726.654;-58.492;-5.435;0.013
1622;3826697.854;461858.455;5064727.157;-61.466;-4.567;-0.012
1623;3826697.559;461855.282;5064727.688;-64.580;-3.711;0.006
1624;3826697.323;461852.238;5064728.150;-67.574;-2.954;0.014
1625;3826697.065;461849.327;5064728.605;-70.433;-2.198;0.013
1626;3826696.714;461846.283;5064729.119;-73.414;-1.319;-0.007
1627;3826696.381;461843.363;5064729.641;-76.273;-0.463;-0.0005
1628;3826695.968;461840.663;5064730.202;-78.904;0.460;0.005
1629;3826698.627;461844.074;5064727.887;-75.835;-3.367;-0.003
1630;3826698.921;461847.064;5064727.400;-72.902;-4.179;-0.001
1631;3826699.293;461850.307;5064726.834;-69.727;-5.125;0.005
1632;3826699.576;461853.391;5064726.329;-66.699;-5.948;-0.007
1633;3826699.948;461856.329;5064725.787;-63.826;-6.849;-0.004
1634;3826700.246;461859.285;5064725.338;-60.927;-7.638;0.030
1635;3826700.624;461862.299;5064724.779;-57.980;-8.562;0.027
1636;3826700.920;461865.248;5064724.252;-55.087;-9.396;-0.003
1637;3826701.252;461868.243;5064723.742;-52.154;-10.252;0.004
1638;3826701.568;461871.337;5064723.245;-49.120;-11.097;0.020
1639;3826701.866;461874.165;5064722.756;-46.348;-11.898;0.013
1640;3826702.175;461876.987;5064722.261;-43.583;-12.710;0.006
1641;3826702.470;461879.848;5064721.793;-40.778;-13.500;0.016
1642;3826702.730;461882.624;5064721.337;-38.053;-14.245;0.007
1643;3826702.966;461885.438;5064720.931;-35.288;-14.946;0.028
1644;3826703.150;461888.462;5064720.508;-32.307;-15.635;0.018
