NAME,ETRS-X,ETRS-Y,ETRS-Z,STATION_P,STATION_Q,STATION_R
1100,3551485.476,1334115.466,5110177.834,-13.480,-4.472,0.000
1101,3551478.753,1334115.230,5110182.536,-12.904,3.715,-0.000
1102,3551483.908,1334112.460,5110179.696,-16.305,-1.830,0.000
1103,3551478.189,1334112.092,5110183.739,-15.983,5.176,0.000
1104,3551467.031,1334144.593,5110183.014,17.958,10.599,0.000
1105,3551461.953,1334143.709,5110186.748,17.685,16.958,0.000
1106,3551468.187,1334152.337,5110180.207,25.583,7.278,-0.000
1107,3551464.069,1334152.740,5110182.946,26.485,12.158,-0.000
1108,3551488.008,1334109.830,5110177.547,-19.438,-6.135,0.000
1109,3551493.805,1334108.173,5110173.975,-21.799,-12.732,-0.000
1110,3551494.312,1334104.234,5110174.646,-25.811,-12.368,-0.000
1111,3551491.594,1334102.210,5110177.048,-27.512,-8.579,0.000
1112,3551476.221,1334132.089,5110179.912,4.308,2.591,-0.000
1113,3551475.806,1334126.636,5110181.613,-1.110,4.447,0.000
1114,3551472.984,1334126.723,5110183.538,-0.682,7.837,0.000
1115,3551471.137,1334131.158,5110183.663,3.989,8.969,-0.000
1116,3551471.423,1334124.074,5110185.303,-3.150,10.382,0.000
1117,3551473.177,1334119.354,5110185.316,-8.095,9.434,-0.000
1118,3551466.041,1334121.764,5110189.617,-4.816,17.463,-0.000
1119,3551467.096,1334117.221,5110190.067,-9.499,17.316,-0.000
1120,3551492.857,1334138.801,5110166.687,9.029,-19.190,-0.000
1121,3551498.365,1334131.965,5110164.657,1.508,-24.153,0.000
1122,3551498.960,1334143.311,5110161.304,12.814,-27.689,-0.000
1123,3551503.114,1334131.942,5110161.385,0.911,-29.889,-0.000
1124,3551489.102,1334121.044,5110173.884,-8.324,-10.241,0.000
1125,3551490.029,1334117.021,5110174.288,-12.470,-10.363,-0.000
1126,3551492.401,1334122.035,5110171.350,-7.729,-14.476,0.000
1127,3551495.765,1334121.047,5110169.283,-9.126,-18.299,-0.000
1128,3551481.205,1334147.602,5110172.449,19.262,-7.286,0.000
1129,3551480.256,1334151.390,5110172.121,23.176,-7.080,-0.000
1130,3551488.455,1334148.750,5110167.145,19.538,-16.338,0.000
1131,3551486.906,1334154.535,5110166.715,25.526,-15.901,-0.000
1132,3551462.895,1334123.239,5110191.406,-2.957,20.901,0.000
1133,3551459.642,1334128.901,5110192.184,3.114,23.429,0.000
1134,3551451.636,1334127.951,5110197.957,3.129,33.345,0.000
1135,3551454.345,1334122.056,5110197.616,-3.110,31.533,0.000
1136,3551478.969,1334135.137,5110177.225,7.033,-1.488,-0.000
1137,3551474.251,1334136.774,5110180.057,9.244,3.810,0.000
1138,3551479.373,1334138.919,5110175.965,10.776,-2.915,-0.000
1139,3551476.495,1334140.698,5110177.490,12.908,0.122,-0.000
1140,3551480.085,1334103.348,5110184.697,-24.980,5.054,0.000
1141,3551472.008,1334107.287,5110189.252,-20.054,13.842,0.000
1142,3551475.294,1334098.792,5110189.186,-28.970,11.978,0.000
1143,3551467.239,1334104.150,5110193.358,-22.624,20.388,0.000
1144,3551483.980,1334131.844,5110174.619,3.125,-6.730,0.000
1145,3551484.752,1334135.499,5110173.138,6.697,-8.571,-0.000
1146,3551487.627,1334129.341,5110172.751,0.174,-10.518,0.000
1147,3551488.186,1334134.296,5110171.080,5.076,-12.424,-0.000
1148,3551465.843,1334138.247,5110185.479,11.737,13.610,-0.000
1149,3551488.227,1334143.331,5110168.708,14.131,-14.717,0.000
1150,3551457.823,1334144.698,5110189.343,19.175,21.706,-0.000
1151,3551460.732,1334131.850,5110190.667,5.940,21.379,0.000
1152,3551500.000,1334122.915,5110165.875,-7.765,-23.883,0.000
1153,3551495.002,1334149.813,5110162.350,19.813,-24.518,-0.000
1154,3551454.951,1334135.754,5110193.645,10.553,27.399,0.000
1155,3551473.544,1334133.626,5110181.361,6.173,5.446,0.000
1156,3551485.246,1334099.525,5110182.127,-29.438,-0.236,0.000
1157,3551495.685,1334128.053,5110167.522,-2.091,-19.941,0.000
1158,3551492.190,1334113.791,5110173.633,-15.971,-12.175,-0.000
1159,3551478.985,1334158.070,5110171.266,30.028,-7.201,0.000
1160,3551485.249,1334141.903,5110171.135,13.059,-10.761,-0.000
1161,3551492.967,1334130.480,5110168.769,0.671,-17.257,0.000
1162,3551473.308,1334110.958,5110187.403,-16.530,11.359,0.000
1163,3551476.979,1334122.395,5110181.903,-5.505,4.082,-0.000
1164,3551470.248,1334140.117,5110181.953,13.080,7.820,0.000
1165,3551482.767,1334121.361,5110178.175,-7.241,-2.660,0.000
1166,3551475.569,1334150.955,5110175.469,23.306,-1.305,0.000
1167,3551478.369,1334143.842,5110175.381,15.834,-2.924,0.000
1168,3551497.210,1334115.770,5110169.654,-14.593,-18.736,-0.000
1169,3551497.526,1334112.490,5110170.287,-17.920,-18.303,-0.000
1170,3551483.039,1334126.549,5110176.642,-2.071,-4.277,0.000
1171,3551480.440,1334107.860,5110183.283,-20.499,3.505,0.000
1172,3551483.378,1334138.932,5110173.197,10.306,-7.761,-0.000
1173,3551464.989,1334130.767,5110188.009,4.339,16.500,0.000
1174,3551471.681,1334142.863,5110180.252,15.661,5.405,-0.000
1175,3551456.129,1334138.767,5110192.051,13.432,25.227,-0.000
1176,3551486.248,1334122.646,5110175.439,-6.373,-7.188,-0.000
1177,3551488.589,1334138.220,5110169.784,8.962,-13.886,-0.000
1178,3551486.866,1334106.582,5110179.178,-22.557,-3.947,-0.000
1179,3551465.737,1334111.885,5110192.389,-14.686,20.283,0.000
1180,3551471.029,1334115.835,5110187.711,-11.364,12.904,0.000
1181,3551462.256,1334139.294,5110187.684,13.221,17.688,0.000
1182,3551467.717,1334124.675,5110187.705,-2.099,14.714,-0.000
1183,3551480.123,1334123.508,5110179.444,-4.768,0.004,0.000
1184,3551494.690,1334143.402,5110164.228,13.421,-22.549,0.000
1185,3551481.019,1334132.355,5110176.531,3.995,-3.276,0.000
1186,3551469.985,1334158.691,5110177.318,31.738,3.527,0.000
1187,3551473.051,1334149.842,5110177.496,22.494,2.016,0.000
1188,3551476.005,1334119.458,5110183.337,-8.332,5.988,-0.000
1189,3551459.516,1334110.960,5110196.923,-14.862,28.035,0.000
1190,3551483.145,1334117.962,5110178.796,-10.695,-2.273,0.000
1191,3551501.825,1334124.925,5110164.094,-5.970,-26.589,-0.000
1192,3551461.830,1334118.789,5110193.295,-7.290,23.293,-0.000
1193,3551485.928,1334126.102,5110174.764,-2.868,-7.659,-0.000
1194,3551490.323,1334127.607,5110171.339,-1.890,-13.347,-0.000
1195,3551468.301,1334131.934,5110185.420,5.110,12.206,-0.000
1200,3551484.215,1334115.364,5110178.731,-13.430,-2.922,0.000
1201,3551477.492,1334115.128,5110183.433,-12.854,5.265,-0.000
1202,3551482.647,1334112.358,5110180.593,-16.255,-0.280,0.000
1203,3551476.928,1334111.990,5110184.636,-15.933,6.726,-0.000
1204,3551465.770,1334144.491,5110183.911,18.008,12.149,0.000
1205,3551460.692,1334143.607,5110187.645,17.735,18.508,0.000
1206,3551466.926,1334152.234,5110181.104,25.633,8.828,-0.000
1207,3551462.808,1334152.638,5110183.843,26.535,13.708,0.000
1208,3551486.747,1334109.727,5110178.444,-19.388,-4.585,0.000
1209,3551492.544,1334108.071,5110174.872,-21.749,-11.182,0.000
1210,3551493.051,1334104.132,5110175.543,-25.761,-10.818,-0.000
1211,3551490.333,1334102.108,5110177.945,-27.462,-7.029,-0.000
1212,3551474.960,1334131.987,5110180.809,4.358,4.141,0.000
1213,3551474.545,1334126.534,5110182.510,-1.060,5.997,0.000
1214,3551471.723,1334126.621,5110184.435,-0.632,9.387,0.000
1215,3551469.876,1334131.056,5110184.560,4.039,10.519,0.000
1216,3551470.162,1334123.972,5110186.200,-3.100,11.932,-0.000
1217,3551471.916,1334119.252,5110186.213,-8.045,10.984,-0.000
1218,3551464.780,1334121.662,5110190.514,-4.766,19.013,0.000
1219,3551465.835,1334117.119,5110190.964,-9.449,18.866,-0.000
1220,3551491.596,1334138.699,5110167.584,9.079,-17.640,0.000
1221,3551497.104,1334131.863,5110165.554,1.558,-22.603,-0.000
1222,3551497.699,1334143.209,5110162.201,12.864,-26.139,0.000
1223,3551501.853,1334131.840,5110162.282,0.961,-28.339,0.000
1224,3551487.841,1334120.942,5110174.781,-8.274,-8.691,0.000
1225,3551488.768,1334116.919,5110175.185,-12.420,-8.813,0.000
1226,3551491.140,1334121.933,5110172.247,-7.679,-12.926,0.000
1227,3551494.504,1334120.945,5110170.180,-9.076,-16.749,0.000
1228,3551479.944,1334147.499,5110173.346,19.312,-5.736,-0.000
1229,3551478.995,1334151.288,5110173.018,23.226,-5.530,-0.000
1230,3551487.194,1334148.648,5110168.042,19.588,-14.788,0.000
1231,3551485.645,1334154.433,5110167.612,25.576,-14.351,0.000
1232,3551461.634,1334123.137,5110192.303,-2.907,22.451,0.000
1233,3551458.381,1334128.799,5110193.081,3.164,24.979,-0.000
1234,3551450.375,1334127.849,5110198.854,3.179,34.895,-0.000
1235,3551453.084,1334121.954,5110198.513,-3.060,33.083,0.000
1236,3551477.708,1334135.035,5110178.122,7.083,0.062,-0.000
1237,3551472.990,1334136.672,5110180.954,9.294,5.360,-0.000
1238,3551478.112,1334138.816,5110176.862,10.826,-1.365,0.000
1239,3551475.234,1334140.596,5110178.387,12.958,1.672,0.000
1240,3551478.824,1334103.246,5110185.594,-24.930,6.604,-0.000
1241,3551470.747,1334107.185,5110190.149,-20.004,15.392,-0.000
1242,3551474.033,1334098.690,5110190.083,-28.920,13.528,-0.000
1243,3551465.978,1334104.048,5110194.255,-22.574,21.938,0.000
1244,3551482.719,1334131.742,5110175.516,3.175,-5.180,-0.000
1245,3551483.491,1334135.397,5110174.035,6.747,-7.021,-0.000
1246,3551486.366,1334129.239,5110173.647,0.224,-8.968,-0.000
1247,3551486.925,1334134.194,5110171.977,5.126,-10.874,-0.000
1248,3551464.582,1334138.145,5110186.376,11.787,15.160,0.000
1249,3551486.966,1334143.229,5110169.605,14.181,-13.167,0.000
1250,3551456.562,1334144.596,5110190.240,19.225,23.256,0.000
1251,3551459.471,1334131.748,5110191.564,5.990,22.929,-0.000
1252,3551498.739,1334122.813,5110166.772,-7.715,-22.333,-0.000
1253,3551493.741,1334149.711,5110163.247,19.863,-22.968,-0.000
1254,3551453.690,1334135.652,5110194.542,10.603,28.949,-0.000
1255,3551472.283,1334133.524,5110182.258,6.223,6.996,0.000
1256,3551483.985,1334099.423,5110183.024,-29.388,1.314,0.000
1257,3551494.424,1334127.951,5110168.419,-2.041,-18.391,0.000
1258,3551490.930,1334113.689,5110174.530,-15.921,-10.625,0.000
1259,3551477.724,1334157.968,5110172.163,30.078,-5.651,-0.000
1260,3551483.988,1334141.801,5110172.032,13.109,-9.211,0.000
1261,3551491.706,1334130.378,5110169.666,0.721,-15.707,0.000
1262,3551472.047,1334110.856,5110188.299,-16.480,12.909,-0.000
1263,3551475.718,1334122.293,5110182.800,-5.455,5.632,0.000
1264,3551468.987,1334140.015,5110182.850,13.130,9.370,0.000
1265,3551481.506,1334121.259,5110179.072,-7.191,-1.110,0.000
1266,3551474.308,1334150.853,5110176.366,23.356,0.245,-0.000
1267,3551477.108,1334143.739,5110176.278,15.884,-1.374,-0.000
1268,3551495.949,1334115.668,5110170.551,-14.543,-17.186,-0.000
1269,3551496.265,1334112.388,5110171.184,-17.870,-16.753,0.000
1270,3551481.778,1334126.447,5110177.539,-2.021,-2.727,-0.000
1271,3551479.179,1334107.758,5110184.180,-20.449,5.055,-0.000
1272,3551482.117,1334138.830,5110174.094,10.356,-6.211,-0.000
1273,3551463.728,1334130.664,5110188.906,4.389,18.050,-0.000
1274,3551470.421,1334142.761,5110181.149,15.711,6.955,-0.000
1275,3551454.868,1334138.665,5110192.948,13.482,26.777,-0.000
1276,3551484.987,1334122.544,5110176.336,-6.323,-5.638,0.000
1277,3551487.328,1334138.118,5110170.681,9.012,-12.336,-0.000
1278,3551485.605,1334106.479,5110180.075,-22.507,-2.397,-0.000
1279,3551464.476,1334111.783,5110193.286,-14.636,21.833,-0.000
1280,3551469.768,1334115.733,5110188.608,-11.314,14.454,-0.000
1281,3551460.995,1334139.192,5110188.581,13.271,19.238,-0.000
1282,3551466.456,1334124.573,5110188.602,-2.049,16.264,-0.000
1283,3551478.862,1334123.406,5110180.341,-4.718,1.554,-0.000
1284,3551493.429,1334143.300,5110165.125,13.471,-20.999,0.000
1285,3551479.758,1334132.253,5110177.428,4.045,-1.726,-0.000
1286,3551468.724,1334158.589,5110178.215,31.788,5.077,-0.000
1287,3551471.790,1334149.740,5110178.393,22.544,3.566,-0.000
1288,3551474.744,1334119.356,5110184.233,-8.282,7.538,0.000
1289,3551458.255,1334110.858,5110197.820,-14.812,29.585,-0.000
1290,3551481.884,1334117.860,5110179.693,-10.645,-0.723,0.000
1291,3551500.564,1334124.823,5110164.991,-5.920,-25.039,-0.000
1292,3551460.569,1334118.687,5110194.192,-7.240,24.843,0.000
1293,3551484.667,1334126.000,5110175.661,-2.818,-6.109,0.000
1294,3551489.062,1334127.505,5110172.236,-1.840,-11.797,-0.000
1295,3551467.040,1334131.832,5110186.317,5.160,13.756,-0.000
1300,3551486.580,1334115.649,5110177.025,-13.430,-5.852,0.000
1301,3551479.857,1334115.413,5110181.727,-12.854,2.335,0.000
1302,3551485.012,1334112.643,5110178.886,-16.255,-3.210,0.000
1303,3551479.293,1334112.275,5110182.930,-15.933,3.796,-0.000
1304,3551468.134,1334144.776,5110182.204,18.008,9.219,0.000
1305,3551463.057,1334143.892,5110185.939,17.735,15.578,-0.000
1306,3551469.291,1334152.519,5110179.398,25.633,5.898,0.000
1307,3551465.172,1334152.923,5110182.137,26.535,10.778,0.000
1308,3551489.112,1334110.012,5110176.738,-19.388,-7.515,-0.000
1309,3551494.908,1334108.356,5110173.166,-21.749,-14.112,0.000
1310,3551495.416,1334104.417,5110173.837,-25.761,-13.748,-0.000
1311,3551492.698,1334102.393,5110176.238,-27.462,-9.959,-0.000
1312,3551477.325,1334132.272,5110179.102,4.358,1.211,0.000
1313,3551476.910,1334126.819,5110180.803,-1.060,3.067,0.000
1314,3551474.088,1334126.906,5110182.729,-0.632,6.457,-0.000
1315,3551472.241,1334131.341,5110182.853,4.039,7.589,0.000
1316,3551472.527,1334124.257,5110184.493,-3.100,9.002,-0.000
1317,3551474.280,1334119.537,5110184.507,-8.045,8.054,-0.000
1318,3551467.145,1334121.947,5110188.808,-4.766,16.083,0.000
1319,3551468.199,1334117.404,5110189.258,-9.449,15.936,-0.000
1320,3551493.961,1334138.984,5110165.878,9.079,-20.570,0.000
1321,3551499.469,1334132.148,5110163.848,1.558,-25.533,-0.000
1322,3551500.064,1334143.494,5110160.495,12.864,-29.069,0.000
1323,3551504.218,1334132.124,5110160.576,0.961,-31.269,-0.000
1324,3551490.205,1334121.227,5110173.075,-8.274,-11.621,-0.000
1325,3551491.132,1334117.204,5110173.478,-12.420,-11.743,0.000
1326,3551493.504,1334122.218,5110170.540,-7.679,-15.856,-0.000
1327,3551496.869,1334121.230,5110168.474,-9.076,-19.679,0.000
1328,3551482.308,1334147.784,5110171.639,19.312,-8.666,-0.000
1329,3551481.360,1334151.573,5110171.311,23.226,-8.460,0.000
1330,3551489.559,1334148.933,5110166.336,19.588,-17.718,0.000
1331,3551488.010,1334154.718,5110165.905,25.576,-17.281,0.000
1332,3551463.999,1334123.421,5110190.597,-2.907,19.521,-0.000
1333,3551460.745,1334129.084,5110191.375,3.164,22.049,-0.000
1334,3551452.739,1334128.134,5110197.148,3.179,31.965,-0.000
1335,3551455.449,1334122.239,5110196.806,-3.060,30.153,0.000
1336,3551480.072,1334135.320,5110176.415,7.083,-2.868,-0.000
1337,3551475.355,1334136.957,5110179.248,9.294,2.430,-0.000
1338,3551480.476,1334139.101,5110175.156,10.826,-4.295,0.000
1339,3551477.599,1334140.881,5110176.681,12.958,-1.258,0.000
1340,3551481.189,1334103.531,5110183.888,-24.930,3.674,-0.000
1341,3551473.112,1334107.470,5110188.442,-20.004,12.462,-0.000
1342,3551476.398,1334098.975,5110188.377,-28.920,10.598,-0.000
1343,3551468.343,1334104.333,5110192.549,-22.574,19.008,-0.000
1344,3551485.084,1334132.027,5110173.810,3.175,-8.110,-0.000
1345,3551485.856,1334135.682,5110172.329,6.747,-9.951,-0.000
1346,3551488.731,1334129.524,5110171.941,0.224,-11.898,0.000
1347,3551489.290,1334134.479,5110170.270,5.126,-13.804,-0.000
1348,3551466.947,1334138.430,5110184.670,11.787,12.230,0.000
1349,3551489.331,1334143.514,5110167.899,14.181,-16.097,0.000
1350,3551458.927,1334144.881,5110188.534,19.225,20.326,0.000
1351,3551461.835,1334132.033,5110189.857,5.990,19.999,-0.000
1352,3551501.104,1334123.098,5110165.066,-7.715,-25.263,-0.000
1353,3551496.106,1334149.996,5110161.541,19.863,-25.898,-0.000
1354,3551456.055,1334135.937,5110192.836,10.603,26.019,-0.000
1355,3551474.648,1334133.809,5110180.552,6.223,4.066,-0.000
1356,3551486.349,1334099.707,5110181.317,-29.388,-1.616,0.000
1357,3551496.789,1334128.236,5110166.713,-2.041,-21.321,-0.000
1358,3551493.294,1334113.974,5110172.823,-15.921,-13.555,-0.000
1359,3551480.089,1334158.253,5110170.457,30.078,-8.581,-0.000
1360,3551486.352,1334142.086,5110170.325,13.109,-12.141,0.000
1361,3551494.071,1334130.663,5110167.960,0.721,-18.637,0.000
1362,3551474.412,1334111.141,5110186.593,-16.480,9.979,-0.000
1363,3551478.082,1334122.577,5110181.094,-5.455,2.702,0.000
1364,3551471.352,1334140.300,5110181.144,13.130,6.440,0.000
1365,3551483.871,1334121.544,5110177.366,-7.191,-4.040,0.000
1366,3551476.673,1334151.138,5110174.660,23.356,-2.685,-0.000
1367,3551479.473,1334144.024,5110174.572,15.884,-4.304,-0.000
1368,3551498.314,1334115.953,5110168.845,-14.543,-20.116,-0.000
1369,3551498.629,1334112.673,5110169.478,-17.870,-19.683,0.000
1370,3551484.143,1334126.732,5110175.833,-2.021,-5.657,-0.000
1371,3551481.544,1334108.042,5110182.473,-20.449,2.125,0.000
1372,3551484.481,1334139.115,5110172.387,10.356,-9.141,0.000
1373,3551466.093,1334130.949,5110187.199,4.389,15.120,-0.000
1374,3551472.785,1334143.046,5110179.442,15.711,4.025,0.000
1375,3551457.233,1334138.949,5110191.241,13.482,23.847,0.000
1376,3551487.352,1334122.829,5110174.630,-6.323,-8.568,0.000
1377,3551489.693,1334138.403,5110168.974,9.012,-15.266,0.000
1378,3551487.970,1334106.764,5110178.369,-22.507,-5.327,0.000
1379,3551466.841,1334112.068,5110191.579,-14.636,18.903,-0.000
1380,3551472.133,1334116.018,5110186.902,-11.314,11.524,-0.000
1381,3551463.359,1334139.477,5110186.875,13.271,16.308,-0.000
1382,3551468.821,1334124.858,5110186.896,-2.049,13.334,-0.000
1383,3551481.226,1334123.691,5110178.634,-4.718,-1.376,-0.000
1384,3551495.794,1334143.585,5110163.419,13.471,-23.929,0.000
1385,3551482.123,1334132.538,5110175.721,4.045,-4.656,-0.000
1386,3551471.089,1334158.874,5110176.509,31.788,2.147,-0.000
1387,3551474.155,1334150.025,5110176.687,22.544,0.636,-0.000
1388,3551477.109,1334119.641,5110182.527,-8.282,4.608,0.000
1389,3551460.620,1334111.143,5110196.114,-14.812,26.655,-0.000
1390,3551484.248,1334118.145,5110177.986,-10.645,-3.653,-0.000
1391,3551502.929,1334125.107,5110163.285,-5.920,-27.969,0.000
1392,3551462.934,1334118.972,5110192.486,-7.240,21.913,0.000
1393,3551487.031,1334126.285,5110173.954,-2.818,-9.039,-0.000
1394,3551491.427,1334127.790,5110170.530,-1.840,-14.727,0.000
1395,3551469.405,1334132.117,5110184.610,5.160,10.826,0.000
LBD1,3551448.981,1334173.516,5110187.973,49.142,25.242,-0.000
LBD2,3551448.756,1334171.494,5110188.653,47.142,26.017,0.000
LBD3,3551455.861,1334163.575,5110185.802,38.342,19.392,0.000
LBD4,3551459.458,1334146.058,5110187.862,20.342,19.392,0.000
LBD5,3551460.457,1334141.193,5110188.434,15.342,19.392,0.000
LBD6,3551462.232,1334141.407,5110187.153,15.342,17.192,0.000
LBD7,3551466.651,1334141.939,5110183.964,15.342,11.717,0.000
LBD8,3551458.975,1334137.454,5110190.426,11.772,22.111,-0.000
LBD9,3551457.855,1334134.835,5110191.879,9.281,24.116,-0.000
LBD10,3551457.024,1334132.840,5110192.969,7.381,25.616,-0.000
LBD11,3551458.315,1334126.650,5110193.684,1.017,25.592,-0.000
LBD12,3551453.049,1334126.015,5110197.484,1.017,32.117,-0.000
LBD13,3551460.696,1334126.937,5110191.966,1.017,22.642,0.000
LBD14,3551465.629,1334127.581,5110188.393,1.067,16.517,-0.000
LBD15,3551469.853,1334128.763,5110185.171,1.742,11.117,0.000
LBD16,3551471.686,1334128.984,5110183.848,1.742,8.845,-0.000
LBD17,3551459.789,1334119.473,5110194.528,-6.358,25.592,-0.000
LBD18,3551460.713,1334114.972,5110195.057,-10.983,25.592,-0.000
LBD19,3551466.866,1334114.841,5110190.843,-11.858,18.185,-0.000
LBD20,3551467.180,1334113.283,5110191.030,-13.458,18.192,0.000
LBD21,3551469.591,1334106.070,5110191.236,-20.983,17.067,0.000
LBD22,3551472.026,1334113.587,5110187.606,-13.739,12.257,-0.000
LBD23,3551475.240,1334116.623,5110184.600,-11.083,7.617,0.000
LBD24,3551463.429,1334155.571,5110182.653,29.401,12.228,0.000
LBD25,3551467.620,1334154.842,5110179.949,28.164,7.342,0.000
LBD26,3551469.979,1334154.431,5110178.427,27.467,4.592,-0.000
LBD27,3551471.218,1334148.398,5110179.137,21.267,4.592,0.000
LBD28,3551473.136,1334144.191,5110178.903,16.817,3.317,0.000
LBD29,3551474.977,1334139.153,5110178.939,11.542,2.342,-0.000
LBD30,3551471.263,1334138.306,5110181.722,11.142,7.042,0.000
LBD31,3551476.918,1334136.245,5110178.353,8.392,0.717,0.000
LBD32,3551478.366,1334129.190,5110179.183,1.142,0.717,0.000
LBD33,3551477.236,1334129.054,5110179.998,1.142,2.117,-0.000
LBD34,3551475.541,1334128.850,5110181.221,1.142,4.217,-0.000
LBD35,3551478.315,1334123.799,5110180.616,-4.258,2.117,-0.000
LBD36,3551481.035,1334114.180,5110181.233,-14.233,1.217,0.000
LBD37,3551481.240,1334113.182,5110181.350,-15.258,1.217,0.000
LBD38,3551482.154,1334108.830,5110181.848,-19.733,1.192,-0.000
LBD39,3551482.766,1334105.750,5110182.224,-22.895,1.217,-0.000
LBD40,3551480.586,1334129.458,5110177.581,1.142,-2.034,-0.000
LBD41,3551481.535,1334124.843,5110178.123,-3.600,-2.035,0.000
LBD42,3551484.396,1334122.986,5110176.629,-5.808,-5.033,0.000
LBD43,3551485.185,1334119.142,5110177.081,-9.758,-5.033,-0.000
LBD44,3551486.890,1334118.899,5110175.967,-10.208,-7.034,0.000
LBD45,3551489.800,1334111.571,5110175.859,-17.908,-8.733,0.000
LBD46,3551490.738,1334109.208,5110175.824,-20.391,-9.281,0.000
LBD47,3551492.267,1334105.115,5110175.830,-24.680,-10.114,0.000
LBD48,3551489.512,1334119.215,5110174.075,-10.208,-10.283,-0.000
LBD49,3551492.275,1334118.850,5110172.263,-10.908,-13.533,0.000
LBD50,3551495.003,1334113.719,5110171.710,-16.383,-15.558,-0.000
LBD51,3551484.339,1334129.910,5110174.873,1.142,-6.683,-0.000
LBD52,3551486.070,1334128.124,5110174.141,-0.858,-8.333,-0.000
LBD53,3551476.962,1334155.361,5110173.365,27.556,-4.083,0.000
LBD54,3551477.565,1334152.428,5110173.710,24.542,-4.083,0.000
LBD55,3551478.842,1334148.319,5110173.893,20.267,-4.608,-0.000
LBD56,3551480.693,1334142.833,5110174.039,14.542,-5.483,0.000
LBD57,3551481.277,1334139.987,5110174.373,11.617,-5.483,0.000
LBD58,3551481.871,1334137.092,5110174.714,8.642,-5.483,-0.000
LBD59,3551479.504,1334155.699,5110171.523,27.588,-7.240,-0.000
LBD60,3551485.259,1334149.036,5110169.277,20.211,-12.545,-0.000
LBD61,3551487.563,1334146.129,5110168.441,17.017,-14.608,-0.000
LBD62,3551489.252,1334146.343,5110167.219,17.028,-16.704,-0.000
LBD63,3551490.444,1334140.053,5110168.028,10.576,-16.584,-0.000
LBD64,3551490.645,1334136.254,5110168.875,6.742,-15.883,-0.000
LBD65,3551490.776,1334131.437,5110170.033,1.896,-14.846,0.000
LBD66,3551495.462,1334147.131,5110162.728,17.067,-24.408,-0.000
LBD67,3551496.329,1334144.518,5110162.807,14.342,-24.808,-0.000
LBD68,3551501.164,1334130.940,5110162.991,0.142,-27.283,0.000
LBD69,3551499.324,1334126.206,5110165.488,-4.383,-23.883,0.000
