53.698435,9.968657,68.257986
53.696634,9.969387,65.092535
53.696994,9.969393,65.682252
53.697895,9.968801,67.297264
53.697623,9.969402,66.710008
53.697982,9.969408,67.486909
53.698252,9.969412,68.148251
53.698611,9.969417,68.688633
53.698970,9.969423,69.027852
53.696903,9.969543,65.519832
53.697262,9.969548,65.928421
53.697622,9.969554,66.684873
53.697891,9.969558,67.224417
53.698251,9.969563,68.131775
53.698255,9.968806,68.040523
53.698880,9.969573,69.019362
53.696902,9.969694,65.455908
53.697172,9.969698,65.847386
53.697531,9.969704,66.456290
53.697891,9.969709,67.204270
53.698160,9.969713,67.882883
53.698520,9.969719,68.511082
53.698879,9.969724,69.022999
53.696811,9.969844,65.291564
53.697171,9.969850,65.843287
53.698614,9.968812,68.573153
53.697800,9.969859,66.997364
53.698159,9.969865,67.852806
53.698704,9.968813,68.712125
53.698698,9.969873,68.765294
53.696811,9.969995,65.234135
53.697080,9.970000,65.735840
53.697440,9.970005,66.331530
53.697799,9.970011,66.998254
53.698069,9.970015,67.612621
53.698428,9.970020,68.346539
53.698787,9.970026,68.824561
53.696810,9.970147,65.295554
53.697169,9.970152,66.063935
53.696906,9.968937,65.373339
53.697798,9.970162,66.964522
53.698158,9.970167,67.747328
53.698427,9.970172,68.277689
53.698787,9.970177,68.767955
53.696899,9.970300,65.546693
53.697168,9.970304,66.185076
53.697528,9.970309,66.639122
53.697887,9.970315,67.051734
53.698157,9.970319,67.688542
53.698516,9.970324,68.341228
53.697266,9.968942,66.139005
53.696988,9.970452,65.861155
53.697347,9.970458,66.493614
53.697617,9.970462,66.813377
53.697976,9.970468,67.244760
53.698336,9.970473,67.906665
53.698515,9.970476,68.231993
53.698875,9.970481,68.717246
53.697077,9.970605,66.143411
53.697347,9.970609,66.494566
53.697706,9.970615,66.868832
53.698065,9.970620,67.349936
53.698335,9.970624,67.878861
53.698694,9.970630,68.451646
53.697715,9.968949,66.937012
53.697166,9.970758,66.361396
53.697525,9.970763,66.811172
53.697795,9.970768,66.973977
53.698154,9.970773,67.475241
53.698514,9.970779,68.128029
53.698783,9.970783,68.412480
53.696985,9.970907,65.996523
53.697345,9.970912,66.582907
53.697614,9.970916,66.948744
53.697974,9.970922,67.191438
53.698074,9.968955,67.778879
53.698603,9.970931,68.117501
53.698962,9.970937,68.742430
53.697164,9.971061,66.258403
53.697524,9.971066,66.902425
53.697883,9.971072,67.154401
53.698153,9.971076,67.345464
53.697253,9.971214,66.460623
53.698344,9.968959,68.250773
53.698703,9.968964,68.742467
53.696636,9.969084,64.928870
53.696905,9.969088,65.479232
53.697265,9.969094,66.165779
53.697624,9.969099,66.780199
53.697894,9.969103,67.354278
53.698253,9.969109,68.138638
53.698974,9.968666,68.943949
53.698882,9.969118,68.945513
53.696815,9.969238,65.400510
53.697084,9.969243,65.813529
53.697444,9.969248,66.424462
53.697803,9.969253,67.094650
53.698073,9.969258,67.770336
53.698432,9.969263,68.482769
53.698792,9.969269,68.913910