1000,52.9141246,6.8544794,51.0649631,9.5530000, NAP 2027 
1001,52.9141429,6.8545000,51.1409079,9.6290000, NAP 2027 
1002,52.9141698,6.8545289,51.1148271,9.6030000, NAP 2027 
1003,52.9141955,6.8545542,51.1217497,9.6100000, NAP 2027 
1004,52.9142200,6.8545800,51.1166762,9.6050000, NAP 2027 
1005,52.9142444,6.8546054,51.1246027,9.6130000, NAP 2027 
1006,52.9142662,6.8546281,51.1295371,9.6180000, NAP 2027 
1007,52.9142937,6.8546578,51.1184544,9.6070000, NAP 2027 
1008,52.9143160,6.8546825,51.1213872,9.6100000, NAP 2027 
1009,52.9143390,6.8547082,51.1283181,9.6170000, NAP 2027 
1010,52.9143623,6.8547311,51.1102481,9.5990000, NAP 2027 
1011,52.9143759,6.8547459,51.1232071,9.6120000, NAP 2027 
1012,52.9143662,6.8547928,51.1262345,9.6150000, NAP 2027 
1013,52.9143429,6.8547690,51.1143045,9.6030000, NAP 2027 
1014,52.9143204,6.8547464,51.1213721,9.6100000, NAP 2027 
1015,52.9142973,6.8547232,51.1234417,9.6120000, NAP 2027 
1016,52.9142734,6.8546989,51.1215135,9.6100000, NAP 2027 
1017,52.9142531,6.8546774,51.1565746,9.6450000, NAP 2027 
1018,52.9142302,6.8546543,51.1366435,9.6250000, NAP 2027 
1019,52.9142037,6.8546268,51.0967230,9.5850000, NAP 2027 
1020,52.9141841,6.8546074,51.1327820,9.6210000, NAP 2027 
1021,52.9141610,6.8545827,51.1368514,9.6250000, NAP 2027 
1022,52.9141350,6.8545567,51.1079298,9.5960000, NAP 2027 
1023,52.9141159,6.8545379,51.1209870,9.6090000, NAP 2027 
1024,52.9140934,6.8545133,51.1360547,9.6240000, NAP 2027 
1025,52.9140715,6.8545552,51.1301185,9.6180000, NAP 2027 
1026,52.9140938,6.8545768,51.1080515,9.5960000, NAP 2027 
1027,52.9141180,6.8546022,51.1259788,9.6140000, NAP 2027 
1028,52.9141423,6.8546275,51.1109057,9.5990000, NAP 2027 
1029,52.9141670,6.8546493,51.1188314,9.6070000, NAP 2027 
1030,52.9141884,6.8546697,51.1337674,9.6220000, NAP 2027 
1031,52.9142147,6.8546979,51.1406882,9.6290000, NAP 2027 
1032,52.9142381,6.8547235,51.1226177,9.6110000, NAP 2027 
1033,52.9142622,6.8547474,51.1295451,9.6180000, NAP 2027 
1034,52.9142857,6.8547722,51.1154745,9.6040000, NAP 2027 
1035,52.9143100,6.8547971,51.1174015,9.6060000, NAP 2027 
1036,52.9143342,6.8548209,51.1123287,9.6010000, NAP 2027 
1037,52.9143517,6.8548371,51.1252761,9.6140000, NAP 2027 
1038,52.9143350,6.8548767,51.1313246,9.6200000, NAP 2027 
1039,52.9143145,6.8548556,51.1133863,9.6020000, NAP 2027 
1040,52.9142905,6.8548306,51.1244583,9.6130000, NAP 2027 
1041,52.9142663,6.8548057,51.1255310,9.6140000, NAP 2027 
1042,52.9142446,6.8547830,51.1385965,9.6270000, NAP 2027 
1043,52.9142196,6.8547575,51.1326716,9.6210000, NAP 2027 
1044,52.9141969,6.8547339,51.1367400,9.6250000, NAP 2027 
1045,52.9141727,6.8547114,51.1148125,9.6030000, NAP 2027 
1046,52.9141491,6.8546867,51.1378837,9.6260000, NAP 2027 
1047,52.9141257,6.8546648,51.1249540,9.6130000, NAP 2027 
1048,52.9141002,6.8546408,51.1380306,9.6260000, NAP 2027 
1049,52.9140773,6.8546192,51.1330993,9.6210000, NAP 2027 
1050,52.9140544,6.8545974,51.1241683,9.6120000, NAP 2027 
1051,52.9140408,6.8546438,51.1102072,9.5980000, NAP 2027 
1052,52.9140632,6.8546657,51.1231398,9.6110000, NAP 2027 
1053,52.9140855,6.8546873,51.1270728,9.6150000, NAP 2027 
1054,52.9141114,6.8547130,51.1349950,9.6230000, NAP 2027 
1055,52.9141345,6.8547356,51.1329253,9.6210000, NAP 2027 
1056,52.9141575,6.8547577,51.1308564,9.6190000, NAP 2027 
1057,52.9141798,6.8547789,51.1327894,9.6210000, NAP 2027 
1058,52.9142024,6.8548015,51.1637213,9.6520000, NAP 2027 
1059,52.9142284,6.8548283,51.1336431,9.6220000, NAP 2027 
1060,52.9142523,6.8548519,51.1315712,9.6200000, NAP 2027 
1061,52.9142754,6.8548745,51.1195018,9.6080000, NAP 2027 
1062,52.9142976,6.8548958,51.1384350,9.6270000, NAP 2027 
1063,52.9143211,6.8549163,51.1193646,9.6080000, NAP 2027 
1064,52.9143045,6.8549577,51.1314127,9.6200000, NAP 2027 
1065,52.9142823,6.8549374,51.1364792,9.6250000, NAP 2027 
1066,52.9142598,6.8549151,51.1565468,9.6450000, NAP 2027 
1067,52.9142367,6.8548926,51.1226164,9.6110000, NAP 2027 
1068,52.9142130,6.8548698,51.1186877,9.6070000, NAP 2027 
1069,52.9141926,6.8548498,51.1217490,9.6100000, NAP 2027 
1070,52.9141678,6.8548258,51.1188234,9.6070000, NAP 2027 
1071,52.9141450,6.8548050,51.1248918,9.6130000, NAP 2027 
1072,52.9141214,6.8547822,51.1389628,9.6270000, NAP 2027 
1073,52.9140989,6.8547589,51.1310305,9.6190000, NAP 2027 
1074,52.9140749,6.8547377,51.1311028,9.6190000, NAP 2027 
1075,52.9140534,6.8547153,51.1231673,9.6110000, NAP 2027 
1076,52.9140290,6.8546937,51.1112407,9.5990000, NAP 2027 
1077,52.9140150,6.8546805,51.1152828,9.6030000, NAP 2027 
1078,52.9140106,6.8547313,51.1312943,9.6190000, NAP 2027 
1079,52.9140327,6.8547527,51.1222278,9.6100000, NAP 2027 
1080,52.9140571,6.8547754,51.1451545,9.6330000, NAP 2027 
1081,52.9140800,6.8547972,51.1380857,9.6260000, NAP 2027 
1082,52.9141018,6.8548197,51.1250202,9.6130000, NAP 2027 
1083,52.9141265,6.8548450,51.1329458,9.6210000, NAP 2027 
1084,52.9141501,6.8548684,51.1248747,9.6130000, NAP 2027 
1085,52.9141727,6.8548905,51.1308069,9.6190000, NAP 2027 
1086,52.9141977,6.8549150,51.1397317,9.6280000, NAP 2027 
1087,52.9142201,6.8549361,51.1216643,9.6100000, NAP 2027 
1088,52.9142412,6.8549556,51.1546009,9.6430000, NAP 2027 
1089,52.9142652,6.8549804,51.1225288,9.6110000, NAP 2027 
1090,52.9142901,6.8550022,51.1174541,9.6060000, NAP 2027 
1091,52.9142727,6.8550433,51.1335045,9.6220000, NAP 2027 
1092,52.9142513,6.8550211,51.1285688,9.6170000, NAP 2027 
1093,52.9142267,6.8549984,51.1296426,9.6180000, NAP 2027 
1094,52.9142041,6.8549772,51.1317107,9.6200000, NAP 2027 
1095,52.9141800,6.8549554,51.1417830,9.6300000, NAP 2027 
1096,52.9141587,6.8549333,51.1408471,9.6290000, NAP 2027 
1097,52.9141342,6.8549103,51.1159209,9.6040000, NAP 2027 
1098,52.9141108,6.8548879,51.1249910,9.6130000, NAP 2027 
1099,52.9140863,6.8548630,51.1150646,9.6030000, NAP 2027 
1100,52.9140623,6.8548403,51.1391370,9.6270000, NAP 2027 
1101,52.9140402,6.8548206,51.1372032,9.6250000, NAP 2027 
1102,52.9140159,6.8547986,51.1282762,9.6160000, NAP 2027 
1103,52.9139939,6.8547732,51.1263425,9.6140000, NAP 2027 
1104,52.9139795,6.8548207,51.1203838,9.6080000, NAP 2027 
1105,52.9140021,6.8548418,51.1293160,9.6170000, NAP 2027 
1106,52.9140252,6.8548631,51.1392466,9.6270000, NAP 2027 
1107,52.9140476,6.8548836,51.1401793,9.6280000, NAP 2027 
1108,52.9140722,6.8549079,51.1121052,9.6000000, NAP 2027 
1109,52.9140952,6.8549286,51.1170363,9.6050000, NAP 2027 
1110,52.9141187,6.8549523,51.1319656,9.6200000, NAP 2027 
1111,52.9141420,6.8549756,51.1348953,9.6230000, NAP 2027 
1112,52.9141638,6.8549954,51.1378300,9.6260000, NAP 2027 
1113,52.9141853,6.8550168,51.1637652,9.6520000, NAP 2027 
1114,52.9142107,6.8550418,51.1176891,9.6060000, NAP 2027 
1115,52.9142333,6.8550647,51.1206208,9.6090000, NAP 2027 
1116,52.9142591,6.8550866,51.1265435,9.6150000, NAP 2027 
1117,52.9142427,6.8551294,51.1355909,9.6240000, NAP 2027 
1118,52.9142226,6.8551094,51.1426515,9.6310000, NAP 2027 
1119,52.9141987,6.8550866,51.1227233,9.6110000, NAP 2027 
1120,52.9141755,6.8550642,51.1417928,9.6300000, NAP 2027 
1121,52.9141540,6.8550443,51.1358576,9.6240000, NAP 2027 
1122,52.9141296,6.8550191,51.1389309,9.6270000, NAP 2027 
1123,52.9141063,6.8549980,51.1340009,9.6220000, NAP 2027 
1124,52.9140826,6.8549748,51.1150721,9.6030000, NAP 2027 
1125,52.9140582,6.8549502,51.1131456,9.6010000, NAP 2027 
1126,52.9140347,6.8549284,51.1392161,9.6270000, NAP 2027 
1127,52.9140115,6.8549065,51.1302858,9.6180000, NAP 2027 
1128,52.9139891,6.8548840,51.1293532,9.6170000, NAP 2027 
1129,52.9139690,6.8548664,51.1254136,9.6130000, NAP 2027 
1130,52.9139534,6.8548488,51.1484607,9.6360000, NAP 2027 
1131,52.9139519,6.8549033,51.1194632,9.6070000, NAP 2027 
1132,52.9139737,6.8549258,51.1293978,9.6170000, NAP 2027 
1133,52.9139964,6.8549479,51.1343295,9.6220000, NAP 2027 
1134,52.9140184,6.8549686,51.1252633,9.6130000, NAP 2027 
1135,52.9140418,6.8549916,51.1341929,9.6220000, NAP 2027 
1136,52.9140639,6.8550148,51.1211266,9.6090000, NAP 2027 
1137,52.9140873,6.8550382,51.1310561,9.6190000, NAP 2027 
1138,52.9141098,6.8550611,51.1249884,9.6130000, NAP 2027 
1139,52.9141329,6.8550842,51.1239189,9.6120000, NAP 2027 
1140,52.9141577,6.8551078,51.1328444,9.6210000, NAP 2027 
1141,52.9141786,6.8551285,51.1317818,9.6200000, NAP 2027 
1142,52.9141987,6.8551475,51.1697212,9.6580000, NAP 2027 
1143,52.9142274,6.8551754,51.1256351,9.6140000, NAP 2027 
1144,52.9142113,6.8552143,51.1296816,9.6180000, NAP 2027 
1145,52.9141887,6.8551910,51.1217496,9.6100000, NAP 2027 
1146,52.9141668,6.8551695,51.1158153,9.6040000, NAP 2027 
1147,52.9141464,6.8551496,51.1418768,9.6300000, NAP 2027 
1148,52.9141220,6.8551260,51.1239501,9.6120000, NAP 2027 
1149,52.9140994,6.8551033,51.1380181,9.6260000, NAP 2027 
1150,52.9140760,6.8550798,51.1330885,9.6210000, NAP 2027 
1151,52.9140538,6.8550591,51.1161552,9.6040000, NAP 2027 
1152,52.9140331,6.8550390,51.1392173,9.6270000, NAP 2027 
1153,52.9140104,6.8550164,51.1392855,9.6270000, NAP 2027 
1154,52.9139870,6.8549941,51.1183559,9.6060000, NAP 2027 
1155,52.9139637,6.8549714,51.1124260,9.6000000, NAP 2027 
1156,52.9139383,6.8549437,51.1565024,9.6440000, NAP 2027 
1157,52.9139252,6.8549899,51.1755400,9.6630000, NAP 2027 
1158,52.9139482,6.8550115,51.1044709,9.5920000, NAP 2027 
1159,52.9139709,6.8550326,51.1344027,9.6220000, NAP 2027 
1160,52.9139928,6.8550536,51.1453368,9.6330000, NAP 2027 
1161,52.9140181,6.8550791,51.1252606,9.6130000, NAP 2027 
1162,52.9140409,6.8551017,51.1141921,9.6020000, NAP 2027 
1163,52.9140637,6.8551244,51.1231237,9.6110000, NAP 2027 
1164,52.9140851,6.8551443,51.1390593,9.6270000, NAP 2027 
1165,52.9141090,6.8551682,51.1329873,9.6210000, NAP 2027 
1166,52.9141337,6.8551927,51.1269132,9.6150000, NAP 2027 
1167,52.9141562,6.8552152,51.1288455,9.6170000, NAP 2027 
1168,52.9141793,6.8552373,51.1247762,9.6130000, NAP 2027 
1169,52.9141987,6.8552541,51.1207179,9.6090000, NAP 2027 
1170,52.9140933,6.8552093,51.1070327,9.5950000, NAP 2027 
1171,52.9140720,6.8551893,51.1110968,9.5990000, NAP 2027 
1172,52.9140485,6.8551676,51.1351675,9.6230000, NAP 2027 
1173,52.9140232,6.8551426,51.1252435,9.6130000, NAP 2027 
1174,52.9140002,6.8551205,51.1363127,9.6240000, NAP 2027 
1175,52.9139770,6.8550969,51.1283824,9.6160000, NAP 2027 
1176,52.9139544,6.8550765,51.1334503,9.6210000, NAP 2027 
1177,52.9139311,6.8550546,51.1145205,9.6020000, NAP 2027 
1178,52.9139152,6.8550386,51.2035683,9.6910000, NAP 2027 
1179,52.9139058,6.8550328,51.2305965,9.7180000, NAP 2027 
1180,52.9138998,6.8550656,51.2006132,9.6880000, NAP 2027 
1181,52.9139248,6.8550790,51.1355384,9.6230000, NAP 2027 
1182,52.9140652,6.8565644,51.1070722,9.5950000, NAP 2027 
1183,52.9140440,6.8565446,51.1131361,9.6010000, NAP 2027 
1184,52.9140223,6.8565227,51.1202013,9.6080000, NAP 2027 
1185,52.9140006,6.8565014,51.1002666,9.5880000, NAP 2027 
1186,52.9139798,6.8564838,51.1143291,9.6020000, NAP 2027 
1187,52.9139564,6.8564610,51.1023995,9.5900000, NAP 2027 
1188,52.9139313,6.8564369,51.1164751,9.6040000, NAP 2027 
1189,52.9139100,6.8564151,51.1335390,9.6210000, NAP 2027 
1190,52.9138886,6.8563958,51.1426033,9.6300000, NAP 2027 
1191,52.9138641,6.8563734,51.1346771,9.6220000, NAP 2027 
1192,52.9138414,6.8563493,51.1257456,9.6130000, NAP 2027 
1193,52.9138186,6.8563280,51.0978141,9.5850000, NAP 2027 
1194,52.9137966,6.8563077,51.0988801,9.5860000, NAP 2027 
1195,52.9137739,6.8562853,51.1099484,9.5970000, NAP 2027 
1196,52.9137514,6.8562653,51.1100160,9.5970000, NAP 2027 
1197,52.9137308,6.8562437,51.1000782,9.5870000, NAP 2027 
1198,52.9137208,6.8562898,51.1151065,9.6020000, NAP 2027 
1199,52.9137427,6.8563108,51.1260404,9.6130000, NAP 2027 
1200,52.9137669,6.8563339,51.1289678,9.6160000, NAP 2027 
1201,52.9137886,6.8563555,51.1019024,9.5890000, NAP 2027 
1202,52.9138126,6.8563797,51.1128302,9.6000000, NAP 2027 
1203,52.9138333,6.8564002,51.1277678,9.6150000, NAP 2027 
1204,52.9138591,6.8564242,51.1226904,9.6100000, NAP 2027 
1205,52.9138826,6.8564468,51.1246195,9.6120000, NAP 2027 
1206,52.9139050,6.8564701,51.1375522,9.6250000, NAP 2027 
1207,52.9139290,6.8564917,51.1144799,9.6020000, NAP 2027 
1208,52.9139499,6.8565130,51.0924172,9.5800000, NAP 2027 
1209,52.9139729,6.8565360,51.1053478,9.5930000, NAP 2027 
1210,52.9139956,6.8565573,51.1172796,9.6050000, NAP 2027 
1211,52.9140189,6.8565798,51.1302094,9.6180000, NAP 2027 
1212,52.9140416,6.8566008,51.1151413,9.6030000, NAP 2027 
1213,52.9140570,6.8566143,51.1040949,9.5920000, NAP 2027 
1214,52.9140410,6.8566530,51.1121414,9.6000000, NAP 2027 
1215,52.9140194,6.8566331,51.1112063,9.5990000, NAP 2027 
1216,52.9139971,6.8566095,51.1262735,9.6140000, NAP 2027 
1217,52.9139746,6.8565895,51.1363411,9.6240000, NAP 2027 
1218,52.9139522,6.8565670,51.1424086,9.6300000, NAP 2027 
1219,52.9139264,6.8565421,51.1154860,9.6030000, NAP 2027 
1220,52.9139043,6.8565195,51.1335527,9.6210000, NAP 2027 
1221,52.9138822,6.8564996,51.1356192,9.6230000, NAP 2027 
1222,52.9138588,6.8564775,51.1106896,9.5980000, NAP 2027 
1223,52.9138358,6.8564561,51.0957586,9.5830000, NAP 2027 
1224,52.9138127,6.8564338,51.1098282,9.5970000, NAP 2027 
1225,52.9137909,6.8564120,51.1188939,9.6060000, NAP 2027 
1226,52.9137687,6.8563902,51.1129604,9.6000000, NAP 2027 
1227,52.9137455,6.8563680,51.1190303,9.6060000, NAP 2027 
1228,52.9137232,6.8563467,51.1130975,9.6000000, NAP 2027 
1229,52.9137042,6.8563275,51.1161545,9.6030000, NAP 2027 
1230,52.9136946,6.8563743,51.1221816,9.6090000, NAP 2027 
1231,52.9137155,6.8563946,51.1171188,9.6040000, NAP 2027 
1232,52.9137381,6.8564162,51.1270509,9.6140000, NAP 2027 
1233,52.9137607,6.8564377,51.1299829,9.6170000, NAP 2027 
1234,52.9137843,6.8564601,51.1249118,9.6120000, NAP 2027 
1235,52.9138050,6.8564812,51.1148494,9.6020000, NAP 2027 
1236,52.9138277,6.8565051,51.1007811,9.5880000, NAP 2027 
1237,52.9138511,6.8565274,51.1327108,9.6200000, NAP 2027 
1238,52.9138742,6.8565496,51.1316411,9.6190000, NAP 2027 
1239,52.9138943,6.8565696,51.1545806,9.6420000, NAP 2027 
1240,52.9139191,6.8565949,51.1405060,9.6280000, NAP 2027 
1241,52.9139413,6.8566163,51.1114393,9.5990000, NAP 2027 
1242,52.9139649,6.8566393,51.1083681,9.5960000, NAP 2027 
1243,52.9139882,6.8566612,51.1292982,9.6170000, NAP 2027 
1244,52.9140097,6.8566845,51.1112335,9.5990000, NAP 2027 
1245,52.9140277,6.8567023,51.1011793,9.5890000, NAP 2027 
1246,52.9140126,6.8567415,51.0912229,9.5790000, NAP 2027 
1247,52.9139904,6.8567201,51.1052896,9.5930000, NAP 2027 
1248,52.9139685,6.8566980,51.1073556,9.5950000, NAP 2027 
1249,52.9139445,6.8566742,51.1224280,9.6100000, NAP 2027 
1250,52.9139211,6.8566518,51.0964984,9.5840000, NAP 2027 
1251,52.9138982,6.8566300,51.1205671,9.6080000, NAP 2027 
1252,52.9138757,6.8566068,51.1416349,9.6290000, NAP 2027 
1253,52.9138532,6.8565862,51.1367027,9.6240000, NAP 2027 
1254,52.9138288,6.8565614,51.1087761,9.5960000, NAP 2027 
1255,52.9138055,6.8565402,51.1018460,9.5890000, NAP 2027 
1256,52.9137818,6.8565195,51.1329172,9.6200000, NAP 2027 
1257,52.9137598,6.8564948,51.1229837,9.6100000, NAP 2027 
1258,52.9137359,6.8564718,51.1170555,9.6040000, NAP 2027 
1259,52.9137114,6.8564489,51.1181292,9.6050000, NAP 2027 
1260,52.9136880,6.8564244,51.1211999,9.6080000, NAP 2027 
1261,52.9136751,6.8564120,51.1342386,9.6210000, NAP 2027 
1262,52.9136742,6.8564656,51.1052396,9.5920000, NAP 2027 
1263,52.9136950,6.8564864,51.1191769,9.6060000, NAP 2027 
1264,52.9137197,6.8565115,51.1121023,9.5990000, NAP 2027 
1265,52.9137434,6.8565351,51.1380310,9.6250000, NAP 2027 
1266,52.9137671,6.8565577,51.1189598,9.6060000, NAP 2027 
1267,52.9137906,6.8565803,51.0868891,9.5740000, NAP 2027 
1268,52.9138151,6.8566053,51.1168153,9.6040000, NAP 2027 
1269,52.9138372,6.8566262,51.1317488,9.6190000, NAP 2027 
1270,52.9138597,6.8566493,51.1396811,9.6270000, NAP 2027 
1271,52.9138821,6.8566731,51.1166135,9.6040000, NAP 2027 
1272,52.9139050,6.8566960,51.0945447,9.5820000, NAP 2027 
1273,52.9139294,6.8567193,51.1114713,9.5990000, NAP 2027 
1274,52.9139515,6.8567409,51.1184047,9.6060000, NAP 2027 
1275,52.9139761,6.8567641,51.1213309,9.6090000, NAP 2027 
1276,52.9139970,6.8567867,51.1112678,9.5990000, NAP 2027 
1277,52.9139801,6.8568229,51.1093170,9.5970000, NAP 2027 
1278,52.9139585,6.8568027,51.1213818,9.6090000, NAP 2027 
1279,52.9139346,6.8567812,51.1224538,9.6100000, NAP 2027 
1280,52.9139116,6.8567601,51.1195229,9.6070000, NAP 2027 
1281,52.9138887,6.8567349,51.1155921,9.6030000, NAP 2027 
1282,52.9138664,6.8567123,51.0936591,9.5810000, NAP 2027 
1283,52.9138419,6.8566895,51.1207326,9.6080000, NAP 2027 
1284,52.9138186,6.8566669,51.1218028,9.6090000, NAP 2027 
1285,52.9137942,6.8566447,51.1118763,9.5990000, NAP 2027 
1286,52.9137720,6.8566208,51.1009431,9.5880000, NAP 2027 
1287,52.9137492,6.8565967,51.1270119,9.6140000, NAP 2027 
1288,52.9137273,6.8565770,51.1300778,9.6170000, NAP 2027 
1289,52.9137027,6.8565527,51.1061518,9.5930000, NAP 2027 
1290,52.9136795,6.8565291,51.1102216,9.5970000, NAP 2027 
1291,52.9136579,6.8565073,51.1322865,9.6190000, NAP 2027 
1292,52.9136517,6.8565590,51.1043034,9.5910000, NAP 2027 
1293,52.9136735,6.8565790,51.1222377,9.6090000, NAP 2027 
1294,52.9136959,6.8566019,51.1161705,9.6030000, NAP 2027 
1295,52.9137196,6.8566267,51.1280989,9.6150000, NAP 2027 
1296,52.9137431,6.8566488,51.1020283,9.5890000, NAP 2027 
1297,52.9137672,6.8566728,51.0929559,9.5800000, NAP 2027 
1298,52.9137902,6.8566965,51.1108864,9.5980000, NAP 2027 
1299,52.9138122,6.8567180,51.1258201,9.6130000, NAP 2027 
1300,52.9138346,6.8567416,51.1147528,9.6020000, NAP 2027 
1301,52.9138569,6.8567620,51.1236856,9.6110000, NAP 2027 
1302,52.9138809,6.8567850,51.1296134,9.6170000, NAP 2027 
1303,52.9139035,6.8568083,51.1225453,9.6100000, NAP 2027 
1304,52.9139258,6.8568289,51.1194784,9.6070000, NAP 2027 
1305,52.9139491,6.8568510,51.1154084,9.6030000, NAP 2027 
1306,52.9139691,6.8568737,51.1043480,9.5920000, NAP 2027 
1307,52.9139537,6.8569063,51.1083926,9.5960000, NAP 2027 
1308,52.9139303,6.8568839,51.1244632,9.6120000, NAP 2027 
1309,52.9139074,6.8568604,51.1285323,9.6160000, NAP 2027 
1310,52.9138828,6.8568381,51.1296062,9.6170000, NAP 2027 
1311,52.9138591,6.8568140,51.1396774,9.6270000, NAP 2027 
1312,52.9138357,6.8567917,51.1277478,9.6150000, NAP 2027 
1313,52.9138137,6.8567698,51.0998141,9.5870000, NAP 2027 
1314,52.9137901,6.8567472,51.1338852,9.6210000, NAP 2027 
1315,52.9137665,6.8567249,51.0859562,9.5730000, NAP 2027 
1316,52.9137440,6.8567035,51.1090238,9.5960000, NAP 2027 
1317,52.9137215,6.8566819,51.1030916,9.5900000, NAP 2027 
1318,52.9136971,6.8566584,51.1161650,9.6030000, NAP 2027 
1319,52.9136756,6.8566378,51.1142296,9.6010000, NAP 2027 
1320,52.9136534,6.8566162,51.1142964,9.6010000, NAP 2027 
1321,52.9136330,6.8565949,51.1003579,9.5870000, NAP 2027 
1322,52.9136293,6.8566452,51.1173672,9.6040000, NAP 2027 
1323,52.9136518,6.8566649,51.1182997,9.6050000, NAP 2027 
1324,52.9136741,6.8566861,51.1292324,9.6160000, NAP 2027 
1325,52.9136964,6.8567077,51.1341655,9.6210000, NAP 2027 
1326,52.9137211,6.8567320,51.0990911,9.5860000, NAP 2027 
1327,52.9137438,6.8567541,51.1300228,9.6170000, NAP 2027 
1328,52.9137686,6.8567795,51.1219480,9.6090000, NAP 2027 
1329,52.9137927,6.8568053,51.1218755,9.6090000, NAP 2027 
1330,52.9138159,6.8568275,51.1268057,9.6140000, NAP 2027 
1331,52.9138411,6.8568520,51.1177297,9.6050000, NAP 2027 
1332,52.9138655,6.8568738,51.1316564,9.6190000, NAP 2027 
1333,52.9138886,6.8568991,51.1185868,9.6060000, NAP 2027 
1334,52.9139138,6.8569219,51.1345111,9.6220000, NAP 2027 
1335,52.9139378,6.8569454,51.1124388,9.6000000, NAP 2027 
1336,52.9139226,6.8569851,51.1004827,9.5880000, NAP 2027 
1337,52.9139003,6.8569619,51.1075499,9.5950000, NAP 2027 
1338,52.9138763,6.8569396,51.1206220,9.6080000, NAP 2027 
1339,52.9138541,6.8569175,51.1246891,9.6120000, NAP 2027 
1340,52.9138323,6.8568968,51.1157545,9.6030000, NAP 2027 
1341,52.9138102,6.8568747,51.1038210,9.5910000, NAP 2027 
1342,52.9137879,6.8568525,51.1248883,9.6120000, NAP 2027 
1343,52.9137632,6.8568296,51.1279625,9.6150000, NAP 2027 
1344,52.9137428,6.8568078,51.1310240,9.6180000, NAP 2027 
1345,52.9137183,6.8567854,51.1110975,9.5980000, NAP 2027 
1346,52.9136968,6.8567642,51.1241625,9.6110000, NAP 2027 
1347,52.9136740,6.8567420,51.1152309,9.6020000, NAP 2027 
1348,52.9136506,6.8567181,51.1263015,9.6130000, NAP 2027 
1349,52.9136278,6.8566986,51.1113701,9.5980000, NAP 2027 
1350,52.9136143,6.8566835,51.1204108,9.6070000, NAP 2027 
1351,52.9136112,6.8567338,51.1284184,9.6150000, NAP 2027 
1352,52.9136368,6.8567587,51.1293412,9.6160000, NAP 2027 
1353,52.9136593,6.8567805,51.1242735,9.6110000, NAP 2027 
1354,52.9136841,6.8568053,51.0921989,9.5790000, NAP 2027 
1355,52.9137072,6.8568271,51.1121292,9.5990000, NAP 2027 
1356,52.9137293,6.8568497,51.1310627,9.6180000, NAP 2027 
1357,52.9137528,6.8568727,51.1229921,9.6100000, NAP 2027 
1358,52.9137766,6.8568984,51.1139204,9.6010000, NAP 2027 
1359,52.9138015,6.8569189,51.1208456,9.6080000, NAP 2027 
1360,52.9138251,6.8569426,51.1087743,9.5960000, NAP 2027 
1361,52.9138487,6.8569658,51.1087035,9.5960000, NAP 2027 
1362,52.9138727,6.8569923,51.1026312,9.5900000, NAP 2027 
1363,52.9138971,6.8570150,51.0995577,9.5870000, NAP 2027 
1364,52.9139099,6.8570274,51.0985190,9.5860000, NAP 2027 
1365,52.9138996,6.8570372,51.1075494,9.5950000, NAP 2027 
1366,52.9138756,6.8570157,51.1126217,9.6000000, NAP 2027 
