1000,52.9256158,6.8668349,49.1956064,7.7180000, NAP 2027 
1001,52.9256157,6.8667937,49.2106085,7.7330000, NAP 2027 
1002,52.9256149,6.8667495,49.2036127,7.7260000, NAP 2027 
1003,52.9256147,6.8667024,49.2106156,7.7330000, NAP 2027 
1004,52.9256143,6.8666555,49.2076190,7.7300000, NAP 2027 
1005,52.9256144,6.8666101,49.2086207,7.7310000, NAP 2027 
1006,52.9256145,6.8665634,49.2186225,7.7410000, NAP 2027 
1007,52.9256151,6.8665170,49.2206228,7.7430000, NAP 2027 
1008,52.9256157,6.8664698,49.2106232,7.7330000, NAP 2027 
1009,52.9256155,6.8664222,49.2136258,7.7360000, NAP 2027 
1010,52.9256152,6.8663764,49.2256289,7.7480000, NAP 2027 
1011,52.9256145,6.8663298,49.2046330,7.7270000, NAP 2027 
1012,52.9256156,6.8662921,49.1716314,7.6940000, NAP 2027 
1013,52.9256457,6.8662916,49.2225436,7.7450000, NAP 2027 
1014,52.9256458,6.8663365,49.2135415,7.7360000, NAP 2027 
1015,52.9256453,6.8663830,49.2115407,7.7340000, NAP 2027 
1016,52.9256459,6.8664305,49.2115368,7.7340000, NAP 2027 
1017,52.9256463,6.8664779,49.2065335,7.7290000, NAP 2027 
1018,52.9256459,6.8665268,49.2045324,7.7270000, NAP 2027 
1019,52.9256454,6.8665727,49.2105320,7.7330000, NAP 2027 
1020,52.9256459,6.8666206,49.2155283,7.7380000, NAP 2027 
1021,52.9256456,6.8666672,49.1905271,7.7130000, NAP 2027 
1022,52.9256464,6.8667131,49.2085225,7.7310000, NAP 2027 
1023,52.9256448,6.8667583,49.2045254,7.7270000, NAP 2027 
1024,52.9256443,6.8668079,49.2075245,7.7300000, NAP 2027 
1025,52.9256443,6.8668368,49.2045233,7.7270000, NAP 2027 
1026,52.9256752,6.8668366,49.1884331,7.7110000, NAP 2027 
1027,52.9256757,6.8667907,49.1844337,7.7070000, NAP 2027 
1028,52.9256758,6.8667450,49.1884357,7.7110000, NAP 2027 
1029,52.9256763,6.8667015,49.1994360,7.7220000, NAP 2027 
1030,52.9256764,6.8666551,49.2024378,7.7250000, NAP 2027 
1031,52.9256763,6.8666027,49.2144406,7.7370000, NAP 2027 
1032,52.9256766,6.8665573,49.2164417,7.7390000, NAP 2027 
1033,52.9256764,6.8665122,49.2214443,7.7440000, NAP 2027 
1034,52.9256763,6.8664663,49.2164467,7.7390000, NAP 2027 
1035,52.9256767,6.8664199,49.2184476,7.7410000, NAP 2027 
1036,52.9256756,6.8663705,49.2024528,7.7250000, NAP 2027 
1037,52.9256765,6.8663251,49.2164525,7.7390000, NAP 2027 
1038,52.9256771,6.8662912,49.2234522,7.7460000, NAP 2027 
1039,52.9257072,6.8662917,49.2203644,7.7430000, NAP 2027 
1040,52.9257065,6.8663397,49.2073644,7.7300000, NAP 2027 
1041,52.9257063,6.8663857,49.2123628,7.7350000, NAP 2027 
1042,52.9257060,6.8664326,49.2263616,7.7490000, NAP 2027 
1043,52.9257063,6.8664785,49.2083587,7.7310000, NAP 2027 
1044,52.9257057,6.8665230,49.2183583,7.7410000, NAP 2027 
1045,52.9257067,6.8665700,49.2093533,7.7320000, NAP 2027 
1046,52.9257070,6.8666150,49.2103505,7.7330000, NAP 2027 
1047,52.9257069,6.8666613,49.2073487,7.7300000, NAP 2027 
1048,52.9257072,6.8667063,49.2123458,7.7350000, NAP 2027 
1049,52.9257070,6.8667525,49.2163443,7.7390000, NAP 2027 
1050,52.9257068,6.8667963,49.2063429,7.7290000, NAP 2027 
1051,52.9257067,6.8668371,49.1983412,7.7210000, NAP 2027 
1052,52.9257364,6.8668368,49.1942547,7.7170000, NAP 2027 
1053,52.9257363,6.8667914,49.2072571,7.7300000, NAP 2027 
1054,52.9257370,6.8667470,49.2202569,7.7430000, NAP 2027 
1055,52.9257375,6.8666994,49.2312577,7.7540000, NAP 2027 
1056,52.9257374,6.8666522,49.2142603,7.7370000, NAP 2027 
1057,52.9257369,6.8666054,49.2082638,7.7310000, NAP 2027 
1058,52.9257372,6.8665587,49.2122650,7.7350000, NAP 2027 
1059,52.9257376,6.8665153,49.2212658,7.7440000, NAP 2027 
1060,52.9257372,6.8664643,49.2272693,7.7500000, NAP 2027 
1061,52.9257377,6.8664165,49.2272699,7.7500000, NAP 2027 
1062,52.9257380,6.8663694,49.2192713,7.7420000, NAP 2027 
1063,52.9257377,6.8663229,49.2142742,7.7370000, NAP 2027 
1064,52.9257382,6.8662938,49.2022739,7.7250000, NAP 2027 
1065,52.9257698,6.8662929,49.2131818,7.7360000, NAP 2027 
1066,52.9257690,6.8663366,49.2211822,7.7440000, NAP 2027 
1067,52.9257689,6.8663803,49.2161806,7.7390000, NAP 2027 
1068,52.9257683,6.8664284,49.2281801,7.7510000, NAP 2027 
1069,52.9257685,6.8664724,49.2271776,7.7500000, NAP 2027 
1070,52.9257681,6.8665177,49.2271767,7.7500000, NAP 2027 
1071,52.9257675,6.8665617,49.2271764,7.7500000, NAP 2027 
1072,52.9257681,6.8666063,49.2211728,7.7440000, NAP 2027 
1073,52.9257676,6.8666520,49.2131722,7.7360000, NAP 2027 
1074,52.9257679,6.8666964,49.2151691,7.7380000, NAP 2027 
1075,52.9257673,6.8667414,49.2211688,7.7440000, NAP 2027 
1076,52.9257675,6.8667882,49.2221664,7.7450000, NAP 2027 
1077,52.9257669,6.8668331,49.2051659,7.7280000, NAP 2027 
1078,52.9257968,6.8668340,49.2140789,7.7370000, NAP 2027 
1079,52.9257974,6.8667913,49.2120791,7.7350000, NAP 2027 
1080,52.9257981,6.8667463,49.2050790,7.7280000, NAP 2027 
1081,52.9257993,6.8667013,49.2000776,7.7230000, NAP 2027 
1082,52.9257987,6.8666589,49.2230812,7.7460000, NAP 2027 
1083,52.9257986,6.8666097,49.2120837,7.7350000, NAP 2027 
1084,52.9257998,6.8665636,49.2130822,7.7360000, NAP 2027 
1085,52.9257999,6.8665204,49.2210840,7.7440000, NAP 2027 
1086,52.9257997,6.8664752,49.2170867,7.7400000, NAP 2027 
1087,52.9258009,6.8664266,49.2280854,7.7510000, NAP 2027 
1088,52.9258009,6.8663820,49.2160873,7.7390000, NAP 2027 
1089,52.9258006,6.8663363,49.2140902,7.7370000, NAP 2027 
1090,52.9258018,6.8662967,49.2350884,7.7580000, NAP 2027 
1091,52.9258298,6.8662951,49.2020069,7.7250000, NAP 2027 
1092,52.9258286,6.8663394,49.2210084,7.7440000, NAP 2027 
1093,52.9258293,6.8663837,49.2150044,7.7380000, NAP 2027 
1094,52.9258285,6.8664282,49.2080047,7.7310000, NAP 2027 
1095,52.9258282,6.8664753,49.2210035,7.7440000, NAP 2027 
1096,52.9258279,6.8665203,49.2240024,7.7470000, NAP 2027 
1097,52.9258279,6.8665628,49.2230005,7.7460000, NAP 2027 
1098,52.9258279,6.8666112,49.2099983,7.7330000, NAP 2027 
1099,52.9258276,6.8666584,49.2379969,7.7610000, NAP 2027 
1100,52.9258271,6.8667026,49.2269965,7.7500000, NAP 2027 
1101,52.9258275,6.8667470,49.2119933,7.7350000, NAP 2027 
1102,52.9258274,6.8667946,49.2169915,7.7400000, NAP 2027 
1103,52.9258264,6.8668334,49.2109926,7.7340000, NAP 2027 
1104,52.9258571,6.8668301,49.2119034,7.7350000, NAP 2027 
1105,52.9258578,6.8667855,49.2019034,7.7250000, NAP 2027 
1106,52.9258581,6.8667404,49.2179043,7.7410000, NAP 2027 
1107,52.9258582,6.8666944,49.2209061,7.7440000, NAP 2027 
1108,52.9258587,6.8666473,49.2389069,7.7620000, NAP 2027 
1109,52.9258594,6.8666029,49.2029069,7.7260000, NAP 2027 
1110,52.9258593,6.8665552,49.2159092,7.7390000, NAP 2027 
1111,52.9258594,6.8665105,49.2119109,7.7350000, NAP 2027 
1112,52.9258594,6.8664640,49.2059131,7.7290000, NAP 2027 
1113,52.9258603,6.8664150,49.2119128,7.7350000, NAP 2027 
1114,52.9258599,6.8663684,49.2039159,7.7270000, NAP 2027 
1115,52.9258607,6.8663240,49.2149156,7.7380000, NAP 2027 
1116,52.9258614,6.8662991,49.2189148,7.7420000, NAP 2027 
1117,52.9258920,6.8662966,49.2108256,7.7340000, NAP 2027 
1118,52.9258917,6.8663409,49.2178245,7.7410000, NAP 2027 
1119,52.9258919,6.8663871,49.2128217,7.7360000, NAP 2027 
1120,52.9258915,6.8664322,49.2198212,7.7430000, NAP 2027 
1121,52.9258914,6.8664781,49.2118192,7.7350000, NAP 2027 
1122,52.9258907,6.8665211,49.2078193,7.7310000, NAP 2027 
1123,52.9258908,6.8665697,49.2108168,7.7340000, NAP 2027 
1124,52.9258905,6.8666152,49.2208157,7.7440000, NAP 2027 
1125,52.9258902,6.8666598,49.2198146,7.7430000, NAP 2027 
1126,52.9258902,6.8667036,49.2148127,7.7380000, NAP 2027 
1127,52.9258900,6.8667512,49.2148111,7.7380000, NAP 2027 
1128,52.9258898,6.8667939,49.2088097,7.7320000, NAP 2027 
1129,52.9258884,6.8668346,49.2158117,7.7390000, NAP 2027 
1130,52.9259200,6.8668310,49.2067200,7.7300000, NAP 2027 
1131,52.9259204,6.8667849,49.2157210,7.7390000, NAP 2027 
1132,52.9259212,6.8667382,49.2117206,7.7350000, NAP 2027 
1133,52.9259215,6.8666928,49.2237218,7.7470000, NAP 2027 
1134,52.9259207,6.8666487,49.2237262,7.7470000, NAP 2027 
1135,52.9259210,6.8665988,49.1997276,7.7230000, NAP 2027 
1136,52.9259213,6.8665487,49.2187290,7.7420000, NAP 2027 
1137,52.9259219,6.8665016,49.2167294,7.7400000, NAP 2027 
1138,52.9259217,6.8664578,49.2097320,7.7330000, NAP 2027 
1139,52.9259229,6.8664103,49.2117304,7.7350000, NAP 2027 
1140,52.9259226,6.8663671,49.2047334,7.7280000, NAP 2027 
1141,52.9259225,6.8663200,49.2007356,7.7240000, NAP 2027 
1142,52.9259232,6.8662986,49.2137346,7.7370000, NAP 2027 
1143,52.9259546,6.8662980,49.2096433,7.7330000, NAP 2027 
1144,52.9259532,6.8663428,49.2356453,7.7590000, NAP 2027 
1145,52.9259532,6.8663873,49.2196434,7.7430000, NAP 2027 
1146,52.9259530,6.8664331,49.1986418,7.7220000, NAP 2027 
1147,52.9259525,6.8664811,49.2166412,7.7400000, NAP 2027 
1148,52.9259522,6.8665277,49.2236399,7.7470000, NAP 2027 
1149,52.9259516,6.8665741,49.2256396,7.7490000, NAP 2027 
1150,52.9259514,6.8666199,49.2176381,7.7410000, NAP 2027 
1151,52.9259516,6.8666661,49.2396354,7.7630000, NAP 2027 
1152,52.9259516,6.8667106,49.2216333,7.7450000, NAP 2027 
1153,52.9259510,6.8667581,49.2196328,7.7430000, NAP 2027 
1154,52.9259511,6.8668009,49.2146307,7.7380000, NAP 2027 
1155,52.9259500,6.8668303,49.2056327,7.7290000, NAP 2027 
1156,52.9259799,6.8668259,49.2135455,7.7370000, NAP 2027 
1157,52.9259802,6.8667831,49.2215468,7.7450000, NAP 2027 
1158,52.9259807,6.8667415,49.2215470,7.7450000, NAP 2027 
1159,52.9259817,6.8666935,49.2165463,7.7400000, NAP 2027 
1160,52.9259825,6.8666465,49.2125462,7.7360000, NAP 2027 
1161,52.9259831,6.8665994,49.2285466,7.7520000, NAP 2027 
1162,52.9259839,6.8665542,49.2255464,7.7490000, NAP 2027 
1163,52.9259846,6.8665099,49.2155463,7.7390000, NAP 2027 
1164,52.9259849,6.8664656,49.2175474,7.7410000, NAP 2027 
1165,52.9259853,6.8664199,49.2165483,7.7400000, NAP 2027 
1166,52.9259858,6.8663748,49.2265488,7.7500000, NAP 2027 
1167,52.9259867,6.8663291,49.2235484,7.7470000, NAP 2027 
1168,52.9259874,6.8663049,49.2045474,7.7280000, NAP 2027 
1169,52.9259975,6.8668262,49.2144943,7.7380000, NAP 2027 
1170,52.9270584,6.8664076,49.2394259,7.7660000, NAP 2027 
1171,52.9270587,6.8663653,49.2024270,7.7290000, NAP 2027 
1172,52.9270584,6.8663223,49.2004296,7.7270000, NAP 2027 
1173,52.9270584,6.8662783,49.2054315,7.7320000, NAP 2027 
1174,52.9270578,6.8662361,49.1894352,7.7160000, NAP 2027 
1175,52.9270572,6.8661914,49.2174391,7.7440000, NAP 2027 
1176,52.9270567,6.8661480,49.2124424,7.7390000, NAP 2027 
1177,52.9270562,6.8661057,49.2274459,7.7540000, NAP 2027 
1178,52.9270556,6.8660582,49.2204498,7.7470000, NAP 2027 
1179,52.9270550,6.8660130,49.1894535,7.7160000, NAP 2027 
1180,52.9270545,6.8659735,49.2074568,7.7340000, NAP 2027 
1181,52.9270536,6.8659276,49.2024615,7.7290000, NAP 2027 
1182,52.9270531,6.8658831,49.2004648,7.7270000, NAP 2027 
1183,52.9270533,6.8658531,49.2154655,7.7420000, NAP 2027 
1184,52.9270235,6.8658525,49.1935523,7.7200000, NAP 2027 
1185,52.9270239,6.8658932,49.2145492,7.7410000, NAP 2027 
1186,52.9270239,6.8659381,49.2005474,7.7270000, NAP 2027 
1187,52.9270247,6.8659785,49.1915431,7.7180000, NAP 2027 
1188,52.9270246,6.8660268,49.1985413,7.7250000, NAP 2027 
1189,52.9270250,6.8660675,49.2125382,7.7390000, NAP 2027 
1190,52.9270256,6.8661162,49.2175342,7.7440000, NAP 2027 
1191,52.9270262,6.8661585,49.1995306,7.7260000, NAP 2027 
1192,52.9270264,6.8662033,49.1835280,7.7100000, NAP 2027 
1193,52.9270272,6.8662495,49.1855238,7.7120000, NAP 2027 
1194,52.9270278,6.8662952,49.1985200,7.7250000, NAP 2027 
1195,52.9270280,6.8663405,49.1795171,7.7060000, NAP 2027 
1196,52.9270295,6.8663827,49.1955110,7.7220000, NAP 2027 
1197,52.9270289,6.8664121,49.2365114,7.7630000, NAP 2027 
1198,52.9270011,6.8664209,49.2155918,7.7420000, NAP 2027 
1199,52.9270010,6.8663779,49.1975942,7.7240000, NAP 2027 
1200,52.9270001,6.8663374,49.2095984,7.7360000, NAP 2027 
1201,52.9269995,6.8662897,49.2076025,7.7340000, NAP 2027 
1202,52.9269990,6.8662452,49.2036058,7.7300000, NAP 2027 
1203,52.9269983,6.8661970,49.2186100,7.7450000, NAP 2027 
1204,52.9269977,6.8661529,49.1976137,7.7240000, NAP 2027 
1205,52.9269974,6.8661127,49.2086164,7.7350000, NAP 2027 
1206,52.9269966,6.8660623,49.2046211,7.7310000, NAP 2027 
1207,52.9269958,6.8660174,49.2056253,7.7320000, NAP 2027 
1208,52.9269946,6.8659734,49.2056308,7.7320000, NAP 2027 
1209,52.9269943,6.8659285,49.2086338,7.7350000, NAP 2027 
1210,52.9269935,6.8658838,49.2036381,7.7300000, NAP 2027 
1211,52.9269931,6.8658505,49.1796408,7.7060000, NAP 2027 
1212,52.9269636,6.8658498,49.1957265,7.7220000, NAP 2027 
1213,52.9269642,6.8658904,49.2037231,7.7300000, NAP 2027 
1214,52.9269645,6.8659366,49.2057200,7.7320000, NAP 2027 
1215,52.9269650,6.8659799,49.2107167,7.7370000, NAP 2027 
1216,52.9269655,6.8660251,49.2097131,7.7360000, NAP 2027 
1217,52.9269658,6.8660693,49.2127104,7.7390000, NAP 2027 
1218,52.9269660,6.8661130,49.1997078,7.7260000, NAP 2027 
1219,52.9269666,6.8661580,49.2067040,7.7330000, NAP 2027 
1220,52.9269671,6.8662032,49.2017005,7.7280000, NAP 2027 
1221,52.9269675,6.8662464,49.2056975,7.7320000, NAP 2027 
1222,52.9269688,6.8662891,49.2106915,7.7370000, NAP 2027 
1223,52.9269691,6.8663353,49.2126887,7.7390000, NAP 2027 
1224,52.9269698,6.8663807,49.2076845,7.7340000, NAP 2027 
1225,52.9269698,6.8664228,49.2176828,7.7440000, NAP 2027 
1226,52.9269416,6.8664338,49.2127641,7.7390000, NAP 2027 
1227,52.9269410,6.8663890,49.2087681,7.7350000, NAP 2027 
1228,52.9269406,6.8663466,49.2127709,7.7390000, NAP 2027 
1229,52.9269396,6.8663013,49.1967761,7.7230000, NAP 2027 
1230,52.9269391,6.8662499,49.2027797,7.7290000, NAP 2027 
1231,52.9269391,6.8662070,49.2037819,7.7300000, NAP 2027 
1232,52.9269379,6.8661592,49.2057874,7.7320000, NAP 2027 
1233,52.9269368,6.8661138,49.1947927,7.7210000, NAP 2027 
1234,52.9269362,6.8660676,49.2127964,7.7390000, NAP 2027 
1235,52.9269352,6.8660228,49.2038013,7.7300000, NAP 2027 
1236,52.9269344,6.8659761,49.1988058,7.7250000, NAP 2027 
1237,52.9269340,6.8659302,49.1998089,7.7260000, NAP 2027 
1238,52.9269335,6.8658837,49.2058127,7.7320000, NAP 2027 
1239,52.9269333,6.8658497,49.1958148,7.7220000, NAP 2027 
1240,52.9269032,6.8658479,49.1919022,7.7180000, NAP 2027 
1241,52.9269035,6.8658927,49.2118994,7.7380000, NAP 2027 
1242,52.9269039,6.8659375,49.2118963,7.7380000, NAP 2027 
1243,52.9269043,6.8659800,49.2078932,7.7340000, NAP 2027 
1244,52.9269054,6.8660258,49.1978878,7.7240000, NAP 2027 
1245,52.9269058,6.8660701,49.2068846,7.7330000, NAP 2027 
1246,52.9269061,6.8661147,49.2038819,7.7300000, NAP 2027 
1247,52.9269068,6.8661563,49.2298781,7.7560000, NAP 2027 
1248,52.9269072,6.8662039,49.2188746,7.7450000, NAP 2027 
1249,52.9269083,6.8662485,49.2008695,7.7270000, NAP 2027 
1250,52.9269084,6.8662940,49.1788671,7.7050000, NAP 2027 
1251,52.9269090,6.8663378,49.2118635,7.7380000, NAP 2027 
1252,52.9269095,6.8663784,49.2108600,7.7370000, NAP 2027 
1253,52.9269104,6.8664278,49.1978552,7.7240000, NAP 2027 
1254,52.9269097,6.8664412,49.2038567,7.7300000, NAP 2027 
1255,52.9268807,6.8664487,49.1949405,7.7210000, NAP 2027 
1256,52.9268803,6.8664043,49.2169439,7.7430000, NAP 2027 
1257,52.9268794,6.8663592,49.2099485,7.7360000, NAP 2027 
1258,52.9268785,6.8663152,49.2059530,7.7320000, NAP 2027 
1259,52.9268777,6.8662706,49.2029574,7.7290000, NAP 2027 
1260,52.9268772,6.8662249,49.2059610,7.7320000, NAP 2027 
1261,52.9268768,6.8661791,49.2069642,7.7330000, NAP 2027 
1262,52.9268762,6.8661341,49.1979680,7.7240000, NAP 2027 
1263,52.9268760,6.8660865,49.1769706,7.7030000, NAP 2027 
1264,52.9268751,6.8660411,49.1979754,7.7240000, NAP 2027 
1265,52.9268744,6.8659977,49.1909794,7.7170000, NAP 2027 
1266,52.9268738,6.8659487,49.2229832,7.7490000, NAP 2027 
1267,52.9268731,6.8659053,49.2049872,7.7310000, NAP 2027 
1268,52.9268722,6.8658645,49.1929918,7.7190000, NAP 2027 
1269,52.9268731,6.8658459,49.2069900,7.7330000, NAP 2027 
1270,52.9268433,6.8658486,49.2220765,7.7480000, NAP 2027 
1271,52.9268430,6.8658889,49.2100756,7.7360000, NAP 2027 
1272,52.9268438,6.8659354,49.2010712,7.7270000, NAP 2027 
1273,52.9268445,6.8659730,49.2050675,7.7310000, NAP 2027 
1274,52.9268449,6.8660166,49.2140644,7.7400000, NAP 2027 
1275,52.9268450,6.8660651,49.1950619,7.7210000, NAP 2027 
1276,52.9268455,6.8661068,49.1910584,7.7170000, NAP 2027 
1277,52.9268463,6.8661506,49.1980543,7.7240000, NAP 2027 
1278,52.9268471,6.8661944,49.1960500,7.7220000, NAP 2027 
1279,52.9268475,6.8662384,49.2110466,7.7370000, NAP 2027 
1280,52.9268478,6.8662867,49.2070436,7.7330000, NAP 2027 
1281,52.9268481,6.8663294,49.1910410,7.7170000, NAP 2027 
1282,52.9268490,6.8663746,49.2100362,7.7360000, NAP 2027 
1283,52.9268499,6.8664188,49.2080316,7.7340000, NAP 2027 
1284,52.9268494,6.8664508,49.1970317,7.7230000, NAP 2027 
1285,52.9268222,6.8664607,49.2101102,7.7360000, NAP 2027 
1286,52.9268215,6.8664161,49.2281143,7.7540000, NAP 2027 
1287,52.9268212,6.8664143,49.2291153,7.7550000, NAP 2027 
1288,52.9268207,6.8663703,49.2141186,7.7400000, NAP 2027 
1289,52.9268202,6.8663258,49.1961222,7.7220000, NAP 2027 
1290,52.9268200,6.8662838,49.2151245,7.7410000, NAP 2027 
1291,52.9268196,6.8662394,49.1981277,7.7240000, NAP 2027 
1292,52.9268186,6.8661925,49.1921329,7.7180000, NAP 2027 
1293,52.9268175,6.8661504,49.2011379,7.7270000, NAP 2027 
1294,52.9268171,6.8661060,49.2101411,7.7360000, NAP 2027 
1295,52.9268155,6.8660589,49.2011478,7.7270000, NAP 2027 
1296,52.9268150,6.8660137,49.1971515,7.7230000, NAP 2027 
1297,52.9268140,6.8659701,49.1921562,7.7180000, NAP 2027 
1298,52.9268136,6.8659280,49.1991594,7.7250000, NAP 2027 
1299,52.9268126,6.8658807,49.2041642,7.7300000, NAP 2027 
1300,52.9268130,6.8658497,49.1991646,7.7250000, NAP 2027 
1301,52.9267828,6.8658470,49.2102525,7.7360000, NAP 2027 
1302,52.9267830,6.8658893,49.1982499,7.7240000, NAP 2027 
1303,52.9267838,6.8659313,49.2142458,7.7400000, NAP 2027 
1304,52.9267843,6.8659735,49.2212424,7.7470000, NAP 2027 
1305,52.9267846,6.8660229,49.2042393,7.7300000, NAP 2027 
1306,52.9267854,6.8660673,49.2052351,7.7310000, NAP 2027 
1307,52.9267859,6.8661120,49.1962317,7.7220000, NAP 2027 
1308,52.9267874,6.8661592,49.2052252,7.7310000, NAP 2027 
1309,52.9267878,6.8662032,49.1962219,7.7220000, NAP 2027 
1310,52.9267883,6.8662466,49.1952186,7.7210000, NAP 2027 
1311,52.9267891,6.8662908,49.1762142,7.7020000, NAP 2027 
1312,52.9267898,6.8663390,49.2102100,7.7360000, NAP 2027 
1313,52.9267906,6.8663826,49.2222056,7.7480000, NAP 2027 
1314,52.9267915,6.8664279,49.2092010,7.7350000, NAP 2027 
1315,52.9267920,6.8664614,49.2011982,7.7270000, NAP 2027 
1316,52.9267620,6.8664723,49.1942850,7.7200000, NAP 2027 
1317,52.9267615,6.8664304,49.2102883,7.7360000, NAP 2027 
1318,52.9267610,6.8663848,49.2022918,7.7280000, NAP 2027 
1319,52.9267602,6.8663371,49.2092961,7.7350000, NAP 2027 
1320,52.9267592,6.8662933,49.1933010,7.7190000, NAP 2027 
1321,52.9267587,6.8662483,49.2033045,7.7290000, NAP 2027 
1322,52.9267581,6.8662041,49.1963084,7.7220000, NAP 2027 
1323,52.9267574,6.8661592,49.2013124,7.7270000, NAP 2027 
1324,52.9267568,6.8661132,49.1803161,7.7060000, NAP 2027 
1325,52.9267565,6.8660691,49.1843189,7.7100000, NAP 2027 
1326,52.9267557,6.8660281,49.2073232,7.7330000, NAP 2027 
1327,52.9267550,6.8659789,49.2023273,7.7280000, NAP 2027 
1328,52.9267534,6.8659360,49.2043342,7.7300000, NAP 2027 
1329,52.9267528,6.8658893,49.2033379,7.7290000, NAP 2027 
1330,52.9267531,6.8658494,49.2173387,7.7430000, NAP 2027 
1331,52.9267296,6.8658500,49.2324072,7.7580000, NAP 2027 
1332,52.9267303,6.8658976,49.2124030,7.7380000, NAP 2027 
1333,52.9267311,6.8659409,49.2063987,7.7320000, NAP 2027 
1334,52.9267315,6.8659865,49.2073955,7.7330000, NAP 2027 
1335,52.9267324,6.8660294,49.2153911,7.7410000, NAP 2027 
1336,52.9267334,6.8660805,49.1893859,7.7150000, NAP 2027 
1337,52.9267347,6.8661250,49.1963801,7.7220000, NAP 2027 
1338,52.9267362,6.8661730,49.2043736,7.7300000, NAP 2027 
1339,52.9267372,6.8662161,49.2203686,7.7460000, NAP 2027 
1340,52.9267383,6.8662621,49.1863634,7.7120000, NAP 2027 
1341,52.9267395,6.8663081,49.1983577,7.7240000, NAP 2027 
1342,52.9267408,6.8663506,49.2253519,7.7510000, NAP 2027 
1343,52.9267413,6.8663967,49.2323484,7.7580000, NAP 2027 
1344,52.9267427,6.8664414,49.2093425,7.7350000, NAP 2027 
1345,52.9267440,6.8664729,49.1913373,7.7170000, NAP 2027 
H4,52.9261530,6.8665886,41.4760521,0.0000000, NAP 
H13,52.9265287,6.8664357,41.4749653,0.0000000, NAP 
H7,52.9266706,6.8655110,41.4745939,0.0000000, NAP 
H6,52.9258589,6.8657288,41.4769475,0.0000000, NAP 
1346,52.9262633,6.8656248,49.2307741,7.7550000, NAP 2027 
1347,52.9262694,6.8656939,49.2027535,7.7270000, NAP 2027 
1348,52.9262753,6.8657610,49.2087332,7.7330000, NAP 2027 
1349,52.9262812,6.8658288,49.1977129,7.7220000, NAP 2027 
1350,52.9262879,6.8658946,49.2066906,7.7310000, NAP 2027 
1351,52.9262941,6.8659589,49.2086698,7.7330000, NAP 2027 
1352,52.9262999,6.8660256,49.2126499,7.7370000, NAP 2027 
1353,52.9263059,6.8660945,49.2066291,7.7310000, NAP 2027 
1354,52.9263128,6.8661601,49.2066061,7.7310000, NAP 2027 
1355,52.9263179,6.8662112,49.3605891,7.8850000, NAP 2027 
1356,52.9263254,6.8662980,49.2115632,7.7360000, NAP 2027 
1357,52.9263313,6.8663663,49.1945430,7.7190000, NAP 2027 
1358,52.9263374,6.8664312,49.2135225,7.7380000, NAP 2027 
1359,52.9263440,6.8664990,49.2245002,7.7490000, NAP 2027 
1360,52.9263874,6.8664895,49.1953741,7.7200000, NAP 2027 
1361,52.9263813,6.8664237,49.2023951,7.7270000, NAP 2027 
1362,52.9263751,6.8663594,49.2024159,7.7270000, NAP 2027 
1363,52.9263684,6.8662900,49.2174386,7.7420000, NAP 2027 
1364,52.9263623,6.8662185,49.2034596,7.7280000, NAP 2027 
1365,52.9263556,6.8661502,49.2084819,7.7330000, NAP 2027 
1366,52.9263501,6.8660794,49.2005014,7.7250000, NAP 2027 
1367,52.9263442,6.8660188,49.1395212,7.6640000, NAP 2027 
1368,52.9263370,6.8659490,49.1895451,7.7140000, NAP 2027 
1369,52.9263308,6.8658791,49.2025664,7.7270000, NAP 2027 
1370,52.9263250,6.8658103,49.2025864,7.7270000, NAP 2027 
1371,52.9263186,6.8657479,49.2186077,7.7430000, NAP 2027 
1372,52.9263121,6.8656777,49.2076299,7.7320000, NAP 2027 
1373,52.9263074,6.8656121,49.2096464,7.7340000, NAP 2027 
1374,52.9263005,6.8655381,49.2056699,7.7300000, NAP 2027 
1375,52.9262939,6.8654689,49.2046921,7.7290000, NAP 2027 
1376,52.9262872,6.8653988,49.2107146,7.7350000, NAP 2027 
1377,52.9262816,6.8653301,49.1857341,7.7100000, NAP 2027 
1378,52.9262758,6.8652669,49.2017538,7.7260000, NAP 2027 
1379,52.9262727,6.8652259,49.1847646,7.7090000, NAP 2027 
1380,52.9263156,6.8652286,49.1646396,7.6890000, NAP 2027 
1381,52.9263215,6.8652954,49.1996193,7.7240000, NAP 2027 
1382,52.9263277,6.8653631,49.2005984,7.7250000, NAP 2027 
1383,52.9263343,6.8654304,49.1955762,7.7200000, NAP 2027 
1384,52.9263404,6.8654996,49.2095554,7.7340000, NAP 2027 
1385,52.9263473,6.8655707,49.2145322,7.7390000, NAP 2027 
1386,52.9263531,6.8656296,49.2425126,7.7670000, NAP 2027 
1387,52.9263605,6.8657030,49.1944878,7.7190000, NAP 2027 
1388,52.9263662,6.8657696,49.2224683,7.7470000, NAP 2027 
1389,52.9263718,6.8658396,49.2164487,7.7410000, NAP 2027 
1390,52.9263782,6.8659029,49.1934272,7.7180000, NAP 2027 
1391,52.9263844,6.8659749,49.2144060,7.7390000, NAP 2027 
1392,52.9263911,6.8660449,49.2063835,7.7310000, NAP 2027 
1393,52.9263978,6.8661125,49.1993610,7.7240000, NAP 2027 
1394,52.9264036,6.8661792,49.1993409,7.7240000, NAP 2027 
1395,52.9264102,6.8662446,49.2303189,7.7550000, NAP 2027 
1396,52.9264168,6.8663175,49.2152963,7.7400000, NAP 2027 
1397,52.9264236,6.8663883,49.2062735,7.7310000, NAP 2027 
1398,52.9264291,6.8664529,49.2342543,7.7590000, NAP 2027 
1399,52.9264311,6.8664750,49.2062478,7.7310000, NAP 2027 
1400,52.9264732,6.8664595,49.2071257,7.7320000, NAP 2027 
1401,52.9264667,6.8663876,49.2271480,7.7520000, NAP 2027 
1402,52.9264602,6.8663185,49.2271700,7.7520000, NAP 2027 
1403,52.9264539,6.8662493,49.2061915,7.7310000, NAP 2027 
1404,52.9264475,6.8661825,49.2182130,7.7430000, NAP 2027 
1405,52.9264417,6.8661143,49.2072331,7.7320000, NAP 2027 
1406,52.9264353,6.8660460,49.2042546,7.7290000, NAP 2027 
1407,52.9264303,6.8659802,49.2112722,7.7360000, NAP 2027 
1408,52.9264238,6.8659114,49.2462942,7.7710000, NAP 2027 
1409,52.9264177,6.8658436,49.2043151,7.7290000, NAP 2027 
1410,52.9264123,6.8657758,49.2023337,7.7270000, NAP 2027 
1411,52.9264056,6.8657062,49.2053564,7.7300000, NAP 2027 
1412,52.9263990,6.8656355,49.2143788,7.7390000, NAP 2027 
1413,52.9263943,6.8655762,49.2313949,7.7560000, NAP 2027 
1414,52.9263875,6.8655119,49.1854178,7.7100000, NAP 2027 
1415,52.9263821,6.8654457,49.2234363,7.7480000, NAP 2027 
1416,52.9263761,6.8653721,49.1804570,7.7050000, NAP 2027 
1417,52.9263709,6.8653084,49.1904752,7.7150000, NAP 2027 
1418,52.9263673,6.8652606,49.1834877,7.7080000, NAP 2027 
1419,52.9263673,6.8652488,49.0784883,7.6030000, NAP 2027 
1420,52.9264157,6.8652956,49.1863451,7.7110000, NAP 2027 
1421,52.9264213,6.8653628,49.1823260,7.7070000, NAP 2027 
1422,52.9264277,6.8654334,49.1923043,7.7170000, NAP 2027 
1423,52.9264334,6.8654982,49.2102847,7.7350000, NAP 2027 
1424,52.9264393,6.8655659,49.2042644,7.7290000, NAP 2027 
1425,52.9264445,6.8656390,49.2002462,7.7250000, NAP 2027 
1426,52.9264500,6.8657015,49.2282272,7.7530000, NAP 2027 
1427,52.9264566,6.8657721,49.2092051,7.7340000, NAP 2027 
1428,52.9264630,6.8658437,49.2071830,7.7320000, NAP 2027 
1429,52.9264679,6.8659090,49.2171661,7.7420000, NAP 2027 
1430,52.9264744,6.8659804,49.2121437,7.7370000, NAP 2027 
1431,52.9264811,6.8660515,49.2041212,7.7290000, NAP 2027 
1432,52.9264875,6.8661172,49.2130995,7.7380000, NAP 2027 
1433,52.9264933,6.8661857,49.2130797,7.7380000, NAP 2027 
1434,52.9264992,6.8662519,49.1930594,7.7180000, NAP 2027 
1435,52.9265055,6.8663189,49.2040381,7.7290000, NAP 2027 
1436,52.9265117,6.8663879,49.2090171,7.7340000, NAP 2027 
1437,52.9265143,6.8664334,49.2320073,7.7570000, NAP 2027 
1438,52.9265572,6.8663807,49.2078849,7.7330000, NAP 2027 
1439,52.9265513,6.8663125,49.1919052,7.7170000, NAP 2027 
1440,52.9265454,6.8662429,49.1859256,7.7110000, NAP 2027 
1441,52.9265393,6.8661727,49.2119464,7.7370000, NAP 2027 
1442,52.9265329,6.8661057,49.2129680,7.7380000, NAP 2027 
1443,52.9265271,6.8660401,49.2099878,7.7350000, NAP 2027 
1444,52.9265208,6.8659685,49.1940094,7.7190000, NAP 2027 
1445,52.9265140,6.8658964,49.2020323,7.7270000, NAP 2027 
1446,52.9265071,6.8658237,49.2010556,7.7260000, NAP 2027 
1447,52.9265005,6.8657474,49.2170784,7.7420000, NAP 2027 
1448,52.9264940,6.8656745,49.1981006,7.7230000, NAP 2027 
1449,52.9264875,6.8656063,49.1931226,7.7180000, NAP 2027 
1450,52.9264818,6.8655385,49.2101420,7.7350000, NAP 2027 
1451,52.9264750,6.8654675,49.2031649,7.7280000, NAP 2027 
1452,52.9264693,6.8653984,49.2171845,7.7420000, NAP 2027 
1453,52.9264628,6.8653412,49.1642061,7.6890000, NAP 2027 
1454,52.9265140,6.8653807,49.1730554,7.6980000, NAP 2027 
1455,52.9265200,6.8654447,49.2020350,7.7270000, NAP 2027 
1456,52.9265259,6.8655165,49.2050147,7.7300000, NAP 2027 
1457,52.9265316,6.8655854,49.2019950,7.7270000, NAP 2027 
1458,52.9265379,6.8656490,49.2189739,7.7440000, NAP 2027 
1459,52.9265442,6.8657232,49.2029522,7.7280000, NAP 2027 
1460,52.9265508,6.8658006,49.2109295,7.7360000, NAP 2027 
1461,52.9265567,6.8658673,49.2159094,7.7410000, NAP 2027 
1462,52.9265630,6.8659399,49.2228879,7.7480000, NAP 2027 
1463,52.9265694,6.8660146,49.2018659,7.7270000, NAP 2027 
1464,52.9265752,6.8660857,49.1998458,7.7250000, NAP 2027 
1465,52.9265816,6.8661566,49.2098239,7.7350000, NAP 2027 
1466,52.9265874,6.8662269,49.1938040,7.7190000, NAP 2027 
1467,52.9265933,6.8662966,49.1687836,7.6940000, NAP 2027 
1468,52.9266362,6.8662539,49.2126606,7.7380000, NAP 2027 
1469,52.9266308,6.8661895,49.2116794,7.7370000, NAP 2027 
1470,52.9266249,6.8661202,49.1876995,7.7130000, NAP 2027 
1471,52.9266187,6.8660487,49.1977210,7.7230000, NAP 2027 
1472,52.9266114,6.8659766,49.2217454,7.7470000, NAP 2027 
1473,52.9266064,6.8659087,49.2187629,7.7440000, NAP 2027 
1474,52.9266009,6.8658399,49.2007820,7.7260000, NAP 2027 
1475,52.9265948,6.8657737,49.2058028,7.7310000, NAP 2027 
1476,52.9265891,6.8657024,49.2038224,7.7290000, NAP 2027 
1477,52.9265831,6.8656387,49.2108429,7.7360000, NAP 2027 
1478,52.9265774,6.8655653,49.1948628,7.7200000, NAP 2027 
1479,52.9265708,6.8654981,49.2218847,7.7470000, NAP 2027 
1480,52.9265665,6.8654336,49.1759001,7.7010000, NAP 2027 
1481,52.9266131,6.8654659,49.1737632,7.6990000, NAP 2027 
1482,52.9266195,6.8655334,49.2187416,7.7440000, NAP 2027 
1483,52.9266252,6.8655980,49.2047222,7.7300000, NAP 2027 
1484,52.9266310,6.8656690,49.1867020,7.7120000, NAP 2027 
1485,52.9266371,6.8657392,49.2136813,7.7390000, NAP 2027 
1486,52.9266431,6.8658066,49.2146606,7.7400000, NAP 2027 
1487,52.9266490,6.8658768,49.2306404,7.7560000, NAP 2027 
1488,52.9266572,6.8659524,49.1866132,7.7120000, NAP 2027 
1489,52.9266627,6.8660272,49.1935939,7.7190000, NAP 2027 
1490,52.9266686,6.8660947,49.2055737,7.7310000, NAP 2027 
1491,52.9266732,6.8661565,49.2195575,7.7450000, NAP 2027 
1492,52.9266673,6.8655131,49.1946035,7.7200000, NAP 2027 
1493,52.9261832,6.8652461,49.1370243,7.6610000, NAP 2027 
1494,52.9261897,6.8653054,49.2300028,7.7540000, NAP 2027 
1495,52.9261949,6.8653734,49.2149846,7.7390000, NAP 2027 
1496,52.9262017,6.8654454,49.2199616,7.7440000, NAP 2027 
1497,52.9262074,6.8655111,49.1999421,7.7240000, NAP 2027 
1498,52.9262134,6.8655787,49.2099217,7.7340000, NAP 2027 
1499,52.9262203,6.8656455,49.2438985,7.7680000, NAP 2027 
1500,52.9262262,6.8657117,49.2118784,7.7360000, NAP 2027 
1501,52.9262322,6.8657839,49.2058578,7.7300000, NAP 2027 
1502,52.9262382,6.8658514,49.2008371,7.7250000, NAP 2027 
1503,52.9262438,6.8659208,49.2278178,7.7520000, NAP 2027 
1504,52.9262511,6.8659891,49.1917934,7.7160000, NAP 2027 
1505,52.9262573,6.8660569,49.2097726,7.7340000, NAP 2027 
1506,52.9262636,6.8661277,49.1977510,7.7220000, NAP 2027 
1507,52.9262693,6.8661830,49.3327318,7.8570000, NAP 2027 
1508,52.9262761,6.8662618,49.2107085,7.7350000, NAP 2027 
1509,52.9262824,6.8663340,49.2036869,7.7280000, NAP 2027 
1510,52.9262888,6.8664009,49.2006653,7.7250000, NAP 2027 
1511,52.9262958,6.8664667,49.2266419,7.7510000, NAP 2027 
1512,52.9263008,6.8665249,49.2016246,7.7260000, NAP 2027 
1513,52.9262571,6.8665441,49.2127510,7.7370000, NAP 2027 
1514,52.9262513,6.8664789,49.2077710,7.7320000, NAP 2027 
1515,52.9262453,6.8664122,49.2207913,7.7450000, NAP 2027 
1516,52.9262394,6.8663402,49.2108117,7.7350000, NAP 2027 
1517,52.9262321,6.8662713,49.2048361,7.7290000, NAP 2027 
1518,52.9262260,6.8662031,49.2108569,7.7350000, NAP 2027 
1519,52.9262196,6.8661358,49.2068787,7.7310000, NAP 2027 
1520,52.9262128,6.8660682,49.2439016,7.7680000, NAP 2027 
1521,52.9262061,6.8659953,49.2029244,7.7270000, NAP 2027 
1522,52.9262004,6.8659290,49.2129439,7.7370000, NAP 2027 
1523,52.9261944,6.8658619,49.2069644,7.7310000, NAP 2027 
1524,52.9261880,6.8657948,49.2109860,7.7350000, NAP 2027 
1525,52.9261817,6.8657276,49.1930072,7.7170000, NAP 2027 
1526,52.9261755,6.8656611,49.2100282,7.7340000, NAP 2027 
1527,52.9261675,6.8655838,49.2190551,7.7430000, NAP 2027 
1528,52.9261613,6.8655187,49.2200760,7.7440000, NAP 2027 
1529,52.9261537,6.8654475,49.2141013,7.7380000, NAP 2027 
1530,52.9261469,6.8653771,49.2061243,7.7300000, NAP 2027 
1531,52.9261407,6.8653116,49.2081451,7.7320000, NAP 2027 
1532,52.9261361,6.8652684,49.0731605,7.5970000, NAP 2027 
1533,52.9260987,6.8652804,49.0862687,7.6100000, NAP 2027 
1534,52.9261044,6.8653462,49.2082492,7.7320000, NAP 2027 
1535,52.9261102,6.8654110,49.1912297,7.7150000, NAP 2027 
1536,52.9261163,6.8654781,49.2202087,7.7440000, NAP 2027 
1537,52.9261220,6.8655451,49.2131892,7.7370000, NAP 2027 
1538,52.9261286,6.8656108,49.2251671,7.7490000, NAP 2027 
1539,52.9261349,6.8656818,49.2161456,7.7400000, NAP 2027 
1540,52.9261400,6.8657445,49.2171280,7.7410000, NAP 2027 
1541,52.9261457,6.8658133,49.2421083,7.7660000, NAP 2027 
1542,52.9261521,6.8658857,49.2260865,7.7500000, NAP 2027 
1543,52.9261587,6.8659538,49.2160641,7.7400000, NAP 2027 
1544,52.9261651,6.8660236,49.2200424,7.7440000, NAP 2027 
1545,52.9261712,6.8660929,49.2070214,7.7310000, NAP 2027 
1546,52.9261773,6.8661662,49.2200004,7.7440000, NAP 2027 
1547,52.9261836,6.8662359,49.2139790,7.7380000, NAP 2027 
1548,52.9261899,6.8663066,49.2199574,7.7440000, NAP 2027 
1549,52.9261959,6.8663728,49.2109370,7.7350000, NAP 2027 
1550,52.9262018,6.8664403,49.2049167,7.7290000, NAP 2027 
1551,52.9262085,6.8665099,49.2058940,7.7300000, NAP 2027 
1552,52.9262146,6.8665761,49.2068733,7.7310000, NAP 2027 
1553,52.9261699,6.8665844,49.2130032,7.7370000, NAP 2027 
1554,52.9261641,6.8665195,49.2370229,7.7610000, NAP 2027 
1555,52.9261575,6.8664504,49.2130453,7.7370000, NAP 2027 
1556,52.9261514,6.8663810,49.2170664,7.7410000, NAP 2027 
1557,52.9261448,6.8663099,49.2200886,7.7440000, NAP 2027 
1558,52.9261378,6.8662377,49.1971123,7.7210000, NAP 2027 
1559,52.9261317,6.8661707,49.1911331,7.7150000, NAP 2027 
1560,52.9261255,6.8661017,49.2061541,7.7300000, NAP 2027 
1561,52.9261190,6.8660334,49.2101762,7.7340000, NAP 2027 
1562,52.9261126,6.8659606,49.2121981,7.7360000, NAP 2027 
1563,52.9261062,6.8658927,49.2042199,7.7280000, NAP 2027 
1564,52.9261008,6.8658257,49.1972384,7.7210000, NAP 2027 
1565,52.9260939,6.8657545,49.2072617,7.7310000, NAP 2027 
1566,52.9260876,6.8656831,49.2092834,7.7330000, NAP 2027 
1567,52.9260821,6.8656184,49.1863021,7.7100000, NAP 2027 
1568,52.9260763,6.8655530,49.2233221,7.7470000, NAP 2027 
1569,52.9260694,6.8654800,49.1983453,7.7220000, NAP 2027 
1570,52.9260632,6.8654133,49.1933664,7.7170000, NAP 2027 
1571,52.9260571,6.8653437,49.1913870,7.7150000, NAP 2027 
1572,52.9260538,6.8653071,49.0783984,7.6020000, NAP 2027 
1573,52.9260151,6.8653613,49.1745086,7.6980000, NAP 2027 
1574,52.9260204,6.8654261,49.1894904,7.7130000, NAP 2027 
1575,52.9260262,6.8654944,49.2014704,7.7250000, NAP 2027 
1576,52.9260325,6.8655607,49.2004493,7.7240000, NAP 2027 
1577,52.9260383,6.8656292,49.1954292,7.7190000, NAP 2027 
1578,52.9260455,6.8657015,49.2214052,7.7450000, NAP 2027 
1579,52.9260510,6.8657666,49.2073862,7.7310000, NAP 2027 
1580,52.9260571,6.8658320,49.2153656,7.7390000, NAP 2027 
1581,52.9260629,6.8658990,49.2263456,7.7500000, NAP 2027 
1582,52.9260687,6.8659686,49.2133257,7.7370000, NAP 2027 
1583,52.9260744,6.8660367,49.2403060,7.7640000, NAP 2027 
1584,52.9260805,6.8661101,49.2022850,7.7260000, NAP 2027 
1585,52.9260875,6.8661822,49.2062612,7.7300000, NAP 2027 
1586,52.9260935,6.8662482,49.2202409,7.7440000, NAP 2027 
1587,52.9260998,6.8663141,49.2082195,7.7320000, NAP 2027 
1588,52.9261061,6.8663797,49.2251983,7.7490000, NAP 2027 
1589,52.9261120,6.8664534,49.2291778,7.7530000, NAP 2027 
1590,52.9261183,6.8665194,49.2061564,7.7300000, NAP 2027 
1591,52.9260667,6.8664595,49.2123094,7.7360000, NAP 2027 
1592,52.9260608,6.8663925,49.2003296,7.7240000, NAP 2027 
1593,52.9260551,6.8663239,49.1863491,7.7100000, NAP 2027 
1594,52.9260497,6.8662570,49.1983680,7.7220000, NAP 2027 
1595,52.9260435,6.8661952,49.2113890,7.7350000, NAP 2027 
1596,52.9260367,6.8661202,49.1834120,7.7070000, NAP 2027 
1597,52.9260309,6.8660518,49.2014320,7.7250000, NAP 2027 
1598,52.9260244,6.8659866,49.2034538,7.7270000, NAP 2027 
1599,52.9260187,6.8659156,49.1894737,7.7130000, NAP 2027 
1600,52.9260122,6.8658456,49.2024957,7.7260000, NAP 2027 
1601,52.9260059,6.8657779,49.1955170,7.7190000, NAP 2027 
1602,52.9260004,6.8657116,49.1925361,7.7160000, NAP 2027 
1603,52.9259933,6.8656388,49.1945600,7.7180000, NAP 2027 
1604,52.9259879,6.8655702,49.2015787,7.7250000, NAP 2027 
1605,52.9259819,6.8654977,49.1735994,7.6970000, NAP 2027 
1606,52.9259777,6.8654616,49.1536133,7.6770000, NAP 2027 
1607,52.9259410,6.8655527,49.1357161,7.6590000, NAP 2027 
1608,52.9259473,6.8656228,49.2106945,7.7340000, NAP 2027 
1609,52.9259530,6.8656891,49.1976752,7.7210000, NAP 2027 
1610,52.9259585,6.8657571,49.2276562,7.7510000, NAP 2027 
1611,52.9259647,6.8658249,49.2186350,7.7420000, NAP 2027 
1612,52.9259705,6.8658910,49.2236152,7.7470000, NAP 2027 
1613,52.9259760,6.8659590,49.2155962,7.7390000, NAP 2027 
1614,52.9259820,6.8660303,49.2235753,7.7470000, NAP 2027 
1615,52.9259879,6.8660956,49.2105553,7.7340000, NAP 2027 
1616,52.9259941,6.8661667,49.2205341,7.7440000, NAP 2027 
1617,52.9260003,6.8662310,49.2125132,7.7360000, NAP 2027 
1618,52.9260049,6.8663025,49.2134965,7.7370000, NAP 2027 
1619,52.9260111,6.8663635,49.2264757,7.7500000, NAP 2027 
1620,52.9259538,6.8662011,49.2206500,7.7440000, NAP 2027 
1621,52.9259481,6.8661317,49.1976697,7.7210000, NAP 2027 
1622,52.9259414,6.8660636,49.2006921,7.7240000, NAP 2027 
1623,52.9259354,6.8659960,49.1977126,7.7210000, NAP 2027 
1624,52.9259308,6.8659310,49.1917289,7.7150000, NAP 2027 
1625,52.9259238,6.8658616,49.2007524,7.7240000, NAP 2027 
1626,52.9259190,6.8657946,49.2017695,7.7250000, NAP 2027 
1627,52.9259122,6.8657273,49.2127923,7.7360000, NAP 2027 
1628,52.9259066,6.8656540,49.1788120,7.7020000, NAP 2027 
1629,52.9259048,6.8656353,49.1498178,7.6730000, NAP 2027 
1630,52.9258609,6.8657292,49.1909415,7.7140000, NAP 2027 
1631,52.9258798,6.8658174,49.2098826,7.7330000, NAP 2027 
