NAME,STATION-P,STATION-Q,STATION-R
N0,-0.010,1.190,0.000
M0,-0.060,-0.060,0.000
S0,-0.010,-1.140,0.000
N1,-0.010,3.740,0.000
M1,-0.060,2.490,0.000
S1,-0.010,1.410,0.000
N2,2.240,2.540,0.000
M2,2.190,1.290,0.000
S2,2.240,0.210,0.000
N3,2.240,-0.160,0.000
M3,2.190,-1.410,0.000
S3,2.240,-2.490,0.000
N4,-0.010,-1.360,0.000
M4,-0.060,-2.610,0.000
S4,-0.010,-3.690,0.000
N5,-2.260,-0.160,0.000
M5,-2.310,-1.410,0.000
S5,-2.260,-2.490,0.000
N6,-2.260,2.540,0.000
M6,-2.310,1.290,0.000
S6,-2.260,0.210,0.000
N7,-5.388,-0.683,0.000
M7,-5.438,-2.233,0.000
S7,-5.388,-3.613,0.000
N8,-5.526,3.282,0.000
M8,-5.576,1.732,0.000
S8,-5.526,0.352,0.000
N9,-3.084,6.409,0.000
M9,-3.134,4.859,0.000
S9,-3.084,3.479,0.000
N10,0.797,7.234,0.000
M10,0.747,5.684,0.000
S10,0.797,4.304,0.000
N11,4.300,5.371,0.000
M11,4.250,3.821,0.000
S11,4.300,2.441,0.000
N12,5.786,1.692,0.000
M12,5.736,0.142,0.000
S12,5.786,-1.238,0.000
N13,4.560,-2.081,0.000
M13,4.510,-3.631,0.000
S13,4.560,-5.011,0.000
N14,1.196,-4.183,0.000
M14,1.146,-5.733,0.000
S14,1.196,-7.113,0.000
N15,-2.733,-3.631,0.000
M15,-2.783,-5.181,0.000
S15,-2.733,-6.561,0.000
N16,-5.092,-6.331,0.000
M16,-5.142,-7.881,0.000
S16,-5.092,-9.261,0.000
N17,-8.079,-4.219,0.000
M17,-8.129,-5.769,0.000
S17,-8.079,-7.149,0.000
N18,-10.269,0.318,0.000
M18,-10.319,-1.232,0.000
S18,-10.269,-2.612,0.000
N19,-8.261,7.312,0.000
M19,-8.311,5.762,0.000
S19,-8.261,4.382,0.000
N20,-6.051,9.664,0.000
M20,-6.101,8.114,0.000
S20,-6.051,6.734,0.000
N21,-2.106,11.359,0.000
M21,-2.156,9.809,0.000
S21,-2.106,8.429,0.000
N22,2.064,10.492,0.000
M22,2.014,8.942,0.000
S22,2.064,7.562,0.000
N23,6.874,7.262,0.000
M23,6.824,5.712,0.000
S23,6.874,4.332,0.000
N24,9.715,3.412,0.000
M24,9.665,1.862,0.000
S24,9.715,0.482,0.000
N25,9.773,-0.972,0.000
M25,9.723,-2.522,0.000
S25,9.773,-3.902,0.000
N26,7.414,-4.133,0.000
M26,7.364,-5.683,0.000
S26,7.414,-7.063,0.000
N27,3.417,-6.881,0.000
M27,3.367,-8.431,0.000
S27,3.417,-9.811,0.000
N28,-1.187,-7.639,0.000
M28,-1.237,-9.189,0.000
S28,-1.187,-10.569,0.000
N29,-8.954,-9.728,0.000
M29,-9.004,-11.278,0.000
S29,-8.954,-12.658,0.000
N30,-11.901,-7.301,0.000
M30,-11.951,-8.851,0.000
S30,-11.901,-10.231,0.000
N31,-12.911,-4.343,0.000
M31,-12.961,-5.893,0.000
S31,-12.911,-7.273,0.000
N32,-13.026,3.648,0.000
M32,-13.076,2.098,0.000
S32,-13.026,0.718,0.000
N33,-14.338,6.340,0.000
M33,-14.388,4.790,0.000
S33,-14.338,3.410,0.000
N34,-8.856,11.446,0.000
M34,-8.906,9.896,0.000
S34,-8.856,8.516,0.000
N35,-4.387,13.854,0.000
M35,-4.437,12.304,0.000
S35,-4.387,10.924,0.000
N36,0.159,16.604,0.000
M36,0.109,15.054,0.000
S36,0.159,13.674,0.000
N37,2.904,14.672,0.000
M37,2.854,13.122,0.000
S37,2.904,11.742,0.000
N38,7.096,12.432,0.000
M38,7.046,10.882,0.000
S38,7.096,9.502,0.000
N39,11.865,7.301,0.000
M39,11.815,5.751,0.000
S39,11.865,4.371,0.000
N40,13.307,4.916,0.000
M40,13.257,3.366,0.000
S40,13.307,1.986,0.000
N41,13.120,-0.411,0.000
M41,13.070,-1.961,0.000
S41,13.120,-3.341,0.000
N42,13.857,-4.498,0.000
M42,13.807,-6.048,0.000
S42,13.857,-7.428,0.000
N43,7.387,-10.561,0.000
M43,7.337,-12.111,0.000
S43,7.387,-13.491,0.000
N44,3.648,-11.936,0.000
M44,3.598,-13.486,0.000
S44,3.648,-14.866,0.000
N45,-1.753,-12.888,0.000
M45,-1.803,-14.438,0.000
S45,-1.753,-15.818,0.000
N48,-5.275,-15.675,0.000
M48,-5.325,-17.225,0.000
S48,-5.275,-18.605,0.000
N49,-7.989,-17.118,0.000
M49,-8.039,-18.668,0.000
S49,-7.989,-20.048,0.000
N50,-18.934,-6.106,0.000
M50,-18.984,-7.656,0.000
S50,-18.934,-9.036,0.000
N51,-17.920,9.979,0.000
M51,-17.970,8.429,0.000
S51,-17.920,7.049,0.000
N52,-15.929,14.488,0.000
M52,-15.979,12.938,0.000
S52,-15.929,11.558,0.000
N53,-4.743,19.199,0.000
M53,-4.793,17.649,0.000
S53,-4.743,16.269,0.000
N54,8.404,17.293,0.000
M54,8.354,15.743,0.000
S54,8.404,14.363,0.000
N55,15.829,14.416,0.000
M55,15.779,12.866,0.000
S55,15.829,11.486,0.000
N56,18.007,0.155,0.000
M56,17.957,-1.395,0.000
S56,18.007,-2.775,0.000
N57,17.442,-7.998,0.000
M57,17.392,-9.548,0.000
S57,17.442,-10.928,0.000
N58,9.852,-14.434,0.000
M58,9.802,-15.984,0.000
S58,9.852,-17.364,0.000
N59,7.354,-22.236,0.000
M59,7.304,-23.786,0.000
S59,7.354,-25.166,0.000
N60,-5.646,-22.853,0.000
M60,-5.696,-24.403,0.000
S60,-5.646,-25.783,0.000
N61,-17.205,-17.180,0.000
M61,-17.255,-18.730,0.000
S61,-17.205,-20.110,0.000
N62,-21.427,-12.541,0.000
M62,-21.477,-14.091,0.000
S62,-21.427,-15.471,0.000
N63,-25.847,-5.353,0.000
M63,-25.897,-6.903,0.000
S63,-25.847,-8.283,0.000
N64,-21.649,11.777,0.000
M64,-21.699,10.227,0.000
S64,-21.649,8.847,0.000
N65,-17.501,18.589,0.000
M65,-17.551,17.039,0.000
S65,-17.501,15.659,0.000
N66,-6.387,26.862,0.000
M66,-6.437,25.312,0.000
S66,-6.387,23.932,0.000
N67,7.751,25.407,0.000
M67,7.701,23.857,0.000
S67,7.751,22.477,0.000
N68,16.324,21.783,0.000
M68,16.274,20.233,0.000
S68,16.324,18.853,0.000
N69,22.517,11.817,0.000
M69,22.467,10.267,0.000
S69,22.517,8.887,0.000
N70,26.491,-3.804,0.000
M70,26.441,-5.354,0.000
S70,26.491,-6.734,0.000
N71,17.499,-19.100,0.000
M71,17.449,-20.650,0.000
S71,17.499,-22.030,0.000
N72,11.075,-31.332,0.000
M72,11.025,-32.882,0.000
S72,11.075,-34.262,0.000
N73,-3.735,-29.670,0.000
M73,-3.785,-31.220,0.000
S73,-3.735,-32.600,0.000
N74,-17.414,-24.518,0.000
M74,-17.464,-26.068,0.000
S74,-17.414,-27.448,0.000
N75,-24.269,-20.381,0.000
M75,-24.319,-21.931,0.000
S75,-24.269,-23.311,0.000
N76,-31.299,-2.837,0.000
M76,-31.349,-4.387,0.000
S76,-31.299,-5.767,0.000
N77,-31.302,15.212,0.000
M77,-31.352,13.662,0.000
S77,-31.302,12.282,0.000
N78,-24.349,25.350,0.000
M78,-24.399,23.800,0.000
S78,-24.349,22.420,0.000
N79,-15.199,27.361,0.000
M79,-15.249,25.811,0.000
S79,-15.199,24.431,0.000
N80,-3.054,35.555,0.000
M80,-3.104,34.005,0.000
S80,-3.054,32.625,0.000
N81,15.553,31.638,0.000
M81,15.503,30.088,0.000
S81,15.553,28.708,0.000
N82,22.832,26.402,0.000
M82,22.782,24.852,0.000
S82,22.832,23.472,0.000
N83,32.461,13.677,0.000
M83,32.411,12.127,0.000
S83,32.461,10.747,0.000
N84,32.081,5.458,0.000
M84,32.031,3.908,0.000
S84,32.081,2.528,0.000
N85,28.959,-14.913,0.000
M85,28.909,-16.463,0.000
S85,28.959,-17.843,0.000
N86,23.267,-18.479,0.000
M86,23.217,-20.029,0.000
S86,23.267,-21.409,0.000
N87,26.725,-23.720,0.000
M87,26.675,-25.270,0.000
S87,26.725,-26.650,0.000
N88,-9.277,-39.244,0.000
M88,-9.327,-40.794,0.000
S88,-9.277,-42.174,0.000
N89,-30.341,-24.605,0.000
M89,-30.391,-26.155,0.000
S89,-30.341,-27.535,0.000
N90,-40.995,-7.591,0.000
M90,-41.045,-9.141,0.000
S90,-40.995,-10.521,0.000
N91,-39.724,8.444,0.000
M91,-39.774,6.894,0.000
S91,-39.724,5.514,0.000
N92,-9.216,41.616,0.000
M92,-9.266,40.066,0.000
S92,-9.216,38.686,0.000
N93,12.411,35.876,0.000
M93,12.361,34.326,0.000
S93,12.411,32.946,0.000
N94,28.266,31.796,0.000
M94,28.216,30.246,0.000
S94,28.266,28.866,0.000
N95,36.869,-10.504,0.000
M95,36.819,-12.054,0.000
S95,36.869,-13.434,0.000
N46,65.044,1.490,0.000
M46,64.994,-0.060,0.000
S46,65.044,-1.440,0.000
N47,-0.010,-63.564,0.000
M47,-0.060,-65.114,0.000
S47,-0.010,-66.494,0.000
D1,32.16,-25.81,0.000
D2,32.16,-12.81,0.000
D3,14.63,-12.81,0.000
D4,10.67,-5.81,0.000
D5,7.07,-2.81,0.000
D6,32.16,-5.81,0.000
D7,29.98,0.85,0.000
D8,18.14,0.85,0.000
D9,13.23,0.85,0.000
D10,15.12,8.18,0.000
D11,6.99,8.18,0.000
D12,13.34,12.79,0.000
D13,12.02,15.63,0.000
D14,23.01,20.25,0.000
D15,27.30,24.72,0.000
D16,3.14,36.19,0.000
D17,8.39,21.05,0.000
D18,-2.06,17.78,0.000
D19,-14.75,22.79,0.000
D20,-14.75,17.19,0.000
D21,1.14,-16.81,0.000
D22,1.14,-11.91,0.000
D23,1.14,-8.74,0.000
D24,-4.36,-11.91,0.000
D25,-5.22,-5.12,0.000
D26,-5.77,4.92,0.000
D27,17.64,-28.31,0.000
D28,-7.86,-28.31,0.000
D29,-23.86,-28.31,0.000
D30,-14.36,-11.24,0.000
D31,-15.86,-7.66,0.000
D32,-17.93,4.83,0.000
D33,-30.86,6.95,0.000
