9901,254907.965,548514.838,7.732,9901
9902,254988.934,548482.233,8.098,9902
9903,255079.569,548464.792,7.720,9903
9904,255068.382,548429.918,7.713,9904
9905,254988.408,548388.672,7.685,9905
9906,254948.397,548398.390,7.777,9906
9907,254893.620,548476.924,7.538,9907
9702,254988.925,548477.929,8.330,9702
10000,254907.966,548514.840,7.729,9901
lba,254978.310,548436.810,,lba
hba1,254923.770,548482.490,,hba1
hba2,255048.370,548449.100,,hba2
10001,255048.346,548449.133,7.949,hba2
9703,254989.407,548479.244,8.388,9703
10002,254893.624,548476.926,7.535,9907
10003,254931.067,548502.590,7.932,2027
10004,254930.010,548499.609,7.926,2027
10005,254928.885,548496.697,7.946,2027
10006,254927.788,548493.516,7.936,2027
10007,254926.581,548490.416,7.940,2027
10008,254925.603,548487.305,7.939,2027
10009,254924.447,548484.152,7.930,2027
10010,254923.468,548481.193,7.947,2027
10011,254922.336,548478.101,7.948,2027
10012,254921.233,548474.927,7.938,2027
10013,254920.168,548471.869,7.930,2027
10014,254919.075,548468.720,7.943,2027
10015,254918.116,548465.631,7.935,2027
10016,254917.107,548462.831,7.935,2027
10017,254913.374,548463.809,7.917,2027
10018,254914.526,548466.975,7.954,2027
10019,254915.617,548469.971,7.939,2027
10020,254916.765,548473.098,7.940,2027
10021,254917.848,548476.193,7.940,2027
10022,254918.983,548479.272,7.945,2027
10023,254920.077,548482.291,7.954,2027
10024,254921.262,548485.473,7.947,2027
10025,254922.292,548488.639,7.942,2027
10026,254923.434,548491.791,7.944,2027
10027,254924.477,548494.868,7.950,2027
10028,254925.598,548497.928,7.932,2027
10029,254926.848,548501.218,7.938,2027
10030,254924.261,548504.457,7.949,2027
10031,254923.148,548501.354,7.944,2027
10032,254922.123,548498.223,7.932,2027
10033,254921.026,548495.195,7.939,2027
10034,254919.931,548492.066,7.942,2027
10035,254918.858,548488.914,7.947,2027
10036,254917.788,548485.872,7.943,2027
10037,254916.680,548482.820,7.949,2027
10038,254915.616,548479.815,7.949,2027
10039,254914.477,548476.660,7.939,2027
10040,254913.458,548473.578,7.945,2027
10041,254912.333,548470.505,7.943,2027
10042,254911.365,548467.461,7.935,2027
10043,254910.450,548464.856,7.931,2027
10044,254907.360,548467.440,7.938,2027
10045,254908.437,548470.579,7.945,2027
10046,254909.546,548473.629,7.936,2027
10047,254910.677,548476.741,7.938,2027
10048,254911.766,548479.819,7.926,2027
10049,254912.778,548482.950,7.951,2027
10050,254913.845,548485.994,7.940,2027
10051,254914.897,548489.080,7.945,2027
10052,254915.992,548492.180,7.947,2027
10053,254917.127,548495.305,7.950,2027
10054,254918.102,548498.354,7.949,2027
10055,254919.262,548501.438,7.942,2027
10056,254919.907,548503.156,7.949,2027
10057,254916.151,548502.247,7.951,2027
10058,254915.049,548499.264,7.943,2027
10059,254913.961,548496.275,7.936,2027
10060,254912.838,548493.257,7.933,2027
10061,254911.778,548490.162,7.952,2027
10062,254910.713,548487.068,7.953,2027
10063,254909.617,548483.924,7.948,2027
10064,254908.611,548480.850,7.937,2027
10065,254907.497,548477.815,7.937,2027
10066,254906.445,548474.805,7.951,2027
10067,254905.484,548472.707,7.937,2027
10068,254903.415,548476.791,7.934,2027
10069,254904.541,548480.052,7.934,2027
10070,254905.596,548483.062,7.938,2027
10071,254906.621,548486.079,7.945,2027
10072,254907.697,548489.129,7.934,2027
10073,254908.730,548492.171,7.950,2027
10074,254909.761,548495.283,7.949,2027
10075,254910.817,548498.464,7.940,2027
10076,254906.285,548495.129,7.958,2027
10077,254905.167,548491.965,7.943,2027
10078,254904.185,548489.074,7.945,2027
10079,254903.057,548486.174,7.942,2027
10080,254920.358,548461.311,7.939,2027
10081,254921.634,548464.515,7.925,2027
10082,254922.651,548467.627,7.945,2027
10083,254923.744,548470.723,7.944,2027
10084,254924.807,548473.733,7.945,2027
10085,254925.916,548476.752,7.946,2027
10086,254926.974,548479.802,7.943,2027
10087,254928.065,548482.883,7.940,2027
10088,254929.129,548485.901,7.947,2027
10089,254930.216,548488.929,7.942,2027
10090,254931.286,548491.987,7.937,2027
10091,254932.304,548495.107,7.938,2027
10092,254933.481,548498.132,7.931,2027
10093,254934.582,548501.286,7.935,2027
10094,254937.844,548500.704,7.932,2027
10095,254936.718,548497.489,7.935,2027
10096,254935.577,548494.472,7.931,2027
10097,254934.422,548491.382,7.953,2027
10098,254933.340,548488.325,7.947,2027
10099,254932.251,548485.265,7.942,2027
10100,254931.172,548482.248,7.940,2027
10101,254930.089,548479.184,7.944,2027
10102,254928.947,548476.115,7.925,2027
10103,254927.919,548473.061,7.943,2027
10104,254926.789,548469.951,7.952,2027
10105,254925.690,548466.898,7.953,2027
10106,254924.570,548463.699,7.929,2027
10107,254923.469,548460.701,7.953,2027
10108,254927.695,548461.809,7.943,2027
10109,254928.753,548464.857,7.941,2027
10110,254929.926,548468.006,7.955,2027
10111,254931.093,548471.163,7.947,2027
10112,254932.175,548474.241,7.942,2027
10113,254933.311,548477.403,7.951,2027
10114,254934.454,548480.533,7.941,2027
10115,254935.549,548483.643,7.955,2027
10116,254936.682,548486.851,7.950,2027
10117,254937.917,548490.010,7.941,2027
10118,254938.943,548493.221,7.940,2027
10119,254939.996,548496.230,7.942,2027
10120,254940.980,548499.451,7.939,2027
10121,254944.067,548498.716,7.925,2027
10122,254943.052,548495.326,7.947,2027
10123,254941.945,548492.329,7.940,2027
10124,254940.956,548489.246,7.961,2027
10125,254939.894,548486.231,7.942,2027
10126,254938.864,548483.014,7.951,2027
10127,254937.771,548479.861,7.947,2027
10128,254936.752,548476.779,7.937,2027
10129,254935.692,548473.639,7.951,2027
10130,254934.632,548470.536,7.946,2027
10131,254933.598,548467.366,7.953,2027
10132,254932.577,548464.314,7.953,2027
10133,254936.520,548466.060,7.948,2027
10134,254937.658,548469.160,7.937,2027
10135,254938.762,548472.216,7.937,2027
10136,254939.824,548475.322,7.956,2027
10137,254940.793,548478.384,7.944,2027
10138,254941.787,548481.516,7.943,2027
10139,254942.846,548484.682,7.947,2027
10140,254943.926,548487.785,7.945,2027
10141,254944.957,548490.826,7.939,2027
10142,254946.011,548493.910,7.927,2027
10143,254946.983,548496.855,7.924,2027
10144,254947.399,548497.867,7.928,2027
10145,254949.871,548496.566,7.956,2027
10146,254948.862,548493.248,7.928,2027
10147,254947.887,548490.330,7.939,2027
10148,254947.006,548487.281,7.944,2027
10149,254946.144,548484.189,7.942,2027
10150,254945.221,548481.121,7.936,2027
10151,254944.186,548478.092,7.941,2027
10152,254943.227,548475.104,7.946,2027
10153,254942.076,548472.096,7.938,2027
10154,254940.886,548469.054,7.941,2027
10155,255052.388,548469.147,7.947,2027a
10156,255051.671,548465.909,7.951,2027a
10157,255051.044,548462.723,7.947,2027a
10158,255050.438,548459.594,7.936,2027a
10159,255049.823,548456.548,7.954,2027a
10160,255049.187,548453.235,7.952,2027a
10161,255048.581,548450.134,7.945,2027a
10162,255047.874,548446.839,7.950,2027a
10163,255047.214,548443.637,7.950,2027a
10164,255046.514,548440.452,7.942,2027a
10165,255045.909,548437.258,7.931,2027a
10166,255045.290,548434.128,7.940,2027a
10167,255044.668,548430.888,7.948,2027a
10168,255044.005,548428.246,7.937,2027a
10169,255047.403,548427.933,7.921,2027a
10170,255048.089,548431.232,7.923,2027a
10171,255048.728,548434.401,7.941,2027a
10172,255049.358,548437.549,7.951,2027a
10173,255050.081,548440.672,7.953,2027a
10174,255050.678,548443.948,7.948,2027a
10175,255051.352,548447.140,7.950,2027a
10176,255052.001,548450.350,7.930,2027a
10177,255052.701,548453.484,7.957,2027a
10178,255053.357,548456.661,7.947,2027a
10179,255054.071,548459.840,7.939,2027a
10180,255054.769,548463.095,7.944,2027a
10181,255055.360,548466.042,7.949,2027a
10182,255055.989,548468.680,7.949,2027a
10183,255059.107,548467.585,7.953,2027a
10184,255058.351,548464.329,7.935,2027a
10185,255057.715,548461.234,7.957,2027a
10186,255057.009,548458.022,7.926,2027a
10187,255056.433,548454.889,7.945,2027a
10188,255055.845,548451.814,7.953,2027a
10189,255055.203,548448.683,7.951,2027a
10190,255054.566,548445.615,7.933,2027a
10191,255053.877,548442.542,7.929,2027a
10192,255053.256,548439.389,7.942,2027a
10193,255052.692,548436.311,7.965,2027a
10194,255051.974,548433.301,7.944,2027a
10195,255051.415,548430.170,7.952,2027a
10196,255050.949,548428.129,7.933,2027a
10197,255054.467,548429.205,7.929,2027a
10198,255055.212,548432.565,7.953,2027a
10199,255055.887,548435.791,7.948,2027a
10200,255056.580,548438.856,7.940,2027a
10201,255057.262,548442.071,7.927,2027a
10202,255057.914,548445.253,7.925,2027a
10203,255058.523,548448.437,7.934,2027a
10204,255059.181,548451.604,7.953,2027a
10205,255059.851,548454.811,7.953,2027a
10206,255060.479,548458.007,7.945,2027a
10207,255061.065,548461.111,7.949,2027a
10208,255061.789,548464.371,7.928,2027a
10209,255062.175,548466.493,7.943,2027a
10210,255064.884,548462.669,7.948,2027a
10211,255064.261,548459.459,7.947,2027a
10212,255063.616,548456.287,7.933,2027a
10213,255062.973,548453.283,7.950,2027a
10214,255062.309,548450.169,7.957,2027a
10215,255061.758,548447.021,7.933,2027a
10216,255061.121,548443.910,7.945,2027a
10217,255060.448,548440.798,7.939,2027a
10218,255059.857,548437.620,7.940,2027a
10219,255059.255,548434.530,7.942,2027a
10220,255058.571,548431.188,7.936,2027a
10221,255062.501,548433.457,7.929,2027a
10222,255063.249,548436.710,7.935,2027a
10223,255063.937,548439.875,7.930,2027a
10224,255064.445,548443.004,7.931,2027a
10225,255065.074,548446.176,7.929,2027a
10226,255065.738,548449.303,7.937,2027a
10227,255066.359,548452.334,7.949,2027a
10228,255067.026,548455.613,7.941,2027a
10229,255067.626,548458.522,7.939,2027a
10230,255069.440,548450.700,7.940,2027a
10231,255068.768,548447.310,7.935,2027a
10232,255068.018,548444.174,7.932,2027a
10233,255067.344,548441.157,7.934,2027a
10234,255066.530,548438.283,7.933,2027a
10235,255040.844,548429.415,7.935,2027a
10236,255041.564,548432.727,7.953,2027a
10237,255042.194,548435.959,7.950,2027a
10238,255042.864,548439.175,7.961,2027a
10239,255043.471,548442.352,7.937,2027a
10240,255044.103,548445.517,7.953,2027a
10241,255044.737,548448.646,7.949,2027a
10242,255045.354,548451.833,7.956,2027a
10243,255045.973,548455.040,7.949,2027a
10244,255046.709,548458.242,7.960,2027a
10245,255047.349,548461.438,7.950,2027a
10246,255047.957,548464.626,7.935,2027a
10247,255048.648,548467.750,7.937,2027a
10248,255049.251,548470.377,7.957,2027a
10249,255045.891,548471.036,7.955,2027a
10250,255045.165,548467.605,7.929,2027a
10251,255044.510,548464.460,7.937,2027a
10252,255043.889,548461.351,7.935,2027a
10253,255043.325,548458.277,7.943,2027a
10254,255042.670,548455.109,7.956,2027a
10255,255042.002,548452.007,7.948,2027a
10256,255041.434,548448.903,7.945,2027a
10257,255040.755,548445.926,7.947,2027a
10258,255040.206,548442.756,7.949,2027a
10259,255039.553,548439.656,7.954,2027a
10260,255038.943,548436.447,7.939,2027a
10261,255038.308,548433.366,7.940,2027a
10262,255037.697,548430.567,7.937,2027a
10263,255034.733,548433.103,7.950,2027a
10264,255035.461,548436.356,7.956,2027a
10265,255036.154,548439.496,7.942,2027a
10266,255036.785,548442.630,7.947,2027a
10267,255037.388,548445.722,7.943,2027a
10268,255038.107,548448.854,7.921,2027a
10269,255038.710,548451.991,7.946,2027a
10270,255039.321,548455.169,7.934,2027a
10271,255040.000,548458.320,7.936,2027a
10272,255040.612,548461.497,7.937,2027a
10273,255041.288,548464.631,7.949,2027a
10274,255041.939,548467.840,7.915,2027a
10275,255042.627,548471.004,7.936,2027a
10276,255039.738,548472.516,7.946,2027a
10277,255038.984,548469.329,7.947,2027a
10278,255038.322,548466.296,7.951,2027a
10279,255037.675,548463.250,7.936,2027a
10280,255037.066,548460.250,7.941,2027a
10281,255036.399,548457.205,7.939,2027a
10282,255035.733,548454.150,7.936,2027a
10283,255035.143,548451.155,7.940,2027a
10284,255034.517,548448.051,7.946,2027a
10285,255033.813,548444.942,7.940,2027a
10286,255033.147,548441.837,7.946,2027a
10287,255032.542,548438.746,7.933,2027a
10288,255031.889,548435.551,7.945,2027a
10289,255029.386,548439.124,7.949,2027a
10290,255030.081,548442.371,7.934,2027a
10291,255030.812,548445.464,7.936,2027a
10292,255031.382,548448.583,7.947,2027a
10293,255032.070,548451.774,7.924,2027a
10294,255032.705,548454.875,7.919,2027a
10295,255033.417,548458.091,7.941,2027a
10296,255034.033,548461.224,7.946,2027a
10297,255034.701,548464.280,7.932,2027a
10298,255035.291,548467.500,7.955,2027a
10299,255035.952,548470.608,7.953,2027a
10300,255036.589,548473.400,7.959,2027a
10301,255033.033,548474.073,7.967,2027a
10302,255031.756,548473.971,7.953,2027a
10303,255030.761,548472.576,7.950,2027a
10304,255032.305,548470.812,7.954,2027a
10305,255031.581,548467.713,7.941,2027a
10306,255030.906,548464.577,7.922,2027a
10307,255030.204,548461.410,7.939,2027a
10308,255029.578,548458.411,7.956,2027a
10309,255028.964,548455.265,7.932,2027a
10310,255028.345,548452.212,7.928,2027a
10311,255027.818,548449.050,7.937,2027a
10312,255027.180,548445.988,7.920,2027a
10313,255026.683,548442.834,7.945,2027a
10314,254991.125,548476.463,7.944,2027b
10315,254990.267,548471.832,7.953,2027b
10316,254989.463,548467.244,7.962,2027b
10317,254988.599,548462.565,7.941,2027b
10318,254987.738,548457.814,7.943,2027b
10319,254986.789,548453.191,7.949,2027b
10320,254985.992,548448.488,7.944,2027b
10321,254985.182,548443.794,7.938,2027b
10322,254984.371,548439.188,7.951,2027b
10323,254983.497,548434.600,7.935,2027b
10324,254982.725,548430.043,7.935,2027b
10325,254981.952,548425.477,7.924,2027b
10326,254981.063,548420.856,7.934,2027b
10327,254980.240,548416.390,7.932,2027b
10328,254979.481,548411.794,7.943,2027b
10329,254978.654,548407.288,7.934,2027b
10330,254977.887,548402.746,7.945,2027b
10331,254977.037,548398.181,7.927,2027b
10332,254976.172,548393.407,7.936,2027b
10333,254980.845,548392.121,7.958,2027b
10334,254981.789,548396.836,7.928,2027b
10335,254982.627,548401.449,7.955,2027b
10336,254983.482,548406.084,7.948,2027b
10337,254984.350,548410.775,7.949,2027b
10338,254985.207,548415.523,7.951,2027b
10339,254985.986,548420.111,7.946,2027b
10340,254986.814,548424.785,7.946,2027b
10341,254987.703,548429.405,7.948,2027b
10342,254988.556,548433.931,7.945,2027b
10343,254989.384,548438.627,7.954,2027b
10344,254990.309,548443.306,7.947,2027b
10345,254991.137,548447.941,7.953,2027b
10346,254991.974,548452.585,7.945,2027b
10347,254992.823,548457.193,7.948,2027b
10348,254993.670,548461.906,7.947,2027b
10349,254994.556,548466.475,7.947,2027b
10350,254995.408,548471.115,7.947,2027b
10351,254996.244,548475.735,7.932,2027b
10352,254997.071,548480.100,7.917,2027b
10353,255001.981,548479.594,7.937,2027b
10354,255001.070,548475.008,7.952,2027b
10355,255000.165,548470.353,7.952,2027b
10356,254999.288,548465.683,7.954,2027b
10357,254998.398,548460.996,7.946,2027b
10358,254997.535,548456.404,7.947,2027b
10359,254996.659,548451.795,7.929,2027b
10360,254995.713,548447.154,7.951,2027b
10361,254994.930,548442.684,7.947,2027b
10362,254994.063,548438.153,7.946,2027b
10363,254993.287,548433.619,7.949,2027b
10364,254992.494,548429.130,7.951,2027b
10365,254991.672,548424.367,7.934,2027b
10366,254990.807,548419.826,7.947,2027b
10367,254989.930,548415.215,7.952,2027b
10368,254989.121,548410.658,7.934,2027b
10369,254988.325,548406.151,7.948,2027b
10370,254987.508,548401.430,7.947,2027b
10371,254986.611,548396.978,7.934,2027b
10372,254985.838,548392.352,7.956,2027b
10373,254991.280,548392.619,7.913,2027b
10374,254992.218,548397.257,7.945,2027b
10375,254993.163,548401.954,7.953,2027b
10376,254993.995,548406.499,7.959,2027b
10377,254994.817,548411.201,7.956,2027b
10378,254995.618,548415.850,7.948,2027b
10379,254996.438,548420.509,7.959,2027b
10380,254997.249,548425.177,7.958,2027b
10381,254998.064,548429.852,7.945,2027b
10382,254998.889,548434.409,7.952,2027b
10383,254999.668,548439.193,7.963,2027b
10384,255000.488,548443.959,7.953,2027b
10385,255001.305,548448.633,7.949,2027b
10386,255002.184,548453.423,7.945,2027b
10387,255003.000,548458.102,7.935,2027b
10388,255003.843,548462.889,7.955,2027b
10389,255004.639,548467.655,7.949,2027b
10390,255005.554,548472.318,7.968,2027b
10391,255006.276,548476.571,7.954,2027b
10392,255010.833,548474.073,7.947,2027b
10393,255010.026,548469.259,7.950,2027b
10394,255009.238,548464.666,7.950,2027b
10395,255008.376,548460.129,7.948,2027b
10396,255007.625,548455.466,7.945,2027b
10397,255006.805,548450.750,7.948,2027b
10398,255005.976,548446.066,7.945,2027b
10399,255005.079,548441.532,7.952,2027b
10400,255004.325,548436.879,7.945,2027b
10401,255003.534,548432.199,7.940,2027b
10402,255002.816,548427.565,7.951,2027b
10403,255001.969,548422.975,7.950,2027b
10404,255001.191,548418.361,7.946,2027b
10405,255000.430,548413.852,7.948,2027b
10406,254999.602,548409.218,7.940,2027b
10407,254998.765,548404.686,7.943,2027b
10408,254998.054,548400.097,7.946,2027b
10409,254997.224,548395.989,7.922,2027b
10410,255003.189,548399.663,7.934,2027b
10411,255004.026,548404.197,7.940,2027b
10412,255004.835,548408.906,7.949,2027b
10413,255005.663,548413.552,7.941,2027b
10414,255006.319,548418.110,7.959,2027b
10415,255007.084,548422.829,7.948,2027b
10416,255007.956,548427.436,7.944,2027b
10417,255008.649,548432.159,7.953,2027b
10418,255009.590,548436.920,7.940,2027b
10419,255010.330,548441.502,7.955,2027b
10420,255011.109,548446.238,7.966,2027b
10421,255011.895,548451.008,7.953,2027b
10422,255012.720,548455.762,7.946,2027b
10423,255013.542,548460.493,7.954,2027b
10424,255014.293,548465.065,7.955,2027b
10425,255015.023,548469.365,7.957,2027b
10426,255018.884,548462.875,7.949,2027b
10427,255018.016,548458.020,7.950,2027b
10428,255017.259,548453.491,7.950,2027b
10429,255016.480,548448.845,7.936,2027b
10430,255015.732,548444.148,7.944,2027b
10431,255014.987,548439.540,7.968,2027b
10432,255014.102,548434.930,7.932,2027b
10433,255013.417,548430.413,7.948,2027b
10434,255012.653,548425.770,7.931,2027b
10435,255011.900,548421.072,7.952,2027b
10436,255011.189,548416.455,7.953,2027b
10437,255010.424,548411.770,7.935,2027b
10438,255009.640,548407.152,7.936,2027b
10439,255008.910,548402.829,7.924,2027b
10440,255014.522,548404.964,7.949,2027b
10441,255015.416,548409.887,7.930,2027b
10442,255016.219,548414.463,7.942,2027b
10443,255017.000,548419.054,7.946,2027b
10444,255017.740,548423.587,7.936,2027b
10445,255018.401,548428.262,7.944,2027b
10446,255019.158,548432.913,7.936,2027b
10447,255019.934,548437.626,7.942,2027b
10448,255020.714,548442.251,7.935,2027b
10449,255021.435,548446.966,7.930,2027b
10450,255022.173,548451.637,7.945,2027b
10451,255022.944,548456.341,7.941,2027b
10452,255026.484,548446.640,7.938,2027b
10453,255025.549,548441.810,7.937,2027b
10454,255024.732,548437.205,7.936,2027b
10455,255023.910,548432.694,7.910,2027b
10456,255023.164,548428.099,7.946,2027b
10457,255022.370,548423.546,7.954,2027b
10458,255021.512,548418.796,7.931,2027b
10459,255020.703,548414.227,7.943,2027b
10460,254971.165,548392.679,7.935,2027b
10461,254971.864,548397.211,7.943,2027b
10462,254972.743,548401.656,7.943,2027b
10463,254973.606,548406.254,7.915,2027b
10464,254974.336,548410.875,7.930,2027b
10465,254975.213,548415.497,7.927,2027b
10466,254975.976,548419.961,7.951,2027b
10467,254976.795,548424.417,7.932,2027b
10468,254977.600,548428.850,7.940,2027b
10469,254978.468,548433.560,7.945,2027b
10470,254979.261,548438.049,7.941,2027b
10471,254980.014,548442.503,7.942,2027b
10472,254980.823,548447.087,7.933,2027b
10473,254981.563,548451.668,7.959,2027b
10474,254982.334,548456.207,7.952,2027b
10475,254983.164,548460.855,7.949,2027b
10476,254983.886,548465.321,7.952,2027b
10477,254984.683,548469.684,7.964,2027b
10478,254985.553,548474.185,7.926,2027b
10479,254986.304,548478.686,7.967,2027b
10480,254982.224,548484.294,7.925,2027b
10481,254981.418,548479.716,7.946,2027b
10482,254980.580,548474.980,7.948,2027b
10483,254979.836,548470.319,7.944,2027b
10484,254979.006,548465.843,7.948,2027b
10485,254978.200,548461.323,7.941,2027b
10486,254977.419,548456.651,7.948,2027b
10487,254976.674,548452.115,7.939,2027b
10488,254975.829,548447.530,7.948,2027b
10489,254975.019,548442.692,7.940,2027b
10490,254974.195,548437.939,7.938,2027b
10491,254973.371,548433.265,7.950,2027b
10492,254972.599,548428.667,7.931,2027b
10493,254971.782,548423.966,7.934,2027b
10494,254971.023,548419.277,7.945,2027b
10495,254970.221,548414.651,7.945,2027b
10496,254969.393,548409.989,7.940,2027b
10497,254968.542,548405.309,7.936,2027b
10498,254967.712,548400.694,7.934,2027b
10499,254966.975,548395.943,7.930,2027b
10500,254962.261,548395.224,7.914,2027b
10501,254963.127,548399.993,7.938,2027b
10502,254963.976,548404.580,7.929,2027b
10503,254964.777,548409.163,7.938,2027b
10504,254965.582,548413.876,7.941,2027b
10505,254966.356,548418.375,7.946,2027b
10506,254967.133,548422.940,7.939,2027b
10507,254967.912,548427.570,7.931,2027b
10508,254968.714,548432.347,7.934,2027b
10509,254969.499,548437.014,7.944,2027b
10510,254970.337,548441.700,7.950,2027b
10511,254971.070,548446.359,7.953,2027b
10512,254971.874,548451.100,7.945,2027b
10513,254972.628,548455.735,7.954,2027b
10514,254973.470,548460.494,7.948,2027b
10515,254974.261,548465.424,7.954,2027b
10516,254975.054,548470.264,7.953,2027b
10517,254975.865,548475.090,7.946,2027b
10518,254976.711,548479.771,7.943,2027b
10519,254977.536,548484.799,7.923,2027b
10520,254972.688,548484.424,7.927,2027b
10521,254971.820,548479.668,7.935,2027b
10522,254970.988,548475.130,7.952,2027b
10523,254970.103,548470.576,7.947,2027b
10524,254969.271,548465.753,7.949,2027b
10525,254968.414,548460.917,7.945,2027b
10526,254967.587,548456.091,7.951,2027b
10527,254966.737,548451.363,7.954,2027b
10528,254965.970,548446.550,7.948,2027b
10529,254965.076,548441.689,7.944,2027b
10530,254964.307,548437.006,7.937,2027b
10531,254963.547,548432.352,7.944,2027b
10532,254962.757,548427.587,7.937,2027b
10533,254961.990,548422.870,7.929,2027b
10534,254961.304,548418.088,7.948,2027b
10535,254960.492,548413.323,7.936,2027b
10536,254959.699,548408.654,7.934,2027b
10537,254958.964,548404.079,7.929,2027b
10538,254958.218,548399.273,7.948,2027b
10539,254957.638,548396.493,7.885,2027b
10540,254953.228,548398.599,7.898,2027b
10541,254954.122,548403.296,7.925,2027b
10542,254954.999,548408.048,7.946,2027b
10543,254955.773,548412.806,7.931,2027b
10544,254956.604,548417.547,7.937,2027b
10545,254957.399,548422.221,7.937,2027b
10546,254958.221,548427.140,7.936,2027b
10547,254958.948,548431.787,7.922,2027b
10548,254959.684,548436.590,7.941,2027b
10549,254960.459,548441.377,7.950,2027b
10550,254961.227,548446.080,7.944,2027b
10551,254961.979,548450.967,7.940,2027b
10552,254962.808,548455.701,7.949,2027b
10553,254963.561,548460.435,7.951,2027b
10554,254964.324,548465.234,7.956,2027b
10555,254965.062,548470.020,7.937,2027b
10556,254965.817,548474.806,7.948,2027b
10557,254966.616,548479.494,7.959,2027b
10558,254967.238,548483.951,7.958,2027b
10559,254961.905,548482.682,7.926,2027b
10560,254961.055,548477.940,7.937,2027b
10561,254960.223,548473.240,7.953,2027b
10562,254959.331,548468.686,7.938,2027b
10563,254958.537,548464.031,7.953,2027b
10564,254957.725,548459.290,7.955,2027b
10565,254956.952,548454.668,7.941,2027b
10566,254956.153,548449.960,7.947,2027b
10567,254955.382,548445.182,7.945,2027b
10568,254954.561,548440.252,7.930,2027b
10569,254953.848,548435.496,7.919,2027b
10570,254953.212,548430.782,7.926,2027b
10571,254952.455,548426.059,7.945,2027b
10572,254951.719,548421.222,7.935,2027b
10573,254950.874,548416.555,7.942,2027b
10574,254950.075,548411.803,7.922,2027b
10575,254949.317,548407.286,7.941,2027b
10576,254948.500,548403.096,7.918,2027b
10577,254944.267,548408.736,7.932,2027b
10578,254945.123,548413.424,7.944,2027b
10579,254945.938,548418.092,7.933,2027b
10580,254946.805,548422.788,7.928,2027b
10581,254947.599,548427.442,7.937,2027b
10582,254948.494,548432.225,7.916,2027b
10583,254949.279,548437.005,7.920,2027b
10584,254950.029,548441.667,7.931,2027b
10585,254950.723,548446.422,7.941,2027b
10586,254951.522,548451.245,7.943,2027b
10587,254952.295,548456.020,7.939,2027b
10588,254953.083,548460.645,7.943,2027b
10589,254953.872,548465.418,7.949,2027b
10590,254954.648,548470.046,7.941,2027b
10591,254955.502,548474.681,7.938,2027b
10592,254956.237,548479.390,7.944,2027b
10593,254950.927,548476.578,7.939,2027b
10594,254949.932,548471.663,7.937,2027b
10595,254949.106,548466.909,7.945,2027b
10596,254948.292,548462.162,7.952,2027b
10597,254947.487,548457.402,7.938,2027b
10598,254946.702,548452.658,7.939,2027b
10599,254945.942,548447.806,7.949,2027b
10600,254945.183,548443.083,7.941,2027b
10601,254944.374,548438.425,7.935,2027b
10602,254943.596,548433.531,7.949,2027b
10603,254942.839,548428.787,7.927,2027b
10604,254942.133,548423.900,7.933,2027b
10605,254941.315,548419.283,7.923,2027b
10606,254940.552,548414.587,7.931,2027b
10607,254936.396,548420.604,7.935,2027b
10608,254937.282,548425.617,7.930,2027b
10609,254938.017,548430.135,7.927,2027b
10610,254938.807,548434.969,7.920,2027b
10611,254939.583,548439.679,7.931,2027b
10612,254940.304,548444.454,7.930,2027b
10613,254941.060,548449.322,7.941,2027b
10614,254941.799,548454.083,7.946,2027b
10615,254942.621,548458.731,7.942,2027b
10616,254943.362,548463.488,7.946,2027b
10617,254944.061,548468.148,7.940,2027b
10618,254944.895,548472.724,7.944,2027b
10619,254938.778,548464.934,7.946,2027b
10620,254937.975,548460.178,7.939,2027b
10621,254937.229,548455.378,7.934,2027b
10622,254936.437,548450.719,7.935,2027b
10623,254935.765,548446.141,7.921,2027b
10624,254935.062,548441.443,7.918,2027b
10625,254934.380,548436.911,7.932,2027b
10626,254933.629,548432.100,7.938,2027b
10627,254932.854,548427.602,7.946,2027b
10628,254932.291,548424.500,7.872,2027b
10629,254929.716,548437.274,7.938,2027b
10630,254930.347,548441.719,7.926,2027b
10631,254931.027,548446.231,7.928,2027b
10632,254931.620,548450.614,7.929,2027b
10633,254907.968,548514.840,7.730,9901
