NAME,STATION-P,STATION-Q,STATION-R
N0,-0.010,1.190,0.000
M0,-0.060,-0.060,0.000
S0,-0.010,-1.140,0.000
N1,-0.010,3.740,0.000
M1,-0.060,2.490,0.000
S1,-0.010,1.410,0.000
N2,2.240,2.540,0.000
M2,2.190,1.290,0.000
S2,2.240,0.210,0.000
N3,2.240,-0.160,0.000
M3,2.190,-1.410,0.000
S3,2.240,-2.490,0.000
N4,-0.010,-1.360,0.000
M4,-0.060,-2.610,0.000
S4,-0.010,-3.690,0.000
N5,-2.260,-0.160,0.000
M5,-2.310,-1.410,0.000
S5,-2.260,-2.490,0.000
N6,-2.260,2.540,0.000
M6,-2.310,1.290,0.000
S6,-2.260,0.210,0.000
N7,4.561,-2.081,0.000
M7,4.511,-3.631,0.000
S7,4.561,-5.011,0.000
N8,1.196,-4.183,0.000
M8,1.146,-5.733,0.000
S8,1.196,-7.113,0.000
N9,-2.733,-3.631,0.000
M9,-2.783,-5.181,0.000
S9,-2.733,-6.561,0.000
N10,-5.388,-0.683,0.000
M10,-5.438,-2.233,0.000
S10,-5.388,-3.613,0.000
N11,-5.526,3.282,0.000
M11,-5.576,1.732,0.000
S11,-5.526,0.352,0.000
N12,-3.084,6.409,0.000
M12,-3.134,4.859,0.000
S12,-3.084,3.479,0.000
N13,0.797,7.234,0.000
M13,0.747,5.684,0.000
S13,0.797,4.304,0.000
N14,4.300,5.371,0.000
M14,4.250,3.821,0.000
S14,4.300,2.441,0.000
N15,5.786,1.692,0.000
M15,5.736,0.142,0.000
S15,5.786,-1.238,0.000
N16,9.304,0.999,0.000
M16,9.254,-0.551,0.000
S16,9.304,-1.931,0.000
N17,8.969,-2.643,0.000
M17,8.919,-4.193,0.000
S17,8.969,-5.573,0.000
N18,6.134,-6.809,0.000
M18,6.084,-8.359,0.000
S18,6.134,-9.739,0.000
N19,-0.926,-8.567,0.000
M19,-0.976,-10.117,0.000
S19,-0.926,-11.497,0.000
N20,-4.069,-7.828,0.000
M20,-4.119,-9.378,0.000
S20,-4.069,-10.758,0.000
N21,-7.509,-5.260,0.000
M21,-7.559,-6.810,0.000
S21,-7.509,-8.190,0.000
N22,-8.843,-1.215,0.000
M22,-8.893,-2.765,0.000
S22,-8.843,-4.145,0.000
N23,-8.451,4.566,0.000
M23,-8.501,3.016,0.000
S23,-8.451,1.636,0.000
N24,-6.537,8.951,0.000
M24,-6.587,7.401,0.000
S24,-6.537,6.021,0.000
N25,-2.769,11.193,0.000
M25,-2.819,9.643,0.000
S25,-2.769,8.263,0.000
N26,1.148,10.731,0.000
M26,1.098,9.181,0.000
S26,1.148,7.801,0.000
N27,5.526,8.643,0.000
M27,5.476,7.093,0.000
S27,5.526,5.713,0.000
N28,8.484,5.036,0.000
M28,8.434,3.486,0.000
S28,8.484,2.106,0.000
N29,14.177,-0.647,0.000
M29,14.127,-2.197,0.000
S29,14.177,-3.577,0.000
N30,13.548,-4.412,0.000
M30,13.498,-5.962,0.000
S30,13.548,-7.342,0.000
N31,11.492,-6.766,0.000
M31,11.442,-8.316,0.000
S31,11.492,-9.696,0.000
N32,4.630,-10.861,0.000
M32,4.580,-12.411,0.000
S32,4.630,-13.791,0.000
N33,2.954,-13.343,0.000
M33,2.904,-14.893,0.000
S33,2.954,-16.273,0.000
N34,-4.209,-11.149,0.000
M34,-4.259,-12.699,0.000
S34,-4.209,-14.079,0.000
N35,-8.529,-8.482,0.000
M35,-8.579,-10.032,0.000
S35,-8.529,-11.412,0.000
N36,-13.184,-5.921,0.000
M36,-13.234,-7.471,0.000
S36,-13.184,-8.851,0.000
N37,-12.883,-2.577,0.000
M37,-12.933,-4.127,0.000
S37,-12.883,-5.507,0.000
N38,-13.039,2.173,0.000
M38,-13.089,0.623,0.000
S38,-13.039,-0.757,0.000
N39,-10.980,8.868,0.000
M39,-11.030,7.318,0.000
S39,-10.980,5.938,0.000
N40,-9.636,11.310,0.000
M40,-9.686,9.760,0.000
S40,-9.636,8.380,0.000
N41,-4.929,13.812,0.000
M41,-4.979,12.262,0.000
S41,-4.929,10.882,0.000
N42,-1.757,16.494,0.000
M42,-1.807,14.944,0.000
S42,-1.757,13.564,0.000
N43,6.728,13.922,0.000
M43,6.678,12.372,0.000
S43,6.728,10.992,0.000
N44,9.789,11.371,0.000
M44,9.739,9.821,0.000
S44,9.789,8.441,0.000
N45,13.313,7.169,0.000
M45,13.263,5.619,0.000
S45,13.313,4.239,0.000
N48,17.488,5.513,0.000
M48,17.438,3.963,0.000
S48,17.488,2.583,0.000
N49,20.095,3.884,0.000
M49,20.045,2.334,0.000
S49,20.095,0.954,0.000
N50,16.030,-11.100,0.000
M50,15.980,-12.650,0.000
S50,16.030,-14.030,0.000
N51,1.594,-18.265,0.000
M51,1.544,-19.815,0.000
S51,1.594,-21.195,0.000
N52,-3.307,-18.795,0.000
M52,-3.357,-20.345,0.000
S52,-3.307,-21.725,0.000
N53,-12.980,-11.464,0.000
M53,-13.030,-13.014,0.000
S53,-12.980,-14.394,0.000
N54,-17.903,0.875,0.000
M54,-17.953,-0.675,0.000
S54,-17.903,-2.055,0.000
N55,-19.124,8.744,0.000
M55,-19.174,7.194,0.000
S55,-19.124,5.814,0.000
N56,-7.863,17.761,0.000
M56,-7.913,16.211,0.000
S56,-7.863,14.831,0.000
N57,-0.520,21.348,0.000
M57,-0.570,19.798,0.000
S57,-0.520,18.418,0.000
N58,8.850,17.993,0.000
M58,8.800,16.443,0.000
S58,8.850,15.063,0.000
N59,16.855,19.730,0.000
M59,16.805,18.180,0.000
S59,16.855,16.800,0.000
N60,23.889,8.781,0.000
M60,23.839,7.231,0.000
S60,23.889,5.851,0.000
N61,24.756,-4.066,0.000
M61,24.706,-5.616,0.000
S61,24.756,-6.996,0.000
N62,22.850,-10.042,0.000
M62,22.800,-11.592,0.000
S62,22.850,-12.972,0.000
N63,18.835,-17.464,0.000
M63,18.785,-19.014,0.000
S63,18.835,-20.394,0.000
N64,1.901,-22.394,0.000
M64,1.851,-23.944,0.000
S64,1.901,-25.324,0.000
N65,-6.073,-22.207,0.000
M65,-6.123,-23.757,0.000
S65,-6.073,-25.137,0.000
N66,-18.795,-16.718,0.000
M66,-18.845,-18.268,0.000
S66,-18.795,-19.648,0.000
N67,-24.603,-3.748,0.000
M67,-24.653,-5.298,0.000
S67,-24.603,-6.678,0.000
N68,-25.751,5.489,0.000
M68,-25.801,3.939,0.000
S68,-25.751,2.559,0.000
N69,-20.217,15.835,0.000
M69,-20.267,14.285,0.000
S69,-20.217,12.905,0.000
N70,-8.676,27.088,0.000
M70,-8.726,25.538,0.000
S70,-8.676,24.158,0.000
N71,9.067,26.949,0.000
M71,9.017,25.399,0.000
S71,9.067,24.019,0.000
N72,22.872,27.501,0.000
M72,22.822,25.951,0.000
S72,22.872,24.571,0.000
N73,28.838,13.844,0.000
M73,28.788,12.294,0.000
S73,28.838,10.914,0.000
N74,31.215,-0.578,0.000
M74,31.165,-2.128,0.000
S74,31.215,-3.508,0.000
N75,31.060,-8.583,0.000
M75,31.010,-10.133,0.000
S75,31.060,-11.513,0.000
N76,19.382,-23.443,0.000
M76,19.332,-24.993,0.000
S76,19.382,-26.373,0.000
N77,3.753,-32.471,0.000
M77,3.703,-34.021,0.000
S77,3.753,-35.401,0.000
N78,-8.504,-31.518,0.000
M78,-8.554,-33.068,0.000
S78,-8.504,-34.448,0.000
N79,-14.820,-24.599,0.000
M79,-14.870,-26.149,0.000
S79,-14.820,-27.529,0.000
N80,-27.989,-18.179,0.000
M80,-28.039,-19.729,0.000
S80,-27.989,-21.109,0.000
N81,-33.901,-0.106,0.000
M81,-33.951,-1.656,0.000
S81,-33.901,-3.036,0.000
N82,-33.005,8.816,0.000
M82,-33.055,7.266,0.000
S82,-33.005,5.886,0.000
N83,-26.800,23.517,0.000
M83,-26.850,21.967,0.000
S83,-26.800,20.587,0.000
N84,-19.491,27.298,0.000
M84,-19.541,25.748,0.000
S84,-19.491,24.368,0.000
N85,-0.289,34.779,0.000
M85,-0.339,33.229,0.000
S85,-0.289,31.849,0.000
N86,5.645,31.634,0.000
M86,5.595,30.084,0.000
S86,5.645,28.704,0.000
N87,8.455,37.248,0.000
M87,8.405,35.698,0.000
S87,8.455,34.318,0.000
N88,39.900,13.832,0.000
M88,39.850,12.282,0.000
S88,39.900,10.902,0.000
N89,37.755,-11.730,0.000
M89,37.705,-13.280,0.000
S89,37.755,-14.660,0.000
N90,28.347,-29.464,0.000
M90,28.297,-31.014,0.000
S90,28.347,-32.394,0.000
N91,13.825,-36.380,0.000
M91,13.775,-37.930,0.000
S91,13.825,-39.310,0.000
N92,-30.157,-26.546,0.000
M92,-30.207,-28.096,0.000
S92,-30.157,-29.476,0.000
N93,-35.999,-4.946,0.000
M93,-36.049,-6.496,0.000
S93,-35.999,-7.876,0.000
N94,-40.393,10.825,0.000
M94,-40.443,9.275,0.000
S94,-40.393,7.895,0.000
N95,-8.063,39.425,0.000
M95,-8.113,37.875,0.000
S95,-8.063,36.495,0.000
N46,-32.537,57.828,0.000
M46,-32.587,56.278,0.000
S46,-32.537,54.898,0.000
N47,56.328,34.017,0.000
M47,56.278,32.467,0.000
S47,56.328,31.087,0.000
D1,-3.310,36.190,0.000
D2,-12.310,28.190,0.000
D3,-13.910,22.190,0.000
D4,-18.810,22.190,0.000
D5,-31.810,10.690,0.000
D6,-13.910,5.190,0.000
D7,-15.410,4.490,0.000
D8,-30.310,-1.810,0.000
D9,-31.910,-6.410,0.000
D10,-5.710,4.790,0.000
D11,-9.810,0.190,0.000
D12,-15.410,0.690,0.000
D13,-15.310,-1.710,0.000
D14,-16.710,-5.310,0.000
D15,-20.810,-5.310,0.000
D16,-26.310,-27.810,0.000
D17,-16.710,-14.810,0.000
D18,-15.310,-16.810,0.000
D19,-11.310,-24.810,0.000
D20,-5.310,-16.110,0.000
D21,-1.810,-15.810,0.000
D22,10.690,42.190,0.000
D23,11.690,37.190,0.000
D24,12.590,23.790,0.000
D25,6.190,18.690,0.000
D26,2.690,13.190,0.000
D27,-0.810,12.290,0.000
D28,4.690,9.690,0.000
D29,7.290,9.690,0.000
D30,2.290,3.390,0.000
D31,12.690,16.390,0.000
D32,15.690,12.190,0.000
D33,11.690,2.790,0.000
D34,11.690,-2.810,0.000
D35,20.690,5.190,0.000
D36,23.690,4.190,0.000
D37,23.690,0.190,0.000
D38,19.690,-4.010,0.000
D39,12.690,-11.810,0.000
D40,7.690,-11.810,0.000
D41,5.090,-19.710,0.000
D42,5.690,-29.910,0.000
D43,10.690,-36.810,0.000
D44,19.690,-14.810,0.000
D45,22.690,-16.810,0.000
D46,22.690,-29.810,0.000
D47,28.290,-4.210,0.000
D48,36.690,-9.810,0.000
D49,20.690,23.190,0.000
D50,29.690,15.690,0.000
D51,-30.510,49.990,0.000
D52,42.290,28.590,0.000
