217,248591.415,568207.600,1.425,hba
218,248586.887,568206.510,1.421,hba
219,248582.351,568205.434,1.424,hba
220,248577.589,568204.203,1.426,hba
221,248572.891,568203.045,1.429,hba
222,248568.513,568201.773,1.440,hba
223,248564.084,568200.412,1.428,hba
224,248559.607,568199.346,1.433,hba
225,248555.130,568198.089,1.438,hba
226,248550.637,568197.073,1.438,hba
227,248546.646,568196.192,1.435,hba
228,248545.185,568195.880,1.469,hba
229,248547.065,568191.837,1.455,hba
230,248551.600,568192.902,1.414,hba
231,248556.602,568194.034,1.415,hba
232,248561.314,568195.224,1.434,hba
233,248565.594,568196.240,1.415,hba
234,248569.883,568197.251,1.441,hba
235,248574.380,568198.387,1.401,hba
236,248578.727,568199.429,1.428,hba
237,248583.017,568200.713,1.443,hba
238,248587.440,568201.698,1.422,hba
239,248592.074,568202.906,1.420,hba
240,248596.626,568203.936,1.451,hba
241,248601.570,568205.205,1.424,hba
242,248606.050,568206.217,1.408,hba
243,248610.671,568207.420,1.411,hba
244,248615.148,568208.496,1.419,hba
245,248619.321,568209.543,1.411,hba
246,248623.738,568210.636,1.421,hba
247,248628.087,568211.731,1.431,hba
248,248631.685,568212.508,1.420,hba
249,248633.967,568212.992,1.418,hba
250,248634.035,568208.426,1.388,hba
251,248629.240,568207.340,1.399,hba
252,248624.902,568206.359,1.425,hba
253,248620.436,568205.372,1.410,hba
254,248616.231,568204.345,1.422,hba
255,248611.826,568203.225,1.407,hba
256,248607.323,568202.084,1.398,hba
257,248603.119,568201.120,1.407,hba
258,248598.715,568200.063,1.399,hba
259,248594.568,568198.988,1.418,hba
261,248590.110,568197.797,1.405,hba
262,248585.928,568196.626,1.392,hba
263,248581.274,568195.373,1.408,hba
264,248576.807,568194.201,1.398,hba
265,248572.381,568193.098,1.413,hba
266,248567.659,568191.924,1.404,hba
267,248563.178,568190.805,1.402,hba
268,248558.365,568189.590,1.397,hba
269,248553.771,568188.366,1.392,hba
270,248549.659,568187.179,1.450,hba
271,248552.108,568183.333,1.406,hba
272,248556.657,568184.486,1.392,hba
273,248561.008,568185.476,1.380,hba
274,248565.574,568186.646,1.390,hba
275,248570.253,568187.796,1.390,hba
276,248574.706,568188.966,1.391,hba
277,248579.396,568190.126,1.384,hba
278,248583.812,568191.172,1.382,hba
279,248588.261,568192.336,1.388,hba
280,248592.515,568193.385,1.382,hba
281,248597.235,568194.619,1.400,hba
282,248601.623,568195.682,1.390,hba
283,248606.214,568196.819,1.389,hba
284,248611.077,568197.926,1.370,hba
285,248615.561,568199.118,1.380,hba
286,248620.334,568200.313,1.370,hba
287,248624.948,568201.564,1.375,hba
288,248629.554,568202.799,1.388,hba
289,248633.555,568203.628,1.387,hba
290,248631.654,568197.993,1.367,hba
291,248627.002,568196.904,1.365,hba
292,248622.443,568195.886,1.370,hba
293,248617.765,568194.753,1.380,hba
294,248613.311,568193.570,1.357,hba
295,248609.013,568192.527,1.371,hba
296,248604.456,568191.444,1.368,hba
297,248599.926,568190.362,1.366,hba
298,248595.339,568189.376,1.377,hba
299,248590.978,568188.345,1.380,hba
300,248586.746,568187.329,1.375,hba
301,248582.336,568186.361,1.376,hba
302,248577.701,568185.235,1.363,hba
303,248573.325,568184.193,1.375,hba
304,248568.701,568182.895,1.369,hba
305,248564.268,568181.835,1.382,hba
306,248559.964,568180.753,1.372,hba
307,248555.176,568179.655,1.360,hba
308,248558.688,568176.742,1.364,hba
309,248563.562,568177.913,1.366,hba
310,248568.283,568179.109,1.362,hba
311,248572.433,568179.958,1.365,hba
312,248576.906,568180.994,1.372,hba
313,248581.252,568182.027,1.358,hba
314,248585.915,568183.084,1.357,hba
315,248590.654,568184.078,1.369,hba
316,248595.045,568185.014,1.358,hba
317,248599.630,568186.078,1.363,hba
318,248603.840,568186.998,1.348,hba
319,248608.375,568188.006,1.365,hba
320,248612.609,568188.927,1.352,hba
321,248617.181,568189.927,1.362,hba
322,248621.617,568190.976,1.363,hba
323,248626.141,568191.974,1.358,hba
324,248629.926,568192.769,1.353,hba
325,248626.846,568186.839,1.342,hba
326,248621.886,568185.860,1.346,hba
327,248616.806,568184.824,1.343,hba
328,248612.119,568183.898,1.328,hba
329,248607.470,568182.944,1.346,hba
330,248602.939,568182.016,1.335,hba
331,248598.750,568181.073,1.359,hba
332,248594.337,568180.290,1.396,hba
333,248589.962,568179.403,1.353,hba
334,248585.427,568178.164,1.366,hba
335,248580.903,568177.367,1.356,hba
336,248576.597,568176.347,1.341,hba
337,248572.227,568175.386,1.350,hba
338,248567.311,568174.322,1.344,hba
339,248563.280,568173.393,1.337,hba
340,248568.000,568170.397,1.335,hba
341,248572.698,568171.533,1.341,hba
342,248577.478,568172.394,1.331,hba
343,248581.717,568173.209,1.356,hba
344,248586.095,568174.008,1.341,hba
345,248590.482,568175.165,1.326,hba
346,248594.886,568175.895,1.343,hba
347,248599.447,568176.811,1.324,hba
348,248603.800,568177.538,1.328,hba
349,248608.260,568178.402,1.317,hba
350,248612.703,568179.284,1.326,hba
351,248617.002,568180.256,1.346,hba
352,248622.303,568181.129,1.321,hba
353,248615.253,568174.591,1.303,hba
354,248618.714,568177.436,1.312,hba
355,248610.112,568173.829,1.315,hba
356,248605.577,568173.119,1.307,hba
357,248601.175,568172.469,1.313,hba
358,248596.893,568171.792,1.317,hba
359,248592.546,568171.164,1.321,hba
360,248588.108,568170.439,1.321,hba
361,248583.821,568169.701,1.325,hba
362,248579.456,568169.012,1.325,hba
363,248575.166,568167.984,1.325,hba
364,248578.592,568167.059,1.315,hba
365,248582.252,568166.400,1.315,hba
366,248586.387,568165.951,1.310,hba
367,248588.276,568167.105,1.310,hba
368,248590.657,568166.057,1.307,hba
369,248594.356,568166.432,1.291,hba
370,248598.392,568167.232,1.299,hba
371,248602.962,568168.417,1.300,hba
372,248607.725,568170.221,1.306,hba
373,248574.030,568144.987,1.235,hba
374,248577.051,568144.691,1.244,hba
375,248577.103,568144.714,1.245,hba
376,248579.925,568144.481,1.241,hba
377,248582.736,568144.391,1.218,hba
378,248585.508,568144.120,1.233,hba
379,248588.407,568143.997,1.249,hba
380,248591.374,568143.749,1.223,hba
381,248594.160,568143.617,1.225,hba
382,248597.119,568143.340,1.220,hba
383,248600.086,568143.121,1.220,hba
384,248602.894,568142.889,1.220,hba
385,248605.700,568142.704,1.227,hba
386,248608.486,568142.467,1.206,hba
387,248611.340,568142.256,1.207,hba
388,248614.264,568141.979,1.204,hba
389,248617.352,568141.767,1.200,hba
390,248620.246,568141.566,1.202,hba
391,248622.764,568141.299,1.200,hba
392,248622.165,568138.385,1.185,hba
393,248619.051,568138.566,1.188,hba
394,248616.133,568138.701,1.201,hba
395,248613.338,568138.835,1.197,hba
396,248610.600,568139.095,1.195,hba
397,248607.696,568139.365,1.217,hba
398,248604.856,568139.630,1.226,hba
399,248601.968,568139.948,1.215,hba
400,248598.969,568140.199,1.205,hba
401,248596.378,568140.479,1.209,hba
402,248593.519,568140.630,1.226,hba
403,248590.888,568140.827,1.233,hba
404,248588.135,568141.055,1.234,hba
405,248585.138,568141.310,1.232,hba
406,248582.330,568141.505,1.242,hba
407,248579.551,568141.756,1.237,hba
408,248576.883,568141.887,1.247,hba
409,248574.092,568142.174,1.228,hba
410,248574.311,568139.062,1.235,hba
411,248577.427,568138.781,1.228,hba
412,248580.331,568138.464,1.225,hba
413,248583.330,568138.305,1.226,hba
414,248585.993,568138.015,1.213,hba
415,248588.725,568137.697,1.221,hba
416,248591.359,568137.406,1.209,hba
417,248594.101,568136.955,1.204,hba
418,248596.773,568136.640,1.212,hba
419,248599.707,568136.520,1.206,hba
420,248602.600,568136.391,1.191,hba
421,248605.309,568136.294,1.201,hba
422,248608.212,568136.143,1.198,hba
423,248611.153,568136.031,1.180,hba
424,248614.094,568135.790,1.175,hba
425,248616.862,568135.619,1.180,hba
426,248619.569,568135.580,1.166,hba
427,248621.422,568135.465,1.172,hba
428,248620.011,568132.311,1.159,hba
429,248616.993,568132.485,1.168,hba
430,248614.056,568132.745,1.163,hba
431,248611.464,568132.951,1.179,hba
432,248608.538,568133.147,1.187,hba
433,248605.536,568133.344,1.191,hba
434,248602.633,568133.545,1.205,hba
435,248599.748,568133.800,1.227,hba
436,248597.013,568134.118,1.183,hba
437,248593.916,568134.410,1.197,hba
438,248590.887,568134.693,1.204,hba
439,248588.014,568135.051,1.200,hba
440,248585.029,568135.221,1.221,hba
441,248582.248,568135.464,1.188,hba
442,248579.438,568135.676,1.197,hba
443,248577.127,568135.809,1.232,hba
444,248575.306,568136.007,1.251,hba
445,248576.354,568132.685,1.267,hba
446,248579.508,568132.297,1.206,hba
447,248582.415,568132.072,1.203,hba
448,248585.324,568131.783,1.192,hba
449,248588.091,568131.561,1.209,hba
450,248590.929,568131.237,1.190,hba
451,248593.737,568130.988,1.207,hba
452,248596.547,568130.860,1.193,hba
453,248599.415,568130.614,1.195,hba
454,248602.302,568130.489,1.184,hba
455,248605.124,568130.163,1.183,hba
456,248607.703,568129.998,1.190,hba
457,248610.589,568129.816,1.162,hba
458,248613.296,568129.674,1.168,hba
459,248616.101,568129.506,1.161,hba
460,248618.390,568129.295,1.141,hba
461,248616.405,568126.696,1.140,hba
462,248613.403,568126.794,1.139,hba
463,248610.581,568126.958,1.153,hba
464,248607.829,568127.088,1.146,hba
465,248605.217,568127.281,1.167,hba
466,248602.549,568127.510,1.178,hba
467,248599.886,568127.630,1.153,hba
468,248597.123,568127.845,1.151,hba
469,248594.460,568127.991,1.181,hba
470,248591.741,568128.103,1.177,hba
471,248589.130,568128.280,1.182,hba
472,248586.358,568128.526,1.164,hba
473,248583.556,568128.655,1.204,hba
474,248580.961,568128.828,1.180,hba
475,248578.774,568128.945,1.221,hba
476,248580.021,568126.757,1.171,hba
477,248583.290,568126.393,1.187,hba
478,248586.081,568126.042,1.202,hba
479,248588.809,568125.710,1.172,hba
480,248591.842,568125.425,1.170,hba
481,248594.692,568125.003,1.168,hba
482,248597.491,568124.717,1.168,hba
483,248600.565,568124.415,1.159,hba
484,248603.528,568124.210,1.166,hba
485,248606.447,568123.933,1.151,hba
486,248609.241,568123.842,1.145,hba
487,248612.775,568123.338,1.137,hba
488,248608.620,568120.980,1.131,hba
489,248605.481,568121.182,1.148,hba
490,248602.778,568121.279,1.151,hba
491,248600.455,568121.464,1.184,hba
492,248600.514,568120.359,1.150,hba
493,248597.646,568121.775,1.158,hba
494,248595.175,568121.835,1.162,hba
495,248595.242,568120.793,1.136,hba
496,248592.301,568122.060,1.177,hba
497,248589.682,568122.406,1.170,hba
498,248587.008,568122.542,1.173,hba
499,248584.794,568122.639,1.157,hba
500,248587.506,568121.218,1.168,hba
501,248590.234,568120.152,1.149,hba
502,248592.941,568119.412,1.150,hba
503,248595.346,568118.939,1.149,hba
504,248598.129,568118.950,1.169,hba
505,248601.163,568119.114,1.144,hba
506,248603.838,568119.473,1.129,hba
507,248606.288,568120.016,1.129,hba
508,248574.374,568148.101,1.263,hba
509,248577.239,568148.022,1.296,hba
510,248579.896,568147.778,1.288,hba
511,248582.624,568147.536,1.253,hba
512,248585.505,568147.251,1.244,hba
513,248588.116,568147.069,1.255,hba
514,248590.720,568146.800,1.235,hba
515,248593.822,568146.492,1.234,hba
516,248596.521,568146.394,1.219,hba
517,248599.073,568146.161,1.219,hba
518,248601.863,568145.865,1.223,hba
519,248604.358,568145.664,1.264,hba
520,248607.136,568145.397,1.216,hba
521,248609.836,568145.222,1.214,hba
522,248612.286,568145.040,1.231,hba
523,248615.176,568144.931,1.216,hba
524,248617.889,568144.748,1.209,hba
525,248620.540,568144.642,1.208,hba
526,248622.622,568144.482,1.202,hba
527,248622.232,568147.268,1.211,hba
528,248619.512,568147.450,1.212,hba
529,248616.813,568147.740,1.223,hba
530,248614.300,568147.884,1.229,hba
531,248611.565,568148.127,1.226,hba
532,248608.955,568148.329,1.213,hba
533,248605.972,568148.565,1.234,hba
534,248603.225,568148.850,1.220,hba
535,248600.251,568149.089,1.243,hba
536,248597.371,568149.360,1.240,hba
537,248594.566,568149.573,1.232,hba
538,248591.652,568149.827,1.249,hba
539,248588.753,568150.036,1.243,hba
540,248586.138,568150.222,1.265,hba
541,248583.353,568150.490,1.256,hba
542,248580.480,568150.667,1.270,hba
543,248577.934,568150.831,1.270,hba
544,248575.219,568151.150,1.279,hba
545,248576.357,568154.480,1.289,hba
546,248579.207,568154.061,1.281,hba
547,248581.998,568153.777,1.271,hba
548,248584.849,568153.458,1.270,hba
549,248587.594,568153.052,1.262,hba
550,248590.478,568152.767,1.259,hba
551,248593.228,568152.408,1.242,hba
552,248596.114,568152.137,1.245,hba
553,248599.028,568151.815,1.237,hba
554,248601.950,568151.564,1.236,hba
555,248604.951,568151.173,1.233,hba
556,248608.004,568150.921,1.240,hba
557,248610.904,568150.689,1.243,hba
558,248613.915,568150.448,1.225,hba
559,248616.731,568150.328,1.224,hba
560,248619.653,568150.263,1.224,hba
561,248621.259,568150.271,1.207,hba
562,248620.557,568152.820,1.219,hba
563,248617.532,568153.050,1.215,hba
564,248614.573,568153.438,1.243,hba
565,248611.672,568153.667,1.257,hba
566,248608.903,568154.008,1.246,hba
567,248606.402,568154.262,1.251,hba
568,248603.580,568154.618,1.244,hba
569,248600.796,568154.928,1.245,hba
570,248598.088,568155.168,1.252,hba
571,248595.396,568155.389,1.259,hba
572,248592.492,568155.688,1.267,hba
573,248589.794,568156.038,1.264,hba
574,248587.108,568156.292,1.277,hba
575,248584.477,568156.485,1.296,hba
576,248581.647,568156.861,1.279,hba
577,248578.147,568157.143,1.284,hba
578,248580.439,568159.954,1.298,hba
579,248583.532,568159.680,1.305,hba
580,248586.423,568159.251,1.294,hba
581,248589.492,568158.950,1.278,hba
582,248592.202,568158.472,1.276,hba
583,248594.966,568158.103,1.279,hba
584,248597.689,568157.853,1.262,hba
585,248600.406,568157.477,1.251,hba
586,248603.085,568157.157,1.262,hba
587,248606.038,568156.859,1.250,hba
588,248608.769,568156.562,1.256,hba
589,248611.256,568156.330,1.258,hba
590,248613.821,568156.061,1.238,hba
591,248616.222,568155.910,1.249,hba
592,248619.210,568155.710,1.239,hba
593,248616.281,568159.060,1.264,hba
594,248613.346,568159.365,1.256,hba
595,248610.497,568159.708,1.255,hba
596,248607.503,568159.945,1.266,hba
597,248604.934,568160.438,1.288,hba
598,248602.060,568160.773,1.276,hba
599,248599.497,568161.056,1.280,hba
600,248596.840,568161.435,1.271,hba
601,248594.261,568161.661,1.285,hba
602,248591.704,568161.948,1.285,hba
603,248589.072,568162.111,1.280,hba
604,248586.150,568162.363,1.303,hba
605,248583.376,568162.671,1.297,hba
606,248586.329,568164.803,1.302,hba
607,248589.568,568164.561,1.307,hba
608,248592.440,568164.354,1.287,hba
609,248595.041,568164.217,1.283,hba
610,248594.865,568165.726,1.291,hba
611,248597.940,568163.829,1.295,hba
612,248600.591,568163.700,1.296,hba
613,248600.591,568165.193,1.280,hba
614,248603.601,568163.347,1.284,hba
615,248606.054,568163.116,1.279,hba
616,248606.079,568164.547,1.280,hba
617,248609.006,568162.765,1.273,hba
618,248611.627,568162.624,1.266,hba
619,248613.648,568162.499,1.269,hba
620,248611.482,568163.863,1.270,hba
621,248608.961,568165.071,1.286,hba
622,248606.567,568165.909,1.288,hba
623,248603.989,568166.760,1.289,hba
624,248601.169,568167.579,1.301,hba
625,248598.370,568167.116,1.303,hba
626,248595.410,568166.710,1.292,hba
627,248592.648,568166.340,1.311,hba
628,248589.641,568165.839,1.312,hba
