199,248608.251,568263.248,1.582,lba46
200,248608.803,568261.829,1.572,lba46
201,248607.492,568261.169,1.569,lba46
202,248605.879,568263.629,1.588,lba46
203,248607.400,568264.569,1.585,lba46
204,248608.625,568265.428,1.588,lba46
205,248609.520,568264.246,1.584,lba46
206,248610.291,568262.925,1.554,lba46
207,248606.910,568262.164,1.573,lba46
