NAME,STATION-P,STATION-Q,STATION-R
C0,-6.068,16.173,0.000
C1,-0.946,15.635,0.000
C2,4.176,15.096,0.000
C3,9.298,14.558,0.000
C4,-6.606,11.051,0.000
C5,-1.484,10.513,0.000
C6,3.638,9.974,0.000
C7,8.759,9.436,0.000
C8,-17.388,7.006,0.000
C9,-12.266,6.468,0.000
C10,-7.144,5.929,0.000
C11,-2.023,5.391,0.000
C12,3.099,4.853,0.000
C13,8.221,4.314,0.000
C14,13.343,3.776,0.000
C15,18.465,3.238,0.000
C16,-17.926,1.884,0.000
C17,-12.804,1.346,0.000
C18,-7.683,0.807,0.000
C19,-2.561,0.269,0.000
C20,2.561,-0.269,0.000
C21,7.683,-0.807,0.000
C22,12.804,-1.346,0.000
C23,17.926,-1.884,0.000
C24,-18.465,-3.238,0.000
C25,-13.343,-3.776,0.000
C26,-8.221,-4.314,0.000
C27,-3.099,-4.853,0.000
C28,2.023,-5.391,0.000
C29,7.144,-5.929,0.000
C30,12.266,-6.468,0.000
C31,17.388,-7.006,0.000
C32,-19.003,-8.359,0.000
C33,-13.881,-8.898,0.000
C34,-8.759,-9.436,0.000
C35,-3.638,-9.974,0.000
C36,1.484,-10.513,0.000
C37,6.606,-11.051,0.000
C38,11.728,-11.589,0.000
C39,16.850,-12.128,0.000
C40,-9.298,-14.558,0.000
C41,-4.176,-15.096,0.000
C42,0.946,-15.635,0.000
C43,6.068,-16.173,0.000
C44,-9.836,-19.680,0.000
C45,-4.714,-20.218,0.000
C46,0.408,-20.756,0.000
C47,5.529,-21.295,0.000
A0,-8.090,21.564,0.000
A1,-2.969,21.025,0.000
A2,2.153,20.487,0.000
A3,7.275,19.949,0.000
A4,12.397,19.411,0.000
A5,-8.629,16.442,0.000
A6,-3.507,15.904,0.000
A7,1.615,15.365,0.000
A8,6.737,14.827,0.000
A9,11.859,14.289,0.000
A10,-19.411,12.397,0.000
A11,-14.289,11.859,0.000
A12,-9.167,11.320,0.000
A13,-4.045,10.782,0.000
A14,1.077,10.244,0.000
A15,6.198,9.705,0.000
A16,11.320,9.167,0.000
A17,16.442,8.629,0.000
A18,21.564,8.090,0.000
A19,-19.949,7.275,0.000
A20,-14.827,6.737,0.000
A21,-9.705,6.198,0.000
A22,-4.583,5.660,0.000
A23,0.538,5.122,0.000
A24,5.660,4.583,0.000
A25,10.782,4.045,0.000
A26,15.904,3.507,0.000
A27,21.025,2.969,0.000
A28,-20.487,2.153,0.000
A29,-15.365,1.615,0.000
A30,-10.244,1.077,0.000
A31,-5.122,0.538,0.000
A32,0.000,0.000,0.000
A33,5.122,-0.538,0.000
A34,10.244,-1.077,0.000
A35,15.365,-1.615,0.000
A36,20.487,-2.153,0.000
A37,-21.025,-2.969,0.000
A38,-15.904,-3.507,0.000
A39,-10.782,-4.045,0.000
A40,-5.660,-4.583,0.000
A41,-0.538,-5.122,0.000
A42,4.583,-5.660,0.000
A43,9.705,-6.198,0.000
A44,14.827,-6.737,0.000
A45,19.949,-7.275,0.000
A46,-21.564,-8.090,0.000
A47,-16.442,-8.629,0.000
A48,-11.320,-9.167,0.000
A49,-6.198,-9.705,0.000
A50,-1.077,-10.244,0.000
A51,4.045,-10.782,0.000
A52,9.167,-11.320,0.000
A53,14.289,-11.859,0.000
A54,19.411,-12.397,0.000
A55,-11.859,-14.289,0.000
A56,-6.737,-14.827,0.000
A57,-1.615,-15.365,0.000
A58,3.507,-15.904,0.000
A59,8.629,-16.442,0.000
A60,-12.397,-19.411,0.000
A61,-7.275,-19.949,0.000
A62,-2.153,-20.487,0.000
A63,2.969,-21.025,0.000
A64,8.090,-21.564,0.000
HBD101,-17.128,16.179,0.000
HBD102,-10.929,25.884,0.000
HBD103,-5.807,25.346,0.000
HBD104,-0.686,24.808,0.000
HBD105,4.436,24.269,0.000
HBD106,9.558,23.731,0.000
HBD107,14.680,23.193,0.000
HBD108,18.725,12.411,0.000
HBD109,18.307,8.433,0.000
HBD110,13.185,8.971,0.000
HBD111,9.140,19.753,0.000
HBD112,4.018,20.291,0.000
HBD113,-1.104,20.829,0.000
HBD114,-6.226,21.368,0.000
HBD115,-12.424,11.663,0.000
HBD116,-17.546,12.201,0.000
HBD117,-8.379,0.881,0.000
HBD118,-3.257,0.342,0.000
HBD119,1.865,-0.196,0.000
HBD120,6.987,-0.734,0.000
HBD121,16.224,-11.383,0.000
HBD122,11.102,-10.845,0.000
HBD123,4.904,-20.550,0.000
HBD124,-0.218,-20.012,0.000
HBD125,-5.340,-19.474,0.000
HBD126,-10.462,-18.935,0.000
HBD127,-14.507,-8.153,0.000
HBD128,-19.629,-7.615,0.000
R0,-5.997,16.844,0.000
R1,-0.875,16.306,0.000
R2,4.246,15.768,0.000
R3,9.368,15.229,0.000
R4,-6.535,11.722,0.000
R5,-1.414,11.184,0.000
R6,3.708,10.646,0.000
R7,8.830,10.107,0.000
R8,-17.317,7.677,0.000
R9,-12.196,7.139,0.000
R10,-7.074,6.601,0.000
R11,-1.952,6.062,0.000
R12,3.170,5.524,0.000
R13,8.292,4.986,0.000
R14,13.413,4.447,0.000
R15,18.535,3.909,0.000
R16,-17.856,2.555,0.000
R17,-12.734,2.017,0.000
R18,-7.612,1.479,0.000
R19,-2.490,0.940,0.000
R20,2.631,0.402,0.000
R21,7.753,-0.136,0.000
R22,12.875,-0.675,0.000
R23,17.997,-1.213,0.000
R24,-18.394,-2.566,0.000
R25,-13.272,-3.105,0.000
R26,-8.150,-3.643,0.000
R27,-3.029,-4.181,0.000
R28,2.093,-4.720,0.000
R29,7.215,-5.258,0.000
R30,12.337,-5.796,0.000
R31,17.458,-6.335,0.000
R32,-18.932,-7.688,0.000
R33,-13.811,-8.226,0.000
R34,-8.689,-8.765,0.000
R35,-3.567,-9.303,0.000
R36,1.555,-9.841,0.000
R37,6.677,-10.380,0.000
R38,11.798,-10.918,0.000
R39,16.920,-11.456,0.000
R40,-9.227,-13.887,0.000
R41,-4.105,-14.425,0.000
R42,1.016,-14.963,0.000
R43,6.138,-15.502,0.000
R44,-9.765,-19.008,0.000
R45,-4.644,-19.547,0.000
R46,0.478,-20.085,0.000
R47,5.600,-20.623,0.000
