########################################################################
# KAIRA HIGH-BAND ARRAY TILE CENTRE COORDINATES
#
# Doc.No:KAIRA-RAL-DAT-004
# Iss/Rv: 0a
# Author: Derek McKay-Bukowski
# Date:   10-Jul-2012
#
########################################################################
#
# References:
#
#    KAIRA_RAL-TEC-017_v0a -- Technical note describing procedures
#    KAIRA-RAL-TEC-018_v0a -- Calculation and cross-check spreadsheet
#
########################################################################
#
# Coordinates are ETRS-GKn (n=21), as used in the original survey (2011).
# Units are metres. Columns are as follows:
#   Column 1 = Point identification number
#   Column 2 = X/Easting (in some systems the leading "21" is omitted)
#   Column 3 = Y/Northing
#   Column 4 = Common height
# Lines beginning with "#" are comments
#
########################################################################

ID	EASTINGS	NORTHINGS	HEIGHT
H22	21490462.709	7665394.015	495.241
H23	21490466.401	7665390.428	495.241
H24	21490470.094	7665386.840	495.241
H25	21490473.786	7665383.253	495.241
H27	21490481.170	7665376.078	495.241
H28	21490484.862	7665372.490	495.241
H30	21490492.246	7665365.315	495.241
H31	21490495.938	7665361.728	495.241
H33	21490459.122	7665390.323	495.241
H34	21490462.814	7665386.736	495.241
H35	21490466.506	7665383.148	495.241
H36	21490470.198	7665379.561	495.241
H38	21490477.582	7665372.386	495.241
H39	21490481.275	7665368.798	495.241
H41	21490488.659	7665361.623	495.241
H42	21490492.351	7665358.036	495.241
H44	21490455.534	7665386.631	495.241
H45	21490459.226	7665383.044	495.241
H46	21490462.919	7665379.456	495.241
H47	21490466.611	7665375.869	495.241
H48	21490473.995	7665368.694	495.241
H49	21490477.687	7665365.106	495.241
H51	21490485.071	7665357.931	495.241
H52	21490488.763	7665354.344	495.241
H54	21490451.947	7665382.939	495.241
H55	21490455.639	7665379.352	495.241
H56	21490459.331	7665375.764	495.241
H57	21490463.023	7665372.177	495.241
H59	21490470.407	7665365.002	495.241
H60	21490474.100	7665361.414	495.241
H62	21490481.484	7665354.239	495.241
H63	21490485.176	7665350.652	495.241
H65	21490448.359	7665379.247	495.241
H66	21490452.051	7665375.660	495.241
H67	21490455.744	7665372.072	495.241
H68	21490459.436	7665368.485	495.241
H70	21490466.820	7665361.309	495.241
H71	21490470.512	7665357.722	495.241
H73	21490477.896	7665350.547	495.241
H74	21490481.588	7665346.959	495.241
H75	21490444.772	7665375.555	495.241
H76	21490448.464	7665371.967	495.241
H77	21490452.156	7665368.380	495.241
H78	21490455.848	7665364.792	495.241
H80	21490463.232	7665357.617	495.241
H81	21490466.925	7665354.030	495.241
H83	21490474.309	7665346.855	495.241
H96	21490478.001	7665343.267	495.241
HCC	21490470.303	7665372.281	495.241
P46	21490470.355	7665368.641	495.241
#
# End of file