<?xml version="1.0" encoding="UTF-8" standalone="no"?>
<!-- Created with Inkscape (http://www.inkscape.org/) -->
<svg
   xmlns:dc="http://purl.org/dc/elements/1.1/"
   xmlns:cc="http://creativecommons.org/ns#"
   xmlns:rdf="http://www.w3.org/1999/02/22-rdf-syntax-ns#"
   xmlns:svg="http://www.w3.org/2000/svg"
   xmlns="http://www.w3.org/2000/svg"
   xmlns:xlink="http://www.w3.org/1999/xlink"
   xmlns:sodipodi="http://sodipodi.sourceforge.net/DTD/sodipodi-0.dtd"
   xmlns:inkscape="http://www.inkscape.org/namespaces/inkscape"
   width="333.41409"
   height="365"
   id="svg2"
   sodipodi:version="0.32"
   inkscape:version="0.46"
   version="1.0"
   sodipodi:docname="laser-position.svg"
   inkscape:output_extension="org.inkscape.output.svg.inkscape"
   inkscape:export-filename="/Users/brentjens/git-projects/lofar-referentie-vlak/procedures/laser-position.png"
   inkscape:export-xdpi="300.01581"
   inkscape:export-ydpi="300.01581">
  <defs
     id="defs4">
    <inkscape:perspective
       id="perspective3418"
       inkscape:persp3d-origin="359.861 : 583.92652 : 1"
       inkscape:vp_z="312.52438 : 668.5122 : 1"
       inkscape:vp_y="-140.62391 : 57.679374 : 0"
       inkscape:vp_x="289.4023 : 577.15005 : 1"
       sodipodi:type="inkscape:persp3d" />
    <linearGradient
       inkscape:collect="always"
       id="linearGradient3250">
      <stop
         style="stop-color:#66635f;stop-opacity:1;"
         offset="0"
         id="stop3252" />
      <stop
         style="stop-color:#66635f;stop-opacity:0;"
         offset="1"
         id="stop3254" />
    </linearGradient>
    <linearGradient
       inkscape:collect="always"
       id="linearGradient3156">
      <stop
         style="stop-color:#00971c;stop-opacity:1;"
         offset="0"
         id="stop3158" />
      <stop
         style="stop-color:#00971c;stop-opacity:0;"
         offset="1"
         id="stop3160" />
    </linearGradient>
    <inkscape:perspective
       sodipodi:type="inkscape:persp3d"
       inkscape:vp_x="428.90356 : -11.095343 : 1"
       inkscape:vp_y="-140.62391 : 57.679374 : 0"
       inkscape:vp_z="452.02564 : 80.266807 : 1"
       inkscape:persp3d-origin="499.36226 : -4.3188729 : 1"
       id="perspective10" />
    <linearGradient
       inkscape:collect="always"
       xlink:href="#linearGradient3156"
       id="linearGradient3162"
       x1="367.71942"
       y1="454.97018"
       x2="367.71942"
       y2="475.93716"
       gradientUnits="userSpaceOnUse" />
    <linearGradient
       inkscape:collect="always"
       xlink:href="#linearGradient3250"
       id="linearGradient3256"
       x1="186.62038"
       y1="198.71513"
       x2="186.62036"
       y2="191.08955"
       gradientUnits="userSpaceOnUse"
       gradientTransform="translate(242.54978,-411.46324)" />
    <linearGradient
       inkscape:collect="always"
       xlink:href="#linearGradient3250"
       id="linearGradient3260"
       gradientUnits="userSpaceOnUse"
       x1="186.62038"
       y1="198.71513"
       x2="186.62036"
       y2="191.08955"
       gradientTransform="translate(-367.79168,162.27014)" />
    <linearGradient
       inkscape:collect="always"
       xlink:href="#linearGradient3156"
       id="linearGradient3368"
       gradientUnits="userSpaceOnUse"
       x1="367.71942"
       y1="454.97018"
       x2="367.71942"
       y2="475.93716" />
    <linearGradient
       inkscape:collect="always"
       xlink:href="#linearGradient3250"
       id="linearGradient3370"
       gradientUnits="userSpaceOnUse"
       gradientTransform="translate(242.54978,-411.46324)"
       x1="186.62038"
       y1="198.71513"
       x2="186.62036"
       y2="191.08955" />
    <linearGradient
       inkscape:collect="always"
       xlink:href="#linearGradient3250"
       id="linearGradient3372"
       gradientUnits="userSpaceOnUse"
       gradientTransform="translate(-367.79168,162.27014)"
       x1="186.62038"
       y1="198.71513"
       x2="186.62036"
       y2="191.08955" />
    <linearGradient
       inkscape:collect="always"
       xlink:href="#linearGradient3250"
       id="linearGradient3403"
       gradientUnits="userSpaceOnUse"
       gradientTransform="translate(-369.63923,163.39242)"
       x1="186.62038"
       y1="198.71513"
       x2="186.62036"
       y2="191.08955" />
    <linearGradient
       inkscape:collect="always"
       xlink:href="#linearGradient3250"
       id="linearGradient3406"
       gradientUnits="userSpaceOnUse"
       gradientTransform="translate(244.59627,-410.76698)"
       x1="186.62038"
       y1="198.71513"
       x2="186.62036"
       y2="191.08955" />
    <linearGradient
       inkscape:collect="always"
       xlink:href="#linearGradient3156"
       id="linearGradient3409"
       gradientUnits="userSpaceOnUse"
       x1="367.71942"
       y1="454.97018"
       x2="367.71942"
       y2="475.93716"
       gradientTransform="translate(0.2432203,2.1479642)" />
    <linearGradient
       inkscape:collect="always"
       xlink:href="#linearGradient3156"
       id="linearGradient3442"
       gradientUnits="userSpaceOnUse"
       gradientTransform="translate(0.2432203,2.1479642)"
       x1="367.71942"
       y1="454.97018"
       x2="367.71942"
       y2="475.93716" />
    <linearGradient
       inkscape:collect="always"
       xlink:href="#linearGradient3250"
       id="linearGradient3444"
       gradientUnits="userSpaceOnUse"
       gradientTransform="translate(244.59627,-410.76698)"
       x1="186.62038"
       y1="198.71513"
       x2="186.62036"
       y2="191.08955" />
    <linearGradient
       inkscape:collect="always"
       xlink:href="#linearGradient3250"
       id="linearGradient3446"
       gradientUnits="userSpaceOnUse"
       gradientTransform="translate(-369.63923,163.39242)"
       x1="186.62038"
       y1="198.71513"
       x2="186.62036"
       y2="191.08955" />
  </defs>
  <sodipodi:namedview
     id="base"
     pagecolor="#ffffff"
     bordercolor="#666666"
     borderopacity="1.0"
     gridtolerance="10000"
     guidetolerance="10"
     objecttolerance="10"
     inkscape:pageopacity="0.0"
     inkscape:pageshadow="2"
     inkscape:zoom="2.6109589"
     inkscape:cx="166.70705"
     inkscape:cy="320.38824"
     inkscape:document-units="px"
     inkscape:current-layer="layer1"
     showgrid="false"
     inkscape:window-width="1916"
     inkscape:window-height="1156"
     inkscape:window-x="4"
     inkscape:window-y="22" />
  <metadata
     id="metadata7">
    <rdf:RDF>
      <cc:Work
         rdf:about="">
        <dc:format>image/svg+xml</dc:format>
        <dc:type
           rdf:resource="http://purl.org/dc/dcmitype/StillImage" />
      </cc:Work>
    </rdf:RDF>
  </metadata>
  <g
     inkscape:label="Layer 1"
     inkscape:groupmode="layer"
     id="layer1"
     transform="translate(-139.21916,-100.7673)">
    <g
       id="g3421"
       transform="translate(-0.2432135,-1.4441406)"
       inkscape:export-xdpi="300.01581"
       inkscape:export-ydpi="300.01581">
      <path
         sodipodi:nodetypes="cs"
         id="path3314"
         d="M 317.71869,210.16341 C 317.71869,210.16341 317.71869,125.41126 317.71869,125.41126"
         style="fill:none;fill-rule:evenodd;stroke:#000000;stroke-width:1;stroke-linecap:butt;stroke-linejoin:miter;stroke-miterlimit:4;stroke-dasharray:4, 2, 1, 2;stroke-dashoffset:0;stroke-opacity:1" />
      <g
         inkscape:corner7="-0.4042079 : 0.50147266 : 0.13953363 : 1"
         inkscape:corner0="0.61197405 : 0.52060118 : 0 : 1"
         inkscape:perspectiveID="#perspective10"
         id="g3234"
         style="fill:#936532;fill-opacity:1;stroke:#000000;stroke-opacity:1"
         sodipodi:type="inkscape:box3d">
        <path
           d="M 289.71297,450.01544 L 290.08857,410.91826 L 293.74671,412.41872 L 291.24875,450.64536 L 289.71297,450.01544 z"
           inkscape:box3dsidetype="11"
           style="fill:#936532;fill-opacity:1;fill-rule:evenodd;stroke:#000000;stroke-width:0.47811511px;stroke-linecap:butt;stroke-linejoin:round;stroke-opacity:1"
           id="path3246"
           sodipodi:type="inkscape:box3dside" />
        <path
           d="M 287.73503,455.47489 L 289.40375,456.15934 L 291.24875,450.64536 L 289.71297,450.01544 L 287.73503,455.47489 z"
           inkscape:box3dsidetype="6"
           style="fill:#936532;fill-opacity:1;fill-rule:evenodd;stroke:#000000;stroke-width:0.47811511px;stroke-linecap:butt;stroke-linejoin:round;stroke-opacity:1"
           id="path3236"
           sodipodi:type="inkscape:box3dside" />
        <path
           d="M 287.73503,455.47489 L 284.82502,416.53285 L 290.08857,410.91826 L 289.71297,450.01544 L 287.73503,455.47489 z"
           inkscape:box3dsidetype="5"
           style="fill:#936532;fill-opacity:1;fill-rule:evenodd;stroke:#000000;stroke-width:0.47811511px;stroke-linecap:butt;stroke-linejoin:round;stroke-opacity:1"
           id="path3238"
           sodipodi:type="inkscape:box3dside" />
        <path
           d="M 289.40375,456.15934 L 289.3399,418.38471 L 293.74671,412.41872 L 291.24875,450.64536 L 289.40375,456.15934 z"
           inkscape:box3dsidetype="13"
           style="fill:#936532;fill-opacity:1;fill-rule:evenodd;stroke:#000000;stroke-width:0.47811511px;stroke-linecap:butt;stroke-linejoin:round;stroke-opacity:1"
           id="path3244"
           sodipodi:type="inkscape:box3dside" />
        <path
           d="M 284.82502,416.53285 L 289.3399,418.38471 L 293.74671,412.41872 L 290.08857,410.91826 L 284.82502,416.53285 z"
           inkscape:box3dsidetype="14"
           style="fill:#936532;fill-opacity:1;fill-rule:evenodd;stroke:#000000;stroke-width:0.47811511px;stroke-linecap:butt;stroke-linejoin:round;stroke-opacity:1"
           id="path3242"
           sodipodi:type="inkscape:box3dside" />
        <path
           d="M 287.73503,455.47489 L 284.82502,416.53285 L 289.3399,418.38471 L 289.40375,456.15934 L 287.73503,455.47489 z"
           inkscape:box3dsidetype="3"
           style="fill:#936532;fill-opacity:1;fill-rule:evenodd;stroke:#000000;stroke-width:0.47811511px;stroke-linecap:butt;stroke-linejoin:round;stroke-opacity:1"
           id="path3240"
           sodipodi:type="inkscape:box3dside" />
      </g>
      <path
         sodipodi:nodetypes="ccccc"
         id="rect2383"
         d="M 139.46238,439.51245 C 139.48322,448.38745 139.50405,457.26245 139.52488,466.13745 C 380.57696,466.07495 231.82438,466.56458 472.87646,466.50208 C 472.87646,457.66875 472.87646,448.83541 472.87646,440.00208 C 231.80354,440.02291 380.5353,439.49162 139.46238,439.51245 z"
         style="fill:url(#linearGradient3442);fill-opacity:1" />
      <rect
         transform="matrix(0.4265674,0.9044558,-0.9044558,0.4265674,0,0)"
         y="-219.17737"
         x="295.39236"
         height="6.6255741"
         width="291.5253"
         id="rect3248"
         style="fill:url(#linearGradient3444);fill-opacity:1;stroke:#000000;stroke-width:0.99999988;stroke-opacity:1" />
      <rect
         transform="matrix(0.4197052,-0.9076605,0.9076605,0.4197052,0,0)"
         y="354.98196"
         x="-318.84314"
         height="6.6255751"
         width="291.5253"
         id="rect3258"
         style="fill:url(#linearGradient3446);fill-opacity:1;stroke:#000000;stroke-width:1;stroke-opacity:1" />
      <rect
         y="158.59239"
         x="309.62802"
         height="17.285629"
         width="16.181368"
         id="rect3276"
         style="fill:#66635f;fill-opacity:1;stroke:#000000;stroke-width:1.38257039;stroke-opacity:1" />
      <rect
         y="142.66537"
         x="303.63934"
         height="2.7606564"
         width="28.158695"
         id="rect3294"
         style="fill:#66635f;fill-opacity:1;stroke:#000000;stroke-opacity:1" />
      <g
         transform="translate(-31.780384,2.1479642)"
         id="g3306">
        <path
           style="fill:none;fill-rule:evenodd;stroke:#000000;stroke-width:1px;stroke-linecap:butt;stroke-linejoin:miter;stroke-opacity:1"
           d="M 343.42563,143.55413 C 343.42563,155.70102 343.42563,155.70102 343.42563,155.70102 L 343.42563,155.70102"
           id="path3296"
           sodipodi:nodetypes="ccc" />
        <path
           style="fill:none;fill-rule:evenodd;stroke:#000000;stroke-width:1px;stroke-linecap:butt;stroke-linejoin:miter;stroke-opacity:1"
           d="M 355.57251,143.55413 C 355.57251,155.70102 355.57251,155.70102 355.57251,155.70102 L 355.57251,155.70102"
           id="path3298"
           sodipodi:nodetypes="ccc" />
      </g>
      <path
         sodipodi:nodetypes="cs"
         id="path3312"
         d="M 289.00787,414.59001 C 289.00787,414.59001 289.00787,125.54929 289.00787,125.54929"
         style="fill:none;fill-rule:evenodd;stroke:#000000;stroke-width:1;stroke-linecap:butt;stroke-linejoin:miter;stroke-miterlimit:4;stroke-dasharray:4, 2, 1, 2;stroke-dashoffset:0;stroke-opacity:1" />
      <text
         sodipodi:linespacing="125%"
         id="text3316"
         y="111.46996"
         x="290.66428"
         style="font-size:12px;font-style:normal;font-variant:normal;font-weight:bold;font-stretch:normal;text-align:start;line-height:125%;writing-mode:lr-tb;text-anchor:start;fill:#000000;fill-opacity:1;stroke:none;stroke-width:1px;stroke-linecap:butt;stroke-linejoin:miter;stroke-opacity:1;font-family:Helvetica;-inkscape-font-specification:Helvetica Bold"
         xml:space="preserve"><tspan
           y="111.46996"
           x="290.66428"
           id="tspan3318"
           sodipodi:role="line">~ 10-50 cm</tspan></text>
    </g>
  </g>
</svg>
