"Point";"ETRS-X";"ETRS-Y";"ETRS-Z"
"P0";3827901.592;459833.971;5064019.285
"A1";3827825.689;459866.522;5064071.954
"P1";3827826.340;459866.600;5064072.821
"A2";3827858.606;459904.065;5064043.454
"P2";3827859.447;459904.166;5064044.575
"A3";3827892.274;459941.349;5064015.442
"P3";3827892.815;459941.414;5064016.162
"A4";3827942.815;459873.369;5063984.968
"P4";3827942.726;459873.358;5063984.849
"A5";3827992.931;459805.378;5063953.940
"P5";3827992.630;459805.342;5063953.538
"A6";3828030.062;459754.704;5063930.650
"P6";3828029.760;459754.668;5063930.248
"A7";3827998.026;459714.984;5063957.325
"P7";3827998.184;459715.003;5063957.535
"A8";3827964.135;459677.498;5063984.773
"P8";3827964.951;459677.596;5063985.861
"A9";3827925.834;459730.478;5064009.800
"P9";3827926.141;459730.515;5064010.209
"A10";3827959.295;459767.905;5063981.775
"P10";3827959.376;459767.915;5063981.882
"A11";3827876.153;459798.555;5064041.395
"P11";3827876.242;459798.566;5064041.513
"B";3827825.719;459859.514;5064072.861
"PB";3827826.229;459859.575;5064073.540
"C";3827843.031;459886.710;5064056.841
"PC";3827843.811;459886.804;5064057.881
"CHBA2";3827852.713;459862.061;5064052.448
"PCHBA2";3827853.185;459862.118;5064053.076
"CLBA";3827908.969;459843.240;5064012.805
"PCLBA";3827909.019;459843.246;5064012.872
"D";3827919.527;459886.782;5064000.549
"PD";3827919.766;459886.811;5064000.867
"E";3827940.817;459865.407;5063987.205
"PE";3827940.719;459865.395;5063987.075
"F";3827956.093;459771.700;5063983.894
"PF";3827956.146;459771.706;5063983.964
"A";3827938.349;459744.461;5063999.358
"PA";3827938.553;459744.486;5063999.630
"CHBA1";3827935.037;459778.240;5063999.191
"PCHBA1";3827935.050;459778.242;5063999.208
"K";3827885.252;459806.521;5064033.941
"PK";3827885.295;459806.526;5064033.998
"KB";3827922.330;459755.558;5064010.524
"PKB";3827922.465;459755.574;5064010.704
"CHBA1B";3827971.946;459727.261;5063975.552
"PCHBA1B";3827972.218;459727.294;5063975.914
"EB";3827978.167;459814.471;5063964.143
"PEB";3827977.893;459814.438;5063963.778
"FB";3827993.206;459720.571;5063960.536
"PFB";3827993.317;459720.584;5063960.683
"AB";3827975.239;459693.481;5063975.696
"PAB";3827975.720;459693.539;5063976.337
"CB";3827880.863;459835.844;5064034.429
"PCB";3827880.981;459835.858;5064034.586
