"Point";"ETRS-X";"ETRS-Y";"ETRS-Z"
"P_0";3829262.099;469162.048;5062136.941
"P_1";3829277.668;469225.811;5062119.492
"P_7";3829296.669;469183.011;5062109.097
"P_6";3829314.101;469143.702;5062099.566
"P_5";3829267.432;469113.885;5062137.291
"P_4";3829194.436;469103.875;5062192.988
"P_3";3829171.318;469156.012;5062205.628
"P_2";3829221.249;469189.771;5062165.098
