NAME;ETRS-X;ETRS-Y;ETRS-Z;STATION-P;STATION-Q;STATION-R;COMMENT
A1;3824151.775;459517.619;5066844.649;69.276;-63.079;-0.521;
A2;3824182.253;459435.359;5066829.610;-16.039;-88.437;-0.199;
A4;3824057.369;459404.910;5066926.598;-31.331;71.862;0.196;J
A5;3824053.976;459467.110;5066922.758;30.828;66.298;-0.414;
B;3824109.711;459495.881;5066878.141;52.726;-7.494;-0.558;
E;3824171.043;459465.874;5066835.310;15.598;-79.033;-0.164;
F;3824122.120;459404.310;5066877.667;-39.672;-8.870;-0.109;
G;3824090.190;459387.833;5066903.062;-52.211;33.305;-0.158;
