NAME,ETRS-X,ETRS-Y,ETRS-Z,COMMENT
1, 3850724.476, 1439075.713, 4860289.252, "PL-ETRF89  Z UK??ADU:  PL-ETRF2000 /xy2000  OPCJA EMPIR."
2, 3850739.527, 1439075.138, 4860277.577, "PL-ETRF89  Z UK??ADU:  PL-ETRF2000 /xy2000  OPCJA EMPIR."
3, 3850764.808, 1439073.938, 4860258.034, "PL-ETRF89  Z UK??ADU:  PL-ETRF2000 /xy2000  OPCJA EMPIR."
4, 3850783.988, 1439071.114, 4860243.769, "PL-ETRF89  Z UK??ADU:  PL-ETRF2000 /xy2000  OPCJA EMPIR."
5, 3850805.554, 1439051.027, 4860232.705, "PL-ETRF89  Z UK??ADU:  PL-ETRF2000 /xy2000  OPCJA EMPIR."
6, 3850821.287, 1439045.743, 4860221.877, "PL-ETRF89  Z UK??ADU:  PL-ETRF2000 /xy2000  OPCJA EMPIR."
7, 3850812.528, 1439041.396, 4860230.049, "PL-ETRF89  Z UK??ADU:  PL-ETRF2000 /xy2000  OPCJA EMPIR."
8, 3850789.730, 1439038.279, 4860248.908, "PL-ETRF89  Z UK??ADU:  PL-ETRF2000 /xy2000  OPCJA EMPIR."
9, 3850759.178, 1439033.021, 4860274.498, "PL-ETRF89  Z UK??ADU:  PL-ETRF2000 /xy2000  OPCJA EMPIR."
10, 3850737.566, 1439031.398, 4860291.984, "PL-ETRF89  Z UK??ADU:  PL-ETRF2000 /xy2000  OPCJA EMPIR."
11, 3850744.602, 1438993.469, 4860297.601, "PL-ETRF89  Z UK??ADU:  PL-ETRF2000 /xy2000  OPCJA EMPIR."
12, 3850766.202, 1438995.901, 4860279.887, "PL-ETRF89  Z UK??ADU:  PL-ETRF2000 /xy2000  OPCJA EMPIR."
13, 3850793.509, 1438993.593, 4860259.076, "PL-ETRF89  Z UK??ADU:  PL-ETRF2000 /xy2000  OPCJA EMPIR."
14, 3850824.613, 1438989.112, 4860235.915, "PL-ETRF89  Z UK??ADU:  PL-ETRF2000 /xy2000  OPCJA EMPIR."
15, 3850847.490, 1438984.835, 4860219.168, "PL-ETRF89  Z UK??ADU:  PL-ETRF2000 /xy2000  OPCJA EMPIR."
16, 3850852.552, 1438951.568, 4860224.968, "PL-ETRF89  Z UK??ADU:  PL-ETRF2000 /xy2000  OPCJA EMPIR."
17, 3850831.352, 1438950.736, 4860241.897, "PL-ETRF89  Z UK??ADU:  PL-ETRF2000 /xy2000  OPCJA EMPIR."
18, 3850802.668, 1438951.583, 4860264.222, "PL-ETRF89  Z UK??ADU:  PL-ETRF2000 /xy2000  OPCJA EMPIR."
19, 3850774.842, 1438953.038, 4860285.693, "PL-ETRF89  Z UK??ADU:  PL-ETRF2000 /xy2000  OPCJA EMPIR."
20, 3850754.958, 1438951.587, 4860301.768, "PL-ETRF89  Z UK??ADU:  PL-ETRF2000 /xy2000  OPCJA EMPIR."
21, 3850760.170, 1438921.762, 4860306.437, "PL-ETRF89  Z UK??ADU:  PL-ETRF2000 /xy2000  OPCJA EMPIR."
22, 3850784.579, 1438909.547, 4860290.820, "PL-ETRF89  Z UK??ADU:  PL-ETRF2000 /xy2000  OPCJA EMPIR."
23, 3850809.413, 1438909.825, 4860271.194, "PL-ETRF89  Z UK??ADU:  PL-ETRF2000 /xy2000  OPCJA EMPIR."
24, 3850853.097, 1438917.167, 4860234.655, "PL-ETRF89  Z UK??ADU:  PL-ETRF2000 /xy2000  OPCJA EMPIR."
25, 3850837.674, 1438911.065, 4860248.588, "PL-ETRF89  Z UK??ADU:  PL-ETRF2000 /xy2000  OPCJA EMPIR."
26, 3850845.244, 1438864.889, 4860256.209, "PL-ETRF89  Z UK??ADU:  PL-ETRF2000 /xy2000  OPCJA EMPIR."
27, 3850820.873, 1438863.889, 4860275.683, "PL-ETRF89  Z UK??ADU:  PL-ETRF2000 /xy2000  OPCJA EMPIR."
28, 3850800.901, 1438862.692, 4860291.753, "PL-ETRF89  Z UK??ADU:  PL-ETRF2000 /xy2000  OPCJA EMPIR."
29, 3850783.324, 1438871.949, 4860302.864, "PL-ETRF89  Z UK??ADU:  PL-ETRF2000 /xy2000  OPCJA EMPIR."
31, 3850828.852, 1439052.675, 4860213.884, "PL-ETRF89  Z UK??ADU:  PL-ETRF2000 /xy2000  OPCJA EMPIR."
32, 3850828.734, 1439054.065, 4860213.569, "PL-ETRF89  Z UK??ADU:  PL-ETRF2000 /xy2000  OPCJA EMPIR."
33, 3850835.528, 1439055.152, 4860207.902, "PL-ETRF89  Z UK??ADU:  PL-ETRF2000 /xy2000  OPCJA EMPIR."
34, 3850834.596, 1439056.637, 4860208.199, "PL-ETRF89  Z UK??ADU:  PL-ETRF2000 /xy2000  OPCJA EMPIR."
35, 3850837.521, 1439027.188, 4860214.558, "PL-ETRF89  Z UK??ADU:  PL-ETRF2000 /xy2000  OPCJA EMPIR."
36, 3850824.918, 1439022.457, 4860225.867, "PL-ETRF89  Z UK??ADU:  PL-ETRF2000 /xy2000  OPCJA EMPIR."
37, 3850823.952, 1439018.509, 4860227.789, "PL-ETRF89  Z UK??ADU:  PL-ETRF2000 /xy2000  OPCJA EMPIR."
38, 3850827.604, 1438999.118, 4860230.618, "PL-ETRF89  Z UK??ADU:  PL-ETRF2000 /xy2000  OPCJA EMPIR."
39, 3850828.489, 1438999.073, 4860229.935, "PL-ETRF89  Z UK??ADU:  PL-ETRF2000 /xy2000  OPCJA EMPIR."
40, 3850854.404, 1438978.748, 4860215.517, "PL-ETRF89  Z UK??ADU:  PL-ETRF2000 /xy2000  OPCJA EMPIR."
41, 3850860.815, 1438981.060, 4860209.791, "PL-ETRF89  Z UK??ADU:  PL-ETRF2000 /xy2000  OPCJA EMPIR."
42, 3850871.297, 1438964.559, 4860206.394, "PL-ETRF89  Z UK??ADU:  PL-ETRF2000 /xy2000  OPCJA EMPIR."
43, 3850869.379, 1438964.262, 4860207.991, "PL-ETRF89  Z UK??ADU:  PL-ETRF2000 /xy2000  OPCJA EMPIR."
44, 3850871.638, 1438952.853, 4860209.568, "PL-ETRF89  Z UK??ADU:  PL-ETRF2000 /xy2000  OPCJA EMPIR."
45, 3850869.397, 1438953.257, 4860211.214, "PL-ETRF89  Z UK??ADU:  PL-ETRF2000 /xy2000  OPCJA EMPIR."
46, 3850865.207, 1438945.200, 4860216.880, "PL-ETRF89  Z UK??ADU:  PL-ETRF2000 /xy2000  OPCJA EMPIR."
47, 3850860.027, 1438942.772, 4860221.671, "PL-ETRF89  Z UK??ADU:  PL-ETRF2000 /xy2000  OPCJA EMPIR."
48, 3850861.161, 1438931.371, 4860224.131, "PL-ETRF89  Z UK??ADU:  PL-ETRF2000 /xy2000  OPCJA EMPIR."
49, 3850859.666, 1438931.815, 4860225.178, "PL-ETRF89  Z UK??ADU:  PL-ETRF2000 /xy2000  OPCJA EMPIR."
50, 3850853.424, 1438910.287, 4860236.421, "PL-ETRF89  Z UK??ADU:  PL-ETRF2000 /xy2000  OPCJA EMPIR."
51, 3850854.232, 1438909.194, 4860236.107, "PL-ETRF89  Z UK??ADU:  PL-ETRF2000 /xy2000  OPCJA EMPIR."
52, 3850847.704, 1438890.899, 4860246.624, "PL-ETRF89  Z UK??ADU:  PL-ETRF2000 /xy2000  OPCJA EMPIR."
53, 3850849.008, 1438889.386, 4860246.043, "PL-ETRF89  Z UK??ADU:  PL-ETRF2000 /xy2000  OPCJA EMPIR."
54, 3850845.983, 1438880.223, 4860251.118, "PL-ETRF89  Z UK??ADU:  PL-ETRF2000 /xy2000  OPCJA EMPIR."
55, 3850843.836, 1438881.155, 4860252.534, "PL-ETRF89  Z UK??ADU:  PL-ETRF2000 /xy2000  OPCJA EMPIR."
56, 3850847.506, 1438873.020, 4860252.038, "PL-ETRF89  Z UK??ADU:  PL-ETRF2000 /xy2000  OPCJA EMPIR."
57, 3850846.389, 1438871.884, 4860253.251, "PL-ETRF89  Z UK??ADU:  PL-ETRF2000 /xy2000  OPCJA EMPIR."
58, 3850843.510, 1438877.656, 4860253.820, "PL-ETRF89  Z UK??ADU:  PL-ETRF2000 /xy2000  OPCJA EMPIR."
59, 3850845.116, 1438869.521, 4860254.948, "PL-ETRF89  Z UK??ADU:  PL-ETRF2000 /xy2000  OPCJA EMPIR."
60, 3850846.577, 1438862.026, 4860256.002, "PL-ETRF89  Z UK??ADU:  PL-ETRF2000 /xy2000  OPCJA EMPIR."
61, 3850843.801, 1438893.953, 4860248.798, "PL-ETRF89  Z UK??ADU:  PL-ETRF2000 /xy2000  OPCJA EMPIR."
62, 3850842.726, 1438906.299, 4860246.013, "PL-ETRF89  Z UK??ADU:  PL-ETRF2000 /xy2000  OPCJA EMPIR."
63, 3850843.251, 1438906.211, 4860245.626, "PL-ETRF89  Z UK??ADU:  PL-ETRF2000 /xy2000  OPCJA EMPIR."
64, 3850841.113, 1438918.984, 4860243.552, "PL-ETRF89  Z UK??ADU:  PL-ETRF2000 /xy2000  OPCJA EMPIR."
65, 3850841.706, 1438919.126, 4860243.044, " PL-ETRF89  Z UK??ADU:  PL-ETRF2000 /xy2000  OPCJA EMPIR."
66, 3850838.170, 1438934.350, 4860241.349, "PL-ETRF89  Z UK??ADU:  PL-ETRF2000 /xy2000  OPCJA EMPIR."
67, 3850838.813, 1438934.297, 4860240.859, "PL-ETRF89  Z UK??ADU:  PL-ETRF2000 /xy2000  OPCJA EMPIR."
83, 3850748.496, 1439026.618, 4860284.788, "PL-ETRF89  Z UK??ADU:  PL-ETRF2000 /xy2000  OPCJA EMPIR."
95, 3850756.931, 1438990.896, 4860288.655, "PL-ETRF89  Z UK??ADU:  PL-ETRF2000 /xy2000  OPCJA EMPIR."
96, 3850762.083, 1438962.591, 4860292.925, "PL-ETRF89  Z UK??ADU:  PL-ETRF2000 /xy2000  OPCJA EMPIR."
