NAME;ETRS-X;ETRS-Y;ETRS-Z;STATION-P;STATION-Q;STATION-R
1060;3828727.534;454670.627;5063856.161;-20.633;10.143;-0.013
1061;3828728.141;454673.071;5063855.494;-18.279;9.027;-0.005
1062;3828728.901;454675.628;5063854.695;-15.831;7.699;-0.003
1063;3828729.625;454678.309;5063853.924;-13.256;6.405;0.008
1064;3828730.199;454680.695;5063853.279;-10.956;5.334;0.009
1065;3828730.779;454682.905;5063852.632;-8.831;4.273;0.000
1066;3828731.485;454685.462;5063851.874;-6.376;3.013;0.003
1067;3828732.150;454688.103;5063851.129;-3.834;1.785;-0.003
1068;3828732.811;454690.770;5063850.383;-1.265;0.557;-0.010
1069;3828733.294;454693.037;5063849.821;0.927;-0.380;-0.006
1070;3828734.102;454696.026;5063848.949;3.799;-1.831;-0.002
1071;3828734.878;454698.619;5063848.141;6.280;-3.181;0.005
1072;3828735.589;454701.136;5063847.382;8.694;-4.442;0.007
1073;3828736.388;454703.840;5063846.529;11.283;-5.847;-0.000
1074;3828737.093;454706.479;5063845.762;13.818;-7.120;0.000
1075;3828737.976;454709.274;5063844.829;16.488;-8.648;-0.014
1076;3828738.586;454711.739;5063844.171;18.862;-9.764;0.005
1077;3828738.949;454713.015;5063843.776;20.086;-10.411;-0.001
1078;3828736.739;454713.816;5063845.372;21.146;-7.775;0.006
1079;3828735.958;454711.521;5063846.165;18.961;-6.459;0.006
1080;3828735.093;454708.782;5063847.056;16.345;-4.975;0.001
1081;3828734.321;454706.271;5063847.865;13.944;-3.637;0.003
1082;3828733.430;454703.387;5063848.791;11.187;-2.097;0.000
1083;3828732.799;454701.001;5063849.491;8.894;-0.948;0.009
1084;3828732.097;454698.512;5063850.229;6.507;0.291;-0.002
1085;3828731.461;454696.153;5063850.926;4.241;1.440;0.003
1086;3828730.858;454693.716;5063851.600;1.894;2.556;0.004
1087;3828730.091;454691.138;5063852.423;-0.574;3.906;0.015
1088;3828729.391;454688.263;5063853.195;-3.345;5.201;0.004
1089;3828728.721;454685.737;5063853.914;-5.773;6.406;-0.005
1090;3828728.081;454683.235;5063854.621;-8.180;7.578;-0.004
1091;3828727.449;454680.660;5063855.327;-10.662;8.750;-0.006
1092;3828726.821;454678.247;5063856.025;-12.982;9.899;0.001
1093;3828726.232;454675.927;5063856.680;-15.214;10.981;0.004
1094;3828725.656;454673.745;5063857.318;-17.312;12.030;0.010
1095;3828725.416;454672.429;5063857.609;-18.590;12.522;0.004
1096;3828723.591;454673.730;5063858.847;-17.080;14.590;-0.007
1097;3828724.476;454676.349;5063857.964;-14.586;13.106;0.007
1098;3828725.189;454678.887;5063857.193;-12.151;11.834;0.001
1099;3828725.837;454681.478;5063856.474;-9.656;10.640;0.003
1100;3828726.471;454684.054;5063855.770;-7.175;9.468;0.007
1101;3828727.108;454686.440;5063855.079;-4.882;8.319;0.009
1102;3828727.680;454689.002;5063854.421;-2.407;7.225;0.011
1103;3828728.276;454691.370;5063853.746;-0.127;6.120;0.000
1104;3828728.797;454693.736;5063853.140;2.160;5.115;-0.001
1105;3828729.550;454696.353;5063852.322;4.668;3.777;-0.013
1106;3828730.219;454698.967;5063851.597;7.183;2.560;-0.003
1107;3828730.874;454701.389;5063850.897;9.510;1.388;0.006
1108;3828731.551;454703.964;5063850.158;11.984;0.161;0.007
1109;3828732.208;454706.454;5063849.436;14.379;-1.033;0.004
1110;3828732.767;454708.757;5063848.795;16.598;-2.082;-0.007
1111;3828733.337;454711.210;5063848.136;18.965;-3.165;-0.014
1112;3828734.010;454713.567;5063847.431;21.225;-4.347;-0.003
1113;3828734.173;454714.325;5063847.247;21.958;-4.660;0.002
1114;3828731.890;454714.345;5063848.957;22.251;-1.823;0.001
1115;3828731.088;454711.803;5063849.795;19.823;-0.439;0.006
1116;3828730.339;454709.160;5063850.595;17.288;0.888;0.005
1117;3828729.703;454706.679;5063851.311;14.901;2.060;0.016
1118;3828729.072;454704.259;5063851.986;12.574;3.198;0.002
1119;3828728.420;454701.816;5063852.686;10.227;4.370;-0.006
1120;3828727.699;454699.379;5063853.462;7.894;5.642;0.006
1121;3828726.965;454696.859;5063854.247;5.480;6.936;0.011
1122;3828726.211;454694.398;5063855.031;3.126;8.241;0.007
1123;3828725.596;454691.933;5063855.703;0.752;9.368;-0.002
1124;3828724.928;454689.482;5063856.436;-1.601;10.573;0.005
1125;3828724.333;454686.903;5063857.115;-4.090;11.701;0.005
1126;3828723.761;454684.504;5063857.762;-6.403;12.772;0.005
1127;3828723.181;454681.793;5063858.440;-9.026;13.900;0.004
1128;3828722.467;454679.058;5063859.217;-11.656;15.194;-0.001
1129;3828721.847;454676.687;5063859.897;-13.935;16.321;-0.001
1130;3828721.635;454675.558;5063860.143;-15.032;16.746;-0.013
1131;3828719.830;454677.573;5063861.298;-12.815;18.679;-0.028
1132;3828720.478;454680.333;5063860.605;-10.152;17.485;0.007
1133;3828721.090;454682.900;5063859.890;-7.677;16.324;-0.012
1134;3828721.741;454685.417;5063859.200;-5.256;15.152;0.009
1135;3828722.392;454687.791;5063858.488;-2.976;13.981;0.002
1136;3828722.675;454689.248;5063858.145;-1.564;13.411;0.003
1137;3828723.380;454691.798;5063857.384;0.884;12.150;0.002
1138;3828723.943;454694.447;5063856.710;3.446;11.045;-0.008
1139;3828724.613;454696.865;5063855.993;5.766;9.851;-0.004
1140;3828725.312;454699.496;5063855.237;8.295;8.590;0.001
1141;3828726.103;454701.961;5063854.427;10.648;7.241;0.006
1142;3828726.794;454704.558;5063853.673;13.143;5.991;0.005
1143;3828727.475;454707.383;5063852.904;15.867;4.718;0.004
1144;3828728.078;454709.684;5063852.228;18.079;3.614;-0.008
1145;3828728.772;454712.098;5063851.505;20.392;2.398;0.005
1146;3828729.349;454714.348;5063850.861;22.558;1.337;-0.002
1147;3828727.427;454714.025;5063852.327;22.467;3.775;-0.006
1148;3828726.667;454711.434;5063853.139;19.986;5.113;-0.000
1149;3828725.895;454708.747;5063853.957;17.410;6.475;-0.004
1150;3828725.245;454706.339;5063854.683;15.097;7.657;0.012
1151;3828724.475;454703.781;5063855.487;12.649;8.996;0.008
1152;3828723.618;454701.212;5063856.361;10.202;10.446;0.007
1153;3828722.967;454698.763;5063857.079;7.848;11.629;0.013
1154;3828722.173;454696.399;5063857.883;5.596;12.967;0.009
1155;3828721.266;454693.790;5063858.812;3.114;14.495;0.019
1156;3828720.853;454691.295;5063859.319;0.686;15.367;-0.004
1157;3828720.351;454688.782;5063859.928;-1.748;16.372;0.000
1158;3828719.843;454686.248;5063860.546;-4.203;17.388;0.006
1159;3828719.224;454683.844;5063861.222;-6.517;18.515;0.002
1160;3828718.586;454681.559;5063861.909;-8.709;19.653;0.003
1161;3828718.182;454680.054;5063862.306;-10.155;20.356;-0.032
1162;3828717.005;454682.957;5063862.967;-7.132;21.409;0.001
1163;3828717.679;454685.625;5063862.238;-4.563;20.181;0.015
1164;3828718.361;454688.153;5063861.479;-2.135;18.943;0.000
1165;3828718.946;454690.540;5063860.812;0.165;17.849;-0.009
1166;3828719.643;454693.001;5063860.081;2.525;16.622;0.002
1167;3828720.136;454695.276;5063859.515;4.724;15.673;0.010
1168;3828720.824;454697.689;5063858.766;7.038;14.446;-0.002
1169;3828721.371;454700.363;5063858.129;9.627;13.374;0.011
1170;3828722.013;454702.804;5063857.417;11.974;12.202;0.003
1171;3828722.731;454705.288;5063856.661;14.354;10.941;0.009
1172;3828723.403;454707.536;5063855.939;16.506;9.759;-0.002
1173;3828724.062;454709.898;5063855.236;18.772;8.587;0.002
1174;3828724.630;454711.985;5063854.610;20.776;7.561;-0.007
1175;3828724.875;454712.997;5063854.333;21.751;7.103;-0.008
1176;3828722.440;454711.908;5063856.223;20.962;10.276;-0.037
1177;3828721.965;454710.049;5063856.785;19.173;11.169;-0.007
1178;3828721.174;454707.509;5063857.620;16.745;12.541;0.002
1179;3828720.379;454705.198;5063858.429;14.547;13.879;0.005
1180;3828719.603;454702.701;5063859.235;12.160;15.218;0.003
1181;3828718.863;454700.431;5063859.995;9.995;16.478;0.003
1182;3828718.137;454698.142;5063860.751;7.809;17.727;0.006
1183;3828717.578;454695.643;5063861.398;5.395;18.799;0.006
1184;3828716.917;454693.125;5063862.112;2.974;19.993;-0.001
1185;3828716.420;454690.592;5063862.706;0.519;20.987;-0.007
1186;3828715.881;454688.577;5063863.308;-1.418;21.969;0.005
1187;3828715.431;454687.005;5063863.745;-2.924;22.739;-0.029
1188;3828714.763;454692.178;5063863.785;2.291;22.798;-0.024
1189;3828715.475;454694.587;5063863.066;4.598;21.571;0.002
1190;3828714.732;454695.041;5063863.545;5.137;22.405;-0.028
1191;3828716.371;454697.729;5063862.095;7.610;19.976;-0.009
1192;3828715.090;454698.255;5063863.022;8.285;21.499;0.001
1193;3828717.087;454700.389;5063861.346;10.166;18.704;0.014
1194;3828715.589;454701.092;5063862.386;11.043;20.450;-0.003
1195;3828717.873;454703.098;5063860.494;12.761;17.309;-0.001
1196;3828716.963;454703.471;5063861.129;13.241;18.377;-0.012
1197;3828718.720;454706.099;5063859.584;15.640;15.803;-0.003
1198;3828717.821;454706.413;5063860.204;16.058;16.859;-0.023
1199;3828719.864;454708.925;5063858.464;18.309;13.952;-0.008
1200;3828740.870;454711.888;5063842.414;18.737;-12.646;-0.019
1201;3828740.284;454709.582;5063843.093;16.518;-11.552;0.006
1202;3828739.644;454707.249;5063843.771;14.278;-10.414;-0.005
1203;3828739.056;454704.889;5063844.438;12.005;-9.321;0.005
1204;3828738.417;454702.428;5063845.134;9.638;-8.160;-0.000
1205;3828737.817;454699.984;5063845.792;7.284;-7.055;-0.010
1206;3828737.206;454697.676;5063846.475;5.065;-5.939;0.003
1207;3828736.646;454695.271;5063847.117;2.745;-4.879;0.005
1208;3828736.063;454692.911;5063847.773;0.472;-3.796;0.009
1209;3828735.462;454690.536;5063848.441;-1.815;-2.691;0.011
1210;3828734.822;454688.230;5063849.122;-4.027;-1.553;0.005
1211;3828734.204;454685.819;5063849.798;-6.347;-0.426;0.000
1212;3828733.527;454683.421;5063850.528;-8.647;0.779;0.005
1213;3828732.911;454680.969;5063851.219;-11.007;1.917;0.010
1214;3828732.322;454678.799;5063851.841;-13.092;2.966;-0.003
1215;3828731.731;454676.363;5063852.511;-15.439;4.071;0.002
1216;3828731.180;454674.021;5063853.139;-17.699;5.109;0.005
1217;3828730.696;454671.843;5063853.714;-19.804;6.047;0.016
1218;3828730.336;454670.241;5063854.097;-21.351;6.716;-0.010
1219;3828732.034;454669.758;5063852.858;-22.033;4.670;-0.016
1220;3828732.886;454672.794;5063851.978;-19.121;3.175;0.011
1221;3828733.660;454675.217;5063851.158;-16.808;1.836;-0.005
1222;3828734.277;454677.493;5063850.514;-14.623;0.742;0.015
1223;3828734.928;454679.989;5063849.785;-12.222;-0.452;0.003
1224;3828735.619;454682.396;5063849.056;-9.915;-1.668;0.010
1225;3828736.264;454684.715;5063848.364;-7.690;-2.817;0.011
1226;3828736.967;454687.001;5063847.614;-5.504;-4.044;-0.003
1227;3828737.627;454689.323;5063846.906;-3.278;-5.216;-0.005
1228;3828738.190;454691.578;5063846.282;-1.106;-6.254;-0.002
1229;3828738.826;454693.938;5063845.602;1.160;-7.392;0.007
1230;3828739.514;454696.500;5063844.839;3.621;-8.641;-0.006
1231;3828740.221;454699.199;5063844.066;6.217;-9.925;-0.005
1232;3828740.745;454701.586;5063843.466;8.524;-10.929;0.002
1233;3828741.349;454704.287;5063842.762;11.133;-12.090;-0.002
1234;3828741.943;454706.818;5063842.074;13.575;-13.218;-0.013
1235;3828742.494;454709.119;5063841.476;15.794;-14.233;0.006
1236;3828742.697;454710.505;5063841.185;17.146;-14.703;-0.005
1237;3828744.645;454708.561;5063839.916;14.983;-16.825;0.009
1238;3828743.961;454706.000;5063840.666;12.522;-15.587;0.014
1239;3828743.329;454703.634;5063841.349;10.249;-14.448;0.009
1240;3828742.675;454701.226;5063842.052;7.935;-13.277;0.004
1241;3828742.056;454698.895;5063842.721;5.696;-12.161;-0.001
1242;3828741.474;454696.448;5063843.383;3.335;-11.067;0.002
1243;3828740.821;454693.842;5063844.111;0.827;-9.862;0.004
1244;3828740.124;454691.578;5063844.836;-1.338;-8.657;0.002
1245;3828739.626;454689.147;5063845.444;-3.692;-7.663;0.014
1246;3828739.002;454686.633;5063846.134;-6.113;-6.514;0.010
1247;3828738.329;454684.276;5063846.838;-8.373;-5.331;-0.002
1248;3828737.620;454681.956;5063847.593;-10.592;-4.093;0.008
1249;3828737.180;454679.809;5063848.120;-12.670;-3.222;0.011
1250;3828736.477;454677.523;5063848.851;-14.855;-2.006;0.008
1251;3828735.833;454674.879;5063849.567;-17.404;-0.812;0.002
1252;3828735.093;454672.459;5063850.339;-19.717;0.471;0.001
1253;3828734.338;454669.707;5063851.134;-22.360;1.810;-0.015
1254;3828736.578;454669.708;5063849.462;-22.626;-0.972;-0.008
1255;3828737.259;454672.432;5063848.733;-20.003;-2.210;0.014
1256;3828737.892;454674.669;5063848.031;-17.858;-3.348;-0.005
1257;3828738.603;454677.037;5063847.286;-15.592;-4.587;-0.002
1258;3828739.277;454679.171;5063846.604;-13.555;-5.736;0.011
1259;3828739.944;454681.351;5063845.901;-11.470;-6.896;0.006
1260;3828740.580;454683.608;5063845.224;-9.305;-8.023;0.010
1261;3828741.188;454685.808;5063844.559;-7.193;-9.116;0.002
1262;3828741.794;454688.157;5063843.893;-4.934;-10.221;0.003
1263;3828742.348;454690.351;5063843.284;-2.822;-11.237;0.007
1264;3828743.002;454692.875;5063842.562;-0.394;-12.431;0.005
1265;3828743.492;454695.488;5063841.953;2.141;-13.436;0.002
1266;3828744.130;454698.105;5063841.224;4.663;-14.630;-0.010
1267;3828744.887;454700.912;5063840.405;7.360;-15.991;-0.008
1268;3828745.612;454703.445;5063839.649;9.787;-17.263;0.006
1269;3828746.330;454706.112;5063838.849;12.349;-18.569;-0.010
1270;3828747.746;454703.983;5063837.997;10.066;-20.001;0.004
1271;3828746.882;454701.786;5063838.844;7.989;-18.596;0.005
1272;3828746.260;454699.205;5063839.544;5.500;-17.436;0.004
1273;3828745.491;454696.566;5063840.355;2.972;-16.086;0.001
1274;3828745.007;454693.770;5063840.981;0.255;-15.058;0.009
1275;3828744.439;454691.392;5063841.617;-2.039;-13.998;0.004
1276;3828743.803;454689.168;5063842.279;-4.170;-12.882;-0.009
1277;3828743.207;454686.150;5063843.019;-7.096;-11.676;0.007
1278;3828742.635;454683.873;5063843.666;-9.288;-10.616;0.017
1279;3828741.981;454681.606;5063844.335;-11.460;-9.478;-0.005
1280;3828741.154;454679.068;5063845.179;-13.881;-8.072;-0.009
1281;3828740.542;454676.847;5063845.855;-16.013;-6.968;0.004
1282;3828739.875;454674.498;5063846.568;-18.265;-5.785;0.004
1283;3828739.192;454671.882;5063847.312;-20.780;-4.546;-0.001
1284;3828738.916;454670.223;5063847.650;-22.395;-3.965;-0.016
1285;3828741.447;454671.188;5063845.662;-21.740;-7.260;-0.017
1286;3828742.286;454673.686;5063844.829;-19.359;-8.666;0.001
1287;3828742.863;454676.337;5063844.155;-16.797;-9.782;-0.000
1288;3828743.486;454678.545;5063843.491;-14.679;-10.887;0.002
1289;3828744.148;454680.738;5063842.783;-12.581;-12.047;-0.008
1290;3828744.686;454683.208;5063842.160;-10.193;-13.085;-0.004
1291;3828745.496;454685.432;5063841.356;-8.082;-14.424;-0.001
1292;3828746.031;454687.745;5063840.758;-5.849;-15.428;0.009
1293;3828746.489;454690.002;5063840.199;-3.664;-16.344;0.000
1294;3828747.200;454692.540;5063839.426;-1.229;-17.616;-0.007
1295;3828747.769;454695.101;5063838.782;1.246;-18.698;0.004
1296;3828748.389;454697.736;5063838.088;3.788;-19.859;0.012
1297;3828748.971;454700.123;5063837.416;6.088;-20.953;-0.004
1298;3828749.074;454701.098;5063837.243;7.043;-21.233;-0.010
1299;3828750.221;454697.791;5063836.665;3.623;-22.174;-0.022
1300;3828749.434;454695.265;5063837.507;1.209;-20.802;-0.003
1301;3828748.925;454692.548;5063838.149;-1.427;-19.752;0.008
1302;3828748.291;454689.918;5063838.844;-3.963;-18.580;-0.007
1303;3828747.782;454687.344;5063839.471;-6.458;-17.553;0.003
1304;3828747.304;454684.542;5063840.086;-9.182;-16.536;0.005
1305;3828746.723;454682.020;5063840.756;-11.616;-15.431;0.010
1306;3828745.936;454679.223;5063841.593;-14.300;-14.037;0.004
1307;3828745.124;454676.341;5063842.457;-17.063;-12.597;-0.000
1308;3828744.366;454673.737;5063843.251;-19.558;-11.270;-0.008
1309;3828744.178;454672.678;5063843.485;-20.587;-10.879;-0.010
1310;3828745.645;454674.234;5063842.222;-19.217;-12.951;-0.028
1311;3828747.599;454676.303;5063840.590;-17.397;-15.680;-0.010
1312;3828748.378;454679.065;5063839.756;-14.748;-17.063;-0.010
1313;3828749.052;454679.057;5063839.256;-14.836;-17.898;-0.006
1314;3828749.006;454681.905;5063839.049;-12.004;-18.258;0.007
1315;3828749.989;454681.669;5063838.293;-12.355;-19.470;-0.025
1316;3828749.688;454684.683;5063838.275;-9.327;-19.530;-0.002
1317;3828750.804;454684.389;5063837.444;-9.753;-20.887;-0.018
1318;3828750.053;454687.579;5063837.748;-6.495;-20.413;0.005
1319;3828751.201;454687.085;5063836.873;-7.123;-21.803;-0.042
1320;3828750.484;454690.029;5063837.201;-4.114;-21.318;0.003
1321;3828751.298;454689.550;5063836.572;-4.688;-22.296;-0.045
1322;3828751.160;454692.698;5063836.421;-1.545;-22.579;-0.022
