H3,246424.051,559895.977,18.8,2027
H4,246433.375,559899.619,18.6,2027
H5,246442.549,559903.239,18.5,2027
H6,246451.826,559906.939,18.5,2027
H7,246460.872,559910.558,18.4,2027
H8,246470.124,559914.076,18.4,2027
H9,246479.125,559917.644,18.3,2027
H10,246488.862,559921.455,18.2,2027
H11,246498.141,559925.028,18.1,2027
H12,246507.227,559928.621,18,2027
H13,246516.563,559932.367,17.9,2027
H14,246525.86,559936.032,17.8,2027
H15,246534.846,559939.613,17.6,2027
H17,246548.196,559934.11,17.6,2027
H18,246538.575,559930.408,17.7,2027
H19,246529.295,559926.582,17.8,2027
H20,246520.987,559923.222,18.2,2027
H21,246511.282,559919.325,18.1,2027
H22,246501.972,559915.633,18.2,2027
H23,246492.808,559911.864,18.2,2027
H24,246483.361,559908.125,18.3,2027
H25,246473.883,559904.596,18.4,2027
H26,246464.773,559900.816,18.5,2027
H27,246455.24,559897.217,18.5,2027
H28,246445.988,559893.577,18.6,2027
H29,246436.82,559889.87,18.8,2027
H30,246427.4,559886.259,18.9,2027
H31,246417.977,559882.682,19,2027
H34,246422.366,559873.461,19,2027
H35,246432.012,559877.233,18.8,2027
H36,246441.605,559880.947,18.7,2027
H37,246451.245,559884.712,18.5,2027
H38,246460.715,559888.351,18.5,2027
H39,246470.131,559891.957,18.4,2027
H40,246479.591,559895.548,18.4,2027
H41,246488.924,559899.2,18.3,2027
H42,246498.31,559902.955,18.2,2027
H43,246507.74,559906.615,18.1,2027
H44,246517.09,559910.385,18.1,2027
H45,246526.6,559914.139,17.9,2027
H46,246536.09,559917.895,17.8,2027
H47,246545.068,559921.449,17.7,2027
H48,246552.156,559924.17,17.6,2027
H49,246555.801,559914.971,17.7,2027
H50,246546.621,559911.289,17.8,2027
H51,246537.692,559907.899,17.9,2027
H52,246528.345,559904.198,18,2027
H53,246519.127,559900.518,18.1,2027
H54,246509.984,559896.817,18.2,2027
H55,246500.748,559893.166,18.3,2027
H56,246491.669,559889.446,18.4,2027
H57,246482.534,559885.688,18.4,2027
H58,246473.194,559882.055,18.5,2027
H59,246464.026,559878.394,18.6,2027
H60,246454.882,559874.585,18.6,2027
H61,246445.797,559871.162,18.8,2027
H62,246436.671,559867.531,18.9,2027
H63,246427.625,559863.879,19.1,2027
H66,246430.07,559853.767,19.2,2027
H67,246439.629,559857.547,19,2027
H68,246448.954,559861.176,18.9,2027
H69,246458.676,559864.967,18.7,2027
H70,246468.147,559868.632,18.6,2027
H71,246477.359,559872.24,18.5,2027
H72,246487.123,559876.009,18.5,2027
H73,246496.703,559879.749,18.4,2027
H74,246506.309,559883.474,18.3,2027
H75,246515.738,559887.133,18.2,2027
H76,246525.133,559890.988,18.2,2027
H77,246534.536,559894.621,18,2027
H78,246543.818,559898.449,17.9,2027
H79,246552.845,559902.491,17.9,2027
H80,246559.663,559905.181,17.8,2027
H81,246563.39,559896.098,17.9,2027
H82,246554.116,559892.391,18,2027
H83,246545.011,559888.773,18,2027
H84,246535.987,559885.19,18.1,2027
H85,246526.619,559881.651,18.1,2027
H86,246517.583,559878.022,18.3,2027
H87,246508.546,559874.347,18.3,2027
H88,246499.414,559870.702,18.4,2027
H89,246490.349,559866.944,18.5,2027
H90,246481.225,559863.325,18.5,2027
H91,246472.072,559859.603,18.6,2027
H92,246462.963,559855.859,18.7,2027
H93,246453.916,559852.169,18.9,2027
H94,246444.454,559848.459,19,2027
H95,246435.38,559844.752,19.1,2027
H99,246436.949,559834.503,19.1,2027
H100,246446.119,559838.145,19,2027
H101,246455.192,559841.744,19,2027
H102,246465.026,559845.528,18.8,2027
H103,246474.2,559849.217,18.7,2027
H104,246483.447,559852.966,18.6,2027
H105,246492.466,559856.641,18.6,2027
H106,246501.924,559860.377,18.5,2027
H107,246511.115,559863.981,18.4,2027
H108,246520.366,559867.803,18.3,2027
H109,246529.636,559871.279,18.2,2027
H110,246538.769,559875.223,18.2,2027
H111,246548.18,559878.899,18.1,2027
H119,246525.295,559858.886,18.3,2027
H120,246516.181,559855.18,18.4,2027
H121,246506.845,559851.376,18.5,2027
H122,246497.663,559847.795,18.6,2027
H123,246488.392,559844.032,18.7,2027
H124,246479.228,559840.366,18.8,2027
H125,246470.168,559836.689,18.8,2027
H126,246461.213,559832.906,19,2027
H127,246452.147,559829.322,19.1,2027
H128,246442.882,559825.572,19.2,2027
H132,246444.727,559815.368,19.1,2027
H133,246453.935,559819.047,19.1,2027
H134,246463.349,559822.731,19,2027
H135,246472.997,559826.595,18.9,2027
H136,246482.461,559830.33,18.8,2027
H137,246492.012,559834.134,18.6,2027
H138,246501.068,559837.856,18.6,2027
H139,246510.501,559841.675,18.4,2027
H140,246519.668,559845.341,18.4,2027
H141,246528.814,559848.958,18.4,2027
H153,246523.936,559836.428,18.4,2027
H154,246514.648,559832.839,18.5,2027
H155,246505.478,559829.145,18.6,2027
H156,246496.225,559825.417,18.6,2027
H157,246487.094,559821.721,18.7,2027
H158,246478.149,559818.085,18.8,2027
H159,246469.185,559814.492,19,2027
H160,246460.075,559810.824,19.2,2027
H167,246468.483,559809.191,19.1,2027
H168,246477.77,559812.896,18.9,2027
H169,246486.794,559816.498,18.8,2027
H170,246495.977,559820.113,18.7,2027
H171,246505.242,559823.759,18.6,2027
H172,246514.361,559827.329,18.6,2027
