NAME,ETRS-X,ETRS-Y,ETRS-Z
1, 4008411.214, -100308.688, 4943757.843
2, 4008423.977, -100339.432, 4943746.945
3, 4008424.320, -100326.612, 4943746.889
4, 4008424.786, -100309.121, 4943746.776
5, 4008425.302, -100291.621, 4943746.789
6, 4008425.650, -100278.760, 4943746.704
7, 4008437.445, -100344.535, 4943735.957
8, 4008437.936, -100327.034, 4943735.939
9, 4008438.401, -100309.564, 4943735.827
10, 4008438.882, -100292.043, 4943735.779
11, 4008439.434, -100274.544, 4943735.773
12, 4008451.202, -100340.279, 4943724.975
13, 4008451.621, -100327.491, 4943724.934
14, 4008452.063, -100310.008, 4943724.904
15, 4008452.528, -100292.497, 4943724.805
16, 4008452.923, -100279.628, 4943724.746
17, 4008465.751, -100310.385, 4943713.898