NAME;ETRS-X;ETRS-Y;ETRS-Z;STATION-P;STATION-Q;STATION-R
2806;3826552.647;461063.985;5064907.418;44.032;24.687;0.003
2807;3826550.240;461068.024;5064908.863;48.330;27.079;0.006
2808;3826547.822;461071.927;5064910.311;52.494;29.494;-0.006
2809;3826545.429;461075.900;5064911.746;56.726;31.876;-0.007
2810;3826543.130;461079.790;5064913.125;60.863;34.157;-0.004
2811;3826540.702;461083.746;5064914.566;65.080;36.572;-0.022
2812;3826538.278;461087.722;5064916.035;69.318;38.998;-0.016
2813;3826535.887;461091.574;5064917.491;73.428;41.402;-0.007
2814;3826533.371;461095.526;5064919.020;77.653;43.939;-0.010
2815;3826530.909;461099.464;5064920.506;81.857;46.410;-0.014
2816;3826528.410;461103.479;5064922.011;86.142;48.914;-0.021
2817;3826525.930;461107.388;5064923.543;90.319;51.429;-0.002
2818;3826523.469;461111.292;5064925.026;94.490;53.900;-0.011
2819;3826521.102;461115.140;5064926.457;98.593;56.270;-0.010
2820;3826518.766;461119.025;5064927.842;102.730;58.585;-0.023
2821;3826516.234;461123.043;5064929.397;107.022;61.145;-0.009
2822;3826513.802;461126.978;5064930.868;111.220;63.582;-0.008
2823;3826511.300;461130.857;5064932.385;115.370;66.108;-0.017
2824;3826508.950;461134.666;5064933.795;119.433;68.456;-0.024
2825;3826511.522;461138.499;5064931.505;122.931;64.673;-0.034
2826;3826514.018;461134.559;5064930.008;118.720;62.169;-0.018
2827;3826516.400;461130.719;5064928.579;114.623;59.787;-0.009
2828;3826518.840;461126.765;5064927.098;110.406;57.339;-0.014
2829;3826521.322;461122.653;5064925.591;106.027;54.857;-0.027
2830;3826523.706;461118.923;5064924.165;102.038;52.464;-0.005
2831;3826526.150;461115.037;5064922.663;97.887;49.994;-0.021
2832;3826528.523;461111.190;5064921.240;93.784;47.623;-0.012
2833;3826530.839;461107.295;5064919.863;89.640;45.331;-0.005
2834;3826533.199;461103.412;5064918.418;85.503;42.960;-0.024
2835;3826535.680;461099.483;5064916.939;81.306;40.478;-0.002
2836;3826538.092;461095.505;5064915.472;77.068;38.063;-0.015
2837;3826540.480;461091.647;5064914.049;72.951;35.682;0.002
2838;3826542.823;461087.687;5064912.643;68.740;33.356;-0.002
2839;3826545.140;461083.969;5064911.241;64.771;31.030;-0.001
2840;3826547.580;461080.049;5064909.764;60.587;28.582;-0.001
2841;3826550.027;461076.061;5064908.286;56.335;26.133;-0.002
2842;3826552.416;461072.291;5064906.823;52.306;23.719;-0.011
2843;3826554.690;461068.452;5064905.474;48.223;21.471;-0.002
2844;3826555.749;461066.642;5064904.844;46.299;20.424;-0.001
2845;3826558.599;461069.614;5064902.414;48.909;16.418;-0.019
2846;3826556.356;461073.504;5064903.756;53.039;18.633;-0.011
2847;3826553.994;461077.393;5064905.182;57.183;20.992;-0.008
2848;3826551.733;461081.186;5064906.540;61.219;23.240;-0.004
2849;3826549.198;461085.041;5064908.085;65.349;25.811;-0.012
2850;3826546.795;461088.925;5064909.547;69.493;28.226;-0.004
2851;3826544.447;461092.870;5064910.963;73.691;30.563;0.004
2852;3826541.962;461096.832;5064912.461;77.922;33.056;-0.003
2853;3826539.419;461100.869;5064914.004;82.234;35.615;-0.005
2854;3826537.009;461104.922;5064915.430;86.546;37.997;-0.018
2855;3826534.544;461108.785;5064916.937;90.676;40.490;-0.013
2856;3826532.077;461112.831;5064918.416;94.988;42.949;-0.019
2857;3826529.683;461116.736;5064919.876;99.152;45.353;-0.006
2858;3826527.284;461120.695;5064921.319;103.370;47.746;-0.006
2859;3826524.916;461124.631;5064922.727;107.560;50.094;-0.016
2860;3826522.486;461128.587;5064924.202;111.778;52.531;-0.010
2861;3826520.094;461132.492;5064925.646;115.942;54.924;-0.008
2862;3826517.579;461136.383;5064927.168;120.106;57.461;-0.020
2863;3826515.419;461140.202;5064928.442;124.155;59.576;-0.022
2864;3826517.499;461144.579;5064926.477;128.252;56.326;-0.028
2865;3826520.084;461140.371;5064924.944;123.765;53.755;-0.007
2866;3826522.556;461136.556;5064923.434;119.682;51.251;-0.006
2867;3826525.031;461132.674;5064921.918;115.532;48.747;-0.014
2868;3826527.416;461128.740;5064920.478;111.341;46.366;-0.018
2869;3826529.951;461124.696;5064918.941;107.022;43.817;-0.017
2870;3826532.381;461120.788;5064917.491;102.852;41.391;-0.001
2871;3826534.799;461116.790;5064916.011;98.594;38.965;-0.021
2872;3826537.337;461112.672;5064914.485;94.201;36.428;-0.016
2873;3826539.717;461108.656;5064913.082;89.929;34.080;-0.0002
2874;3826542.147;461104.707;5064911.606;85.718;31.642;-0.007
2875;3826544.468;461100.671;5064910.232;81.433;29.361;-0.004
2876;3826547.001;461096.789;5064908.664;77.276;26.779;-0.019
2877;3826549.493;461092.780;5064907.186;72.998;24.297;0.006
2878;3826552.025;461088.796;5064905.638;68.740;21.738;-0.0005
2879;3826554.401;461084.814;5064904.215;64.502;19.379;0.0001
2880;3826556.724;461080.940;5064902.814;60.378;17.064;-0.005
2881;3826559.127;461076.995;5064901.360;56.174;14.660;-0.011
2882;3826561.493;461073.100;5064899.921;52.024;12.290;-0.023
2883;3826565.063;461075.393;5064897.017;53.874;7.493;-0.037
2884;3826562.606;461079.373;5064898.536;58.118;9.975;-0.009
2885;3826560.225;461083.442;5064899.965;62.444;12.334;-0.002
2886;3826557.690;461087.406;5064901.508;66.682;14.894;-0.003
2887;3826555.025;461091.522;5064903.125;71.088;17.587;-0.012
2888;3826552.661;461095.526;5064904.547;75.346;19.935;-0.005
2889;3826550.054;461099.569;5064906.137;79.671;22.573;-0.006
2890;3826547.705;461103.575;5064907.525;83.929;24.887;-0.016
2891;3826545.210;461107.570;5064909.033;88.194;27.391;-0.019
2892;3826542.748;461111.501;5064910.536;92.392;29.873;-0.011
2893;3826540.297;461115.373;5064912.027;96.529;32.344;-0.010
2894;3826537.800;461119.381;5064913.534;100.807;34.848;-0.014
2895;3826535.316;461123.479;5064915.035;105.173;37.329;-0.008
2896;3826532.994;461127.265;5064916.443;109.209;39.655;-0.003
2897;3826530.463;461131.323;5064917.968;113.541;42.193;-0.009
2898;3826528.036;461135.245;5064919.424;117.725;44.619;-0.018
2899;3826525.574;461139.115;5064920.937;121.862;47.112;-0.007
2900;3826523.174;461143.081;5064922.380;126.086;49.504;-0.006
2901;3826520.879;461146.592;5064923.761;129.846;51.819;-0.026
2902;3826524.945;461148.173;5064920.604;130.930;46.544;0.005
2903;3826527.301;461144.263;5064919.167;126.766;44.185;-0.013
2904;3826529.733;461140.531;5064917.673;122.770;41.714;-0.018
2905;3826532.193;461136.478;5064916.202;118.451;39.266;-0.010
2906;3826534.717;461132.473;5064914.675;114.173;36.729;-0.006
2907;3826537.073;461128.481;5064913.281;109.928;34.403;0.005
2908;3826539.671;461124.539;5064911.660;105.704;31.743;-0.017
2909;3826542.117;461120.681;5064910.183;101.581;29.283;-0.008
2910;3826544.589;461116.744;5064908.672;97.376;26.791;-0.018
2911;3826546.896;461112.787;5064907.330;93.172;24.531;0.008
2912;3826549.322;461108.750;5064905.853;88.874;22.105;-0.009
2913;3826551.703;461104.809;5064904.426;84.676;19.735;-0.005
2914;3826553.914;461100.624;5064903.162;80.256;17.620;0.009
2915;3826556.649;461096.773;5064901.438;76.106;14.783;-0.007
2916;3826559.034;461092.941;5064899.996;72.016;12.390;-0.005
2917;3826561.484;461089.021;5064898.516;67.832;9.930;-0.002
2918;3826563.866;461085.175;5064897.067;63.728;7.538;-0.008
2919;3826566.363;461081.133;5064895.573;59.417;5.045;0.003
2920;3826568.077;461078.209;5064894.520;56.309;3.331;-0.020
2921;3826571.023;461081.342;5064891.983;59.067;-0.831;-0.055
2922;3826568.573;461085.349;5064893.533;63.338;1.662;0.003
2923;3826566.101;461089.361;5064895.000;67.617;4.121;-0.017
2924;3826563.765;461093.213;5064896.417;71.720;6.458;-0.008
2925;3826561.293;461097.197;5064897.916;75.971;8.940;-0.005
2926;3826558.609;461101.291;5064899.561;80.357;11.667;-0.005
2927;3826556.304;461105.153;5064900.927;84.467;13.948;-0.017
2928;3826553.843;461109.125;5064902.421;88.705;16.419;-0.012
2929;3826551.453;461113.065;5064903.854;92.903;18.800;-0.016
2930;3826548.935;461116.935;5064905.386;97.047;21.349;-0.023
2931;3826546.425;461120.610;5064906.952;100.995;23.931;-0.011
2932;3826544.087;461124.699;5064908.331;105.334;26.223;-0.016
2933;3826541.697;461128.652;5064909.785;109.545;28.616;-0.003
2934;3826539.265;461132.404;5064911.281;113.561;31.086;0.005
2935;3826536.725;461136.462;5064912.795;117.893;33.624;-0.016
2936;3826534.249;461140.466;5064914.274;122.165;36.094;-0.029
2937;3826531.858;461144.446;5064915.714;126.403;38.476;-0.026
2938;3826529.643;461147.248;5064917.123;129.450;40.813;-0.026
2939;3826537.208;461144.339;5064911.706;125.656;31.832;-0.027
2940;3826539.537;461140.358;5064910.351;121.425;29.551;-0.0003
2941;3826541.943;461136.393;5064908.879;117.200;27.136;-0.020
2942;3826544.423;461132.362;5064907.401;112.902;24.665;-0.004
2943;3826546.783;461128.757;5064905.962;109.041;22.273;0.0004
2944;3826549.133;461124.812;5064904.550;104.843;19.935;-0.003
2945;3826551.519;461120.784;5064903.114;100.558;17.565;-0.011
2946;3826553.913;461116.912;5064901.678;96.428;15.172;-0.001
2947;3826556.277;461113.077;5064900.245;92.338;12.802;-0.006
2948;3826558.712;461109.109;5064898.773;88.107;10.365;-0.008
2949;3826561.071;461105.213;5064897.361;83.956;8.016;-0.003
2950;3826563.421;461101.349;5064895.942;79.839;5.668;-0.006
2951;3826565.904;461097.387;5064894.442;75.608;3.175;-0.001
2952;3826568.408;461093.365;5064892.924;71.317;0.660;-0.003
2953;3826570.853;461089.513;5064891.428;67.200;-1.810;-0.010
2954;3826572.678;461086.223;5064890.370;63.715;-3.580;0.001
2955;3826573.737;461092.720;5064888.969;70.038;-5.883;-0.014
2956;3826571.228;461096.903;5064890.471;74.492;-3.390;-0.016
2957;3826568.657;461100.896;5064892.062;78.763;-0.775;0.001
2958;3826566.308;461104.787;5064893.469;82.907;1.562;-0.003
2959;3826564.019;461108.644;5064894.837;87.010;3.832;-0.004
2960;3826561.506;461112.400;5064896.357;91.040;6.381;-0.026
2961;3826559.070;461116.470;5064897.843;95.372;8.818;-0.005
2962;3826556.472;461120.385;5064899.425;99.569;11.455;-0.016
2963;3826554.042;461124.293;5064900.911;103.740;13.904;-0.004
2964;3826551.555;461128.377;5064902.407;108.092;16.385;-0.006
2965;3826549.058;461132.439;5064903.905;112.424;18.878;-0.012
2966;3826546.626;461136.252;5064905.393;116.501;21.338;-0.007
2967;3826544.247;461140.187;5064906.822;120.692;23.708;-0.007
2968;3826541.710;461143.994;5064908.354;124.775;26.279;-0.030
2969;3826546.371;461144.122;5064904.863;124.345;20.470;-0.015
2970;3826548.761;461140.080;5064903.432;120.046;18.100;-0.017
2971;3826551.223;461136.318;5064901.936;116.017;15.607;-0.007
2972;3826553.619;461132.338;5064900.503;111.779;13.225;-0.003
2973;3826555.933;461128.383;5064899.097;107.574;10.921;-0.024
2974;3826558.598;461124.659;5064897.449;103.559;8.173;-0.012
2975;3826561.021;461120.716;5064896.003;99.354;5.758;0.002
2976;3826563.577;461116.776;5064894.436;95.137;3.165;-0.002
2977;3826565.948;461112.874;5064893.002;90.979;0.794;-0.007
2978;3826568.448;461109.151;5064891.470;86.984;-1.754;-0.001
2979;3826570.862;461105.105;5064890.014;82.678;-4.158;-0.009
2980;3826572.900;461101.705;5064888.813;79.059;-6.173;0.009
2981;3826568.597;461115.538;5064890.757;93.307;-2.912;-0.021
2982;3826566.182;461119.630;5064892.183;97.659;-0.530;-0.033
2983;3826563.747;461123.639;5064893.642;101.931;1.896;-0.039
2984;3826561.223;461127.462;5064895.213;106.027;4.478;-0.021
2985;3826558.848;461131.498;5064896.627;110.319;6.826;-0.024
2986;3826556.401;461135.350;5064898.139;114.436;9.308;-0.005
2987;3826553.826;461139.539;5064899.682;118.903;11.879;-0.015
2988;3826551.356;461142.974;5064901.190;122.609;14.416;-0.042
2989;3826506.419;461131.407;5064935.991;116.500;72.095;-0.023
2990;3826509.004;461127.382;5064934.429;112.195;69.491;-0.011
2991;3826511.407;461123.512;5064932.969;108.065;67.076;-0.016
2992;3826513.871;461119.506;5064931.474;103.793;64.605;-0.022
2993;3826516.294;461115.536;5064930.023;99.562;62.190;-0.016
2994;3826518.755;461111.496;5064928.519;95.257;59.720;-0.032
2995;3826521.230;461107.526;5064927.045;91.019;57.249;-0.012
2996;3826523.711;461103.577;5064925.543;86.801;54.756;-0.010
2997;3826526.148;461099.690;5064924.052;82.651;52.297;-0.020
2998;3826528.529;461095.796;5064922.613;78.500;49.915;-0.024
2999;3826530.941;461091.751;5064921.172;74.195;47.523;-0.020
3000;3826533.305;461088.045;5064919.760;70.233;45.152;0.001
3001;3826535.718;461083.965;5064918.298;65.894;42.748;-0.014
3002;3826538.099;461080.248;5064916.850;61.919;40.345;-0.012
3003;3826540.566;461076.256;5064915.362;57.661;37.874;-0.009
3004;3826542.951;461072.505;5064913.915;53.651;35.470;-0.006
3005;3826545.269;461068.401;5064912.544;49.299;33.200;-0.007
3006;3826547.642;461064.527;5064911.117;45.169;30.830;-0.005
3007;3826549.588;461061.516;5064909.930;41.947;28.860;-0.002
3008;3826546.458;461058.787;5064912.530;39.612;33.167;0.0004
3009;3826544.019;461062.803;5064913.985;43.891;35.593;-0.010
3010;3826541.612;461066.876;5064915.435;48.223;37.985;-0.001
3011;3826539.196;461070.616;5064916.915;52.225;40.434;0.003
3012;3826536.828;461074.525;5064918.335;56.389;42.793;-0.001
3013;3826534.306;461078.639;5064919.845;60.775;45.308;-0.009
3014;3826531.837;461082.522;5064921.350;64.926;47.801;-0.007
3015;3826529.353;461086.674;5064922.842;69.345;50.271;-0.004
3016;3826526.921;461090.643;5064924.299;73.576;52.697;-0.013
3017;3826524.460;461094.439;5064925.801;77.639;55.190;-0.014
3018;3826522.113;461098.452;5064927.212;81.904;57.516;-0.005
3019;3826519.721;461102.357;5064928.655;86.068;59.909;-0.004
3020;3826517.262;461106.235;5064930.137;90.212;62.380;-0.015
3021;3826514.952;461110.001;5064931.537;94.227;64.694;-0.010
3022;3826512.508;461114.084;5064932.996;98.573;67.120;-0.015
3023;3826510.136;461117.863;5064934.428;102.609;69.502;-0.021
3024;3826507.610;461121.990;5064935.954;107.008;72.028;-0.018
3025;3826505.337;461125.707;5064937.321;110.970;74.299;-0.021
3026;3826504.060;461127.728;5064938.123;113.130;75.601;-0.0001
3027;3826501.372;461124.233;5064940.425;109.981;79.451;-0.024
3028;3826503.766;461120.382;5064938.973;105.871;77.047;-0.028
3029;3826506.192;461116.487;5064937.520;101.714;74.621;-0.014
3030;3826508.661;461112.462;5064936.029;97.423;72.151;-0.016
3031;3826511.196;461108.451;5064934.497;93.138;69.602;-0.009
3032;3826513.601;461104.527;5064933.048;88.954;67.198;-0.009
3033;3826516.045;461100.587;5064931.557;84.749;64.739;-0.018
3034;3826518.429;461096.585;5064930.142;80.491;62.379;-0.009
3035;3826520.940;461092.666;5064928.612;76.301;59.842;-0.007
3036;3826523.357;461088.635;5064927.162;72.009;57.438;-0.007
3037;3826525.844;461084.659;5064925.666;67.764;54.945;0.001
3038;3826528.277;461080.731;5064924.179;63.573;52.497;-0.011
3039;3826530.727;461076.859;5064922.687;59.436;50.026;-0.014
3040;3826533.122;461072.900;5064921.257;55.219;47.645;-0.005
3041;3826535.549;461068.964;5064919.798;51.021;45.219;0.0003
3042;3826537.889;461065.100;5064918.385;46.904;42.882;-0.005
3043;3826540.278;461061.146;5064916.947;42.693;40.500;-0.007
3044;3826542.598;461057.421;5064915.549;38.718;38.174;-0.001
3045;3826543.413;461055.737;5064915.078;36.949;37.407;-0.010
3046;3826540.373;461053.155;5064917.598;34.749;41.580;-0.007
3047;3826537.928;461057.048;5064919.081;38.906;44.039;-0.007
3048;3826535.434;461061.131;5064920.585;43.258;46.532;-0.006
3049;3826533.106;461064.869;5064921.995;47.247;48.869;-0.006
3050;3826530.676;461068.838;5064923.454;51.478;51.295;-0.011
3051;3826528.265;461072.904;5064924.899;55.804;53.688;-0.008
3052;3826525.847;461076.725;5064926.370;59.887;56.125;-0.008
3053;3826523.493;461080.751;5064927.772;64.165;58.451;-0.008
3054;3826521.059;461084.631;5064929.250;68.309;60.899;-0.007
3055;3826518.635;461088.520;5064930.723;72.459;63.336;-0.003
3056;3826516.236;461092.445;5064932.160;76.644;65.729;-0.010
3057;3826513.836;461096.330;5064933.592;80.787;68.122;-0.024
3058;3826511.433;461100.295;5064935.049;85.012;70.526;-0.015
3059;3826509.088;461104.091;5064936.464;89.061;72.874;-0.016
3060;3826506.620;461108.157;5064937.944;93.393;75.333;-0.021
3061;3826504.209;461112.088;5064939.405;97.584;77.748;-0.016
3062;3826501.832;461115.962;5064940.845;101.714;80.130;-0.011
3063;3826499.341;461120.059;5064942.337;106.080;82.611;-0.017
3064;3826496.349;461117.151;5064944.813;103.551;86.751;-0.043
3065;3826498.791;461113.298;5064943.351;99.434;84.303;-0.025
3066;3826501.166;461109.397;5064941.922;95.277;81.932;-0.024
3067;3826503.520;461105.616;5064940.502;91.241;79.573;-0.019
3068;3826505.951;461101.667;5064939.047;87.030;77.147;-0.010
3069;3826508.384;461097.732;5064937.579;82.832;74.710;-0.007
3070;3826510.846;461093.781;5064936.089;78.614;72.239;-0.007
3071;3826513.161;461089.818;5064934.719;74.403;69.958;0.001
3072;3826515.626;461085.887;5064933.202;70.206;67.465;-0.017
3073;3826517.970;461081.901;5064931.810;65.968;65.150;-0.011
3074;3826520.505;461077.911;5064930.282;61.703;62.602;0.0004
3075;3826522.852;461074.007;5064928.871;57.546;60.265;-0.001
3076;3826525.265;461070.049;5064927.410;53.328;57.850;-0.008
3077;3826527.726;461066.246;5064925.906;49.259;55.357;-0.008
3078;3826530.036;461062.290;5064924.530;45.054;53.076;-0.008
3079;3826532.382;461058.419;5064923.124;40.931;50.739;-0.004
3080;3826534.780;461054.413;5064921.690;36.666;48.357;-0.001
3081;3826536.806;461050.991;5064920.451;33.027;46.332;-0.022
3082;3826533.777;461048.580;5064922.956;30.995;50.472;-0.012
3083;3826531.434;461052.505;5064924.375;35.173;52.809;-0.0000
3084;3826529.027;461056.403;5064925.817;39.330;55.212;-0.010
3085;3826526.666;461060.346;5064927.216;43.527;57.549;-0.023
3086;3826524.200;461064.162;5064928.733;47.610;60.053;-0.015
3087;3826521.800;461068.005;5064930.194;51.714;62.468;-0.008
3088;3826519.431;461072.009;5064931.610;55.972;64.816;-0.009
3089;3826516.995;461075.882;5064933.102;60.109;67.276;0.002
3090;3826514.644;461079.908;5064934.491;64.387;69.591;-0.008
3091;3826512.231;461083.669;5064935.958;68.410;72.028;-0.011
3092;3826509.813;461087.646;5064937.416;72.648;74.443;-0.009
3093;3826507.444;461091.514;5064938.847;76.771;76.813;-0.007
3094;3826505.139;461095.410;5064940.220;80.915;79.094;-0.011
3095;3826502.787;461099.172;5064941.639;84.931;81.454;-0.016
3096;3826500.429;461103.129;5064943.043;89.142;83.791;-0.023
3097;3826498.021;461106.918;5064944.503;93.191;86.217;-0.027
3098;3826495.665;461110.808;5064945.937;97.335;88.576;-0.013
3099;3826494.733;461112.518;5064946.479;99.144;89.478;-0.015
3100;3826493.840;461106.726;5064947.656;93.501;91.447;-0.029
3101;3826496.294;461102.617;5064946.224;89.128;89.032;0.002
3102;3826498.611;461098.641;5064944.817;84.904;86.729;-0.020
3103;3826501.049;461094.606;5064943.357;80.605;84.303;-0.016
3104;3826503.479;461090.664;5064941.902;76.401;81.877;-0.006
3105;3826505.873;461086.765;5064940.444;72.244;79.473;-0.016
3106;3826508.324;461082.772;5064938.971;67.986;77.024;-0.012
3107;3826510.724;461078.704;5064937.548;63.661;74.654;-0.003
3108;3826513.124;461074.657;5064936.110;59.355;72.272;-0.005
3109;3826515.573;461070.853;5064934.628;55.286;69.802;0.005
3110;3826517.995;461066.876;5064933.157;51.048;67.376;-0.005
3111;3826520.352;461062.871;5064931.742;46.790;65.039;-0.011
3112;3826522.729;461058.848;5064930.333;42.512;62.691;-0.002
3113;3826525.287;461054.739;5064928.780;38.126;60.120;-0.005
3114;3826527.636;461050.801;5064927.367;33.935;57.783;-0.010
3115;3826519.227;461056.658;5064933.158;40.756;67.376;-0.003
3116;3826516.779;461060.666;5064934.618;45.027;69.813;-0.016
3117;3826514.454;461064.586;5064936.005;49.198;72.117;-0.018
3118;3826512.094;461068.523;5064937.441;53.389;74.476;-0.002
3119;3826509.664;461072.506;5064938.902;57.633;76.902;-0.004
3120;3826507.330;461076.405;5064940.292;61.784;79.217;-0.012
3121;3826504.958;461080.293;5064941.705;65.928;81.576;-0.025
3122;3826502.698;461084.221;5064943.049;70.098;83.802;-0.023
3123;3826500.228;461087.941;5064944.565;74.087;86.317;-0.024
3124;3826497.783;461091.936;5064946.047;78.345;88.765;-0.018
3125;3826495.441;461095.922;5064947.402;82.583;91.058;-0.052
3126;3826494.352;461097.932;5064948.044;84.709;92.115;-0.047
3127;3826496.780;461086.062;5064947.324;72.634;90.891;-0.023
3128;3826498.926;461082.323;5064946.044;68.665;88.776;-0.030
3129;3826501.433;461078.310;5064944.531;64.380;86.261;-0.024
3130;3826503.734;461074.406;5064943.171;60.230;83.991;-0.013
3131;3826506.185;461070.501;5064941.674;56.059;81.520;-0.021
3132;3826508.632;461066.581;5064940.172;51.875;79.050;-0.036
3133;3826510.124;461063.976;5064939.301;49.110;77.592;-0.026
3134;3826506.645;461064.709;5064941.861;50.254;81.821;-0.014
3135;3826503.680;461068.763;5064943.701;54.633;84.892;-0.029
3136;3826501.297;461072.629;5064945.133;58.757;87.274;-0.035
3137;3826499.161;461076.356;5064946.424;62.712;89.388;-0.015
