1001,52.5459126,06.5211019,49.366,C0
1002,52.5459042,06.5211258,49.366,C1
1003,52.5459065,06.5210643,49.366,C2
1004,52.5458981,06.5210881,49.365,C3
1005,52.5458898,06.5211120,49.365,C4
1006,52.5458815,06.5211359,49.365,C5
1007,52.5459004,06.5210266,49.365,C6
1008,52.5458920,06.5210505,49.365,C7
1009,52.5458837,06.5210744,49.365,C8
1010,52.5458754,06.5210982,49.365,C9
1011,52.5458670,06.5211221,49.365,C10
1012,52.5458587,06.5211460,49.364,C11
1013,52.5458859,06.5210128,49.365,C12
1014,52.5458776,06.5210367,49.364,C13
1015,52.5458693,06.5210606,49.364,C14
1016,52.5458609,06.5210845,49.364,C15
1017,52.5458526,06.5211083,49.364,C16
1018,52.5458443,06.5211322,49.364,C17
1019,52.5458632,06.5210229,49.364,C18
1020,52.5458549,06.5210468,49.364,C19
1021,52.5458465,06.5210707,49.363,C20
1022,52.5458382,06.5210945,49.363,C21
1023,52.5458404,06.5210330,49.363,C22
1024,52.5458321,06.5210569,49.363,C23
1025,52.5459312,06.5211038,49.367,A0
1026,52.5459228,06.5211276,49.367,A1
1027,52.5459145,06.5211515,49.367,A2
1028,52.5459251,06.5210661,49.366,A3
1029,52.5459167,06.5210900,49.366,A4
1030,52.5459084,06.5211139,49.366,A5
1031,52.5459001,06.5211377,49.366,A6
1032,52.5458917,06.5211616,49.366,A7
1033,52.5459190,06.5210285,49.366,A8
1034,52.5459106,06.5210523,49.366,A9
1035,52.5459023,06.5210762,49.366,A10
1036,52.5458940,06.5211001,49.365,A11
1037,52.5458856,06.5211239,49.365,A12
1038,52.5458773,06.5211478,49.365,A13
1039,52.5458690,06.5211717,49.365,A14
1040,52.5459045,06.5210147,49.365,A15
1041,52.5458962,06.5210386,49.365,A16
1042,52.5458879,06.5210624,49.365,A17
1043,52.5458795,06.5210863,49.365,A18
1044,52.5458712,06.5211102,49.365,A19
1045,52.5458629,06.5211340,49.364,A20
1046,52.5458546,06.5211579,49.364,A21
1047,52.5458901,06.5210009,49.365,A22
1048,52.5458818,06.5210248,49.364,A23
1049,52.5458734,06.5210487,49.364,A24
1050,52.5458651,06.5210725,49.364,A25
1051,52.5458568,06.5210964,49.364,A26
1052,52.5458485,06.5211203,49.364,A27
1053,52.5458401,06.5211441,49.364,A28
1054,52.5458673,06.5210110,49.364,A29
1055,52.5458590,06.5210349,49.364,A30
1056,52.5458507,06.5210587,49.363,A31
1057,52.5458424,06.5210826,49.363,A32
1058,52.5458340,06.5211065,49.363,A33
1059,52.5458446,06.5210211,49.363,A34
1060,52.5458363,06.5210450,49.363,A35
1061,52.5458279,06.5210688,49.363,A36
1062,52.5458613,06.5209856,49.363,D101
1063,52.5458385,06.5209957,49.363,D102
1064,52.5458302,06.5210195,49.362,D103
1065,52.5458219,06.5210434,49.362,D104
1066,52.5458135,06.5210673,49.362,D105
1067,52.5458196,06.5211049,49.363,D106
1068,52.5458453,06.5211294,49.364,D107
1069,52.5458392,06.5210918,49.363,D108
1070,52.5458331,06.5210541,49.363,D109
1071,52.5458414,06.5210302,49.363,D110
1072,52.5458642,06.5210202,49.364,D111
1073,52.5458869,06.5210101,49.365,D112
1074,52.5459030,06.5210254,49.365,D113
1075,52.5459091,06.5210631,49.366,D114
1076,52.5459152,06.5211007,49.366,D115
1077,52.5459069,06.5211246,49.366,D116
1078,52.5458841,06.5211347,49.365,D117
1079,52.5458614,06.5211448,49.364,D118
1080,52.5459142,06.5211035,49.366,R0
1081,52.5459059,06.5211274,49.366,R1
1082,52.5459081,06.5210659,49.366,R2
1083,52.5458998,06.5210898,49.366,R3
1084,52.5458915,06.5211136,49.365,R4
1085,52.5458832,06.5211375,49.365,R5
1086,52.5459020,06.5210282,49.365,R6
1087,52.5458937,06.5210521,49.365,R7
1088,52.5458854,06.5210760,49.365,R8
1089,52.5458771,06.5210998,49.365,R9
1090,52.5458687,06.5211237,49.365,R10
1091,52.5458604,06.5211476,49.364,R11
1092,52.5458876,06.5210145,49.365,R12
1093,52.5458793,06.5210383,49.364,R13
1094,52.5458710,06.5210622,49.364,R14
1095,52.5458626,06.5210861,49.364,R15
1096,52.5458543,06.5211099,49.364,R16
1097,52.5458460,06.5211338,49.364,R17
1098,52.5458649,06.5210245,49.364,R18
1099,52.5458565,06.5210484,49.364,R19
1100,52.5458482,06.5210723,49.363,R20
1101,52.5458399,06.5210961,49.363,R21
1102,52.5458421,06.5210346,49.363,R22
1103,52.5458338,06.5210585,49.363,R23
1104,52.5457025,06.5212781,49.360,C24
1105,52.5456894,06.5212951,49.359,C25
1106,52.5457054,06.5212394,49.359,C26
1107,52.5456923,06.5212564,49.359,C27
1108,52.5456791,06.5212734,49.359,C28
1109,52.5456660,06.5212903,49.359,C29
1110,52.5457083,06.5212007,49.359,C30
1111,52.5456951,06.5212177,49.359,C31
1112,52.5456820,06.5212347,49.359,C32
1113,52.5456689,06.5212516,49.358,C33
1114,52.5456557,06.5212686,49.358,C34
1115,52.5456426,06.5212856,49.358,C35
1116,52.5456980,06.5211790,49.359,C36
1117,52.5456849,06.5211960,49.358,C37
1118,52.5456717,06.5212130,49.358,C38
1119,52.5456586,06.5212299,49.358,C39
1120,52.5456455,06.5212469,49.357,C40
1121,52.5456324,06.5212639,49.357,C41
1122,52.5456746,06.5211743,49.358,C42
1123,52.5456615,06.5211912,49.358,C43
1124,52.5456484,06.5212082,49.357,C44
1125,52.5456352,06.5212252,49.357,C45
1126,52.5456512,06.5211695,49.357,C46
1127,52.5456381,06.5211865,49.357,C47
1128,52.5457193,06.5212913,49.360,A37
1129,52.5457062,06.5213083,49.360,A38
1130,52.5456931,06.5213253,49.360,A39
1131,52.5457222,06.5212527,49.360,A40
1132,52.5457091,06.5212696,49.360,A41
1133,52.5456959,06.5212866,49.360,A42
1134,52.5456828,06.5213036,49.359,A43
1135,52.5456697,06.5213205,49.359,A44
1136,52.5457251,06.5212140,49.360,A45
1137,52.5457119,06.5212309,49.360,A46
1138,52.5456988,06.5212479,49.359,A47
1139,52.5456857,06.5212649,49.359,A48
1140,52.5456726,06.5212818,49.359,A49
1141,52.5456594,06.5212988,49.358,A50
1142,52.5456463,06.5213158,49.358,A51
1143,52.5457148,06.5211923,49.359,A52
1144,52.5457017,06.5212092,49.359,A53
1145,52.5456886,06.5212262,49.359,A54
1146,52.5456754,06.5212432,49.358,A55
1147,52.5456623,06.5212601,49.358,A56
1148,52.5456492,06.5212771,49.358,A57
1149,52.5456360,06.5212941,49.358,A58
1150,52.5457046,06.5211705,49.359,A59
1151,52.5456914,06.5211875,49.359,A60
1152,52.5456783,06.5212045,49.358,A61
1153,52.5456652,06.5212214,49.358,A62
1154,52.5456520,06.5212384,49.358,A63
1155,52.5456389,06.5212554,49.357,A64
1156,52.5456258,06.5212723,49.357,A65
1157,52.5456812,06.5211658,49.358,A66
1158,52.5456680,06.5211828,49.358,A67
1159,52.5456549,06.5211997,49.357,A68
1160,52.5456418,06.5212167,49.357,A69
1161,52.5456287,06.5212337,49.357,A70
1162,52.5456578,06.5211610,49.357,A71
1163,52.5456447,06.5211780,49.357,A72
1164,52.5456315,06.5211950,49.357,A73
1165,52.5457363,06.5212478,49.361,D119
1166,52.5457392,06.5212091,49.360,D120
1167,52.5457289,06.5211874,49.360,D121
1168,52.5457187,06.5211657,49.359,D122
1169,52.5457084,06.5211440,49.359,D123
1170,52.5456850,06.5211392,49.358,D124
1171,52.5456617,06.5211694,49.357,D125
1172,52.5456851,06.5211741,49.358,D126
1173,52.5457085,06.5211789,49.359,D127
1174,52.5457188,06.5212006,49.360,D128
1175,52.5457159,06.5212393,49.360,D129
1176,52.5457130,06.5212780,49.360,D130
1177,52.5456933,06.5213034,49.360,D131
1178,52.5456699,06.5212987,49.359,D132
1179,52.5456465,06.5212939,49.358,D133
1180,52.5456363,06.5212722,49.357,D134
1181,52.5456392,06.5212335,49.357,D135
1182,52.5456420,06.5211948,49.357,D136
1183,52.5457064,06.5212864,49.360,R24
1184,52.5456933,06.5213034,49.360,R25
1185,52.5457093,06.5212478,49.360,R26
1186,52.5456962,06.5212647,49.359,R27
1187,52.5456831,06.5212817,49.359,R28
1188,52.5456699,06.5212987,49.359,R29
1189,52.5457122,06.5212091,49.360,R30
1190,52.5456991,06.5212260,49.359,R31
1191,52.5456859,06.5212430,49.359,R32
1192,52.5456728,06.5212600,49.359,R33
1193,52.5456597,06.5212769,49.358,R34
1194,52.5456465,06.5212939,49.358,R35
1195,52.5457019,06.5211873,49.359,R36
1196,52.5456888,06.5212043,49.359,R37
1197,52.5456757,06.5212213,49.358,R38
1198,52.5456625,06.5212383,49.358,R39
1199,52.5456494,06.5212552,49.358,R40
1200,52.5456363,06.5212722,49.357,R41
1201,52.5456785,06.5211826,49.358,R42
1202,52.5456654,06.5211996,49.358,R43
1203,52.5456523,06.5212165,49.357,R44
1204,52.5456392,06.5212335,49.357,R45
1205,52.5456552,06.5211778,49.357,R46
1206,52.5456420,06.5211948,49.357,R47
