NAME,STATION-P,STATION-Q,STATION-R
N0,35.290,-119.910,0.000
M0,35.240,-121.160,0.000
S0,35.290,-122.240,0.000
N1,35.290,-117.360,0.000
M1,35.240,-118.610,0.000
S1,35.290,-119.690,0.000
N2,37.540,-118.560,0.000
M2,37.490,-119.810,0.000
S2,37.540,-120.890,0.000
N3,37.540,-121.260,0.000
M3,37.490,-122.510,0.000
S3,37.540,-123.590,0.000
N4,35.290,-122.460,0.000
M4,35.240,-123.710,0.000
S4,35.290,-124.790,0.000
N5,33.040,-121.260,0.000
M5,32.990,-122.510,0.000
S5,33.040,-123.590,0.000
N6,33.040,-118.560,0.000
M6,32.990,-119.810,0.000
S6,33.040,-120.890,0.000
N7,30.719,-123.181,0.000
M7,30.669,-124.731,0.000
S7,30.719,-126.111,0.000
N8,29.494,-119.408,0.000
M8,29.444,-120.958,0.000
S8,29.494,-122.338,0.000
N9,30.980,-115.729,0.000
M9,30.930,-117.279,0.000
S9,30.980,-118.659,0.000
N10,34.483,-113.866,0.000
M10,34.433,-115.416,0.000
S10,34.483,-116.796,0.000
N11,38.364,-114.691,0.000
M11,38.314,-116.241,0.000
S11,38.364,-117.621,0.000
N12,40.806,-117.818,0.000
M12,40.756,-119.368,0.000
S12,40.806,-120.748,0.000
N13,40.668,-121.783,0.000
M13,40.618,-123.333,0.000
S13,40.668,-124.713,0.000
N14,38.013,-124.731,0.000
M14,37.963,-126.281,0.000
S14,38.013,-127.661,0.000
N15,34.084,-125.283,0.000
M15,34.034,-126.833,0.000
S15,34.084,-128.213,0.000
N16,32.560,-128.528,0.000
M16,32.510,-130.078,0.000
S16,32.560,-131.458,0.000
N17,29.107,-127.322,0.000
M17,29.057,-128.872,0.000
S17,29.107,-130.252,0.000
N18,25.751,-123.564,0.000
M18,25.701,-125.114,0.000
S18,25.751,-126.494,0.000
N19,25.753,-116.288,0.000
M19,25.703,-117.838,0.000
S19,25.753,-119.218,0.000
N20,27.230,-113.417,0.000
M20,27.180,-114.967,0.000
S20,27.230,-116.347,0.000
N21,30.555,-110.701,0.000
M21,30.505,-112.251,0.000
S21,30.555,-113.631,0.000
N22,34.803,-110.385,0.000
M22,34.753,-111.935,0.000
S22,34.803,-113.315,0.000
N23,40.316,-112.164,0.000
M23,40.266,-113.714,0.000
S23,40.316,-115.094,0.000
N24,44.109,-115.082,0.000
M24,44.059,-116.632,0.000
S24,44.109,-118.012,0.000
N25,45.373,-119.280,0.000
M25,45.323,-120.830,0.000
S25,45.373,-122.210,0.000
N26,43.976,-122.969,0.000
M26,43.926,-124.519,0.000
S26,43.976,-125.899,0.000
N27,40.891,-126.712,0.000
M27,40.841,-128.262,0.000
S27,40.891,-129.642,0.000
N28,36.675,-128.710,0.000
M28,36.625,-130.260,0.000
S28,36.675,-131.640,0.000
N29,29.784,-132.859,0.000
M29,29.734,-134.409,0.000
S29,29.784,-135.789,0.000
N30,26.283,-131.338,0.000
M30,26.233,-132.888,0.000
S30,26.283,-134.268,0.000
N31,24.497,-128.773,0.000
M31,24.447,-130.323,0.000
S31,24.497,-131.703,0.000
N32,22.183,-121.124,0.000
M32,22.133,-122.674,0.000
S32,22.183,-124.054,0.000
N33,20.181,-118.897,0.000
M33,20.131,-120.447,0.000
S33,20.181,-121.827,0.000
N34,24.042,-112.478,0.000
M34,23.992,-114.028,0.000
S34,24.042,-115.408,0.000
N35,27.675,-108.932,0.000
M35,27.625,-110.482,0.000
S35,27.675,-111.862,0.000
N36,31.287,-105.034,0.000
M36,31.237,-106.584,0.000
S36,31.287,-107.964,0.000
N37,34.458,-106.136,0.000
M37,34.408,-107.686,0.000
S37,34.458,-109.066,0.000
N38,39.104,-107.134,0.000
M38,39.054,-108.684,0.000
S38,39.104,-110.064,0.000
N39,45.103,-110.751,0.000
M39,45.053,-112.301,0.000
S39,45.103,-113.681,0.000
N40,47.147,-112.646,0.000
M40,47.097,-114.196,0.000
S40,47.147,-115.576,0.000
N41,48.436,-117.818,0.000
M41,48.386,-119.368,0.000
S41,48.436,-120.748,0.000
N42,50.271,-121.544,0.000
M42,50.221,-123.094,0.000
S42,50.271,-124.474,0.000
N43,45.722,-129.155,0.000
M43,45.672,-130.705,0.000
S43,45.722,-132.085,0.000
N44,42.507,-131.508,0.000
M44,42.457,-133.058,0.000
S44,42.507,-134.438,0.000
N45,37.577,-133.912,0.000
M45,37.527,-135.462,0.000
S45,37.577,-136.842,0.000
N48,34.961,-137.561,0.000
M48,34.911,-139.111,0.000
S48,34.961,-140.491,0.000
N49,32.749,-139.697,0.000
M49,32.699,-141.247,0.000
S49,32.749,-142.627,0.000
N50,19.193,-132.128,0.000
M50,19.143,-133.678,0.000
S50,19.193,-135.058,0.000
N51,15.734,-116.387,0.000
M51,15.684,-117.937,0.000
S51,15.734,-119.317,0.000
N52,16.405,-111.503,0.000
M52,16.355,-113.053,0.000
S52,16.405,-114.433,0.000
N53,25.859,-103.891,0.000
M53,25.809,-105.441,0.000
S53,25.859,-106.821,0.000
N54,39.022,-102.100,0.000
M54,38.972,-103.650,0.000
S54,39.022,-105.030,0.000
N55,46.952,-102.819,0.000
M55,46.902,-104.369,0.000
S55,46.952,-105.749,0.000
N56,52.977,-115.927,0.000
M56,52.927,-117.477,0.000
S56,52.977,-118.857,0.000
N57,54.681,-123.920,0.000
M57,54.631,-125.470,0.000
S57,54.681,-126.850,0.000
N58,49.159,-132.199,0.000
M58,49.109,-133.749,0.000
S58,49.159,-135.129,0.000
N59,48.908,-140.387,0.000
M59,48.858,-141.937,0.000
S59,48.908,-143.317,0.000
N60,36.583,-144.563,0.000
M60,36.533,-146.113,0.000
S60,36.583,-147.493,0.000
N61,23.907,-142.297,0.000
M61,23.857,-143.847,0.000
S61,23.907,-145.227,0.000
N62,18.570,-139.001,0.000
M62,18.520,-140.551,0.000
S62,18.570,-141.931,0.000
N63,12.340,-133.309,0.000
M63,12.290,-134.859,0.000
S63,12.340,-136.239,0.000
N64,11.654,-115.686,0.000
M64,11.604,-117.236,0.000
S64,11.654,-118.616,0.000
N65,13.763,-107.995,0.000
M65,13.713,-109.545,0.000
S65,13.763,-110.925,0.000
N66,22.167,-96.978,0.000
M66,22.117,-98.528,0.000
S66,22.167,-99.908,0.000
N67,36.157,-94.480,0.000
M67,36.107,-96.030,0.000
S67,36.157,-97.410,0.000
N68,45.398,-95.601,0.000
M68,45.348,-97.151,0.000
S68,45.398,-98.531,0.000
N69,54.098,-103.474,0.000
M69,54.048,-105.024,0.000
S69,54.098,-106.404,0.000
N70,62.224,-117.394,0.000
M70,62.174,-118.944,0.000
S70,62.224,-120.324,0.000
N71,57.796,-134.577,0.000
M71,57.746,-136.127,0.000
S71,57.796,-137.507,0.000
N72,54.993,-148.105,0.000
M72,54.943,-149.655,0.000
S72,54.993,-151.035,0.000
N73,40.298,-150.590,0.000
M73,40.248,-152.140,0.000
S73,40.298,-153.520,0.000
N74,25.729,-149.407,0.000
M74,25.679,-150.957,0.000
S74,25.729,-152.337,0.000
N75,17.999,-147.320,0.000
M75,17.949,-148.870,0.000
S75,17.999,-150.250,0.000
N76,6.406,-132.394,0.000
M76,6.356,-133.944,0.000
S76,6.406,-135.324,0.000
N77,1.428,-115.045,0.000
M77,1.378,-116.595,0.000
S77,1.428,-117.975,0.000
N78,5.317,-103.383,0.000
M78,5.267,-104.933,0.000
S78,5.317,-106.313,0.000
N79,13.559,-98.928,0.000
M79,13.509,-100.478,0.000
S79,13.559,-101.858,0.000
N80,22.974,-87.704,0.000
M80,22.924,-89.254,0.000
S80,22.974,-90.634,0.000
N81,41.941,-86.340,0.000
M81,41.891,-87.890,0.000
S81,41.941,-89.270,0.000
N82,50.381,-89.367,0.000
M82,50.331,-90.917,0.000
S82,50.381,-92.297,0.000
N83,63.144,-98.945,0.000
M83,63.094,-100.495,0.000
S83,63.144,-101.875,0.000
N84,65.044,-106.951,0.000
M84,64.994,-108.501,0.000
S84,65.044,-109.881,0.000
N85,67.658,-127.393,0.000
M85,67.608,-128.943,0.000
S85,67.658,-130.323,0.000
N86,63.170,-132.390,0.000
M86,63.120,-133.940,0.000
S86,63.170,-135.320,0.000
N87,67.938,-136.475,0.000
M87,67.888,-138.025,0.000
S87,67.938,-139.405,0.000
N88,37.610,-161.320,0.000
M88,37.560,-162.870,0.000
S88,37.610,-164.250,0.000
N89,13.326,-153.055,0.000
M89,13.276,-154.605,0.000
S89,13.326,-155.985,0.000
N90,-1.604,-139.637,0.000
M90,-1.654,-141.187,0.000
S90,-1.604,-142.567,0.000
N91,-4.802,-123.872,0.000
M91,-4.852,-125.422,0.000
S91,-4.802,-126.802,0.000
N92,15.380,-83.576,0.000
M92,15.330,-85.126,0.000
S92,15.380,-86.506,0.000
N93,37.752,-83.133,0.000
M93,37.702,-84.683,0.000
S93,37.752,-86.063,0.000
N94,54.117,-82.685,0.000
M94,54.067,-84.235,0.000
S94,54.117,-85.615,0.000
N95,74.046,-120.974,0.000
M95,73.996,-122.524,0.000
S95,74.046,-123.904,0.000
N46,-17.260,-135.840,0.000
M46,-17.310,-137.390,0.000
S46,-17.260,-138.770,0.000
N47,19.060,-67.060,0.000
M47,19.010,-68.610,0.000
S47,19.060,-69.990,0.000
D1,-3.700,-119.100,0.000
D2,0.300,-128.100,0.000
D3,4.300,-137.100,0.000
D4,1.300,-141.100,0.000
D5,12.300,-138.100,0.000
D6,14.100,-142.900,0.000
D7,14.100,-151.100,0.000
D8,22.300,-147.100,0.000
D9,26.300,-147.100,0.000
D10,51.300,-136.600,0.000
D11,55.300,-133.100,0.000
D12,62.800,-129.600,0.000
D13,67.800,-133.100,0.000
D14,37.300,-159.600,0.000
D15,40.300,-155.100,0.000
D16,54.300,-152.600,0.000
D17,-13.700,-137.100,0.000
D18,15.300,-120.600,0.000
D19,23.800,-135.100,0.000
D20,27.800,-137.600,0.000
D21,31.800,-137.600,0.000
D22,35.300,-132.900,0.000
D23,38.800,-132.900,0.000
D24,38.800,-130.600,0.000
D25,38.800,-128.600,0.000
D26,43.300,-130.600,0.000
D27,43.300,-127.600,0.000
D28,45.300,-127.600,0.000
D29,47.300,-125.600,0.000
D30,10.800,-106.600,0.000
D31,16.300,-106.600,0.000
D32,20.300,-107.900,0.000
D33,20.300,-116.100,0.000
D34,22.900,-117.600,0.000
D35,22.900,-120.100,0.000
D36,25.800,-120.600,0.000
D37,25.800,-122.100,0.000
D38,28.300,-123.400,0.000
D39,28.300,-126.100,0.000
D40,28.700,-107.900,0.000
D41,31.100,-109.700,0.000
D42,36.800,-109.700,0.000
D43,37.300,-111.200,0.000
D44,42.600,-111.200,0.000
D45,42.600,-114.100,0.000
D46,31.300,-114.600,0.000
D47,22.800,-102.100,0.000
D48,39.300,-100.600,0.000
D49,39.300,-96.100,0.000
D50,41.800,-90.600,0.000
D51,38.8,-90.6,0.000
D52,44.8,-90.6,0.000
D53,51.3,-84.1,0.000
D54,53.8,-101.6,0.000
D55,59.3,-101.6,0.000
D56,61.8,-108.6,0.000
D57,62.3,-115.1,0.000
D58,55.8,-117.6,0.000
D59,73.8,-119.1,0.000
D60,16.3,-100.6,0.000
D61,18.3,-89.1,0.000
D62,18.8,-71.1,0.000
