NAME,STATION-P,STATION-Q,STATION-R
N0,-85.010,90.190,0.000
M0,-85.060,88.940,0.000
S0,-85.010,87.860,0.000
N1,-85.010,92.740,0.000
M1,-85.060,91.490,0.000
S1,-85.010,90.410,0.000
N2,-82.760,91.540,0.000
M2,-82.810,90.290,0.000
S2,-82.760,89.210,0.000
N3,-82.760,88.840,0.000
M3,-82.810,87.590,0.000
S3,-82.760,86.510,0.000
N4,-85.010,87.640,0.000
M4,-85.060,86.390,0.000
S4,-85.010,85.310,0.000
N5,-87.260,88.840,0.000
M5,-87.310,87.590,0.000
S5,-87.260,86.510,0.000
N6,-87.260,91.540,0.000
M6,-87.310,90.290,0.000
S6,-87.260,89.210,0.000
N7,-86.994,85.040,0.000
M7,-87.044,83.490,0.000
S7,-86.994,82.110,0.000
N8,-90.033,87.590,0.000
M8,-90.083,86.040,0.000
S8,-90.033,84.660,0.000
N9,-90.722,91.497,0.000
M9,-90.772,89.947,0.000
S9,-90.722,88.567,0.000
N10,-88.738,94.933,0.000
M10,-88.788,93.383,0.000
S10,-88.738,92.003,0.000
N11,-85.010,96.290,0.000
M11,-85.060,94.740,0.000
S11,-85.010,93.360,0.000
N12,-81.282,94.933,0.000
M12,-81.332,93.383,0.000
S12,-81.282,92.003,0.000
N13,-79.298,91.497,0.000
M13,-79.348,89.947,0.000
S13,-79.298,88.567,0.000
N14,-79.987,87.590,0.000
M14,-80.037,86.040,0.000
S14,-79.987,84.660,0.000
N15,-83.026,85.040,0.000
M15,-83.076,83.490,0.000
S15,-83.026,82.110,0.000
N16,-82.599,81.480,0.000
M16,-82.649,79.930,0.000
S16,-82.599,78.550,0.000
N17,-86.166,80.673,0.000
M17,-86.216,79.123,0.000
S17,-86.166,77.743,0.000
N18,-91.004,82.082,0.000
M18,-91.054,80.532,0.000
S18,-91.004,79.152,0.000
N19,-94.858,88.254,0.000
M19,-94.908,86.704,0.000
S19,-94.858,85.324,0.000
N20,-95.127,91.471,0.000
M20,-95.177,89.921,0.000
S20,-95.127,88.541,0.000
N21,-93.747,95.536,0.000
M21,-93.797,93.986,0.000
S21,-93.747,92.606,0.000
N22,-90.312,98.055,0.000
M22,-90.362,96.505,0.000
S22,-90.312,95.125,0.000
N23,-84.693,99.468,0.000
M23,-84.743,97.918,0.000
S23,-84.693,96.538,0.000
N24,-79.931,99.003,0.000
M24,-79.981,97.453,0.000
S24,-79.931,96.073,0.000
N25,-76.634,96.113,0.000
M25,-76.684,94.563,0.000
S25,-76.634,93.183,0.000
N26,-75.864,92.244,0.000
M26,-75.914,90.694,0.000
S26,-75.864,89.314,0.000
N27,-76.497,87.436,0.000
M27,-76.547,85.886,0.000
S27,-76.497,84.506,0.000
N28,-79.013,83.507,0.000
M28,-79.063,81.957,0.000
S28,-79.013,80.577,0.000
N29,-82.658,76.337,0.000
M29,-82.708,74.787,0.000
S29,-82.658,73.407,0.000
N30,-86.434,75.771,0.000
M30,-86.484,74.221,0.000
S30,-86.434,72.841,0.000
N31,-89.307,76.999,0.000
M31,-89.357,75.449,0.000
S31,-89.307,74.069,0.000
N32,-95.323,82.261,0.000
M32,-95.373,80.711,0.000
S32,-95.323,79.331,0.000
N33,-98.201,83.088,0.000
M33,-98.251,81.538,0.000
S33,-98.201,80.158,0.000
N34,-98.328,90.578,0.000
M34,-98.378,89.028,0.000
S34,-98.328,87.648,0.000
N35,-97.127,95.510,0.000
M35,-97.177,93.960,0.000
S35,-97.127,92.580,0.000
N36,-96.129,100.729,0.000
M36,-96.179,99.179,0.000
S36,-96.129,97.799,0.000
N37,-92.856,101.476,0.000
M37,-92.906,99.926,0.000
S37,-92.856,98.546,0.000
N38,-88.387,103.092,0.000
M38,-88.437,101.542,0.000
S38,-88.387,100.162,0.000
N39,-81.383,103.203,0.000
M39,-81.433,101.653,0.000
S39,-81.383,100.273,0.000
N40,-78.645,102.679,0.000
M40,-78.695,101.129,0.000
S40,-78.645,99.749,0.000
N41,-74.812,98.976,0.000
M41,-74.862,97.426,0.000
S41,-74.812,96.046,0.000
N42,-71.281,96.788,0.000
M42,-71.331,95.238,0.000
S42,-71.281,93.858,0.000
N43,-71.105,87.923,0.000
M43,-71.155,86.373,0.000
S43,-71.105,84.993,0.000
N44,-72.585,84.224,0.000
M44,-72.635,82.674,0.000
S44,-72.585,81.294,0.000
N45,-75.492,79.574,0.000
M45,-75.542,78.024,0.000
S45,-75.492,76.644,0.000
N48,-75.776,75.092,0.000
M48,-75.826,73.542,0.000
S48,-75.776,72.162,0.000
N49,-76.520,72.109,0.000
M49,-76.570,70.559,0.000
S49,-76.520,69.179,0.000
N50,-92.027,71.344,0.000
M50,-92.077,69.794,0.000
S50,-92.027,68.414,0.000
N51,-103.303,82.860,0.000
M51,-103.353,81.310,0.000
S51,-103.303,79.930,0.000
N52,-105.321,87.357,0.000
M52,-105.371,85.807,0.000
S52,-105.321,84.427,0.000
N53,-101.338,98.823,0.000
M53,-101.388,97.273,0.000
S53,-101.338,95.893,0.000
N54,-91.124,107.317,0.000
M54,-91.174,105.767,0.000
S54,-91.124,104.387,0.000
N55,-84.018,110.910,0.000
M55,-84.068,109.360,0.000
S55,-84.018,107.980,0.000
N56,-71.962,102.986,0.000
M56,-72.012,101.436,0.000
S56,-71.962,100.056,0.000
N57,-66.281,97.111,0.000
M57,-66.331,95.561,0.000
S57,-66.281,94.181,0.000
N58,-66.577,87.164,0.000
M58,-66.627,85.614,0.000
S58,-66.577,84.234,0.000
N59,-62.451,80.087,0.000
M59,-62.501,78.537,0.000
S59,-62.451,77.157,0.000
N60,-70.691,70.013,0.000
M60,-70.741,68.463,0.000
S60,-70.691,67.083,0.000
N61,-82.641,65.219,0.000
M61,-82.691,63.669,0.000
S61,-82.641,62.289,0.000
N62,-88.913,65.185,0.000
M62,-88.963,63.635,0.000
S62,-88.913,62.255,0.000
N63,-97.213,66.711,0.000
M63,-97.263,65.161,0.000
S63,-97.213,63.781,0.000
N64,-107.134,81.292,0.000
M64,-107.184,79.742,0.000
S64,-107.134,78.362,0.000
N65,-109.421,88.933,0.000
M65,-109.471,87.383,0.000
S65,-109.421,86.003,0.000
N66,-108.132,102.729,0.000
M66,-108.182,101.179,0.000
S66,-108.132,99.799,0.000
N67,-97.591,112.261,0.000
M67,-97.641,110.711,0.000
S67,-97.591,109.331,0.000
N68,-89.161,116.207,0.000
M68,-89.211,114.657,0.000
S68,-89.161,113.277,0.000
N69,-77.611,114.141,0.000
M69,-77.661,112.591,0.000
S69,-77.611,111.211,0.000
N70,-63.343,106.642,0.000
M70,-63.393,105.092,0.000
S70,-63.343,103.712,0.000
N71,-57.992,89.724,0.000
M71,-58.042,88.174,0.000
S71,-57.992,86.794,0.000
N72,-53.201,76.766,0.000
M72,-53.251,75.216,0.000
S72,-53.201,73.836,0.000
N73,-64.347,66.871,0.000
M73,-64.397,65.321,0.000
S73,-64.347,63.941,0.000
N74,-77.328,60.154,0.000
M74,-77.378,58.604,0.000
S74,-77.328,57.224,0.000
N75,-84.989,57.828,0.000
M75,-85.039,56.278,0.000
S75,-84.989,54.898,0.000
N76,-102.730,64.343,0.000
M76,-102.780,62.793,0.000
S76,-102.730,61.413,0.000
N77,-116.146,76.417,0.000
M77,-116.196,74.867,0.000
S77,-116.146,73.487,0.000
N78,-119.027,88.368,0.000
M78,-119.077,86.818,0.000
S78,-119.027,85.438,0.000
N79,-114.399,96.513,0.000
M79,-114.449,94.963,0.000
S79,-114.399,93.583,0.000
N80,-112.362,111.022,0.000
M80,-112.412,109.472,0.000
S80,-112.362,108.092,0.000
N81,-97.001,122.229,0.000
M81,-97.051,120.679,0.000
S81,-97.001,119.299,0.000
N82,-88.239,124.134,0.000
M82,-88.289,122.584,0.000
S82,-88.239,121.204,0.000
N83,-72.339,122.776,0.000
M83,-72.389,121.226,0.000
S83,-72.339,119.846,0.000
N84,-66.486,116.993,0.000
M84,-66.536,115.443,0.000
S84,-66.486,114.063,0.000
N85,-53.436,101.042,0.000
M85,-53.486,99.492,0.000
S85,-53.436,98.112,0.000
N86,-54.594,94.426,0.000
M86,-54.644,92.876,0.000
S86,-54.594,91.496,0.000
N87,-48.386,93.489,0.000
M87,-48.436,91.939,0.000
S87,-48.386,90.559,0.000
N88,-60.939,56.347,0.000
M88,-60.989,54.797,0.000
S88,-60.939,53.417,0.000
N89,-85.913,50.488,0.000
M89,-85.963,48.938,0.000
S89,-85.913,47.558,0.000
N90,-105.686,53.955,0.000
M90,-105.736,52.405,0.000
S90,-105.686,51.025,0.000
N91,-116.751,65.630,0.000
M91,-116.801,64.080,0.000
S91,-116.751,62.700,0.000
N92,-120.989,110.498,0.000
M92,-121.039,108.948,0.000
S92,-120.989,107.568,0.000
N93,-102.252,122.729,0.000
M93,-102.302,121.179,0.000
S93,-102.252,119.799,0.000
N94,-88.611,131.781,0.000
M94,-88.661,130.231,0.000
S94,-88.611,128.851,0.000
N95,-51.420,109.871,0.000
M95,-51.470,108.321,0.000
S95,-51.420,106.941,0.000
N46,-103.861,142.140,0.000
M46,-103.911,140.590,0.000
S46,-103.861,139.210,0.000
N47,-33.310,109.391,0.000
M47,-33.360,107.841,0.000
S47,-33.310,106.461,0.000
D1,-45.000,88.000,0.000
D2,-49.500,88.000,0.000
D3,-70.600,80.500,0.000
D4,-75.100,80.600,0.000
D5,-77.500,84.000,0.000
D6,-80.800,84.100,0.000
D7,-76.900,80.500,0.000
D8,-81.000,77.000,0.000
D9,-86.600,77.000,0.000
D10,-90.000,78.000,0.000
D11,-101.800,78.000,0.000
D12,-106.000,77.000,0.000
D13,-110.000,77.000,0.000
D14,-113.200,87.120,0.000
D15,-93.000,83.500,0.000
D16,-92.500,85.000,0.000
D17,-93.000,92.000,0.000
D18,-96.200,92.000,0.000
D19,-97.000,84.500,0.000
D20,-50.000,73.000,0.000
D21,-62.000,62.000,0.000
D22,-81.900,61.000,0.000
D23,-93.000,60.500,0.000
D24,-105.000,60.000,0.000
D25,-113.000,64.000,0.000
D26,-93.000,67.000,0.000
D27,-82.000,49.000,0.000
D28,-61.800,92.700,0.000
D29,-71.000,92.600,0.000
D30,-79.000,92.700,0.000
D31,-79.000,95.400,0.000
D32,-82.200,95.500,0.000
D33,-64.000,99.300,0.000
D34,-82.000,99.300,0.000
D35,-84.600,100.500,0.000
D36,-86.000,100.500,0.000
D37,-87.200,99.000,0.000
D38,-89.000,99.000,0.000
D39,-74.000,88.000,0.000
D40,-80.600,88.100,0.000
D41,-46.800,98.600,0.000
D42,-64.000,118.400,0.000
D43,-77.000,118.400,0.000
D44,-85.000,118.400,0.000
D45,-92.000,118.400,0.000
D46,-120.000,112.000,0.000
D47,-101.000,140.000,0.000
D48,-85.000,129.000,0.000
D49,-36.000,108.000,0.000
D50,-72.000,72.000,0.000
D51,-103.000,102.000,0.000
