NAME;ETRS-X;ETRS-Y;ETRS-Z;STATION-P;STATION-Q;STATION-R
4749;3826594.260;460976.634;5064884.065;-47.670;-14.018;-0.007
4750;3826594.250;460976.639;5064884.071;-47.663;-14.007;-0.008
4751;3826592.488;460981.034;5064884.999;-43.089;-12.471;-0.006
4752;3826590.814;460985.352;5064885.864;-38.602;-11.036;-0.007
4753;3826589.459;460989.735;5064886.512;-34.088;-9.990;0.015
4754;3826587.675;460994.094;5064887.442;-29.547;-8.432;0.003
4755;3826586.320;460998.633;5064888.060;-24.879;-7.419;0.011
4756;3826584.601;461003.013;5064888.950;-20.325;-5.939;0.008
4757;3826583.108;461007.339;5064889.668;-15.851;-4.737;-0.001
4758;3826581.393;461012.024;5064890.518;-10.994;-3.313;-0.012
4759;3826579.764;461016.408;5064891.361;-6.447;-1.933;0.001
4760;3826578.107;461020.883;5064892.200;-1.805;-0.542;0.001
4761;3826576.410;461024.880;5064893.112;2.365;0.972;0.0002
4762;3826575.013;461029.292;5064893.766;6.913;2.051;0.004
4763;3826573.461;461033.685;5064894.527;11.460;3.320;-0.002
4764;3826572.063;461038.036;5064895.188;15.947;4.410;0.002
4765;3826570.236;461042.288;5064896.156;20.387;6.035;-0.013
4766;3826568.462;461046.722;5064897.092;25.002;7.582;-0.010
4767;3826566.941;461051.166;5064897.846;29.596;8.817;0.002
4768;3826565.390;461055.682;5064898.591;34.265;10.064;-0.006
4769;3826563.739;461060.138;5064899.434;38.886;11.455;-0.002
4770;3826562.201;461064.512;5064900.192;43.413;12.712;-0.002
4771;3826561.148;461067.435;5064900.693;46.440;13.569;-0.022
4772;3826564.493;461069.782;5064897.965;48.371;9.051;-0.027
4773;3826566.184;461065.324;5064897.118;43.743;7.627;-0.011
4774;3826567.729;461060.849;5064896.372;39.115;6.380;-0.004
4775;3826569.424;461056.168;5064895.533;34.265;4.978;0.004
4776;3826571.078;461052.119;5064894.646;30.047;3.520;-0.005
4777;3826572.364;461047.809;5064894.084;25.614;2.574;0.006
4778;3826574.122;461043.677;5064893.137;21.302;1.005;0.005
4779;3826575.722;461039.215;5064892.337;16.680;-0.319;0.004
4780;3826577.375;461034.624;5064891.511;11.924;-1.688;0.003
4781;3826578.503;461030.112;5064891.061;7.310;-2.422;-0.006
4782;3826580.179;461025.347;5064890.239;2.379;-3.791;-0.001
4783;3826581.688;461021.362;5064889.468;-1.758;-5.071;0.0001
4784;3826583.616;461016.662;5064888.451;-6.655;-6.763;0.005
4785;3826585.393;461012.255;5064887.521;-11.243;-8.309;0.009
4786;3826587.027;461007.804;5064886.676;-15.858;-9.689;-0.008
4787;3826588.804;461003.140;5064885.780;-20.701;-11.192;0.006
4788;3826590.460;460998.447;5064884.961;-25.558;-12.549;0.005
4789;3826592.180;460994.060;5064884.053;-30.119;-14.040;-0.006
4790;3826593.918;460989.615;5064883.159;-34.741;-15.532;0.002
4791;3826595.606;460985.326;5064882.280;-39.200;-16.989;0.002
4792;3826596.971;460980.998;5064881.654;-43.660;-18.035;0.007
4793;3826597.596;460978.960;5064881.358;-45.759;-18.514;-0.002
4794;3826601.149;460981.027;5064878.509;-44.131;-23.244;0.003
4795;3826599.480;460985.217;5064879.379;-39.772;-21.797;-0.0004
4796;3826598.018;460989.431;5064880.082;-35.413;-20.617;-0.012
4797;3826596.453;460993.606;5064880.901;-31.081;-19.282;0.006
4798;3826594.727;460998.080;5064881.778;-26.433;-17.813;-0.005
4799;3826593.340;461002.561;5064882.418;-21.818;-16.756;-0.003
4800;3826591.436;461007.149;5064883.449;-17.035;-15.064;0.011
4801;3826589.724;461011.876;5064884.293;-12.138;-13.651;-0.0004
4802;3826587.933;461016.152;5064885.219;-7.678;-12.082;-0.026
4803;3826586.541;461020.118;5064885.937;-3.574;-10.925;-0.0001
4804;3826585.036;461024.659;5064886.672;1.114;-9.723;0.013
4805;3826583.526;461029.091;5064887.401;5.695;-8.510;0.009
4806;3826581.692;461033.532;5064888.371;10.323;-6.896;0.005
4807;3826580.240;461037.998;5064889.053;14.931;-5.761;0.002
4808;3826578.435;461042.693;5064889.992;19.808;-4.214;0.008
4809;3826576.655;461047.099;5064890.916;24.396;-2.667;-0.003
4810;3826575.233;461051.420;5064891.597;28.856;-1.543;0.0004
4811;3826573.534;461055.823;5064892.461;33.430;-0.097;-0.010
4812;3826571.846;461060.207;5064893.336;37.985;1.350;-0.007
4813;3826570.271;461064.624;5064894.126;42.559;2.652;-0.001
4814;3826568.689;461068.994;5064894.899;47.086;3.954;-0.017
4815;3826567.933;461071.111;5064895.237;49.279;4.555;-0.047
4816;3826572.178;461071.968;5064891.961;49.622;-0.864;-0.057
4817;3826573.748;461067.604;5064891.265;45.102;-2.111;0.014
4818;3826575.256;461063.009;5064890.526;40.359;-3.313;-0.004
4819;3826576.959;461058.871;5064889.617;36.047;-4.815;-0.008
4820;3826578.644;461054.386;5064888.776;31.392;-6.228;0.007
4821;3826580.064;461050.132;5064888.085;26.999;-7.364;-0.001
4822;3826581.565;461045.645;5064887.372;22.365;-8.554;0.006
4823;3826583.473;461041.152;5064886.343;17.676;-10.257;0.003
4824;3826584.742;461036.664;5064885.804;13.068;-11.158;0.009
4825;3826586.721;461032.220;5064884.711;8.420;-12.961;0.002
4826;3826588.079;461027.702;5064884.100;3.771;-13.974;0.002
4827;3826589.907;461023.321;5064883.132;-0.796;-15.588;0.008
4828;3826591.438;461018.858;5064882.389;-5.411;-16.823;0.011
4829;3826593.064;461014.412;5064881.551;-10.019;-18.192;-0.005
4830;3826594.750;461009.947;5064880.697;-14.654;-19.616;0.001
4831;3826596.389;461005.374;5064879.873;-19.390;-20.974;-0.004
4832;3826597.852;461001.106;5064879.164;-23.803;-22.153;-0.001
4833;3826599.582;460996.883;5064878.258;-28.202;-23.667;0.007
4834;3826601.104;460992.473;5064877.510;-32.763;-24.902;0.004
4835;3826602.822;460988.147;5064876.609;-37.263;-26.393;0.002
4836;3826605.534;460991.577;5064874.292;-34.182;-30.266;0.025
4837;3826603.915;460996.145;5064875.066;-29.453;-28.953;0.002
4838;3826602.384;461000.466;5064875.824;-24.980;-27.695;0.002
4839;3826600.778;461004.901;5064876.631;-20.385;-26.360;0.003
4840;3826599.159;461009.360;5064877.443;-15.764;-25.013;0.003
4841;3826597.518;461013.899;5064878.258;-11.062;-23.656;-0.001
4842;3826595.991;461018.390;5064879.012;-6.420;-22.420;0.009
4843;3826594.364;461022.822;5064879.828;-1.826;-21.063;0.005
4844;3826592.803;461027.356;5064880.580;2.863;-19.805;-0.002
4845;3826591.276;461031.929;5064881.328;7.585;-18.581;0.009
4846;3826589.484;461036.327;5064882.272;12.167;-17.012;0.007
4847;3826587.837;461040.946;5064883.092;16.949;-15.654;0.008
4848;3826586.213;461045.500;5064883.913;21.665;-14.308;0.018
4849;3826584.488;461050.008;5064884.778;26.347;-12.850;0.001
4850;3826583.104;461054.212;5064885.433;30.686;-11.759;-0.002
4851;3826581.497;461058.341;5064886.265;34.978;-10.379;-0.004
4852;3826580.075;461062.513;5064886.959;39.290;-9.233;-0.0001
4853;3826578.501;461066.849;5064887.755;43.783;-7.920;0.005
4854;3826576.846;461071.515;5064888.534;48.613;-6.585;-0.028
4855;3826580.425;461071.648;5064885.856;48.317;-11.047;-0.012
4856;3826582.092;461067.356;5064885.004;43.857;-12.472;-0.003
4857;3826583.509;461063.380;5064884.298;39.740;-13.640;-0.004
4858;3826585.133;461059.280;5064883.475;35.475;-15.031;0.016
4859;3826586.645;461054.882;5064882.735;30.928;-16.255;0.014
4860;3826588.254;461050.428;5064881.928;26.313;-17.591;0.013
4861;3826589.736;461045.789;5064881.222;21.530;-18.748;0.003
4862;3826591.400;461041.382;5064880.385;16.956;-20.150;0.013
4863;3826592.988;461037.061;5064879.572;12.476;-21.486;0.004
4864;3826594.738;461032.495;5064878.675;7.733;-22.977;0.007
4865;3826596.401;461028.027;5064877.827;3.099;-24.379;0.004
4866;3826598.053;461023.578;5064877.004;-1.516;-25.759;0.016
4867;3826599.700;461018.959;5064876.184;-6.299;-27.117;0.015
4868;3826601.333;461014.372;5064875.372;-11.048;-28.463;0.014
4869;3826602.987;461010.065;5064874.499;-15.522;-29.888;-0.002
4870;3826604.688;461005.446;5064873.640;-20.311;-31.312;-0.002
4871;3826606.299;461001.060;5064872.829;-24.859;-32.659;-0.001
4872;3826607.857;460996.532;5064872.055;-29.541;-33.927;-0.011
4873;3826611.676;460998.672;5064869.031;-27.873;-38.980;0.017
4874;3826610.028;461003.095;5064869.855;-23.285;-37.600;0.007
4875;3826608.433;461007.462;5064870.647;-18.757;-36.275;-0.001
4876;3826606.895;461011.810;5064871.419;-14.257;-35.007;0.006
4877;3826605.250;461016.213;5064872.262;-9.689;-33.616;0.012
4878;3826603.618;461020.569;5064873.097;-5.169;-32.236;0.015
4879;3826601.877;461024.994;5064874.002;-0.568;-30.733;0.013
4880;3826600.384;461029.428;5064874.717;4.013;-29.543;0.009
4881;3826598.770;461034.004;5064875.518;8.749;-28.218;0.012
4882;3826597.098;461038.471;5064876.372;13.384;-26.805;0.014
4883;3826595.516;461043.030;5064877.137;18.100;-25.525;0.006
4884;3826593.828;461047.393;5064878.010;22.634;-24.079;0.006
4885;3826592.119;461051.896;5064878.877;27.309;-22.632;-0.001
4886;3826590.638;461056.271;5064879.599;31.829;-21.441;0.004
4887;3826588.978;461060.760;5064880.436;36.485;-20.050;0.0004
4888;3826587.365;461065.126;5064881.260;41.012;-18.692;0.007
4889;3826585.679;461069.421;5064882.124;45.478;-17.246;-0.003
4890;3826590.455;461068.445;5064878.647;43.938;-23.033;0.012
4891;3826592.153;461063.751;5064877.790;39.074;-24.446;0.007
4892;3826593.797;461059.382;5064876.951;34.540;-25.837;0.007
4893;3826595.369;461055.012;5064876.164;30.013;-27.139;0.006
4894;3826596.905;461050.752;5064875.404;25.600;-28.408;0.012
4895;3826598.581;461046.225;5064874.564;20.905;-29.810;0.018
4896;3826600.165;461041.862;5064873.758;16.384;-31.134;0.010
4897;3826601.831;461037.273;5064872.931;11.628;-32.514;0.016
4898;3826603.513;461032.841;5064872.076;7.027;-33.939;0.022
4899;3826605.190;461028.286;5064871.215;2.305;-35.352;0.012
4900;3826606.852;461023.764;5064870.376;-2.384;-36.743;0.011
4901;3826608.436;461019.198;5064869.593;-7.106;-38.034;0.005
4902;3826610.069;461014.611;5064868.796;-11.856;-39.369;0.017
4903;3826611.957;461009.872;5064867.796;-16.786;-41.016;0.008
4904;3826613.317;461005.361;5064867.133;-21.428;-42.062;-0.032
4905;3826614.140;461003.007;5064866.789;-23.863;-42.697;0.017
4906;3826613.215;461017.877;5064866.100;-8.990;-43.798;-0.015
4907;3826611.551;461022.399;5064866.975;-4.301;-42.385;0.013
4908;3826609.994;461026.724;5064867.737;0.179;-41.105;0.001
4909;3826608.283;461031.254;5064868.623;4.881;-39.647;0.009
4910;3826606.609;461035.782;5064869.467;9.577;-38.245;0.007
4911;3826605.093;461040.267;5064870.197;14.212;-37.032;0.004
4912;3826603.283;461044.386;5064871.185;18.517;-35.396;0.006
4913;3826601.781;461048.650;5064871.916;22.930;-34.172;-0.002
4914;3826600.309;461052.829;5064872.656;27.255;-32.959;0.007
4915;3826598.788;461057.341;5064873.383;31.917;-31.746;0.002
4916;3826596.941;461061.604;5064874.382;36.370;-30.088;0.001
4917;3826595.663;461065.299;5064875.004;40.191;-29.053;-0.003
4918;3826602.420;461059.507;5064870.450;33.632;-36.598;-0.006
4919;3826604.186;461055.037;5064869.534;28.984;-38.123;-0.002
4920;3826605.808;461050.504;5064868.733;24.289;-39.458;0.003
4921;3826607.476;461045.975;5064867.900;19.593;-40.849;0.011
4922;3826609.085;461041.555;5064867.099;15.012;-42.185;0.016
4923;3826610.685;461037.147;5064866.289;10.444;-43.520;0.010
4924;3826611.657;461034.167;5064865.820;7.370;-44.288;0.004
4925;3826612.987;461041.300;5064864.193;14.292;-47.003;0.017
4926;3826611.570;461045.804;5064864.816;18.934;-45.935;-0.010
4927;3826610.261;461050.539;5064865.377;23.791;-45.011;-0.005
4928;3826607.953;461054.455;5064866.768;27.955;-42.719;0.005
4929;3826604.833;461056.762;5064868.922;30.619;-39.169;0.021
4930;3826590.868;460974.551;5064886.810;-49.331;-9.477;0.001
4931;3826589.299;460978.827;5064887.603;-44.898;-8.164;0.003
4932;3826587.742;460982.827;5064888.387;-40.741;-6.840;-0.015
4933;3826586.371;460986.971;5064889.087;-36.462;-5.727;0.020
4934;3826584.682;460991.341;5064889.942;-31.922;-4.292;0.006
4935;3826583.165;460995.732;5064890.673;-27.381;-3.068;-0.002
4936;3826581.468;461000.074;5064891.568;-22.867;-1.599;0.008
4937;3826579.612;461004.715;5064892.541;-18.037;0.015;0.008
4938;3826578.122;461009.279;5064893.243;-13.328;1.183;0.005
4939;3826576.453;461013.814;5064894.076;-8.626;2.574;-0.003
4940;3826574.882;461018.164;5064894.860;-4.119;3.876;-0.004
4941;3826573.202;461022.677;5064895.730;0.563;5.301;0.009
4942;3826571.514;461027.319;5064896.573;5.372;6.703;0.005
4943;3826569.833;461031.961;5064897.406;10.182;8.094;-0.002
4944;3826568.233;461036.416;5064898.206;14.797;9.418;-0.0004
4945;3826566.582;461040.689;5064899.057;19.237;10.832;-0.003
4946;3826565.100;461045.009;5064899.788;23.703;12.033;0.005
4947;3826563.456;461049.466;5064900.604;28.325;13.402;-0.007
4948;3826561.790;461053.846;5064901.471;32.872;14.827;0.003
4949;3826560.225;461058.373;5064902.218;37.554;16.084;-0.012
4950;3826558.583;461062.667;5064903.084;42.014;17.498;0.005
4951;3826557.842;461064.888;5064903.422;44.308;18.076;-0.009
4952;3826554.653;461062.248;5064906.068;42.068;22.450;0.002
4953;3826556.310;461057.664;5064905.230;37.319;21.070;-0.005
4954;3826557.879;461053.279;5064904.438;32.778;19.768;-0.014
4955;3826559.488;461048.805;5064903.647;28.143;18.444;-0.003
4956;3826561.069;461044.408;5064902.851;23.589;17.130;-0.009
4957;3826562.756;461039.950;5064901.980;18.961;15.695;-0.014
4958;3826564.516;461035.650;5064901.065;14.481;14.159;-0.001
4959;3826565.920;461031.184;5064900.412;9.879;13.080;-0.003
4960;3826567.595;461026.697;5064899.576;5.224;11.677;0.010
4961;3826569.269;461022.278;5064898.696;0.637;10.242;-0.009
4962;3826570.923;461017.687;5064897.889;-4.119;8.884;0.006
4963;3826572.504;461013.135;5064897.105;-8.828;7.593;-0.0003
4964;3826574.144;461008.813;5064896.250;-13.315;6.191;-0.012
4965;3826575.577;461004.534;5064895.573;-17.735;5.056;-0.003
4966;3826577.256;461000.258;5064894.702;-22.181;3.609;-0.0003
4967;3826578.843;460996.065;5064893.889;-26.533;2.263;-0.001
4968;3826580.482;460991.648;5064893.055;-31.114;0.883;-0.003
4969;3826581.978;460987.445;5064892.307;-35.467;-0.352;-0.007
4970;3826583.687;460983.111;5064891.429;-39.974;-1.821;0.003
4971;3826585.124;460978.636;5064890.763;-44.589;-2.934;0.009
4972;3826586.806;460974.116;5064889.913;-49.277;-4.347;0.013
4973;3826582.521;460973.491;5064893.173;-49.385;1.072;0.003
4974;3826580.835;460977.936;5064894.024;-44.770;2.497;-0.007
4975;3826579.230;460982.371;5064894.852;-40.176;3.843;0.012
4976;3826577.537;460986.754;5064895.684;-35.621;5.268;-0.022
4977;3826576.067;460991.089;5064896.432;-31.141;6.469;0.007
4978;3826574.357;460995.877;5064897.287;-26.184;7.883;0.010
4979;3826572.829;461000.171;5064898.027;-21.737;9.129;-0.005
4980;3826571.428;461004.725;5064898.679;-17.048;10.197;0.005
4981;3826569.682;461009.027;5064899.595;-12.568;11.722;0.0003
4982;3826568.119;461013.460;5064900.366;-7.980;13.002;-0.001
4983;3826566.471;461017.916;5064901.195;-3.359;14.382;-0.005
4984;3826564.863;461022.560;5064901.995;1.444;15.695;0.005
4985;3826563.306;461027.102;5064902.736;6.139;16.941;-0.009
4986;3826561.625;461031.737;5064903.587;10.942;18.343;-0.002
4987;3826559.934;461036.263;5064904.444;15.638;19.768;-0.005
4988;3826558.311;461040.824;5064905.249;20.360;21.103;-0.006
4989;3826556.657;461045.259;5064906.086;24.961;22.494;-0.009
4990;3826555.077;461049.784;5064906.867;29.643;23.785;-0.005
4991;3826553.438;461054.350;5064907.671;34.372;25.132;-0.016
4992;3826551.747;461058.923;5064908.516;39.115;26.545;-0.025
4993;3826548.551;461056.526;5064911.155;37.117;30.896;-0.006
4994;3826550.156;461051.929;5064910.377;32.361;29.594;0.002
4995;3826551.709;461047.549;5064909.582;27.827;28.303;-0.017
4996;3826553.302;461043.215;5064908.792;23.333;26.979;-0.006
4997;3826554.904;461038.699;5064908.005;18.658;25.666;-0.001
4998;3826556.618;461034.224;5064907.130;14.010;24.208;0.006
4999;3826558.278;461029.776;5064906.281;9.395;22.806;0.001
5000;3826559.831;461025.173;5064905.526;4.639;21.560;-0.003
5001;3826561.419;461020.628;5064904.751;-0.063;20.269;0.002
5002;3826563.036;461016.066;5064903.939;-4.785;18.933;-0.007
5003;3826564.704;461011.422;5064903.124;-9.595;17.564;0.007
5004;3826566.428;461006.874;5064902.234;-14.317;16.096;0.002
5005;3826567.956;461002.200;5064901.508;-19.140;14.894;0.0002
5006;3826569.689;460997.761;5064900.608;-23.755;13.403;-0.0005
5007;3826571.310;460993.423;5064899.781;-28.255;12.034;-0.001
5008;3826572.866;460988.773;5064899.040;-33.058;10.799;0.003
5009;3826574.618;460983.739;5064898.146;-38.265;9.352;-0.023
5010;3826576.633;460979.178;5064897.063;-43.035;7.538;-0.010
5011;3826578.041;460974.598;5064896.435;-47.750;6.481;0.002
5012;3826573.624;460974.161;5064899.773;-47.656;12.034;-0.012
5013;3826571.962;460978.568;5064900.649;-43.082;13.458;0.010
5014;3826570.460;460982.941;5064901.362;-38.561;14.660;-0.005
5015;3826568.949;460987.291;5064902.113;-34.061;15.895;0.003
5016;3826567.321;460991.818;5064902.924;-29.372;17.242;0.001
5017;3826565.655;460996.251;5064903.782;-24.771;18.655;0.008
5018;3826564.177;461000.789;5064904.477;-20.089;19.813;0.005
5019;3826562.442;461005.323;5064905.372;-15.380;21.293;0.006
5020;3826560.879;461009.939;5064906.115;-10.611;22.539;-0.004
5021;3826559.290;461014.497;5064906.890;-5.895;23.830;-0.008
5022;3826557.709;461019.070;5064907.660;-1.166;25.110;-0.011
5023;3826556.096;461023.571;5064908.469;3.496;26.445;-0.007
5024;3826554.495;461028.046;5064909.270;8.131;27.769;-0.005
5025;3826552.856;461032.537;5064910.097;12.786;29.138;-0.002
5026;3826551.304;461037.019;5064910.853;17.420;30.396;-0.005
5027;3826549.767;461041.461;5064911.586;22.015;31.631;-0.021
5028;3826548.149;461045.772;5064912.432;26.488;33.011;-0.004
5029;3826546.595;461050.273;5064913.188;31.143;34.268;-0.006
5030;3826545.404;461053.789;5064913.749;34.776;35.214;-0.019
5031;3826542.659;461050.002;5064916.134;31.345;39.187;-0.033
5032;3826544.201;461045.567;5064915.408;26.757;37.952;-0.009
5033;3826545.800;461041.004;5064914.628;22.035;36.650;-0.002
5034;3826547.371;461036.565;5064913.847;17.441;35.359;-0.005
5035;3826549.072;461031.912;5064913.002;12.617;33.946;0.004
5036;3826550.553;461027.497;5064912.273;8.057;32.755;-0.009
5037;3826552.121;461023.071;5064911.511;3.476;31.475;0.003
5038;3826553.769;461018.656;5064910.669;-1.106;30.084;0.001
5039;3826555.303;461014.077;5064909.948;-5.835;28.871;0.013
5040;3826556.995;461009.491;5064909.081;-10.590;27.447;0.004
5041;3826558.677;461004.897;5064908.239;-15.353;26.044;0.009
5042;3826560.250;461000.350;5064907.445;-20.055;24.754;-0.011
5043;3826561.861;460995.781;5064906.660;-24.784;23.440;-0.002
5044;3826563.505;460991.229;5064905.828;-29.500;22.072;-0.009
5045;3826565.141;460986.643;5064905.038;-34.249;20.736;0.009
5046;3826566.722;460982.029;5064904.261;-39.018;19.457;0.003
5047;3826568.378;460977.412;5064903.437;-43.801;18.088;0.005
5048;3826568.862;460975.756;5064903.219;-45.503;17.732;0.002
5049;3826564.029;460977.917;5064906.662;-42.779;23.430;0.010
5050;3826562.427;460982.291;5064907.464;-38.245;24.765;0.006
5051;3826560.746;460986.743;5064908.305;-33.623;26.178;-0.009
5052;3826559.240;460991.373;5064909.016;-28.847;27.358;-0.010
5053;3826557.573;460995.786;5064909.887;-24.266;28.782;0.005
5054;3826556.049;461000.311;5064910.613;-19.591;29.995;-0.003
5055;3826554.515;461004.788;5064911.355;-14.963;31.230;-0.006
5056;3826552.873;461009.279;5064912.180;-10.308;32.599;-0.007
5057;3826551.296;461013.662;5064912.961;-5.767;33.901;-0.013
5058;3826549.763;461018.126;5064913.721;-1.153;35.148;-0.002
5059;3826548.105;461022.655;5064914.548;3.543;36.527;-0.009
5060;3826546.682;461027.064;5064915.204;8.090;37.629;-0.020
5061;3826545.133;461031.309;5064915.982;12.490;38.920;-0.020
5062;3826543.625;461035.430;5064916.757;16.761;40.189;-0.008
5063;3826542.123;461040.100;5064917.461;21.578;41.357;-0.009
5064;3826540.590;461044.326;5064918.165;25.957;42.592;-0.060
5065;3826538.584;461037.864;5064920.284;19.782;46.076;-0.037
5066;3826540.128;461033.626;5064919.501;15.389;44.785;-0.043
5067;3826541.680;461029.158;5064918.784;10.767;43.550;-0.008
5068;3826543.295;461024.698;5064917.966;6.146;42.203;-0.015
5069;3826544.834;461020.168;5064917.222;1.464;40.968;-0.014
5070;3826546.449;461015.680;5064916.419;-3.184;39.632;-0.011
5071;3826548.005;461011.240;5064915.655;-7.779;38.364;-0.008
5072;3826549.560;461006.678;5064914.909;-12.494;37.117;-0.002
5073;3826551.280;461002.210;5064914.025;-17.136;35.648;0.001
5074;3826553.040;460997.686;5064913.111;-21.838;34.135;-0.0003
5075;3826554.457;460992.992;5064912.458;-26.668;33.067;-0.011
5076;3826556.073;460988.525;5064911.659;-31.296;31.731;-0.003
5077;3826557.784;460983.941;5064910.799;-36.052;30.296;0.005
5078;3826559.118;460980.050;5064910.128;-40.074;29.205;-0.012
5079;3826550.341;460992.713;5064915.589;-26.452;38.241;0.001
5080;3826548.916;460997.257;5064916.226;-21.770;39.321;-0.016
5081;3826547.378;461001.780;5064916.989;-17.095;40.567;-0.002
5082;3826545.777;461006.283;5064917.795;-12.434;41.892;0.006
5083;3826544.174;461010.853;5064918.572;-7.705;43.194;-0.004
5084;3826542.627;461015.301;5064919.311;-3.103;44.440;-0.019
5085;3826541.125;461019.951;5064920.030;1.693;45.619;-0.010
5086;3826540.344;461022.628;5064920.388;4.444;46.198;0.001
5087;3826541.151;461011.194;5064920.819;-7.005;46.910;0.003
5088;3826542.970;461006.290;5064919.904;-12.090;45.386;0.009
5089;3826544.879;461002.231;5064918.853;-16.349;43.628;0.021
