9003,205660.105,531104.228,-0.951,9003piket
9002,205728.101,531004.088,-0.924,9002
9001,205676.133,530999.406,-0.818,9001
9004,205805.028,531018.984,-0.975,9004
9005,205785.393,531133.271,-0.913,9005
9006,205678.268,531189.183,-0.464,9006piket-gaspaal
9710,205733.799,531110.280,-0.145,9710
a1,205678.268,531189.175,-0.457,9006
a2,205718.701,531052.545,-0.692,lba0
a3,205763.399,531084.488,-0.678,lba47
a4,205759.545,531119.171,-0.642,hba0
a5,205686.729,531097.294,-0.682,lba46
a6,205678.284,531189.190,-0.457,9006
a7,205685.937,531099.806,-0.613,lba46
a8,205688.612,531100.523,-0.643,lba46
a9,205683.518,531099.043,-0.635,lba46
a10,205684.348,531096.560,-0.624,lba46
a11,205684.989,531094.031,-0.625,lba46
a12,205687.467,531094.941,-0.643,lba46
a13,205689.947,531095.803,-0.634,lba46
a14,205689.081,531098.209,-0.646,lba46
a15,205686.789,531097.298,-0.642,lba46
a16,205712.793,531097.736,-0.644,lba
a17,205713.409,531093.526,-0.646,lba
a18,205713.977,531089.636,-0.629,lba
a19,205714.604,531085.618,-0.640,lba
a20,205715.114,531081.730,-0.650,lba
a21,205715.506,531077.540,-0.648,lba
a22,205716.030,531073.366,-0.650,lba
a23,205716.597,531069.296,-0.645,lba
a24,205717.191,531065.265,-0.648,lba
a25,205717.622,531061.205,-0.646,lba
a26,205718.088,531057.148,-0.639,lba
a27,205718.583,531053.134,-0.658,lba
a28,205719.156,531048.866,-0.672,lba
a29,205719.691,531044.615,-0.657,lba
a30,205720.323,531040.327,-0.657,lba
a31,205720.895,531036.029,-0.683,lba
a32,205721.418,531031.905,-0.671,lba
a33,205722.027,531027.709,-0.675,lba
a34,205722.658,531023.667,-0.695,lba
a35,205723.236,531019.562,-0.720,lba
a36,205723.795,531015.438,-0.699,lba
a37,205724.062,531011.405,-0.697,lba
a38,205724.509,531006.978,-0.702,lba
a39,205719.980,531006.568,-0.725,lba
a40,205719.366,531010.674,-0.689,lba
a41,205718.655,531014.942,-0.685,lba
a42,205718.075,531019.100,-0.694,lba
a43,205717.575,531023.270,-0.691,lba
a44,205717.088,531027.269,-0.675,lba
a45,205716.633,531031.368,-0.672,lba
a46,205716.117,531035.574,-0.658,lba
a47,205715.517,531039.774,-0.660,lba
a48,205715.061,531043.951,-0.664,lba
a49,205714.570,531047.958,-0.650,lba
a50,205714.109,531052.129,-0.662,lba
a51,205713.555,531056.100,-0.656,lba
a52,205713.192,531060.193,-0.642,lba
a53,205712.551,531064.349,-0.638,lba
a54,205712.064,531068.489,-0.648,lba
a55,205711.527,531072.555,-0.647,lba
a56,205711.078,531076.902,-0.654,lba
a57,205710.595,531081.058,-0.651,lba
a58,205710.045,531085.045,-0.638,lba
a59,205709.538,531089.319,-0.640,lba
a60,205708.993,531093.690,-0.634,lba
a61,205708.676,531097.290,-0.641,lba
a62,205704.117,531096.178,-0.641,lba
a63,205704.670,531092.026,-0.636,lba
a64,205705.199,531087.702,-0.627,lba
a65,205705.632,531083.508,-0.634,lba
a66,205706.107,531079.357,-0.633,lba
a67,205706.686,531075.087,-0.641,lba
a68,205707.293,531070.954,-0.645,lba
a69,205707.842,531066.911,-0.631,lba
a70,205708.356,531062.851,-0.638,lba
a71,205708.935,531058.919,-0.638,lba
a72,205709.425,531054.666,-0.656,lba
a73,205709.901,531050.586,-0.640,lba
a74,205710.466,531046.376,-0.640,lba
a75,205710.985,531042.259,-0.655,lba
a76,205711.462,531038.160,-0.650,lba
a77,205711.962,531034.204,-0.676,lba
a78,205712.564,531029.991,-0.670,lba
a79,205713.056,531025.874,-0.686,lba
a80,205713.637,531021.894,-0.675,lba
a81,205714.051,531017.781,-0.673,lba
a82,205714.567,531013.668,-0.694,lba
a83,205715.155,531009.537,-0.710,lba
a84,205715.599,531006.448,-0.708,lba
a85,205711.189,531007.100,-0.724,lba
a86,205710.508,531010.960,-0.692,lba
a87,205710.024,531015.137,-0.684,lba
a88,205709.487,531019.165,-0.681,lba
a89,205708.955,531023.280,-0.665,lba
a90,205708.431,531027.215,-0.660,lba
a91,205707.944,531031.570,-0.658,lba
a92,205707.389,531035.741,-0.650,lba
a93,205706.923,531039.734,-0.658,lba
a94,205706.469,531043.827,-0.661,lba
a95,205705.890,531048.081,-0.665,lba
a96,205705.349,531052.113,-0.659,lba
a97,205704.852,531056.258,-0.648,lba
a98,205704.366,531060.336,-0.639,lba
a99,205703.859,531064.584,-0.636,lba
a100,205703.344,531068.614,-0.653,lba
a101,205702.856,531072.665,-0.629,lba
a102,205702.344,531076.678,-0.634,lba
a103,205701.728,531080.670,-0.641,lba
a104,205701.320,531084.695,-0.629,lba
a105,205700.816,531088.856,-0.636,lba
a106,205700.299,531092.727,-0.639,lba
a107,205700.069,531094.911,-0.623,lba
a108,205696.132,531092.803,-0.606,lba
a109,205696.634,531088.654,-0.637,lba
a110,205697.139,531084.436,-0.618,lba
a111,205697.613,531080.316,-0.635,lba
a112,205698.206,531076.186,-0.629,lba
a113,205698.662,531072.138,-0.645,lba
a114,205699.158,531067.955,-0.638,lba
a115,205699.651,531064.027,-0.644,lba
a116,205700.112,531059.946,-0.632,lba
a117,205700.632,531055.829,-0.641,lba
a118,205701.097,531051.691,-0.641,lba
a119,205701.637,531047.689,-0.648,lba
a120,205702.202,531043.645,-0.651,lba
a121,205702.665,531039.705,-0.647,lba
a122,205703.209,531035.525,-0.646,lba
a123,205703.720,531031.410,-0.662,lba
a124,205704.159,531027.413,-0.682,lba
a125,205704.666,531023.450,-0.677,lba
a126,205705.126,531019.233,-0.667,lba
a127,205705.734,531015.139,-0.681,lba
a128,205706.161,531011.115,-0.684,lba
a129,205706.491,531008.415,-0.711,lba
a130,205701.728,531009.731,-0.679,lba
a131,205701.202,531013.610,-0.679,lba
a132,205700.685,531017.959,-0.673,lba
a133,205700.168,531022.039,-0.675,lba
a134,205699.673,531026.179,-0.675,lba
a135,205699.220,531030.180,-0.661,lba
a136,205698.756,531034.181,-0.682,lba
a137,205698.249,531038.379,-0.690,lba
a138,205697.792,531042.332,-0.660,lba
a139,205697.433,531046.330,-0.670,lba
a140,205696.978,531050.383,-0.648,lba
a141,205696.468,531054.419,-0.638,lba
a142,205696.038,531058.547,-0.651,lba
a143,205695.588,531062.415,-0.634,lba
a144,205695.054,531066.538,-0.642,lba
a145,205694.532,531070.761,-0.645,lba
a146,205694.096,531074.890,-0.630,lba
a147,205693.646,531078.919,-0.640,lba
a148,205693.153,531083.123,-0.627,lba
a149,205692.682,531087.256,-0.652,lba
a150,205692.360,531090.504,-0.618,lba
a151,205688.022,531086.989,-0.630,lba
a152,205688.462,531083.000,-0.630,lba
a153,205688.987,531078.852,-0.656,lba
a154,205689.474,531074.665,-0.634,lba
a155,205690.099,531070.618,-0.649,lba
a156,205690.308,531066.490,-0.668,lba
a157,205690.847,531062.619,-0.648,lba
a158,205691.325,531058.431,-0.685,lba
a159,205691.876,531054.468,-0.652,lba
a160,205692.315,531050.318,-0.640,lba
a161,205692.802,531046.218,-0.657,lba
a162,205693.570,531042.049,-0.659,lba
a163,205694.174,531037.813,-0.657,lba
a164,205694.518,531033.663,-0.678,lba
a165,205695.210,531029.505,-0.690,lba
a166,205695.579,531025.280,-0.697,lba
a167,205696.142,531021.205,-0.673,lba
a168,205696.591,531017.226,-0.686,lba
a169,205697.172,531013.591,-0.701,lba
a170,205697.366,531011.549,-0.708,lba
a171,205692.781,531014.665,-0.655,lba
a172,205692.316,531018.784,-0.661,lba
a173,205691.911,531022.755,-0.661,lba
a174,205691.460,531026.850,-0.668,lba
a175,205690.940,531030.938,-0.693,lba
a176,205690.434,531034.870,-0.669,lba
a177,205689.927,531039.142,-0.651,lba
a178,205689.458,531043.334,-0.653,lba
a179,205688.969,531047.333,-0.635,lba
a180,205688.396,531051.471,-0.651,lba
a181,205687.944,531055.809,-0.648,lba
a182,205687.417,531059.925,-0.644,lba
a183,205686.848,531064.043,-0.644,lba
a184,205686.473,531068.121,-0.644,lba
a185,205685.963,531072.104,-0.643,lba
a186,205685.428,531076.102,-0.641,lba
a187,205684.926,531080.313,-0.628,lba
a189,205684.628,531083.838,-0.638,lba
a190,205680.671,531078.668,-0.631,lba
a191,205681.097,531074.391,-0.645,lba
a192,205681.493,531070.062,-0.659,lba
a193,205682.073,531065.649,-0.645,lba
a194,205682.588,531061.713,-0.640,lba
a195,205683.040,531057.470,-0.637,lba
a196,205683.501,531053.338,-0.642,lba
a197,205684.030,531049.074,-0.638,lba
a198,205684.507,531044.779,-0.660,lba
a199,205684.977,531040.561,-0.649,lba
a200,205685.578,531036.388,-0.668,lba
a201,205686.053,531032.104,-0.685,lba
a202,205686.490,531027.933,-0.677,lba
a203,205686.937,531023.563,-0.680,lba
a204,205687.514,531019.071,-0.678,lba
a205,205682.366,531024.119,-0.661,lba
a206,205681.920,531028.382,-0.659,lba
a207,205681.415,531032.688,-0.663,lba
a208,205680.911,531036.822,-0.648,lba
a209,205680.397,531040.934,-0.666,lba
a210,205679.916,531045.117,-0.649,lba
a211,205679.452,531049.257,-0.653,lba
a212,205679.078,531053.215,-0.648,lba
a213,205678.656,531057.364,-0.643,lba
a214,205678.181,531061.219,-0.655,lba
a215,205677.769,531065.244,-0.639,lba
a216,205677.247,531069.115,-0.615,lba
a217,205677.013,531071.826,-0.644,lba
a218,205673.751,531062.151,-0.665,lba
a219,205674.115,531057.852,-0.658,lba
a220,205674.507,531053.629,-0.662,lba
a221,205672.526,531053.167,-0.662,lba
a222,205673.125,531048.860,-0.655,lba
a223,205675.080,531048.845,-0.651,lba
a224,205675.524,531044.679,-0.668,lba
a225,205673.767,531043.901,-0.677,lba
a226,205674.569,531039.455,-0.683,lba
a227,205675.857,531039.681,-0.665,lba
a228,205676.382,531034.934,-0.687,lba
a229,205728.969,531007.599,-0.704,lba
a230,205728.343,531011.634,-0.711,lba
a231,205727.854,531016.060,-0.694,lba
a232,205727.465,531019.972,-0.692,lba
a233,205726.963,531024.182,-0.684,lba
a234,205726.253,531028.386,-0.683,lba
a235,205725.744,531032.791,-0.664,lba
a236,205725.262,531037.110,-0.671,lba
a237,205724.748,531041.297,-0.664,lba
a238,205724.201,531045.609,-0.665,lba
a239,205723.687,531049.694,-0.658,lba
a240,205723.165,531053.865,-0.647,lba
a241,205722.630,531058.070,-0.653,lba
a242,205722.138,531062.315,-0.660,lba
a243,205721.556,531066.454,-0.654,lba
a244,205721.021,531070.677,-0.643,lba
a245,205720.565,531074.957,-0.640,lba
a246,205720.073,531078.981,-0.642,lba
a247,205719.500,531083.200,-0.634,lba
a248,205718.943,531087.180,-0.634,lba
a249,205718.405,531091.550,-0.618,lba
a250,205717.836,531095.892,-0.637,lba
a251,205722.062,531098.260,-0.632,lba
a252,205722.449,531093.960,-0.633,lba
a253,205723.084,531089.735,-0.634,lba
a254,205723.657,531085.709,-0.640,lba
a255,205724.151,531081.428,-0.641,lba
a256,205724.711,531077.270,-0.645,lba
a257,205725.281,531072.898,-0.629,lba
a258,205725.818,531068.668,-0.649,lba
a259,205726.262,531064.471,-0.656,lba
a260,205726.890,531060.251,-0.662,lba
a261,205727.357,531056.107,-0.659,lba
a262,205727.882,531052.083,-0.656,lba
a263,205728.374,531047.753,-0.654,lba
a264,205728.755,531043.649,-0.668,lba
a265,205729.339,531039.505,-0.684,lba
a266,205729.911,531035.529,-0.685,lba
a267,205730.366,531031.324,-0.691,lba
a268,205730.856,531027.101,-0.688,lba
a269,205731.372,531022.953,-0.727,lba
a270,205731.963,531018.764,-0.721,lba
a271,205732.539,531014.533,-0.708,lba
a272,205732.981,531010.443,-0.712,lba
a273,205733.151,531008.578,-0.706,lba
a274,205737.363,531010.412,-0.694,lba
a275,205736.785,531014.630,-0.720,lba
a276,205736.249,531018.712,-0.718,lba
a277,205735.781,531023.052,-0.705,lba
a278,205735.269,531027.184,-0.695,lba
a279,205734.792,531031.268,-0.698,lba
a280,205734.222,531035.321,-0.694,lba
a281,205733.764,531039.267,-0.680,lba
a282,205733.298,531043.226,-0.681,lba
a283,205732.815,531047.432,-0.666,lba
a284,205732.280,531051.417,-0.659,lba
a285,205731.810,531055.432,-0.659,lba
a286,205731.360,531059.495,-0.670,lba
a287,205730.780,531063.745,-0.644,lba
a288,205730.239,531068.260,-0.641,lba
a289,205729.745,531072.431,-0.615,lba
a290,205729.253,531076.643,-0.631,lba
a291,205728.671,531080.718,-0.625,lba
a292,205727.937,531085.279,-0.639,lba
a293,205727.674,531089.610,-0.610,lba
a294,205727.226,531093.697,-0.627,lba
a295,205726.919,531097.136,-0.624,lba
a296,205731.497,531096.813,-0.616,lba
a297,205731.977,531092.653,-0.626,lba
a298,205732.401,531088.531,-0.635,lba
a299,205732.952,531084.450,-0.653,lba
a300,205733.525,531080.215,-0.662,lba
a301,205733.882,531076.022,-0.676,lba
a302,205734.359,531071.819,-0.643,lba
a303,205734.878,531067.595,-0.669,lba
a304,205735.429,531063.241,-0.655,lba
a305,205736.118,531059.179,-0.661,lba
a306,205736.309,531055.196,-0.667,lba
a307,205736.789,531051.038,-0.666,lba
a308,205737.211,531046.858,-0.681,lba
a309,205737.572,531042.589,-0.677,lba
a310,205738.175,531038.529,-0.688,lba
a311,205738.713,531034.360,-0.690,lba
a312,205739.196,531030.210,-0.702,lba
a313,205739.653,531025.923,-0.692,lba
a314,205740.055,531021.792,-0.693,lba
a315,205740.561,531017.705,-0.696,lba
a316,205741.019,531012.949,-0.719,lba
a317,205745.149,531014.823,-0.719,lba
a318,205744.573,531019.169,-0.683,lba
a319,205744.037,531023.501,-0.721,lba
a320,205743.454,531027.752,-0.704,lba
a321,205743.018,531032.083,-0.702,lba
a322,205742.518,531036.301,-0.682,lba
a323,205742.033,531040.603,-0.705,lba
a324,205741.639,531044.790,-0.672,lba
a325,205741.181,531048.985,-0.667,lba
a326,205740.667,531053.430,-0.683,lba
a327,205740.190,531057.906,-0.649,lba
a328,205739.655,531062.609,-0.658,lba
a329,205739.230,531067.027,-0.645,lba
a330,205738.846,531071.328,-0.650,lba
a331,205738.367,531075.521,-0.663,lba
a332,205737.735,531079.591,-0.677,lba
a333,205737.228,531083.706,-0.649,lba
a334,205736.709,531088.113,-0.643,lba
a335,205736.174,531092.372,-0.641,lba
a336,205735.981,531094.900,-0.652,lba
a337,205740.800,531092.713,-0.653,lba
a338,205741.214,531088.701,-0.661,lba
a339,205741.640,531084.078,-0.661,lba
a340,205742.100,531080.070,-0.674,lba
a341,205742.618,531075.850,-0.651,lba
a342,205743.095,531071.534,-0.653,lba
a343,205743.649,531067.246,-0.657,lba
a344,205744.106,531062.993,-0.654,lba
a345,205744.617,531058.995,-0.678,lba
a346,205745.023,531054.825,-0.671,lba
a347,205745.492,531050.637,-0.684,lba
a348,205745.961,531046.610,-0.681,lba
a349,205746.356,531042.286,-0.680,lba
a350,205746.767,531037.954,-0.694,lba
a351,205747.346,531033.724,-0.675,lba
a352,205747.748,531029.621,-0.670,lba
a353,205748.169,531025.483,-0.700,lba
a354,205748.653,531021.349,-0.715,lba
a355,205748.882,531018.279,-0.720,lba
a356,205752.931,531021.836,-0.708,lba
a357,205752.436,531026.053,-0.683,lba
a358,205751.924,531030.355,-0.685,lba
a359,205751.469,531034.507,-0.675,lba
a360,205751.028,531038.685,-0.684,lba
a361,205750.532,531042.985,-0.679,lba
a362,205750.107,531047.121,-0.658,lba
a363,205749.599,531051.312,-0.663,lba
a364,205749.143,531055.570,-0.660,lba
a365,205748.701,531059.989,-0.646,lba
a366,205748.270,531064.249,-0.642,lba
a367,205747.849,531068.246,-0.648,lba
a368,205747.414,531072.395,-0.647,lba
a369,205746.901,531076.689,-0.648,lba
a370,205746.504,531080.856,-0.663,lba
a371,205746.024,531085.002,-0.640,lba
a372,205745.602,531089.360,-0.661,lba
a373,205750.364,531086.004,-0.633,lba
a374,205750.726,531081.831,-0.650,lba
a375,205751.035,531077.761,-0.646,lba
a376,205751.508,531073.590,-0.652,lba
a377,205751.926,531069.623,-0.648,lba
a378,205752.436,531065.500,-0.643,lba
a379,205752.857,531061.384,-0.650,lba
a380,205753.390,531057.257,-0.648,lba
a381,205753.820,531053.196,-0.658,lba
a382,205754.315,531049.111,-0.671,lba
a383,205754.745,531045.173,-0.670,lba
a384,205755.240,531041.181,-0.677,lba
a385,205755.682,531037.008,-0.675,lba
a386,205756.072,531033.103,-0.678,lba
a387,205756.488,531029.101,-0.678,lba
a388,205756.713,531026.294,-0.691,lba
a389,205760.511,531033.067,-0.676,lba
a390,205760.001,531037.213,-0.668,lba
a391,205759.555,531041.202,-0.654,lba
a392,205759.177,531045.320,-0.652,lba
a393,205758.685,531049.180,-0.648,lba
a394,205758.349,531053.323,-0.643,lba
a395,205757.869,531057.222,-0.649,lba
a396,205757.447,531061.342,-0.638,lba
a397,205756.988,531065.220,-0.639,lba
a398,205756.527,531069.283,-0.645,lba
a399,205755.971,531073.381,-0.635,lba
a400,205755.698,531077.219,-0.632,lba
a401,205755.461,531079.894,-0.650,lba
a402,205760.535,531072.397,-0.648,lba
a403,205760.932,531068.028,-0.647,lba
a404,205761.978,531067.908,-0.660,lba
a405,205761.377,531063.780,-0.644,lba
a406,205763.340,531063.963,-0.661,lba
a407,205761.769,531059.535,-0.656,lba
a408,205764.222,531059.666,-0.665,lba
a409,205764.389,531055.091,-0.656,lba
a410,205762.190,531054.798,-0.654,lba
a411,205762.564,531050.867,-0.645,lba
a412,205764.345,531050.722,-0.666,lba
a413,205763.031,531046.384,-0.668,lba
a414,205763.425,531041.851,-0.674,lba
a415,205763.330,531084.493,-0.641,lba47
a416,205762.942,531087.110,-0.633,lba47
a417,205760.536,531086.703,-0.627,lba47
a418,205760.825,531084.274,-0.652,lba47
a419,205761.353,531081.507,-0.642,lba47
a420,205763.876,531081.913,-0.633,lba47
a421,205766.301,531082.536,-0.626,lba47
a422,205765.864,531084.982,-0.613,lba47
a423,205765.270,531087.654,-0.641,lba47
a424,205763.450,531094.903,-0.638,hba
a425,205763.019,531097.725,-0.641,hba
a426,205762.636,531100.268,-0.631,hba
a427,205762.106,531102.808,-0.628,hba
a428,205761.752,531105.258,-0.637,hba
a429,205761.298,531107.820,-0.630,hba
a430,205760.962,531110.241,-0.634,hba
a431,205760.574,531112.666,-0.629,hba
a432,205760.217,531115.072,-0.628,hba
a433,205759.800,531117.411,-0.629,hba
a434,205759.363,531119.604,-0.618,hba
a435,205759.013,531121.969,-0.623,hba
a436,205758.629,531124.319,-0.606,hba
a437,205758.189,531126.708,-0.614,hba
a438,205757.842,531129.157,-0.632,hba
a439,205757.392,531131.657,-0.612,hba
a440,205757.095,531134.113,-0.608,hba
a441,205756.694,531136.593,-0.609,hba
a442,205756.280,531138.976,-0.588,hba
a443,205755.894,531141.376,-0.587,hba
a444,205755.625,531143.037,-0.567,hba
a445,205758.400,531143.668,-0.586,hba
a446,205758.818,531141.299,-0.587,hba
a447,205759.199,531138.842,-0.592,hba
a448,205759.636,531136.330,-0.607,hba
a449,205760.032,531133.873,-0.602,hba
a450,205760.425,531131.487,-0.600,hba
a451,205760.840,531129.128,-0.623,hba
a452,205761.315,531126.704,-0.606,hba
a453,205761.688,531124.317,-0.619,hba
a454,205762.080,531121.799,-0.623,hba
a455,205762.444,531119.305,-0.626,hba
a456,205762.876,531116.870,-0.631,hba
a457,205763.266,531114.588,-0.640,hba
a458,205763.710,531111.997,-0.631,hba
a459,205764.114,531109.526,-0.622,hba
a460,205764.482,531107.033,-0.636,hba
a461,205764.980,531104.765,-0.635,hba
a462,205765.297,531102.278,-0.640,hba
a463,205765.642,531099.973,-0.612,hba
a464,205766.124,531097.409,-0.630,hba
a465,205766.378,531095.720,-0.668,hba
a466,205769.287,531096.572,-0.634,hba
a467,205768.850,531099.202,-0.641,hba
a468,205768.350,531101.914,-0.625,hba
a469,205767.997,531104.363,-0.641,hba
a470,205767.626,531107.036,-0.633,hba
a471,205767.207,531109.568,-0.614,hba
a472,205766.738,531112.088,-0.619,hba
a473,205766.380,531114.477,-0.616,hba
a474,205765.889,531117.085,-0.625,hba
a475,205765.459,531119.555,-0.623,hba
a476,205764.938,531121.985,-0.626,hba
a477,205764.508,531124.388,-0.626,hba
a478,205764.135,531126.944,-0.626,hba
a479,205763.680,531129.709,-0.631,hba
a480,205763.187,531132.176,-0.613,hba
a481,205762.733,531134.790,-0.612,hba
a482,205762.369,531137.264,-0.599,hba
a483,205761.821,531140.031,-0.585,hba
a484,205761.422,531142.385,-0.603,hba
a485,205761.218,531144.085,-0.600,hba
a486,205763.919,531144.370,-0.622,hba
a487,205764.404,531142.048,-0.581,hba
a488,205764.879,531139.105,-0.605,hba
a489,205765.327,531136.335,-0.602,hba
a490,205765.762,531133.629,-0.655,hba
a491,205766.216,531131.179,-0.647,hba
a492,205766.612,531128.592,-0.622,hba
a493,205767.134,531125.975,-0.633,hba
a494,205767.531,531123.354,-0.642,hba
a495,205767.971,531120.929,-0.631,hba
a496,205768.393,531118.517,-0.626,hba
a497,205768.779,531115.955,-0.609,hba
a498,205769.185,531113.620,-0.616,hba
a499,205769.551,531111.235,-0.621,hba
a500,205770.044,531108.733,-0.645,hba
a501,205770.434,531106.385,-0.641,hba
a502,205770.851,531103.867,-0.632,hba
a503,205771.168,531101.575,-0.630,hba
a504,205771.663,531098.844,-0.656,hba
a505,205774.407,531099.811,-0.644,hba
a506,205773.986,531102.325,-0.677,hba
a507,205773.477,531104.852,-0.651,hba
a508,205773.088,531107.547,-0.653,hba
a509,205772.606,531110.175,-0.663,hba
a510,205772.147,531112.896,-0.660,hba
a511,205771.742,531115.533,-0.605,hba
a512,205771.302,531118.256,-0.641,hba
a513,205770.876,531120.893,-0.624,hba
a514,205770.427,531123.308,-0.647,hba
a515,205769.946,531125.916,-0.622,hba
a516,205769.442,531128.442,-0.666,hba
a517,205768.983,531131.196,-0.629,hba
a518,205768.516,531133.927,-0.632,hba
a519,205768.107,531136.512,-0.628,hba
a520,205767.708,531138.995,-0.629,hba
a521,205767.302,531141.355,-0.586,hba
a522,205767.087,531142.693,-0.583,hba
a523,205770.247,531141.062,-0.611,hba
a524,205770.760,531138.297,-0.642,hba
a525,205771.171,531135.952,-0.624,hba
a526,205771.615,531133.312,-0.606,hba
a527,205771.976,531130.711,-0.629,hba
a528,205772.445,531128.099,-0.658,hba
a529,205772.937,531125.494,-0.644,hba
a530,205773.234,531123.188,-0.660,hba
a531,205773.671,531120.624,-0.661,hba
a532,205774.146,531118.140,-0.628,hba
a533,205774.577,531115.608,-0.647,hba
a534,205774.926,531113.131,-0.651,hba
a535,205775.467,531110.593,-0.640,hba
a536,205775.898,531107.928,-0.686,hba
a537,205776.306,531105.360,-0.658,hba
a538,205776.691,531102.876,-0.673,hba
a539,205779.014,531105.804,-0.634,hba
a540,205778.644,531108.412,-0.631,hba
a541,205778.192,531110.947,-0.631,hba
a542,205777.810,531113.691,-0.630,hba
a543,205777.372,531116.161,-0.630,hba
a544,205776.960,531118.780,-0.638,hba
a545,205776.532,531121.380,-0.633,hba
a546,205776.113,531123.904,-0.641,hba
a547,205775.798,531126.187,-0.639,hba
a548,205775.358,531128.836,-0.633,hba
a549,205774.940,531131.466,-0.626,hba
a550,205774.444,531134.180,-0.606,hba
a551,205773.918,531136.710,-0.630,hba
a552,205773.352,531139.295,-0.622,hba
a553,205773.198,531140.223,-0.609,hba
a554,205776.742,531136.917,-0.626,hba
a555,205777.244,531134.375,-0.627,hba
a556,205777.814,531131.455,-0.617,hba
a557,205778.233,531128.822,-0.650,hba
a558,205778.759,531125.998,-0.624,hba
a559,205779.225,531123.211,-0.640,hba
a560,205779.682,531120.370,-0.627,hba
a561,205780.218,531117.535,-0.658,hba
a562,205780.618,531114.507,-0.646,hba
a563,205781.084,531111.447,-0.638,hba
a564,205781.588,531108.614,-0.663,hba
a565,205783.524,531114.880,-0.711,hba
a566,205783.008,531117.878,-0.717,hba
a567,205782.656,531120.540,-0.738,hba
a568,205782.291,531123.140,-0.745,hba
a569,205781.878,531125.729,-0.763,hba
a570,205781.500,531128.424,-0.747,hba
a571,205781.170,531130.820,-0.743,hba
a572,205780.638,531133.561,-0.775,hba
a573,205760.414,531094.869,-0.641,hba
a574,205760.116,531097.492,-0.645,hba
a575,205759.706,531100.063,-0.629,hba
a576,205759.313,531102.764,-0.632,hba
a577,205759.004,531105.253,-0.635,hba
a578,205758.615,531107.791,-0.623,hba
a579,205758.208,531110.319,-0.621,hba
a580,205757.818,531112.870,-0.627,hba
a581,205757.358,531115.476,-0.633,hba
a582,205756.973,531118.064,-0.627,hba
a583,205756.550,531120.606,-0.621,hba
a584,205756.175,531122.996,-0.608,hba
a585,205755.765,531125.545,-0.617,hba
a586,205755.455,531127.811,-0.613,hba
a587,205754.946,531130.415,-0.631,hba
a588,205754.581,531133.089,-0.622,hba
a589,205754.163,531135.490,-0.605,hba
a590,205753.743,531138.076,-0.607,hba
a591,205753.298,531140.591,-0.599,hba
a592,205753.096,531142.036,-0.578,hba
a593,205750.436,531141.454,-0.581,hba
a594,205750.882,531139.163,-0.624,hba
a595,205751.299,531136.490,-0.604,hba
a596,205751.650,531133.819,-0.619,hba
a597,205752.044,531131.470,-0.604,hba
a598,205752.383,531128.764,-0.629,hba
a599,205752.777,531126.202,-0.609,hba
a600,205753.324,531123.644,-0.606,hba
a601,205753.677,531121.142,-0.605,hba
a602,205754.123,531118.360,-0.626,hba
a603,205754.549,531115.663,-0.639,hba
a604,205755.002,531112.981,-0.626,hba
a605,205755.330,531110.637,-0.629,hba
a606,205755.696,531108.071,-0.634,hba
a607,205756.060,531105.616,-0.630,hba
a608,205756.450,531103.225,-0.635,hba
a609,205756.857,531100.817,-0.640,hba
a610,205757.326,531098.323,-0.631,hba
a611,205757.762,531095.647,-0.640,hba
a612,205754.992,531094.865,-0.623,hba
a613,205754.595,531097.517,-0.649,hba
a614,205754.208,531100.129,-0.642,hba
a615,205753.822,531102.667,-0.624,hba
a616,205753.457,531105.213,-0.627,hba
a617,205753.078,531107.885,-0.615,hba
a618,205752.701,531110.373,-0.611,hba
a619,205752.301,531112.987,-0.639,hba
a620,205751.887,531115.804,-0.636,hba
a621,205751.526,531118.408,-0.609,hba
a622,205751.174,531120.899,-0.614,hba
a623,205750.702,531123.404,-0.620,hba
a624,205750.283,531125.853,-0.605,hba
a625,205750.033,531128.187,-0.619,hba
a626,205749.692,531130.765,-0.590,hba
a627,205749.330,531133.414,-0.598,hba
a628,205748.840,531135.860,-0.613,hba
a629,205748.474,531138.247,-0.616,hba
a630,205748.241,531140.212,-0.589,hba
a631,205745.360,531139.279,-0.595,hba
a632,205745.783,531136.766,-0.591,hba
a633,205746.164,531134.341,-0.618,hba
a634,205746.580,531131.681,-0.596,hba
a635,205746.974,531129.206,-0.616,hba
a636,205747.364,531126.614,-0.600,hba
a637,205747.800,531124.134,-0.616,hba
a638,205748.128,531121.740,-0.592,hba
a639,205748.591,531119.297,-0.619,hba
a640,205749.006,531116.691,-0.620,hba
a641,205749.460,531114.250,-0.613,hba
a642,205749.850,531112.001,-0.617,hba
a643,205750.280,531109.552,-0.632,hba
a644,205750.650,531106.899,-0.640,hba
a645,205751.007,531104.704,-0.645,hba
a646,205751.368,531102.463,-0.645,hba
a647,205751.853,531099.996,-0.649,hba
a648,205752.178,531097.623,-0.644,hba
a649,205752.489,531095.685,-0.647,hba
a650,205749.308,531097.542,-0.635,hba
a651,205748.928,531100.167,-0.632,hba
a652,205748.494,531102.865,-0.643,hba
a653,205748.120,531105.424,-0.633,hba
a654,205747.811,531107.853,-0.623,hba
a655,205747.432,531110.363,-0.635,hba
a656,205747.091,531112.802,-0.622,hba
a657,205746.616,531115.200,-0.620,hba
a658,205746.328,531117.436,-0.627,hba
a659,205745.970,531119.883,-0.603,hba
a660,205745.629,531122.358,-0.618,hba
a661,205745.271,531124.693,-0.610,hba
a662,205744.851,531126.994,-0.625,hba
a663,205744.558,531129.483,-0.607,hba
a664,205744.147,531132.005,-0.596,hba
a665,205743.787,531134.215,-0.614,hba
a666,205743.395,531136.725,-0.589,hba
a667,205740.788,531134.523,-0.611,hba
a668,205741.210,531131.972,-0.621,hba
a669,205741.635,531129.261,-0.593,hba
a670,205741.926,531126.907,-0.608,hba
a671,205742.291,531124.142,-0.623,hba
a672,205742.720,531121.581,-0.634,hba
a673,205743.092,531119.103,-0.613,hba
a674,205743.514,531116.432,-0.622,hba
a675,205743.915,531113.899,-0.625,hba
a676,205744.318,531111.429,-0.620,hba
a677,205744.754,531109.003,-0.617,hba
a678,205745.058,531106.493,-0.624,hba
a679,205745.563,531103.934,-0.639,hba
a680,205745.849,531101.513,-0.625,hba
a681,205746.337,531099.184,-0.640,hba
a682,205743.170,531101.351,-0.627,hba
a683,205742.867,531103.818,-0.636,hba
a684,205742.485,531106.252,-0.654,hba
a685,205742.037,531108.999,-0.641,hba
a686,205741.591,531111.430,-0.636,hba
a687,205741.120,531114.190,-0.632,hba
a688,205740.744,531116.668,-0.614,hba
a689,205740.260,531119.229,-0.630,hba
a690,205739.828,531121.872,-0.603,hba
a691,205739.489,531124.317,-0.605,hba
a692,205739.168,531126.460,-0.634,hba
a693,205738.804,531128.950,-0.633,hba
a694,205738.428,531131.185,-0.648,hba
a695,205736.161,531127.525,-0.658,hba
a696,205736.599,531124.912,-0.624,hba
a697,205736.983,531122.238,-0.609,hba
a698,205735.362,531121.513,-0.620,hba
a699,205735.404,531118.930,-0.623,hba
a700,205737.602,531118.969,-0.610,hba
a701,205738.120,531116.183,-0.624,hba
a702,205735.641,531115.166,-0.616,hba
a703,205736.125,531112.526,-0.639,hba
a704,205738.662,531112.805,-0.609,hba
a705,205739.068,531110.378,-0.629,hba
a706,205737.037,531109.504,-0.639,hba
a707,205737.573,531106.545,-0.645,hba
a708,205739.695,531106.880,-0.601,hba
a709,205740.134,531103.851,-0.649,hba
a710,205678.267,531189.185,-0.454,9006
