NAME;ETRS-X;ETRS-Y;ETRS-Z;STATION-P;STATION-Q;STATION-R
D2;3845396.008;413612.262;5054781.742;-6.261;-23.574;-0.036
D3;3845394.108;413612.356;5054783.223;-5.940;-21.185;0.005
D4;3845392.275;413612.301;5054784.607;-5.775;-18.894;0.000
D5;3845390.332;413612.316;5054786.076;-5.527;-16.470;0.000
D6;3845388.549;413612.247;5054787.431;-5.383;-14.235;0.001
D7;3845386.692;413612.142;5054788.849;-5.265;-11.899;0.005
D8;3845384.791;413611.965;5054790.290;-5.214;-9.507;-0.004
D9;3845382.921;413611.811;5054791.721;-5.143;-7.148;0.000
D10;3845381.022;413611.661;5054793.170;-5.064;-4.756;0.000
D11;3845379.105;413611.455;5054794.642;-5.040;-2.330;0.005
D12;3845377.201;413611.366;5054796.093;-4.901;0.061;0.007
D13;3845375.332;413611.273;5054797.515;-4.769;2.408;0.008
D14;3845373.378;413611.253;5054798.985;-4.555;4.843;0.001
D15;3845371.428;413611.179;5054800.450;-4.395;7.278;-0.012
D16;3845369.505;413611.013;5054801.939;-4.330;9.715;0.005
D17;3845367.545;413610.911;5054803.425;-4.197;12.173;0.002
D18;3845365.607;413610.764;5054804.915;-4.111;14.621;0.012
D19;3845363.804;413610.631;5054806.271;-4.028;16.879;-0.003
D20;3845361.948;413610.594;5054807.681;-3.842;19.203;-0.001
D21;3845360.061;413610.588;5054809.110;-3.622;21.560;0.001
D22;3845358.321;413610.523;5054810.448;-3.479;23.751;0.014
D23;3845359.121;413608.063;5054809.990;-6.017;23.076;-0.029
D24;3845360.944;413608.137;5054808.651;-6.161;20.818;0.008
D25;3845362.896;413608.347;5054807.152;-6.186;18.348;0.003
D26;3845364.829;413608.446;5054805.686;-6.319;15.923;0.006
D27;3845366.829;413608.587;5054804.148;-6.419;13.398;-0.004
D28;3845368.934;413608.677;5054802.555;-6.581;10.762;0.001
D29;3845370.826;413608.670;5054801.131;-6.814;8.405;0.006
D30;3845372.885;413608.790;5054799.555;-6.942;5.813;-0.001
D31;3845374.776;413608.844;5054798.120;-7.114;3.444;-0.001
D32;3845376.697;413608.996;5054796.663;-7.193;1.030;0.005
D33;3845378.461;413609.003;5054795.330;-7.397;-1.171;0.006
D34;3845380.357;413609.098;5054793.888;-7.529;-3.551;0.006
D35;3845382.181;413609.159;5054792.495;-7.688;-5.842;-0.001
D36;3845384.213;413609.241;5054790.954;-7.849;-8.389;0.001
D37;3845386.050;413609.364;5054789.566;-7.946;-10.692;0.010
D38;3845387.893;413609.386;5054788.156;-8.145;-13.005;-0.001
D39;3845389.788;413609.454;5054786.727;-8.304;-15.374;0.006
D40;3845391.658;413609.526;5054785.303;-8.456;-17.720;0.003
D41;3845393.515;413609.577;5054783.896;-8.629;-20.044;0.004
D42;3845395.435;413609.708;5054782.380;-8.728;-22.492;-0.038
D43;3845394.875;413606.593;5054783.067;-11.754;-21.337;-0.030
D44;3845392.855;413606.559;5054784.631;-11.546;-18.791;-0.004
D45;3845390.988;413606.467;5054786.056;-11.414;-16.444;0.001
D46;3845389.022;413606.357;5054787.551;-11.287;-13.974;0.000
D47;3845387.120;413606.282;5054788.989;-11.135;-11.594;-0.005
D48;3845385.231;413606.201;5054790.442;-10.989;-9.214;0.009
D49;3845383.225;413606.155;5054791.949;-10.795;-6.712;-0.002
D50;3845381.261;413606.038;5054793.445;-10.675;-4.243;-0.001
D51;3845379.298;413605.997;5054794.936;-10.482;-1.785;0.001
D52;3845377.438;413605.892;5054796.350;-10.363;0.550;0.000
D53;3845375.585;413605.774;5054797.753;-10.259;2.875;-0.006
D54;3845373.594;413605.642;5054799.286;-10.152;5.389;0.007
D55;3845371.588;413605.562;5054800.807;-9.992;7.903;0.005
D56;3845369.623;413605.493;5054802.291;-9.825;10.361;-0.001
D57;3845367.630;413605.469;5054803.801;-9.611;12.851;-0.000
D58;3845365.630;413605.369;5054805.326;-9.470;15.365;0.004
D59;3845363.724;413605.347;5054806.765;-9.264;17.744;-0.000
D60;3845361.741;413605.202;5054808.270;-9.171;20.236;-0.005
D61;3845360.011;413605.131;5054809.564;-9.035;22.394;-0.021
D62;3845361.257;413602.570;5054808.812;-11.727;21.197;-0.036
D63;3845363.211;413602.536;5054807.390;-11.994;18.796;0.006
D64;3845364.977;413602.569;5054806.046;-12.172;16.583;0.002
D65;3845366.985;413602.636;5054804.525;-12.346;14.070;0.004
D66;3845368.945;413602.670;5054803.030;-12.546;11.612;-0.004
D67;3845370.904;413602.745;5054801.557;-12.706;9.166;0.008
D68;3845372.933;413602.834;5054800.013;-12.860;6.619;0.007
D69;3845375.020;413602.882;5054798.427;-13.062;4.006;0.004
D70;3845376.936;413602.973;5054796.975;-13.202;1.603;0.007
D71;3845378.878;413603.046;5054795.498;-13.361;-0.832;0.006
D72;3845380.833;413603.141;5054794.004;-13.501;-3.291;-0.001
D73;3845382.930;413603.272;5054792.407;-13.622;-5.927;-0.001
D74;3845384.826;413603.224;5054790.982;-13.896;-8.283;0.003
D75;3845386.874;413603.295;5054789.424;-14.071;-10.852;-0.000
D76;3845388.816;413603.375;5054787.947;-14.224;-13.288;-0.001
D77;3845390.747;413603.467;5054786.477;-14.363;-15.713;-0.003
D78;3845392.569;413603.460;5054785.089;-14.589;-17.992;-0.012
D79;3845393.892;413603.459;5054784.079;-14.747;-19.648;-0.019
D80;3845392.348;413600.632;5054785.469;-17.370;-17.318;-0.025
D81;3845390.398;413600.612;5054786.979;-17.156;-14.861;0.002
D82;3845388.460;413600.472;5054788.452;-17.064;-12.424;-0.001
D83;3845386.525;413600.332;5054789.929;-16.971;-9.988;-0.000
D84;3845384.519;413600.116;5054791.468;-16.946;-7.451;0.004
D85;3845382.357;413600.019;5054793.113;-16.783;-4.737;0.005
D86;3845380.303;413599.866;5054794.671;-16.689;-2.156;-0.001
D87;3845378.012;413599.796;5054796.409;-16.485;0.713;-0.002
D88;3845375.958;413599.779;5054797.967;-16.256;3.281;0.001
D89;3845374.010;413599.719;5054799.456;-16.083;5.728;0.010
D90;3845372.046;413599.677;5054800.946;-15.889;8.185;0.011
D91;3845369.958;413599.588;5054802.524;-15.727;10.799;0.004
D92;3845367.970;413599.517;5054804.015;-15.560;13.279;-0.010
D93;3845366.010;413599.496;5054805.512;-15.346;15.736;-0.000
D94;3845364.180;413599.551;5054806.877;-15.074;18.004;-0.011
D95;3845363.123;413599.457;5054807.689;-15.040;19.339;-0.008
D96;3845365.282;413596.791;5054806.239;-17.946;17.009;-0.035
D97;3845367.355;413596.810;5054804.686;-18.175;14.430;-0.022
D98;3845369.335;413596.826;5054803.214;-18.395;11.972;-0.001
D99;3845371.276;413596.879;5054801.752;-18.575;9.548;0.007
D100;3845373.263;413596.977;5054800.246;-18.715;7.057;0.011
D101;3845375.270;413596.996;5054798.718;-18.937;4.544;0.005
D102;3845377.259;413597.047;5054797.207;-19.124;2.053;0.003
D103;3845379.174;413597.138;5054795.752;-19.263;-0.350;0.003
D104;3845381.059;413597.164;5054794.324;-19.463;-2.707;0.003
D105;3845383.393;413597.238;5054792.550;-19.668;-5.632;0.001
D106;3845385.609;413597.314;5054790.862;-19.858;-8.412;-0.004
D107;3845387.740;413597.299;5054789.253;-20.128;-11.069;-0.003
D108;3845389.475;413597.309;5054787.919;-20.326;-13.248;-0.020
D109;3845386.098;413594.508;5054790.684;-22.702;-8.639;-0.033
D110;3845384.063;413594.486;5054792.248;-22.481;-6.082;-0.015
D111;3845384.085;413593.545;5054792.292;-23.418;-5.983;-0.028
D112;3845381.873;413594.278;5054793.934;-22.425;-3.311;-0.004
D113;3845381.902;413592.984;5054793.992;-23.713;-3.176;-0.025
D114;3845379.619;413594.117;5054795.652;-22.316;-0.474;-0.004
D115;3845379.662;413592.458;5054795.732;-23.968;-0.302;-0.022
D116;3845377.452;413593.999;5054797.307;-22.173;2.251;0.001
D117;3845377.439;413592.300;5054797.400;-23.858;2.479;-0.042
D118;3845375.226;413593.970;5054798.988;-21.936;5.030;-0.003
D119;3845375.209;413592.318;5054799.101;-23.574;5.270;-0.031
D120;3845372.893;413593.957;5054800.734;-21.670;7.932;-0.019
D121;3845372.992;413592.481;5054800.748;-23.148;8.003;-0.043
D122;3845370.722;413593.947;5054802.362;-21.420;10.634;-0.030
D123;3845370.023;413593.988;5054802.869;-21.296;11.490;-0.044
D124;3845358.114;413613.345;5054810.336;-0.652;23.578;-0.017
D125;3845360.126;413613.433;5054808.824;-0.806;21.064;-0.004
D126;3845362.216;413613.502;5054807.246;-0.988;18.451;0.003
D127;3845364.264;413613.634;5054805.695;-1.101;15.881;0.010
D128;3845366.222;413613.695;5054804.201;-1.275;13.423;0.004
D129;3845368.243;413613.878;5054802.658;-1.334;10.875;0.004
D130;3845370.408;413613.955;5054800.996;-1.517;8.151;-0.011
D131;3845372.402;413614.081;5054799.485;-1.631;5.648;-0.005
D132;3845374.384;413614.097;5054797.997;-1.851;3.179;0.005
D133;3845376.302;413614.270;5054796.521;-1.910;0.754;-0.004
D134;3845378.444;413614.398;5054794.890;-2.038;-1.938;-0.005
D135;3845380.477;413614.481;5054793.351;-2.199;-4.485;-0.001
D136;3845382.544;413614.602;5054791.787;-2.327;-7.077;0.006
D137;3845384.612;413614.682;5054790.200;-2.495;-9.679;-0.007
D138;3845386.595;413614.732;5054788.699;-2.682;-12.159;-0.005
D139;3845388.587;413614.933;5054787.177;-2.721;-14.674;-0.004
D140;3845390.723;413615.020;5054785.552;-2.890;-17.354;-0.005
D141;3845392.696;413615.137;5054784.066;-3.010;-19.823;0.006
D142;3845394.572;413615.196;5054782.631;-3.176;-22.181;-0.002
D143;3845396.023;413615.346;5054781.497;-3.201;-24.028;-0.022
D144;3845395.650;413617.858;5054781.565;-0.662;-23.931;-0.030
D145;3845393.685;413617.769;5054783.100;-0.515;-21.440;0.003
D146;3845391.881;413617.697;5054784.465;-0.371;-19.182;-0.001
D147;3845390.014;413617.693;5054785.865;-0.151;-16.859;-0.011
D148;3845387.779;413617.589;5054787.561;0.012;-14.056;-0.013
D149;3845385.581;413617.427;5054789.241;0.115;-11.286;-0.009
D150;3845383.599;413617.315;5054790.753;0.241;-8.794;-0.006
D151;3845381.546;413617.196;5054792.317;0.369;-6.214;-0.005
D152;3845379.707;413617.019;5054793.730;0.412;-3.888;0.002
D153;3845377.489;413616.855;5054795.403;0.515;-1.107;-0.012
D154;3845375.598;413616.767;5054796.852;0.654;1.273;-0.003
D155;3845373.566;413616.705;5054798.397;0.835;3.820;-0.001
D156;3845371.576;413616.559;5054799.911;0.928;6.323;-0.003
D157;3845369.587;413616.433;5054801.429;1.041;8.826;-0.001
D158;3845367.593;413616.300;5054802.940;1.148;11.329;-0.007
D159;3845365.634;413616.191;5054804.445;1.274;13.798;0.005
D160;3845363.676;413616.089;5054805.934;1.407;16.256;0.005
D161;3845361.592;413615.919;5054807.523;1.488;18.882;0.004
D162;3845359.658;413615.888;5054808.979;1.688;21.295;-0.003
D163;3845357.828;413615.752;5054810.374;1.772;23.597;-0.003
D164;3845357.773;413618.394;5054810.177;4.401;23.270;-0.022
D165;3845359.768;413618.445;5054808.693;4.214;20.790;0.001
D166;3845361.496;413618.523;5054807.378;4.084;18.622;0.000
D167;3845363.332;413618.679;5054805.976;4.020;16.307;-0.001
D168;3845365.399;413618.861;5054804.403;3.953;13.704;0.003
D169;3845367.435;413618.958;5054802.850;3.805;11.146;-0.002
D170;3845369.456;413619.202;5054801.298;3.806;8.586;-0.005
D171;3845371.550;413619.299;5054799.711;3.651;5.961;-0.000
D172;3845373.507;413619.414;5054798.223;3.532;3.503;0.001
D173;3845375.479;413619.552;5054796.721;3.433;1.022;0.002
D174;3845377.671;413619.713;5054795.050;3.330;-1.736;0.001
D175;3845379.625;413619.875;5054793.565;3.258;-4.195;0.006
D176;3845381.587;413620.012;5054792.068;3.159;-6.665;0.004
D177;3845383.555;413620.121;5054790.557;3.032;-9.145;-0.007
D178;3845385.446;413620.257;5054789.114;2.941;-11.526;-0.008
D179;3845387.459;413620.358;5054787.587;2.800;-14.051;-0.006
D180;3845389.430;413620.516;5054786.087;2.721;-16.532;-0.003
D181;3845391.340;413620.579;5054784.641;2.555;-18.923;0.000
D182;3845393.303;413620.722;5054783.146;2.462;-21.392;0.001
D183;3845395.300;413620.828;5054781.597;2.329;-23.917;-0.023
D184;3845394.626;413623.471;5054781.897;5.034;-23.455;-0.018
D185;3845392.658;413623.382;5054783.467;5.181;-20.941;0.041
D186;3845390.618;413623.298;5054784.960;5.341;-18.417;-0.004
D187;3845388.631;413623.173;5054786.482;5.455;-15.914;0.003
D188;3845386.731;413623.090;5054787.920;5.600;-13.534;-0.002
D189;3845384.678;413622.971;5054789.484;5.728;-10.953;-0.000
D190;3845382.704;413622.827;5054790.983;5.820;-8.472;-0.004
D191;3845380.712;413622.735;5054792.502;5.967;-5.970;-0.001
D192;3845378.691;413622.558;5054794.044;6.034;-3.422;-0.002
D193;3845376.836;413622.406;5054795.477;6.105;-1.075;0.012
D194;3845374.912;413622.288;5054796.915;6.217;1.328;-0.009
D195;3845372.906;413622.174;5054798.450;6.344;3.853;-0.002
D196;3845371.016;413622.011;5054799.891;6.408;6.234;-0.003
D197;3845369.194;413621.836;5054801.290;6.452;8.537;0.002
D198;3845367.369;413621.707;5054802.672;6.543;10.829;-0.005
D199;3845365.379;413621.615;5054804.194;6.690;13.331;0.003
D200;3845363.420;413621.479;5054805.676;6.789;15.790;-0.006
D201;3845361.396;413621.343;5054807.221;6.896;18.337;-0.003
D202;3845359.512;413621.215;5054808.656;6.994;20.707;-0.003
D203;3845357.938;413621.154;5054809.825;7.122;22.664;-0.024
D204;3845358.263;413623.932;5054809.353;9.841;21.857;-0.024
D205;3845360.407;413624.068;5054807.745;9.719;19.177;-0.004
D206;3845362.386;413624.179;5054806.249;9.593;16.696;0.003
D207;3845364.272;413624.205;5054804.820;9.393;14.339;0.003
D208;3845366.284;413624.306;5054803.274;9.253;11.803;-0.010
D209;3845368.215;413624.459;5054801.794;9.174;9.366;-0.016
D210;3845370.233;413624.575;5054800.275;9.047;6.841;-0.003
D211;3845372.077;413624.658;5054798.874;8.909;4.528;-0.003
D212;3845373.945;413624.784;5054797.455;8.811;2.181;0.001
D213;3845375.846;413624.907;5054795.987;8.706;-0.222;-0.016
D214;3845377.798;413625.022;5054794.511;8.586;-2.669;-0.008
D215;3845379.497;413625.130;5054793.217;8.490;-4.805;-0.008
D216;3845381.487;413625.222;5054791.714;8.344;-7.296;-0.001
D217;3845383.514;413625.358;5054790.173;8.237;-9.844;0.002
D218;3845385.511;413625.451;5054788.661;8.090;-12.346;0.006
D219;3845387.423;413625.541;5054787.202;7.951;-14.748;0.002
D220;3845389.252;413625.629;5054785.801;7.819;-17.051;-0.007
D221;3845391.245;413625.796;5054784.293;7.747;-19.554;0.004
D222;3845393.156;413625.873;5054782.813;7.594;-21.967;-0.019
D223;3845394.334;413625.911;5054781.858;7.491;-23.480;-0.067
D224;3845392.663;413628.250;5054782.981;10.013;-21.703;-0.028
D225;3845390.461;413628.237;5054784.678;10.264;-18.934;-0.003
D226;3845388.419;413628.024;5054786.243;10.297;-16.353;-0.001
D227;3845386.368;413628.028;5054787.790;10.546;-13.795;-0.004
D228;3845384.408;413627.973;5054789.283;10.726;-11.338;0.001
D229;3845382.549;413627.902;5054790.685;10.878;-9.013;-0.006
D230;3845380.596;413627.767;5054792.175;10.977;-6.555;-0.005
D231;3845378.646;413627.781;5054793.654;11.224;-4.120;-0.000
D232;3845376.671;413627.725;5054795.145;11.405;-1.652;-0.006
D233;3845374.712;413627.575;5054796.645;11.491;0.818;-0.001
D234;3845372.712;413627.462;5054798.168;11.617;3.332;-0.000
D235;3845370.734;413627.337;5054799.664;11.730;5.813;-0.009
D236;3845368.836;413627.235;5054801.121;11.856;8.204;0.002
D237;3845366.852;413627.151;5054802.614;12.009;10.684;-0.010
D238;3845364.996;413627.080;5054804.039;12.161;13.020;0.002
D239;3845363.060;413626.899;5054805.508;12.213;15.456;-0.005
D240;3845361.049;413626.873;5054807.030;12.428;17.969;-0.006
D241;3845358.924;413626.929;5054808.598;12.738;20.593;-0.033
D242;3845359.994;413629.448;5054807.575;15.110;18.888;-0.040
D243;3845361.846;413629.470;5054806.232;14.911;16.609;0.007
D244;3845363.721;413629.523;5054804.812;14.739;14.262;0.009
D245;3845365.689;413629.578;5054803.311;14.559;11.793;0.002
D246;3845367.540;413629.560;5054801.904;14.319;9.481;-0.004
D247;3845369.452;413629.671;5054800.448;14.200;7.078;-0.005
D248;3845371.439;413629.769;5054798.943;14.060;4.587;-0.001
D249;3845373.424;413629.881;5054797.436;13.934;2.095;0.002
D250;3845375.280;413629.992;5054796.035;13.822;-0.229;0.011
D251;3845377.315;413630.096;5054794.464;13.682;-2.799;-0.007
D252;3845379.283;413630.219;5054792.974;13.569;-5.268;-0.001
D253;3845381.303;413630.389;5054791.428;13.496;-7.816;-0.004
D254;3845383.371;413630.557;5054789.854;13.415;-10.419;-0.002
D255;3845385.267;413630.584;5054788.420;13.216;-12.788;0.000
D256;3845387.318;413630.662;5054786.866;13.048;-15.357;0.003
D257;3845389.522;413630.838;5054785.176;12.959;-18.138;-0.004
D258;3845391.453;413630.951;5054783.654;12.839;-20.596;-0.046
D259;3845389.353;413633.515;5054785.001;15.636;-18.365;-0.072
D260;3845387.433;413633.289;5054786.559;15.641;-15.884;-0.002
D261;3845385.468;413633.179;5054788.055;15.768;-13.414;-0.001
D262;3845383.546;413633.183;5054789.514;16.001;-11.013;0.003
D263;3845381.555;413633.172;5054791.009;16.229;-8.534;-0.007
D264;3845379.626;413633.080;5054792.481;16.368;-6.109;-0.002
D265;3845377.690;413633.014;5054793.949;16.535;-3.685;-0.003
D266;3845375.444;413632.868;5054795.662;16.658;-0.859;-0.001
D267;3845373.167;413632.704;5054797.387;16.768;2.000;-0.009
D268;3845371.018;413632.595;5054799.028;16.917;4.703;-0.003
D269;3845368.918;413632.499;5054800.626;17.072;7.339;-0.002
D270;3845366.565;413632.307;5054802.413;17.163;10.298;-0.009
D271;3845364.427;413632.192;5054804.050;17.305;12.990;0.000
D272;3845361.867;413632.188;5054805.943;17.607;16.158;-0.034
D273;3845364.184;413635.269;5054803.964;20.388;12.836;-0.016
D274;3845366.570;413635.172;5054802.179;20.007;9.880;-0.006
D275;3845369.074;413635.265;5054800.282;19.800;6.743;-0.003
D276;3845371.500;413635.309;5054798.441;19.553;3.708;-0.005
D277;3845374.086;413635.376;5054796.464;19.311;0.461;-0.017
D278;3845376.711;413635.469;5054794.485;19.089;-2.820;-0.007
D279;3845379.295;413635.550;5054792.525;18.860;-6.056;-0.006
D280;3845381.909;413635.593;5054790.544;18.590;-9.325;-0.006
D281;3845384.073;413635.650;5054788.914;18.388;-12.028;0.003
D282;3845386.785;413635.744;5054786.774;18.157;-15.475;-0.062
D283;3845383.422;413638.343;5054789.103;21.139;-11.655;-0.064
D284;3845381.131;413638.280;5054790.879;21.350;-8.764;-0.035
D285;3845381.251;413639.223;5054790.691;22.272;-9.062;-0.050
D286;3845378.900;413638.243;5054792.663;21.582;-5.917;0.040
D287;3845379.070;413639.898;5054792.272;23.203;-6.445;-0.062
D288;3845376.673;413638.269;5054794.296;21.873;-3.171;0.002
D289;3845376.884;413640.355;5054793.817;23.918;-3.826;-0.118
D290;3845374.654;413638.248;5054795.809;22.094;-0.658;-0.011
D291;3845374.468;413640.238;5054795.624;24.091;-0.812;-0.141
D292;3845372.371;413638.186;5054797.539;22.305;2.200;-0.012
D293;3845372.300;413639.387;5054797.376;23.505;2.043;-0.107
D294;3845369.933;413638.100;5054799.396;22.512;5.258;-0.008
D295;3845369.961;413639.027;5054799.213;23.428;5.037;-0.075
D296;3845367.957;413637.983;5054800.840;22.631;7.705;-0.055
