NAME,STATION-P,STATION-Q,STATION-R
C0,61.908,-38.029,0.000
C1,64.637,-42.397,0.000
C2,54.812,-36.391,0.000
C3,57.541,-40.758,0.000
C4,60.270,-45.126,0.000
C5,62.999,-49.493,0.000
C6,47.715,-34.752,0.000
C7,50.444,-39.120,0.000
C8,53.173,-43.487,0.000
C9,55.903,-47.855,0.000
C10,58.632,-52.222,0.000
C11,61.361,-56.590,0.000
C12,43.348,-37.481,0.000
C13,46.077,-41.849,0.000
C14,48.806,-46.216,0.000
C15,51.535,-50.584,0.000
C16,54.264,-54.951,0.000
C17,56.993,-59.319,0.000
C18,41.709,-44.578,0.000
C19,44.439,-48.945,0.000
C20,47.168,-53.313,0.000
C21,49.897,-57.680,0.000
C22,40.071,-51.675,0.000
C23,42.800,-56.042,0.000
A0,64.911,-33.116,0.000
A1,67.640,-37.484,0.000
A2,70.369,-41.851,0.000
A3,57.815,-31.478,0.000
A4,60.544,-35.845,0.000
A5,63.273,-40.213,0.000
A6,66.002,-44.580,0.000
A7,68.731,-48.948,0.000
A8,50.718,-29.840,0.000
A9,53.447,-34.207,0.000
A10,56.176,-38.574,0.000
A11,58.905,-42.942,0.000
A12,61.635,-47.309,0.000
A13,64.364,-51.677,0.000
A14,67.093,-56.044,0.000
A15,46.351,-32.569,0.000
A16,49.080,-36.936,0.000
A17,51.809,-41.304,0.000
A18,54.538,-45.671,0.000
A19,57.267,-50.038,0.000
A20,59.996,-54.406,0.000
A21,62.725,-58.773,0.000
A22,41.983,-35.298,0.000
A23,44.712,-39.665,0.000
A24,47.441,-44.033,0.000
A25,50.171,-48.400,0.000
A26,52.900,-52.768,0.000
A27,55.629,-57.135,0.000
A28,58.358,-61.502,0.000
A29,40.345,-42.394,0.000
A30,43.074,-46.762,0.000
A31,45.803,-51.129,0.000
A32,48.532,-55.497,0.000
A33,51.261,-59.864,0.000
A34,38.707,-49.491,0.000
A35,41.436,-53.858,0.000
A36,44.165,-58.226,0.000
D1,35.270,-41.821,0.000
D2,33.632,-48.918,0.000
D3,36.361,-53.285,0.000
D4,39.090,-57.653,0.000
D5,41.819,-62.020,0.000
D6,48.916,-63.659,0.000
D7,56.675,-58.810,0.000
D8,49.579,-57.172,0.000
D9,42.482,-55.533,0.000
D10,39.753,-51.166,0.000
D11,41.392,-44.069,0.000
D12,43.030,-36.973,0.000
D13,47.906,-33.926,0.000
D14,55.003,-35.564,0.000
D15,62.099,-37.202,0.000
D16,64.828,-41.570,0.000
D17,63.190,-48.666,0.000
D18,61.552,-55.763,0.000
D40,62.417,-37.711,0.000
D41,65.146,-42.079,0.000
D42,55.321,-36.073,0.000
D43,58.050,-40.440,0.000
D44,60.779,-44.808,0.000
D45,63.508,-49.175,0.000
D46,48.224,-34.434,0.000
D47,50.953,-38.802,0.000
D48,53.682,-43.169,0.000
D49,56.411,-47.537,0.000
D50,59.140,-51.904,0.000
D51,61.870,-56.272,0.000
D52,43.857,-37.164,0.000
D53,46.586,-41.531,0.000
D54,49.315,-45.898,0.000
D55,52.044,-50.266,0.000
D56,54.773,-54.633,0.000
D57,57.502,-59.001,0.000
D58,42.218,-44.260,0.000
D59,44.947,-48.627,0.000
D60,47.676,-52.995,0.000
D61,50.406,-57.362,0.000
D62,40.580,-51.357,0.000
D63,43.309,-55.724,0.000
C24,-62.696,-4.642,0.000
C25,-59.967,-9.010,0.000
C26,-69.792,-3.004,0.000
C27,-67.063,-7.371,0.000
C28,-64.334,-11.739,0.000
C29,-61.605,-16.106,0.000
C30,-76.889,-1.365,0.000
C31,-74.160,-5.733,0.000
C32,-71.431,-10.100,0.000
C33,-68.701,-14.468,0.000
C34,-65.972,-18.835,0.000
C35,-63.243,-23.203,0.000
C36,-81.256,-4.094,0.000
C37,-78.527,-8.462,0.000
C38,-75.798,-12.829,0.000
C39,-73.069,-17.197,0.000
C40,-70.340,-21.564,0.000
C41,-67.611,-25.932,0.000
C42,-82.895,-11.191,0.000
C43,-80.165,-15.558,0.000
C44,-77.436,-19.926,0.000
C45,-74.707,-24.293,0.000
C46,-84.533,-18.288,0.000
C47,-81.804,-22.655,0.000
A37,-59.693,0.271,0.000
A38,-56.964,-4.097,0.000
A39,-54.235,-8.464,0.000
A40,-66.789,1.909,0.000
A41,-64.060,-2.458,0.000
A42,-61.331,-6.826,0.000
A43,-58.602,-11.193,0.000
A44,-55.873,-15.561,0.000
A45,-73.886,3.547,0.000
A46,-71.157,-0.820,0.000
A47,-68.428,-5.187,0.000
A48,-65.699,-9.555,0.000
A49,-62.969,-13.922,0.000
A50,-60.240,-18.290,0.000
A51,-57.511,-22.657,0.000
A52,-78.253,0.818,0.000
A53,-75.524,-3.549,0.000
A54,-72.795,-7.917,0.000
A55,-70.066,-12.284,0.000
A56,-67.337,-16.651,0.000
A57,-64.608,-21.019,0.000
A58,-61.879,-25.386,0.000
A59,-82.621,-1.911,0.000
A60,-79.892,-6.278,0.000
A61,-77.163,-10.646,0.000
A62,-74.433,-15.013,0.000
A63,-71.704,-19.381,0.000
A64,-68.975,-23.748,0.000
A65,-66.246,-28.115,0.000
A66,-84.259,-9.007,0.000
A67,-81.530,-13.375,0.000
A68,-78.801,-17.742,0.000
A69,-76.072,-22.110,0.000
A70,-73.343,-26.477,0.000
A71,-85.897,-16.104,0.000
A72,-83.168,-20.471,0.000
A73,-80.439,-24.839,0.000
D19,-52.078,-17.906,0.000
D20,-53.717,-25.003,0.000
D21,-58.084,-27.732,0.000
D22,-62.452,-30.461,0.000
D23,-66.819,-33.190,0.000
D24,-73.916,-31.552,0.000
D25,-78.764,-23.792,0.000
D26,-71.668,-25.430,0.000
D27,-64.571,-27.069,0.000
D28,-60.204,-24.340,0.000
D29,-58.565,-17.243,0.000
D30,-56.927,-10.147,0.000
D31,-61.021,-3.596,0.000
D32,-68.117,-1.957,0.000
D33,-75.214,-0.319,0.000
D34,-79.581,-3.048,0.000
D35,-81.220,-10.144,0.000
D36,-82.858,-17.241,0.000
D40,-61.021,-3.596,0.000
D41,-58.292,-7.963,0.000
D42,-68.117,-1.957,0.000
D43,-65.388,-6.325,0.000
D44,-62.659,-10.692,0.000
D45,-59.930,-15.059,0.000
D46,-75.214,-0.319,0.000
D47,-72.485,-4.686,0.000
D48,-69.756,-9.054,0.000
D49,-67.027,-13.421,0.000
D50,-64.297,-17.789,0.000
D51,-61.568,-22.156,0.000
D52,-79.581,-3.048,0.000
D53,-76.852,-7.415,0.000
D54,-74.123,-11.783,0.000
D55,-71.394,-16.150,0.000
D56,-68.665,-20.518,0.000
D57,-65.936,-24.885,0.000
D58,-81.220,-10.144,0.000
D59,-78.491,-14.512,0.000
D60,-75.761,-18.879,0.000
D61,-73.032,-23.247,0.000
D62,-82.858,-17.241,0.000
D63,-80.129,-21.608,0.000
