6500,52.4009401,06.5507768,55.252,0
6501,52.4009478,06.5507768,55.242,1
6502,52.4009440,06.5507879,55.248,2
6503,52.4009362,06.5507878,55.258,3
6504,52.4009323,06.5507768,55.262,4
6505,52.4009362,06.5507657,55.256,5
6506,52.4009440,06.5507657,55.246,6
6507,52.4009296,06.5507512,55.263,7
6508,52.4009420,06.5507461,55.246,8
6509,52.4009536,06.5507554,55.232,9
6510,52.4009588,06.5507746,55.228,10
6511,52.4009552,06.5507949,55.234,11
6512,52.4009446,06.5508067,55.249,12
6513,52.4009318,06.5508045,55.266,13
6514,52.4009229,06.5507893,55.276,14
6515,52.4009220,06.5507683,55.275,15
6516,52.4009119,06.5507590,55.287,16
6517,52.4009166,06.5507411,55.279,17
6518,52.4009295,06.5507247,55.260,18
6519,52.4009530,06.5507274,55.230,19
6520,52.4009619,06.5507363,55.220,20
6521,52.4009699,06.5507550,55.211,21
6522,52.4009700,06.5507777,55.214,22
6523,52.4009630,06.5508063,55.226,23
6524,52.4009527,06.5508253,55.241,24
6525,52.4009388,06.5508304,55.259,25
6526,52.4009273,06.5508216,55.273,26
6527,52.4009159,06.5508039,55.286,27
6528,52.4009104,06.5507807,55.291,28
6529,52.4008986,06.5507426,55.302,29
6530,52.4009043,06.5507246,55.293,30
6531,52.4009130,06.5507161,55.281,31
6532,52.4009382,06.5507066,55.247,32
6533,52.4009458,06.5506968,55.236,33
6534,52.4009657,06.5507197,55.213,34
6535,52.4009763,06.5507404,55.201,35
6536,52.4009880,06.5507610,55.188,36
6537,52.4009837,06.5507774,55.196,37
6538,52.4009795,06.5508017,55.204,38
6539,52.4009664,06.5508322,55.224,39
6540,52.4009598,06.5508423,55.233,40
6541,52.4009429,06.5508472,55.256,41
6542,52.4009304,06.5508556,55.273,42
6543,52.4009069,06.5508286,55.300,43
6544,52.4009000,06.5508106,55.307,44
6545,52.4008934,06.5507836,55.313,45
6546,52.4008822,06.5507683,55.326,48
6547,52.4008758,06.5507558,55.333,49
6548,52.4009033,06.5506866,55.290,50
6549,52.4009549,06.5506742,55.222,51
6550,52.4009705,06.5506796,55.203,52
6551,52.4009929,06.5507326,55.179,53
6552,52.4009957,06.5508032,55.183,54
6553,52.4009916,06.5508450,55.192,55
6554,52.4009479,06.5508721,55.252,56
6555,52.4009217,06.5508781,55.286,57
6556,52.4008963,06.5508457,55.316,58
6557,52.4008699,06.5508413,55.350,59
6558,52.4008593,06.5507743,55.357,60
6559,52.4008695,06.5507079,55.336,61
6560,52.4008813,06.5506808,55.318,62
6561,52.4009011,06.5506498,55.289,63
6562,52.4009581,06.5506528,55.216,64
6563,52.4009825,06.5506669,55.186,65
6564,52.4010161,06.5507156,55.147,66
6565,52.4010210,06.5507908,55.149,67
6566,52.4010152,06.5508394,55.161,68
6567,52.4009879,06.5508827,55.201,69
6568,52.4009411,06.5509206,55.266,70
6569,52.4008866,06.5508906,55.333,71
6570,52.4008436,06.5508707,55.387,72
6571,52.4008390,06.5507918,55.385,73
6572,52.4008461,06.5507149,55.367,74
6573,52.4008546,06.5506746,55.352,75
6574,52.4009054,06.5506187,55.281,76
6575,52.4009625,06.5505987,55.205,77
6576,52.4009993,06.5506238,55.160,78
6577,52.4010118,06.5506692,55.148,79
6578,52.4010458,06.5507234,55.110,80
6579,52.4010459,06.5508246,55.120,81
6580,52.4010342,06.5508682,55.140,82
6581,52.4010004,06.5509324,55.190,83
6582,52.4009741,06.5509395,55.225,84
6583,52.4009076,06.5509457,55.312,85
6584,52.4008925,06.5509200,55.329,86
6585,52.4008782,06.5509438,55.350,87
6586,52.4008049,06.5507735,55.427,88
6587,52.4008372,06.5506477,55.372,89
6588,52.4008839,06.5505734,55.304,90
6589,52.4009355,06.5505624,55.236,91
6590,52.4010609,06.5506846,55.086,92
6591,52.4010572,06.5508035,55.103,93
6592,52.4010549,06.5508906,55.115,94
6593,52.4009268,06.5509820,55.291,95
