1001,52.4012259,06.5510293,55.308,C0
1002,52.4012208,06.5510554,55.318,C1
1003,52.4012156,06.5510815,55.327,C2
1004,52.4012104,06.5511075,55.337,C3
1005,52.4012101,06.5510209,55.328,C4
1006,52.4012049,06.5510469,55.337,C5
1007,52.4011998,06.5510730,55.347,C6
1008,52.4011946,06.5510990,55.356,C7
1009,52.4012046,06.5509603,55.329,C8
1010,52.4011994,06.5509863,55.338,C9
1011,52.4011942,06.5510124,55.347,C10
1012,52.4011891,06.5510384,55.357,C11
1013,52.4011839,06.5510645,55.366,C12
1014,52.4011788,06.5510906,55.376,C13
1015,52.4011736,06.5511166,55.385,C14
1016,52.4011684,06.5511427,55.395,C15
1017,52.4011887,06.5509518,55.348,C16
1018,52.4011836,06.5509778,55.358,C17
1019,52.4011784,06.5510039,55.367,C18
1020,52.4011732,06.5510299,55.376,C19
1021,52.4011681,06.5510560,55.386,C20
1022,52.4011629,06.5510821,55.395,C21
1023,52.4011578,06.5511081,55.405,C22
1024,52.4011526,06.5511342,55.414,C23
1025,52.4011729,06.5509433,55.368,C24
1026,52.4011677,06.5509693,55.377,C25
1027,52.4011626,06.5509954,55.387,C26
1028,52.4011574,06.5510215,55.396,C27
1029,52.4011522,06.5510475,55.405,C28
1030,52.4011471,06.5510736,55.415,C29
1031,52.4011419,06.5510996,55.424,C30
1032,52.4011368,06.5511257,55.434,C31
1033,52.4011570,06.5509348,55.387,C32
1034,52.4011519,06.5509609,55.397,C33
1035,52.4011467,06.5509869,55.406,C34
1036,52.4011416,06.5510130,55.416,C35
1037,52.4011364,06.5510390,55.425,C36
1038,52.4011312,06.5510651,55.434,C37
1039,52.4011261,06.5510912,55.444,C38
1040,52.4011209,06.5511172,55.453,C39
1041,52.4011309,06.5509784,55.426,C40
1042,52.4011257,06.5510045,55.435,C41
1043,52.4011206,06.5510305,55.445,C42
1044,52.4011154,06.5510566,55.454,C43
1045,52.4011150,06.5509699,55.445,C44
1046,52.4011099,06.5509960,55.455,C45
1047,52.4011047,06.5510221,55.464,C46
1048,52.4010996,06.5510481,55.474,C47
1049,52.4012443,06.5510248,55.284,A0
1050,52.4012392,06.5510509,55.294,A1
1051,52.4012340,06.5510769,55.303,A2
1052,52.4012289,06.5511030,55.312,A3
1053,52.4012237,06.5511290,55.322,A4
1054,52.4012285,06.5510163,55.304,A5
1055,52.4012233,06.5510424,55.313,A6
1056,52.4012182,06.5510684,55.322,A7
1057,52.4012130,06.5510945,55.332,A8
1058,52.4012079,06.5511206,55.341,A9
1059,52.4012230,06.5509557,55.304,A10
1060,52.4012178,06.5509818,55.314,A11
1061,52.4012127,06.5510078,55.323,A12
1062,52.4012075,06.5510339,55.333,A13
1063,52.4012023,06.5510600,55.342,A14
1064,52.4011972,06.5510860,55.351,A15
1065,52.4011920,06.5511121,55.361,A16
1066,52.4011869,06.5511381,55.370,A17
1067,52.4011817,06.5511642,55.380,A18
1068,52.4012071,06.5509472,55.324,A19
1069,52.4012020,06.5509733,55.333,A20
1070,52.4011968,06.5509993,55.343,A21
1071,52.4011917,06.5510254,55.352,A22
1072,52.4011865,06.5510515,55.362,A23
1073,52.4011813,06.5510775,55.371,A24
1074,52.4011762,06.5511036,55.380,A25
1075,52.4011710,06.5511296,55.390,A26
1076,52.4011659,06.5511557,55.399,A27
1077,52.4011913,06.5509387,55.344,A28
1078,52.4011861,06.5509648,55.353,A29
1079,52.4011810,06.5509909,55.362,A30
1080,52.4011758,06.5510169,55.372,A31
1081,52.4011707,06.5510430,55.381,A32
1082,52.4011655,06.5510690,55.391,A33
1083,52.4011603,06.5510951,55.400,A34
1084,52.4011552,06.5511212,55.409,A35
1085,52.4011500,06.5511472,55.419,A36
1086,52.4011755,06.5509303,55.363,A37
1087,52.4011703,06.5509563,55.373,A38
1088,52.4011651,06.5509824,55.382,A39
1089,52.4011600,06.5510084,55.391,A40
1090,52.4011548,06.5510345,55.401,A41
1091,52.4011497,06.5510606,55.410,A42
1092,52.4011445,06.5510866,55.420,A43
1093,52.4011393,06.5511127,55.429,A44
1094,52.4011342,06.5511387,55.438,A45
1095,52.4011596,06.5509218,55.383,A46
1096,52.4011545,06.5509478,55.392,A47
1097,52.4011493,06.5509739,55.401,A48
1098,52.4011441,06.5509999,55.411,A49
1099,52.4011390,06.5510260,55.420,A50
1100,52.4011338,06.5510521,55.430,A51
1101,52.4011287,06.5510781,55.439,A52
1102,52.4011235,06.5511042,55.449,A53
1103,52.4011183,06.5511302,55.458,A54
1104,52.4011335,06.5509654,55.421,A55
1105,52.4011283,06.5509915,55.430,A56
1106,52.4011231,06.5510175,55.440,A57
1107,52.4011180,06.5510436,55.449,A58
1108,52.4011128,06.5510696,55.459,A59
1109,52.4011176,06.5509569,55.441,A60
1110,52.4011125,06.5509830,55.450,A61
1111,52.4011073,06.5510090,55.459,A62
1112,52.4011021,06.5510351,55.469,A63
1113,52.4010970,06.5510611,55.478,A64
1114,52.4011424,06.5509230,55.405,D1
1115,52.4011055,06.5509321,55.454,D2
1116,52.4011003,06.5509582,55.463,D3
1117,52.4010952,06.5509842,55.472,D4
1118,52.4010900,06.5510103,55.482,D5
1119,52.4010849,06.5510363,55.491,D6
1120,52.4010797,06.5510624,55.501,D7
1121,52.4011062,06.5511054,55.471,D8
1122,52.4011712,06.5511402,55.391,D9
1123,52.4011764,06.5511142,55.381,D10
1124,52.4012132,06.5511051,55.333,D11
1125,52.4012184,06.5510790,55.323,D12
1126,52.4012235,06.5510530,55.314,D13
1127,52.4012287,06.5510269,55.305,D14
1128,52.4012022,06.5509839,55.334,D15
1129,52.4012073,06.5509578,55.325,D16
1130,52.4011791,06.5510003,55.366,D17
1131,52.4011739,06.5510264,55.375,D18
1132,52.4011688,06.5510525,55.385,D19
1133,52.4011636,06.5510785,55.394,D20
1134,52.4011216,06.5511137,55.452,D21
1135,52.4011268,06.5510876,55.443,D22
1136,52.4011003,06.5510446,55.472,D23
1137,52.4011054,06.5510185,55.463,D24
1138,52.4011106,06.5509925,55.453,D25
1139,52.4011157,06.5509664,55.444,D26
1140,52.4011526,06.5509573,55.396,D27
1141,52.4011577,06.5509313,55.386,D28
1142,52.4012280,06.5510305,55.306,R1
1143,52.4012228,06.5510565,55.315,R2
1144,52.4012177,06.5510826,55.325,R3
1145,52.4012125,06.5511086,55.334,R4
1146,52.4012122,06.5510220,55.325,R5
1147,52.4012070,06.5510480,55.335,R6
1148,52.4012018,06.5510741,55.344,R7
1149,52.4011967,06.5511002,55.354,R8
1150,52.4012066,06.5509614,55.326,R9
1151,52.4012015,06.5509874,55.336,R10
1152,52.4011963,06.5510135,55.345,R11
1153,52.4011912,06.5510395,55.354,R12
1154,52.4011860,06.5510656,55.364,R13
1155,52.4011808,06.5510917,55.373,R14
1156,52.4011757,06.5511177,55.383,R15
1157,52.4011705,06.5511438,55.392,R16
1158,52.4011908,06.5509529,55.346,R17
1159,52.4011856,06.5509789,55.355,R18
1160,52.4011805,06.5510050,55.364,R19
1161,52.4011753,06.5510311,55.374,R20
1162,52.4011702,06.5510571,55.383,R21
1163,52.4011650,06.5510832,55.393,R22
1164,52.4011598,06.5511092,55.402,R23
1165,52.4011547,06.5511353,55.412,R24
1166,52.4011749,06.5509444,55.365,R25
1167,52.4011698,06.5509705,55.375,R26
1168,52.4011646,06.5509965,55.384,R27
1169,52.4011595,06.5510226,55.393,R28
1170,52.4011543,06.5510486,55.403,R29
1171,52.4011492,06.5510747,55.412,R30
1172,52.4011440,06.5511008,55.422,R31
1173,52.4011388,06.5511268,55.431,R32
1174,52.4011591,06.5509359,55.385,R33
1175,52.4011539,06.5509620,55.394,R34
1176,52.4011488,06.5509880,55.404,R35
1177,52.4011436,06.5510141,55.413,R36
1178,52.4011385,06.5510401,55.422,R37
1179,52.4011333,06.5510662,55.432,R38
1180,52.4011282,06.5510923,55.441,R39
1181,52.4011230,06.5511183,55.451,R40
1182,52.4011329,06.5509795,55.423,R41
1183,52.4011278,06.5510056,55.433,R42
1184,52.4011226,06.5510317,55.442,R43
1185,52.4011175,06.5510577,55.451,R44
1186,52.4011171,06.5509711,55.443,R45
1187,52.4011119,06.5509971,55.452,R46
1188,52.4011068,06.5510232,55.462,R47
1189,52.4011016,06.5510492,55.471,R48
