Label;ETRS-X;ETRS-Y;ETRS-Z;ETRS-lat;ETRS-long;Type
1100;3801624.10856;-529030.144321;5077003.33758;53.0953744458;-7.92234452093;LBA Cable exit marker
1101;3801623.20436;-529022.13332;5077004.87235;53.0953970954;-7.92222793796;LBA Cable exit marker
1102;3801621.45091;-529028.364405;5077005.51374;53.0954068639;-7.92232367276;LBA Cable exit marker
1103;3801620.54284;-529021.553655;5077006.92265;53.0954276732;-7.92222484349;LBA Cable exit marker
1104;3801646.30601;-529007.273462;5076989.20971;53.0951628953;-7.92196070463;LBA Cable exit marker
1105;3801645.03826;-529001.244225;5076990.80346;53.0951864874;-7.9218741704;LBA Cable exit marker
1106;3801652.84665;-529008.422381;5076984.20068;53.0950881833;-7.9219642349;LBA Cable exit marker
1107;3801652.74607;-529003.497071;5076984.80416;53.0950970327;-7.92189162116;LBA Cable exit marker
1108;3801619.70289;-529033.333371;5077006.28647;53.0954185523;-7.92240073592;LBA Cable exit marker
1109;3801618.94159;-529040.297502;5077006.1081;53.0954161108;-7.92250526759;LBA Cable exit marker
1110;3801615.72997;-529041.019718;5077008.42967;53.0954507777;-7.92252255359;LBA Cable exit marker
1111;3801613.76624;-529037.838023;5077010.23786;53.0954776603;-7.92247955232;LBA Cable exit marker
1112;3801636.91031;-529018.609654;5076995.01215;53.0952498427;-7.92214764124;LBA Cable exit marker
1113;3801632.34691;-529018.277046;5076998.45664;53.0953012333;-7.92215211245;LBA Cable exit marker
1114;3801632.12168;-529014.908769;5076998.9862;53.0953090292;-7.92210277566;LBA Cable exit marker
1115;3801635.60373;-529012.573157;5076996.63569;53.0952738791;-7.9220610795;LBA Cable exit marker
1116;3801629.76178;-529013.125808;5077000.94027;53.0953381329;-7.92208126973;LBA Cable exit marker
1117;3801626.03464;-529015.35764;5077003.485;53.0953761778;-7.92212193582;LBA Cable exit marker
1118;3801627.27955;-529006.775319;5077003.47569;53.0953757671;-7.92199248415;LBA Cable exit marker
1119;3801623.62559;-529008.168631;5077006.05569;53.095414312;-7.92202060201;LBA Cable exit marker
1120;3801644.22642;-529038.251875;5076987.44007;53.095137468;-7.92242299931;LBA Cable exit marker
1121;3801639.14143;-529045.026625;5076990.51176;53.0951835203;-7.92253362635;LBA Cable exit marker
1122;3801648.608;-529045.396223;5076983.4007;53.0950774154;-7.92251961327;LBA Cable exit marker
1123;3801639.62259;-529050.69201;5076989.54462;53.0951692669;-7.9226163991;LBA Cable exit marker
1124;3801629.11398;-529034.302583;5076999.15253;53.095312125;-7.92239570254;LBA Cable exit marker
1125;3801625.8773;-529035.528226;5077001.43881;53.0953462814;-7.92242048321;LBA Cable exit marker
1126;3801630.28183;-529038.208913;5076997.86112;53.0952929772;-7.922451055;LBA Cable exit marker
1127;3801629.81848;-529042.251094;5076997.77363;53.0952917994;-7.92251177217;LBA Cable exit marker
1128;3801650.29313;-529024.090486;5076984.4274;53.0950920628;-7.9222011413;LBA Cable exit marker
1129;3801653.33369;-529022.845693;5076982.28967;53.0950601225;-7.92217648134;LBA Cable exit marker
1130;3801652.0097;-529032.704977;5076982.22106;53.0950594107;-7.92232497462;LBA Cable exit marker
1131;3801656.64085;-529030.683572;5076978.97849;53.0950109587;-7.92228555988;LBA Cable exit marker
1132;3801628.1705;-529002.978084;5077003.2175;53.0953717938;-7.92193450867;LBA Cable exit marker
1133;3801632.51999;-528998.929291;5077000.40279;53.0953296624;-7.92186569844;LBA Cable exit marker
1134;3801630.89005;-528989.408004;5077002.64169;53.0953627711;-7.92172827869;LBA Cable exit marker
1135;3801626.28903;-528992.815581;5077005.71307;53.0954087125;-7.92178812586;LBA Cable exit marker
1136;3801639.72662;-529021.79607;5076992.56659;53.0952134491;-7.92218895818;LBA Cable exit marker
1137;3801640.58541;-529016.119463;5076992.53402;53.0952127833;-7.92210326247;LBA Cable exit marker
1138;3801642.90324;-529022.164445;5076990.15417;53.0951774609;-7.92218786893;LBA Cable exit marker
1139;3801644.07468;-529018.679621;5076989.65294;53.0951698708;-7.92213393561;LBA Cable exit marker
1140;3801613.49668;-529024.076941;5077011.91538;53.0955022582;-7.92227664773;LBA Cable exit marker
1141;3801615.90945;-529014.325239;5077011.15914;53.0954906643;-7.92212750344;LBA Cable exit marker
1142;3801609.21526;-529018.498353;5077015.71197;53.0955587371;-7.92220297638;LBA Cable exit marker
1143;3801612.80684;-529008.729972;5077014.07696;53.095534029;-7.92205116004;LBA Cable exit marker
1144;3801637.52466;-529027.872277;5076993.55963;53.0952284602;-7.92228332546;LBA Cable exit marker
1145;3801640.63597;-529028.684264;5076991.14841;53.095192504;-7.92228892934;LBA Cable exit marker
1146;3801635.83519;-529032.295976;5076994.34711;53.0952403516;-7.92235220603;LBA Cable exit marker
1147;3801640.00113;-529032.814756;5076991.17955;53.0951930993;-7.9223513049;LBA Cable exit marker
1148;3801640.9208;-529006.047012;5076993.36396;53.0952248493;-7.92195365088;LBA Cable exit marker
1149;3801647.49335;-529032.594521;5076985.60658;53.0951099284;-7.92233263376;LBA Cable exit marker
1150;3801645.42222;-528996.287397;5076991.04837;53.095189985;-7.92180009361;LBA Cable exit marker
1151;3801635.08021;-529000.140949;5076998.36036;53.0952992221;-7.92187834562;LBA Cable exit marker
1152;3801631.81261;-529047.246714;5076995.74816;53.0952617318;-7.92258152965;LBA Cable exit marker
1153;3801653.58056;-529040.482451;5076980.21336;53.0950296963;-7.92243673233;LBA Cable exit marker
1154;3801637.70694;-528993.13014;5076997.15028;53.0952809422;-7.92176928625;LBA Cable exit marker
1155;3801637.90242;-529015.370278;5076994.61854;53.0952438664;-7.92209770573;LBA Cable exit marker
1156;3801610.8709;-529030.346475;5077013.20427;53.0955216903;-7.92237474609;LBA Cable exit marker
1157;3801635.61721;-529041.946393;5076993.47473;53.0952276385;-7.92249533621;LBA Cable exit marker
1158;3801623.42751;-529038.204059;5077002.98174;53.0953693907;-7.92246508601;LBA Cable exit marker
1159;3801658.73619;-529021.130287;5076978.43808;53.095002592;-7.92214000396;LBA Cable exit marker
1160;3801645.9965;-529029.084979;5076987.10117;53.0951321208;-7.92228382489;LBA Cable exit marker
1161;3801637.34139;-529038.630752;5076992.54246;53.0952136217;-7.92244276689;LBA Cable exit marker
1162;3801619.08922;-529015.76568;5077008.62937;53.0954529589;-7.9221422584;LBA Cable exit marker
1163;3801628.95572;-529019.802848;5077000.82614;53.0953366411;-7.92218164866;LBA Cable exit marker
1164;3801642.93487;-529011.245167;5076991.30186;53.0951942418;-7.92202636208;LBA Cable exit marker
1165;3801628.70881;-529026.737833;5077000.26666;53.0953285116;-7.9222846909;LBA Cable exit marker
1166;3801652.47982;-529017.268988;5076983.52572;53.0950783912;-7.92209578662;LBA Cable exit marker
1167;3801646.87731;-529020.821106;5076987.32969;53.0951352694;-7.92215983132;LBA Cable exit marker
1168;3801625.59651;-529044.132668;5077000.72556;53.0953359097;-7.92254827814;LBA Cable exit marker
1169;3801622.91188;-529044.606348;5077002.68014;53.0953650923;-7.92256080525;LBA Cable exit marker
1170;3801633.03757;-529026.906705;5076997.01501;53.0952799934;-7.92227828143;LBA Cable exit marker
1171;3801617.27327;-529024.366064;5077009.0633;53.0954597064;-7.92227315225;LBA Cable exit marker
1172;3801643.33709;-529026.941161;5076989.31769;53.0951651295;-7.92225760013;LBA Cable exit marker
1173;3801634.63118;-529005.25186;5076998.14753;53.095296208;-7.92195483459;LBA Cable exit marker
1174;3801645.36222;-529012.872763;5076989.31407;53.09516463;-7.92204543213;LBA Cable exit marker
1175;3801640.32787;-528994.443917;5076995.05154;53.0952496649;-7.92178331841;LBA Cable exit marker
1176;3801630.13982;-529030.851219;5076998.75646;53.0953061055;-7.9223425633;LBA Cable exit marker
1177;3801643.29597;-529033.178836;5076988.67929;53.0951558002;-7.9223499088;LBA Cable exit marker
1178;3801616.89089;-529032.068481;5077008.52269;53.0954518827;-7.92238782006;LBA Cable exit marker
1179;3801619.05996;-529006.708134;5077009.62284;53.0954674973;-7.92200840172;LBA Cable exit marker
1180;3801622.89187;-529012.900981;5077006.09613;53.0954150653;-7.92209207986;LBA Cable exit marker
1181;3801641.41074;-529001.736999;5076993.46032;53.0952261507;-7.92188891917;LBA Cable exit marker
1182;3801629.86911;-529008.686801;5077001.33628;53.0953439017;-7.92201541785;LBA Cable exit marker
1183;3801630.20942;-529023.519762;5076999.49093;53.0953168337;-7.92223402407;LBA Cable exit marker
1184;3801648.23321;-529040.301998;5076984.22712;53.0950895869;-7.92244506643;LBA Cable exit marker
1185;3801637.63669;-529024.324087;5076993.85656;53.095232779;-7.92223063488;LBA Cable exit marker
1186;3801658.30219;-529010.376544;5076979.91583;53.0950243035;-7.92198190314;LBA Cable exit marker
1187;3801651.29131;-529014.298313;5076984.73219;53.0950963009;-7.92205431045;LBA Cable exit marker
1188;3801626.41855;-529018.72968;5077002.8365;53.0953666072;-7.92217100186;LBA Cable exit marker
1189;3801617.63711;-528999.314747;5077011.47878;53.0954949588;-7.92190201687;LBA Cable exit marker
1190;3801625.93131;-529027.290351;5077002.28215;53.0953586057;-7.9222985745;LBA Cable exit marker
1191;3801633.67036;-529049.363758;5076994.13334;53.0952377012;-7.9226090078;LBA Cable exit marker
1192;3801624.37027;-529001.842209;5077006.17807;53.0954159377;-7.92192553311;LBA Cable exit marker
1193;3801632.97145;-529030.365798;5076996.69334;53.0952753027;-7.92232956034;LBA Cable exit marker
1194;3801634.68204;-529035.563708;5076994.85797;53.0952480783;-7.92240289213;LBA Cable exit marker
1195;3801635.94739;-529009.167177;5076996.74434;53.0952753927;-7.92201001486;LBA Cable exit marker
1200;3801622.86358;-529030.24458;5077004.2568;53.0953881664;-7.92234856478;LBA Marker 2 ('piketten boven')
1201;3801621.95938;-529022.233578;5077005.79158;53.095410816;-7.92223198177;LBA Marker 2 ('piketten boven')
1202;3801620.20594;-529028.464664;5077006.43297;53.0954205844;-7.92232771661;LBA Marker 2 ('piketten boven')
1203;3801619.29787;-529021.653914;5077007.84188;53.0954413937;-7.9222288873;LBA Marker 2 ('piketten boven')
1204;3801645.06103;-529007.373721;5076990.12894;53.0951766159;-7.92196474833;LBA Marker 2 ('piketten boven')
1205;3801643.79329;-529001.344483;5076991.72269;53.095200208;-7.92187821408;LBA Marker 2 ('piketten boven')
1206;3801651.60167;-529008.522639;5076985.11991;53.0951019039;-7.9219682786;LBA Marker 2 ('piketten boven')
1207;3801651.50109;-529003.59733;5076985.72338;53.0951107533;-7.92189566483;LBA Marker 2 ('piketten boven')
1208;3801618.45791;-529033.43363;5077007.2057;53.0954322729;-7.92240477979;LBA Marker 2 ('piketten boven')
1209;3801617.69661;-529040.397761;5077007.02733;53.0954298313;-7.92250931149;LBA Marker 2 ('piketten boven')
1210;3801614.485;-529041.119977;5077009.3489;53.0954644983;-7.9225265975;LBA Marker 2 ('piketten boven')
1211;3801612.52126;-529037.938281;5077011.15709;53.0954913808;-7.92248359622;LBA Marker 2 ('piketten boven')
1212;3801635.66533;-529018.709913;5076995.93138;53.0952635632;-7.92215168501;LBA Marker 2 ('piketten boven')
1213;3801631.10193;-529018.377305;5076999.37586;53.0953149539;-7.92215615623;LBA Marker 2 ('piketten boven')
1214;3801630.8767;-529015.009028;5076999.90543;53.0953227498;-7.92210681942;LBA Marker 2 ('piketten boven')
1215;3801634.35875;-529012.673416;5076997.55492;53.0952875997;-7.92206512325;LBA Marker 2 ('piketten boven')
1216;3801628.5168;-529013.226067;5077001.8595;53.0953518535;-7.92208531349;LBA Marker 2 ('piketten boven')
1217;3801624.78966;-529015.457899;5077004.40422;53.0953898984;-7.92212597959;LBA Marker 2 ('piketten boven')
1218;3801626.03457;-529006.875578;5077004.39492;53.0953894877;-7.92199652788;LBA Marker 2 ('piketten boven')
1219;3801622.38062;-529008.268889;5077006.97492;53.0954280325;-7.92202464576;LBA Marker 2 ('piketten boven')
1220;3801642.98144;-529038.352134;5076988.3593;53.0951511886;-7.92242704316;LBA Marker 2 ('piketten boven')
1221;3801637.89646;-529045.126883;5076991.43099;53.0951972408;-7.92253767024;LBA Marker 2 ('piketten boven')
1222;3801647.36303;-529045.496482;5076984.31992;53.095091136;-7.92252365714;LBA Marker 2 ('piketten boven')
1223;3801638.37761;-529050.792269;5076990.46384;53.0951829874;-7.92262044301;LBA Marker 2 ('piketten boven')
1224;3801627.86901;-529034.402841;5077000.07175;53.0953258455;-7.9223997464;LBA Marker 2 ('piketten boven')
1225;3801624.63232;-529035.628485;5077002.35804;53.095360002;-7.92242452708;LBA Marker 2 ('piketten boven')
1226;3801629.03686;-529038.309172;5076998.78035;53.0953066978;-7.92245509887;LBA Marker 2 ('piketten boven')
1227;3801628.57351;-529042.351352;5076998.69286;53.09530552;-7.92251581606;LBA Marker 2 ('piketten boven')
1228;3801649.04815;-529024.190745;5076985.34663;53.0951057834;-7.92220518508;LBA Marker 2 ('piketten boven')
1229;3801652.08872;-529022.945952;5076983.2089;53.0950738431;-7.92218052511;LBA Marker 2 ('piketten boven')
1230;3801650.76473;-529032.805236;5076983.14029;53.0950731313;-7.92232901843;LBA Marker 2 ('piketten boven')
1231;3801655.39587;-529030.783831;5076979.89772;53.0950246792;-7.92228960367;LBA Marker 2 ('piketten boven')
1232;3801626.92552;-529003.078343;5077004.13672;53.0953855144;-7.92193855239;LBA Marker 2 ('piketten boven')
1233;3801631.27501;-528999.02955;5077001.32202;53.095343383;-7.92186974213;LBA Marker 2 ('piketten boven')
1234;3801629.64508;-528989.508263;5077003.56092;53.0953764917;-7.92173232234;LBA Marker 2 ('piketten boven')
1235;3801625.04405;-528992.91584;5077006.63229;53.0954224331;-7.92179216954;LBA Marker 2 ('piketten boven')
1236;3801638.48164;-529021.896329;5076993.48582;53.0952271697;-7.92219300196;LBA Marker 2 ('piketten boven')
1237;3801639.34043;-529016.219722;5076993.45324;53.0952265039;-7.92210730623;LBA Marker 2 ('piketten boven')
1238;3801641.65826;-529022.264703;5076991.0734;53.0951911815;-7.92219191271;LBA Marker 2 ('piketten boven')
1239;3801642.8297;-529018.77988;5076990.57217;53.0951835914;-7.92213797937;LBA Marker 2 ('piketten boven')
1240;3801612.2517;-529024.1772;5077012.83461;53.0955159787;-7.92228069157;LBA Marker 2 ('piketten boven')
1241;3801614.66448;-529014.425497;5077012.07837;53.0955043849;-7.92213154723;LBA Marker 2 ('piketten boven')
1242;3801607.97028;-529018.598611;5077016.6312;53.0955724577;-7.9222070202;LBA Marker 2 ('piketten boven')
1243;3801611.56186;-529008.830231;5077014.99619;53.0955477496;-7.9220552038;LBA Marker 2 ('piketten boven')
1244;3801636.27969;-529027.972535;5076994.47885;53.0952421808;-7.92228736928;LBA Marker 2 ('piketten boven')
1245;3801639.39099;-529028.784522;5076992.06764;53.0952062246;-7.92229297316;LBA Marker 2 ('piketten boven')
1246;3801634.59021;-529032.396235;5076995.26634;53.0952540722;-7.92235624987;LBA Marker 2 ('piketten boven')
1247;3801638.75615;-529032.915014;5076992.09878;53.0952068199;-7.92235534873;LBA Marker 2 ('piketten boven')
1248;3801639.67583;-529006.147271;5076994.28319;53.0952385699;-7.92195769458;LBA Marker 2 ('piketten boven')
1249;3801646.24837;-529032.69478;5076986.52581;53.095123649;-7.92233667757;LBA Marker 2 ('piketten boven')
1250;3801644.17724;-528996.387655;5076991.9676;53.0952037056;-7.92180413727;LBA Marker 2 ('piketten boven')
1251;3801633.83523;-529000.241208;5076999.27959;53.0953129427;-7.92188238931;LBA Marker 2 ('piketten boven')
1252;3801630.56763;-529047.346973;5076996.66739;53.0952754524;-7.92258557356;LBA Marker 2 ('piketten boven')
1253;3801652.33558;-529040.58271;5076981.13259;53.0950434169;-7.92244077617;LBA Marker 2 ('piketten boven')
1254;3801636.46196;-528993.230398;5076998.06951;53.0952946627;-7.9217733299;LBA Marker 2 ('piketten boven')
1255;3801636.65745;-529015.470536;5076995.53777;53.095257587;-7.92210174949;LBA Marker 2 ('piketten boven')
1256;3801609.62592;-529030.446734;5077014.1235;53.0955354109;-7.92237878995;LBA Marker 2 ('piketten boven')
1257;3801634.37223;-529042.046652;5076994.39396;53.0952413591;-7.92249938009;LBA Marker 2 ('piketten boven')
1258;3801622.18254;-529038.304318;5077003.90097;53.0953831112;-7.9224691299;LBA Marker 2 ('piketten boven')
1259;3801657.49121;-529021.230546;5076979.35731;53.0950163126;-7.92214404771;LBA Marker 2 ('piketten boven')
1260;3801644.75152;-529029.185238;5076988.0204;53.0951458414;-7.9222878687;LBA Marker 2 ('piketten boven')
1261;3801636.09641;-529038.731011;5076993.46169;53.0952273422;-7.92244681075;LBA Marker 2 ('piketten boven')
1262;3801617.84424;-529015.865938;5077009.5486;53.0954666795;-7.92214630218;LBA Marker 2 ('piketten boven')
1263;3801627.71074;-529019.903106;5077001.74537;53.0953503617;-7.92218569245;LBA Marker 2 ('piketten boven')
1264;3801641.6899;-529011.345426;5076992.22109;53.0952079624;-7.92203040581;LBA Marker 2 ('piketten boven')
1265;3801627.46383;-529026.838091;5077001.18589;53.0953422322;-7.92228873472;LBA Marker 2 ('piketten boven')
1266;3801651.23484;-529017.369247;5076984.44495;53.0950921118;-7.92209983036;LBA Marker 2 ('piketten boven')
1267;3801645.63233;-529020.921365;5076988.24892;53.09514899;-7.92216387509;LBA Marker 2 ('piketten boven')
1268;3801624.35153;-529044.232927;5077001.64479;53.0953496303;-7.92255232205;LBA Marker 2 ('piketten boven')
1269;3801621.6669;-529044.706607;5077003.59936;53.0953788129;-7.92256484916;LBA Marker 2 ('piketten boven')
1270;3801631.7926;-529027.006964;5076997.93424;53.095293714;-7.92228232524;LBA Marker 2 ('piketten boven')
1271;3801616.02829;-529024.466323;5077009.98252;53.095473427;-7.92227719608;LBA Marker 2 ('piketten boven')
1272;3801642.09212;-529027.04142;5076990.23692;53.09517885;-7.92226164392;LBA Marker 2 ('piketten boven')
1273;3801633.38621;-529005.352119;5076999.06676;53.0953099286;-7.9219588783;LBA Marker 2 ('piketten boven')
1274;3801644.11725;-529012.973022;5076990.2333;53.0951783506;-7.92204947586;LBA Marker 2 ('piketten boven')
1275;3801639.08289;-528994.544175;5076995.97077;53.0952633855;-7.92178736207;LBA Marker 2 ('piketten boven')
1276;3801628.89485;-529030.951478;5076999.67569;53.095319826;-7.92234660713;LBA Marker 2 ('piketten boven')
1277;3801642.05099;-529033.279094;5076989.59852;53.0951695207;-7.92235395263;LBA Marker 2 ('piketten boven')
1278;3801615.64591;-529032.16874;5077009.44192;53.0954656033;-7.92239186392;LBA Marker 2 ('piketten boven')
1279;3801617.81498;-529006.808393;5077010.54207;53.0954812178;-7.92201244547;LBA Marker 2 ('piketten boven')
1280;3801621.64689;-529013.00124;5077007.01536;53.0954287859;-7.92209612363;LBA Marker 2 ('piketten boven')
1281;3801640.16576;-529001.837257;5076994.37955;53.0952398712;-7.92189296285;LBA Marker 2 ('piketten boven')
1282;3801628.62413;-529008.787059;5077002.25551;53.0953576223;-7.92201946159;LBA Marker 2 ('piketten boven')
1283;3801628.96444;-529023.620021;5077000.41015;53.0953305543;-7.92223806788;LBA Marker 2 ('piketten boven')
1284;3801646.98823;-529040.402257;5076985.14635;53.0951033075;-7.92244911028;LBA Marker 2 ('piketten boven')
1285;3801636.39171;-529024.424345;5076994.77579;53.0952464996;-7.92223467867;LBA Marker 2 ('piketten boven')
1286;3801657.05721;-529010.476803;5076980.83506;53.0950380241;-7.92198594684;LBA Marker 2 ('piketten boven')
1287;3801650.04634;-529014.398572;5076985.65141;53.0951100215;-7.92205835418;LBA Marker 2 ('piketten boven')
1288;3801625.17357;-529018.829939;5077003.75573;53.0953803278;-7.92217504565;LBA Marker 2 ('piketten boven')
1289;3801616.39213;-528999.415005;5077012.39801;53.0955086794;-7.92190606058;LBA Marker 2 ('piketten boven')
1290;3801624.68634;-529027.390609;5077003.20138;53.0953723263;-7.92230261833;LBA Marker 2 ('piketten boven')
1291;3801632.42539;-529049.464017;5076995.05257;53.0952514217;-7.92261305172;LBA Marker 2 ('piketten boven')
1292;3801623.12529;-529001.942468;5077007.09729;53.0954296582;-7.92192957683;LBA Marker 2 ('piketten boven')
1293;3801631.72647;-529030.466057;5076997.61257;53.0952890233;-7.92233360417;LBA Marker 2 ('piketten boven')
1294;3801633.43707;-529035.663967;5076995.77719;53.0952617989;-7.92240693598;LBA Marker 2 ('piketten boven')
1295;3801634.70241;-529009.267436;5076997.66357;53.0952891132;-7.92201405859;LBA Marker 2 ('piketten boven')
1300;3801625.21446;-529029.961334;5077002.53111;53.0953624053;-7.92233954008;LBA Marker 3 ('piketten beneden')
1301;3801624.31026;-529021.950332;5077004.06588;53.0953850549;-7.92222295714;LBA Marker 3 ('piketten beneden')
1302;3801622.55682;-529028.181418;5077004.70727;53.0953948234;-7.92231869191;LBA Marker 3 ('piketten beneden')
1303;3801621.64875;-529021.370668;5077006.11618;53.0954156326;-7.92221986267;LBA Marker 3 ('piketten beneden')
1304;3801647.41191;-529007.090475;5076988.40324;53.0951508548;-7.92195572391;LBA Marker 3 ('piketten beneden')
1305;3801646.14417;-529001.061237;5076989.99699;53.0951744469;-7.9218691897;LBA Marker 3 ('piketten beneden')
1306;3801653.95256;-529008.239393;5076983.39421;53.0950761428;-7.92195925419;LBA Marker 3 ('piketten beneden')
1307;3801653.85197;-529003.314084;5076983.99769;53.0950849922;-7.92188664046;LBA Marker 3 ('piketten beneden')
1308;3801620.80879;-529033.150384;5077005.48;53.0954065118;-7.92239575504;LBA Marker 3 ('piketten beneden')
1309;3801620.0475;-529040.114515;5077005.30164;53.0954040703;-7.92250028669;LBA Marker 3 ('piketten beneden')
1310;3801616.83588;-529040.83673;5077007.6232;53.0954387372;-7.92251757268;LBA Marker 3 ('piketten beneden')
1311;3801614.87214;-529037.655035;5077009.43139;53.0954656198;-7.92247457142;LBA Marker 3 ('piketten beneden')
1312;3801638.01621;-529018.426667;5076994.20568;53.0952378022;-7.92214266046;LBA Marker 3 ('piketten beneden')
1313;3801633.45281;-529018.094059;5076997.65017;53.0952891928;-7.92214713166;LBA Marker 3 ('piketten beneden')
1314;3801633.22758;-529014.725781;5076998.17973;53.0952969887;-7.92209779488;LBA Marker 3 ('piketten beneden')
1315;3801636.70963;-529012.39017;5076995.82922;53.0952618386;-7.92205609874;LBA Marker 3 ('piketten beneden')
1316;3801630.86768;-529012.942821;5077000.1338;53.0953260924;-7.92207628896;LBA Marker 3 ('piketten beneden')
1317;3801627.14054;-529015.174653;5077002.67853;53.0953641373;-7.92211695503;LBA Marker 3 ('piketten beneden')
1318;3801628.38546;-529006.592332;5077002.66922;53.0953637266;-7.92198750339;LBA Marker 3 ('piketten beneden')
1319;3801624.7315;-529007.985643;5077005.24922;53.0954022714;-7.92201562125;LBA Marker 3 ('piketten beneden')
1320;3801645.33232;-529038.068888;5076986.6336;53.0951254275;-7.92241801847;LBA Marker 3 ('piketten beneden')
1321;3801640.24734;-529044.843637;5076989.70529;53.0951714798;-7.92252864547;LBA Marker 3 ('piketten beneden')
1322;3801649.71391;-529045.213235;5076982.59423;53.0950653749;-7.9225146324;LBA Marker 3 ('piketten beneden')
1323;3801640.72849;-529050.509023;5076988.73815;53.0951572264;-7.9226114182;LBA Marker 3 ('piketten beneden')
1324;3801630.21989;-529034.119595;5076998.34606;53.0953000845;-7.92239072168;LBA Marker 3 ('piketten beneden')
1325;3801626.9832;-529035.345239;5077000.63235;53.0953342409;-7.92241550234;LBA Marker 3 ('piketten beneden')
1326;3801631.38774;-529038.025926;5076997.05465;53.0952809367;-7.92244607413;LBA Marker 3 ('piketten beneden')
1327;3801630.92439;-529042.068106;5076996.96716;53.0952797589;-7.92250679128;LBA Marker 3 ('piketten beneden')
1328;3801651.39903;-529023.907499;5076983.62094;53.0950800223;-7.92219616052;LBA Marker 3 ('piketten beneden')
1329;3801654.4396;-529022.662706;5076981.4832;53.095048082;-7.92217150057;LBA Marker 3 ('piketten beneden')
1330;3801653.11561;-529032.52199;5076981.41459;53.0950473702;-7.92231999381;LBA Marker 3 ('piketten beneden')
1331;3801657.74675;-529030.500585;5076978.17202;53.0949989182;-7.92228057908;LBA Marker 3 ('piketten beneden')
1332;3801629.2764;-529002.795097;5077002.41103;53.0953597533;-7.92192952793;LBA Marker 3 ('piketten beneden')
1333;3801633.62589;-528998.746304;5076999.59632;53.0953176219;-7.92186071772;LBA Marker 3 ('piketten beneden')
1334;3801631.99596;-528989.225017;5077001.83522;53.0953507305;-7.92172329801;LBA Marker 3 ('piketten beneden')
1335;3801627.39494;-528992.632594;5077004.9066;53.095396672;-7.92178314516;LBA Marker 3 ('piketten beneden')
1336;3801640.83252;-529021.613083;5076991.76012;53.0952014086;-7.92218397739;LBA Marker 3 ('piketten beneden')
1337;3801641.69131;-529015.936476;5076991.72755;53.0952007428;-7.92209828171;LBA Marker 3 ('piketten beneden')
1338;3801644.00914;-529021.981457;5076989.34771;53.0951654204;-7.92218288814;LBA Marker 3 ('piketten beneden')
1339;3801645.18059;-529018.496634;5076988.84647;53.0951578303;-7.92212895484;LBA Marker 3 ('piketten beneden')
1340;3801614.60258;-529023.893954;5077011.10891;53.0954902177;-7.92227166688;LBA Marker 3 ('piketten beneden')
1341;3801617.01536;-529014.142251;5077010.35267;53.0954786238;-7.92212252263;LBA Marker 3 ('piketten beneden')
1342;3801610.32116;-529018.315365;5077014.9055;53.0955466966;-7.92219799555;LBA Marker 3 ('piketten beneden')
1343;3801613.91275;-529008.546985;5077013.27049;53.0955219885;-7.92204617925;LBA Marker 3 ('piketten beneden')
1344;3801638.63057;-529027.689289;5076992.75316;53.0952164197;-7.92227834465;LBA Marker 3 ('piketten beneden')
1345;3801641.74187;-529028.501276;5076990.34195;53.0951804635;-7.92228394853;LBA Marker 3 ('piketten beneden')
1346;3801636.94109;-529032.112989;5076993.54064;53.0952283111;-7.92234722519;LBA Marker 3 ('piketten beneden')
1347;3801641.10704;-529032.631768;5076990.37308;53.0951810588;-7.92234632406;LBA Marker 3 ('piketten beneden')
1348;3801642.02671;-529005.864025;5076992.55749;53.0952128088;-7.92194867015;LBA Marker 3 ('piketten beneden')
1349;3801648.59925;-529032.411534;5076984.80011;53.0950978879;-7.92232765294;LBA Marker 3 ('piketten beneden')
1350;3801646.52812;-528996.104409;5076990.2419;53.0951779445;-7.92179511293;LBA Marker 3 ('piketten beneden')
1351;3801636.18612;-528999.957962;5076997.55389;53.0952871816;-7.9218733649;LBA Marker 3 ('piketten beneden')
1352;3801632.91851;-529047.063727;5076994.94169;53.0952496913;-7.92257654874;LBA Marker 3 ('piketten beneden')
1353;3801654.68646;-529040.299464;5076979.40689;53.0950176558;-7.92243175149;LBA Marker 3 ('piketten beneden')
1354;3801638.81284;-528992.947152;5076996.34381;53.0952689016;-7.92176430557;LBA Marker 3 ('piketten beneden')
1355;3801639.00833;-529015.18729;5076993.81207;53.0952318259;-7.92209272496;LBA Marker 3 ('piketten beneden')
1356;3801611.9768;-529030.163488;5077012.3978;53.0955096498;-7.92236976521;LBA Marker 3 ('piketten beneden')
1357;3801636.72312;-529041.763406;5076992.66826;53.095215598;-7.92249035533;LBA Marker 3 ('piketten beneden')
1358;3801624.53342;-529038.021072;5077002.17527;53.0953573502;-7.92246010513;LBA Marker 3 ('piketten beneden')
1359;3801659.84209;-529020.9473;5076977.63161;53.0949905515;-7.92213502321;LBA Marker 3 ('piketten beneden')
1360;3801647.10241;-529028.901992;5076986.29471;53.0951200803;-7.92227884409;LBA Marker 3 ('piketten beneden')
1361;3801638.44729;-529038.447765;5076991.73599;53.0952015812;-7.92243778603;LBA Marker 3 ('piketten beneden')
1362;3801620.19512;-529015.582692;5077007.8229;53.0954409184;-7.92213727759;LBA Marker 3 ('piketten beneden')
1363;3801630.06162;-529019.61986;5077000.01967;53.0953246006;-7.92217666786;LBA Marker 3 ('piketten beneden')
1364;3801644.04078;-529011.06218;5076990.49539;53.0951822013;-7.92202138134;LBA Marker 3 ('piketten beneden')
1365;3801629.81471;-529026.554845;5076999.46019;53.0953164711;-7.92227971007;LBA Marker 3 ('piketten beneden')
1366;3801653.58573;-529017.086001;5076982.71925;53.0950663507;-7.92209080587;LBA Marker 3 ('piketten beneden')
1367;3801647.98321;-529020.638119;5076986.52322;53.0951232289;-7.92215485055;LBA Marker 3 ('piketten beneden')
1368;3801626.70241;-529043.949681;5076999.91909;53.0953238692;-7.92254329724;LBA Marker 3 ('piketten beneden')
1369;3801624.01778;-529044.423361;5077001.87367;53.0953530518;-7.92255582433;LBA Marker 3 ('piketten beneden')
1370;3801634.14348;-529026.723718;5076996.20854;53.0952679529;-7.92227330061;LBA Marker 3 ('piketten beneden')
1371;3801618.37918;-529024.183077;5077008.25683;53.0954476659;-7.92226817141;LBA Marker 3 ('piketten beneden')
1372;3801644.443;-529026.758174;5076988.51122;53.0951530889;-7.92225261932;LBA Marker 3 ('piketten beneden')
1373;3801635.73709;-529005.068873;5076997.34106;53.0952841675;-7.92194985385;LBA Marker 3 ('piketten beneden')
1374;3801646.46813;-529012.689776;5076988.5076;53.0951525895;-7.92204045138;LBA Marker 3 ('piketten beneden')
1375;3801641.43377;-528994.260929;5076994.24507;53.0952376244;-7.92177833773;LBA Marker 3 ('piketten beneden')
1376;3801631.24573;-529030.668232;5076997.94999;53.095294065;-7.92233758245;LBA Marker 3 ('piketten beneden')
1377;3801644.40187;-529032.995848;5076987.87282;53.0951437597;-7.92234492797;LBA Marker 3 ('piketten beneden')
1378;3801617.99679;-529031.885494;5077007.71622;53.0954398422;-7.92238283918;LBA Marker 3 ('piketten beneden')
1379;3801620.16586;-529006.525147;5077008.81637;53.0954554567;-7.92200342095;LBA Marker 3 ('piketten beneden')
1380;3801623.99777;-529012.717994;5077005.28966;53.0954030248;-7.92208709908;LBA Marker 3 ('piketten beneden')
1381;3801642.51664;-529001.554011;5076992.65385;53.0952141101;-7.92188393846;LBA Marker 3 ('piketten beneden')
1382;3801630.97501;-529008.503813;5077000.52981;53.0953318612;-7.92201043709;LBA Marker 3 ('piketten beneden')
1383;3801631.31532;-529023.336775;5076998.68446;53.0953047932;-7.92222904326;LBA Marker 3 ('piketten beneden')
1384;3801649.33911;-529040.119011;5076983.42066;53.0950775464;-7.92244008559;LBA Marker 3 ('piketten beneden')
1385;3801638.74259;-529024.141099;5076993.05009;53.0952207385;-7.92222565407;LBA Marker 3 ('piketten beneden')
1386;3801659.40809;-529010.193557;5076979.10936;53.095012263;-7.92197692243;LBA Marker 3 ('piketten beneden')
1387;3801652.39722;-529014.115326;5076983.92572;53.0950842604;-7.92204932971;LBA Marker 3 ('piketten beneden')
1388;3801627.52445;-529018.546693;5077002.03003;53.0953545667;-7.92216602105;LBA Marker 3 ('piketten beneden')
1389;3801618.74301;-528999.131759;5077010.67231;53.0954829183;-7.92189703613;LBA Marker 3 ('piketten beneden')
1390;3801627.03722;-529027.107363;5077001.47568;53.0953465652;-7.92229359366;LBA Marker 3 ('piketten beneden')
1391;3801634.77627;-529049.180771;5076993.32687;53.0952256607;-7.92260402689;LBA Marker 3 ('piketten beneden')
1392;3801625.47618;-529001.659222;5077005.3716;53.0954038971;-7.92192055237;LBA Marker 3 ('piketten beneden')
1393;3801634.07735;-529030.182811;5076995.88688;53.0952632622;-7.9223245795;LBA Marker 3 ('piketten beneden')
1394;3801635.78795;-529035.380721;5076994.0515;53.0952360378;-7.92239791127;LBA Marker 3 ('piketten beneden')
1395;3801637.05329;-529008.98419;5076995.93787;53.0952633521;-7.92200503411;LBA Marker 3 ('piketten beneden')
LBD1;3801653.26984;-528973.327494;5076987.64921;53.0951385319;-7.92144448595;Hulppiketten graven LBA veld
LBD2;3801642.2468;-528983.957429;5076994.74302;53.0952447283;-7.92162432727;Hulppiketten graven LBA veld
LBD3;3801636.66641;-528988.957369;5076998.37516;53.0952990884;-7.92170973222;Hulppiketten graven LBA veld
LBD4;3801630.94563;-528993.228089;5077002.19039;53.0953561576;-7.92178464467;Hulppiketten graven LBA veld
LBD5;3801626.3722;-528996.76366;5077005.22742;53.0954015905;-7.92184632752;Hulppiketten graven LBA veld
LBD6;3801624.20184;-528998.368201;5077006.67654;53.0954232662;-7.92187451605;Hulppiketten graven LBA veld
LBD7;3801620.81055;-529000.965465;5077008.93118;53.095456994;-7.92191989401;Hulppiketten graven LBA veld
LBD8;3801617.69305;-529003.312665;5077011.00814;53.0954880621;-7.92196101154;Hulppiketten graven LBA veld
LBD9;3801615.08975;-529006.728458;5077012.58636;53.0955117218;-7.92201687051;Hulppiketten graven LBA veld
LBD10;3801613.96326;-529013.430574;5077012.70889;53.0955137625;-7.92211827984;Hulppiketten graven LBA veld
LBD11;3801613.55983;-529015.667447;5077012.7703;53.0955147497;-7.92215218235;Hulppiketten graven LBA veld
LBD12;3801615.17112;-529023.183378;5077010.76044;53.0954849951;-7.92225999119;Hulppiketten graven LBA veld
LBD13;3801615.0641;-529026.678239;5077010.46549;53.0954807041;-7.92231188331;Hulppiketten graven LBA veld
LBD14;3801619.26706;-529027.31592;5077007.25753;53.0954328527;-7.92231266403;Hulppiketten graven LBA veld
LBD15;3801614.9905;-529031.412632;5077010.01261;53.0954740957;-7.9223820333;Hulppiketten graven LBA veld
LBD16;3801615.53202;-529036.570336;5077009.05483;53.0954599661;-7.92245717632;Hulppiketten graven LBA veld
LBD17;3801618.74142;-529036.183652;5077006.69893;53.0954247974;-7.9224448558;Hulppiketten graven LBA veld
LBD18;3801620.92149;-529005.080715;5077008.40687;53.0954493001;-7.92198051022;Hulppiketten graven LBA veld
LBD19;3801620.96828;-529006.816061;5077008.18577;53.0954460557;-7.92200607127;Hulppiketten graven LBA veld
LBD20;3801621.10863;-529012.0221;5077007.52247;53.0954363224;-7.92208275438;Hulppiketten graven LBA veld
LBD21;3801621.16878;-529014.25326;5077007.2382;53.095432151;-7.92211561857;Hulppiketten graven LBA veld
LBD22;3801622.05801;-529017.379375;5077006.23862;53.0954173334;-7.92216000897;Hulppiketten graven LBA veld
LBD23;3801630.75568;-528998.125727;5077001.80691;53.0953505902;-7.92185744747;Hulppiketten graven LBA veld
LBD24;3801630.87733;-529001.145354;5077001.39212;53.0953444961;-7.92190184264;Hulppiketten graven LBA veld
LBD25;3801634.53869;-529002.594425;5076998.50168;53.0953014088;-7.92191573452;Hulppiketten graven LBA veld
LBD26;3801631.15812;-529004.096066;5077000.86585;53.0953367362;-7.92194489147;Hulppiketten graven LBA veld
LBD27;3801632.0995;-529007.663579;5076999.77996;53.0953206448;-7.92199570066;Hulppiketten graven LBA veld
LBD28;3801632.85635;-529010.357963;5076998.92557;53.0953079804;-7.92203398018;Hulppiketten graven LBA veld
LBD29;3801629.72719;-529010.73498;5077001.22258;53.0953422699;-7.92204599232;Hulppiketten graven LBA veld
LBD30;3801633.14534;-529011.37052;5076998.60109;53.0953031702;-7.92204835633;Hulppiketten graven LBA veld
LBD31;3801633.78971;-529013.627989;5076997.87759;53.0952924451;-7.92208040742;Hulppiketten graven LBA veld
LBD32;3801634.71505;-529016.600526;5076996.86751;53.095277466;-7.92212245276;Hulppiketten graven LBA veld
LBD33;3801636.24352;-529016.565595;5076995.7295;53.0952604828;-7.9221187916;Hulppiketten graven LBA veld
LBD34;3801633.61311;-529020.513713;5076997.27087;53.0952836092;-7.92218257659;Hulppiketten graven LBA veld
LBD35;3801631.00414;-529020.778313;5076999.19136;53.0953122765;-7.92219185649;Hulppiketten graven LBA veld
LBD36;3801635.30335;-529023.493576;5076995.68863;53.0952600921;-7.92222315644;Hulppiketten graven LBA veld
LBD37;3801635.39692;-529026.964269;5076995.24643;53.0952536032;-7.92227427827;Hulppiketten graven LBA veld
LBD38;3801635.64429;-529028.675447;5076994.87809;53.0952481607;-7.92229906916;Hulppiketten graven LBA veld
LBD39;3801631.14716;-529026.083514;5076998.51543;53.0953023577;-7.92226999995;Hulppiketten graven LBA veld
LBD40;3801630.2913;-529028.673752;5076998.87689;53.0953078337;-7.92231005768;Hulppiketten graven LBA veld
LBD41;3801628.76683;-529028.857427;5076999.99595;53.0953245389;-7.92231590985;Hulppiketten graven LBA veld
LBD42;3801627.92704;-529029.058094;5077000.60174;53.0953335853;-7.92232060457;Hulppiketten graven LBA veld
LBD43;3801625.83559;-529029.111114;5077002.15834;53.0953568157;-7.92232569157;Hulppiketten graven LBA veld
LBD44;3801627.42017;-529033.397008;5077000.51492;53.095332427;-7.92238579856;Hulppiketten graven LBA veld
LBD45;3801627.42685;-529034.391052;5077000.4033;53.0953307928;-7.92240048182;Hulppiketten graven LBA veld
LBD46;3801627.64613;-529036.553296;5077000.00756;53.0953249556;-7.92243199956;Hulppiketten graven LBA veld
LBD47;3801627.72765;-529041.07003;5076999.46215;53.0953169594;-7.922498612;Hulppiketten graven LBA veld
LBD48;3801625.52119;-529041.335875;5077001.08183;53.0953411379;-7.92250708236;Hulppiketten graven LBA veld
LBD49;3801623.5541;-529041.523138;5077002.53114;53.0953627714;-7.92251389837;Hulppiketten graven LBA veld
LBD50;3801642.56362;-528992.723656;5076993.566;53.0952274419;-7.92175328462;Hulppiketten graven LBA veld
LBD51;3801642.61842;-528994.756491;5076993.307;53.0952236414;-7.92178322742;Hulppiketten graven LBA veld
LBD52;3801643.1332;-529000.414841;5076992.31549;53.0952090248;-7.92186582732;Hulppiketten graven LBA veld
LBD53;3801643.6352;-529003.840701;5076991.57301;53.0951980535;-7.921915446;Hulppiketten graven LBA veld
LBD54;3801643.886;-529005.945028;5076991.15993;53.0951919559;-7.92194604253;Hulppiketten graven LBA veld
LBD55;3801640.98012;-529010.125306;5076992.88217;53.0952177889;-7.92201382658;Hulppiketten graven LBA veld
LBD56;3801641.11915;-529013.78949;5076992.38526;53.0952104896;-7.92206771563;Hulppiketten graven LBA veld
LBD57;3801642.1622;-529013.663818;5076991.61959;53.0951990598;-7.92206371159;Hulppiketten graven LBA veld
LBD58;3801642.27849;-529017.977393;5076991.07;53.095190995;-7.92212724866;Hulppiketten graven LBA veld
LBD59;3801641.21936;-529020.492636;5076991.59135;53.0951988545;-7.92216661566;Hulppiketten graven LBA veld
LBD60;3801641.2461;-529021.484263;5076991.46501;53.0951970006;-7.92218122188;Hulppiketten graven LBA veld
LBD61;3801641.40518;-529025.892167;5076990.87334;53.0951883107;-7.92224606554;Hulppiketten graven LBA veld
LBD62;3801654.84745;-529001.987991;5076983.39633;53.0950759762;-7.92186498614;Hulppiketten graven LBA veld
LBD63;3801654.9878;-529007.19403;5076982.73303;53.095066243;-7.92194166864;Hulppiketten graven LBA veld
LBD64;3801655.03458;-529008.929376;5076982.51194;53.0950629986;-7.92196722946;Hulppiketten graven LBA veld
LBD65;3801655.12815;-529012.400069;5076982.06974;53.0950565098;-7.92201835109;Hulppiketten graven LBA veld
LBD66;3801655.32196;-529019.589361;5076981.15376;53.0950430686;-7.92212424586;Hulppiketten graven LBA veld
LBD67;3801653.25457;-529020.534844;5076982.59666;53.0950646305;-7.92214247827;Hulppiketten graven LBA veld
LBD68;3801650.23505;-529021.992983;5076984.69579;53.0950960014;-7.92217024923;Hulppiketten graven LBA veld
LBD69;3801654.79363;-529029.850204;5076980.44773;53.0950328575;-7.9222770391;Hulppiketten graven LBA veld
LBD70;3801654.0247;-529031.186408;5076980.87878;53.0950393322;-7.92229837687;Hulppiketten graven LBA veld
LBD71;3801653.83076;-529034.443029;5076980.67431;53.095036384;-7.92234692491;Hulppiketten graven LBA veld
LBD72;3801647.49221;-529035.20673;5076985.32721;53.0951058422;-7.92237125757;Hulppiketten graven LBA veld
LBD73;3801645.48634;-529035.448407;5076986.79965;53.0951278226;-7.92237895779;Hulppiketten graven LBA veld
LBD74;3801644.05405;-529035.578596;5076987.85559;53.0951435842;-7.92238382953;Hulppiketten graven LBA veld
LBD75;3801639.99159;-529036.160185;5076990.82781;53.0951879563;-7.92240078676;Hulppiketten graven LBA veld
LBD76;3801637.18604;-529036.597696;5076992.87659;53.0952185435;-7.92241302773;Hulppiketten graven LBA veld
LBD77;3801651.22976;-529039.481936;5076982.0767;53.0950574709;-7.92242677647;Hulppiketten graven LBA veld
LBD78;3801649.1035;-529042.722661;5076983.31736;53.0950760873;-7.92247906524;Hulppiketten graven LBA veld
LBD79;3801640.9329;-529045.696791;5076989.10167;53.095162499;-7.9225398488;Hulppiketten graven LBA veld
LBD80;3801640.18401;-529047.776715;5076989.43796;53.0951675832;-7.92257214132;Hulppiketten graven LBA veld
LBD81;3801635.7521;-529046.648305;5076992.86959;53.0952187568;-7.92256457653;Hulppiketten graven LBA veld
LBD82;3801633.53659;-529046.04077;5076994.58973;53.0952444067;-7.9225601526;Hulppiketten graven LBA veld
2000;3801681.55324;-528963.776445;5076967.89376;53.0948401132;-7.92124508925;HBA Cable entrance points
2001;3801685.6503;-528962.746741;5076964.94771;53.0947960797;-7.92122143682;HBA Cable entrance points
2002;3801689.74739;-528961.718028;5076962.00153;53.0947520443;-7.92119779905;HBA Cable entrance points
2003;3801693.84367;-528960.689412;5076959.05594;53.0947080177;-7.92117416441;HBA Cable entrance points
2004;3801697.94073;-528959.659708;5076956.10989;53.0946639841;-7.92115051213;HBA Cable entrance points
2005;3801678.02049;-528969.831319;5076969.86801;53.0948699113;-7.92134187768;HBA Cable entrance points
2006;3801682.11675;-528968.801711;5076966.92255;53.0948258866;-7.92131822822;HBA Cable entrance points
2007;3801686.21383;-528967.772998;5076963.97637;53.0947818512;-7.92129459034;HBA Cable entrance points
2008;3801690.31092;-528966.744285;5076961.03019;53.0947378158;-7.9212709525;HBA Cable entrance points
2009;3801694.40798;-528965.714581;5076958.08414;53.0946937823;-7.9212473001;HBA Cable entrance points
2010;3801698.50426;-528964.685965;5076955.13855;53.0946497556;-7.92122366544;HBA Cable entrance points
2011;3801702.60135;-528963.657252;5076952.19238;53.0946057202;-7.92120002775;HBA Cable entrance points
2012;3801674.48693;-528975.886289;5076971.84285;53.0948997181;-7.92143866933;HBA Cable entrance points
2013;3801678.584;-528974.856585;5076968.8968;53.0948556846;-7.92141501668;HBA Cable entrance points
2014;3801682.68108;-528973.827872;5076965.95062;53.0948116492;-7.92139137867;HBA Cable entrance points
2015;3801686.77737;-528972.799255;5076963.00503;53.0947676226;-7.9213677438;HBA Cable entrance points
2016;3801690.87445;-528971.770543;5076960.05885;53.0947235873;-7.92134410589;HBA Cable entrance points
2017;3801694.97151;-528970.740838;5076957.11281;53.0946795537;-7.92132045343;HBA Cable entrance points
2018;3801699.0686;-528969.712125;5076954.16663;53.0946355184;-7.92129681562;HBA Cable entrance points
2019;3801703.16568;-528968.683412;5076951.22045;53.094591483;-7.92127317786;HBA Cable entrance points
2020;3801707.26194;-528967.653805;5076948.27499;53.0945474582;-7.92124952862;HBA Cable entrance points
2021;3801670.95418;-528981.941162;5076973.8171;53.094929516;-7.92153545803;HBA Cable entrance points
2022;3801675.05047;-528980.912546;5076970.87151;53.0948854895;-7.92151182295;HBA Cable entrance points
2023;3801679.14753;-528979.882842;5076967.92546;53.094841456;-7.92148817023;HBA Cable entrance points
2024;3801683.24461;-528978.854129;5076964.97928;53.0947974206;-7.92146453216;HBA Cable entrance points
2025;3801687.3417;-528977.825416;5076962.03311;53.0947533853;-7.92144089414;HBA Cable entrance points
2026;3801691.43876;-528976.795712;5076959.08706;53.0947093518;-7.92141724156;HBA Cable entrance points
2027;3801695.53504;-528975.767095;5076956.14147;53.0946653252;-7.92139360671;HBA Cable entrance points
2028;3801699.63213;-528974.738383;5076953.19529;53.0946212898;-7.92136996884;HBA Cable entrance points
2029;3801703.72919;-528973.708678;5076950.24924;53.0945772563;-7.9213463164;HBA Cable entrance points
2030;3801707.82628;-528972.679965;5076947.30306;53.0945332209;-7.92132267862;HBA Cable entrance points
2031;3801711.92256;-528971.651349;5076944.35747;53.0944891943;-7.92129904397;HBA Cable entrance points
2032;3801671.51772;-528986.96742;5076972.84576;53.0949152873;-7.92160861167;HBA Cable entrance points
2033;3801675.61478;-528985.937715;5076969.89971;53.0948712538;-7.92158495883;HBA Cable entrance points
2034;3801679.71106;-528984.909099;5076966.95412;53.0948272273;-7.92156132373;HBA Cable entrance points
2035;3801683.80815;-528983.880386;5076964.00795;53.094783192;-7.92153768559;HBA Cable entrance points
2036;3801687.90521;-528982.850682;5076961.0619;53.0947391585;-7.9215140329;HBA Cable entrance points
2037;3801692.00229;-528981.821969;5076958.11572;53.0946951231;-7.92149039486;HBA Cable entrance points
2038;3801696.09938;-528980.793256;5076955.16954;53.0946510878;-7.92146675687;HBA Cable entrance points
2039;3801700.19564;-528979.763648;5076952.22408;53.0946070631;-7.9214431074;HBA Cable entrance points
2040;3801704.29272;-528978.734935;5076949.2779;53.0945630277;-7.92141946951;HBA Cable entrance points
2041;3801708.38981;-528977.706223;5076946.33173;53.0945189924;-7.92139583166;HBA Cable entrance points
2042;3801712.48687;-528976.676518;5076943.38568;53.0944749588;-7.92137217925;HBA Cable entrance points
2043;3801672.08125;-528991.993677;5076971.87442;53.0949010586;-7.92168176526;HBA Cable entrance points
2044;3801676.17831;-528990.963972;5076968.92837;53.0948570251;-7.92165811235;HBA Cable entrance points
2045;3801680.2754;-528989.93526;5076965.9822;53.0948129898;-7.9216344741;HBA Cable entrance points
2046;3801684.37248;-528988.906547;5076963.03602;53.0947689545;-7.9216108359;HBA Cable entrance points
2047;3801688.46874;-528987.876939;5076960.09056;53.0947249298;-7.92158718622;HBA Cable entrance points
2048;3801696.66291;-528985.819513;5076954.1982;53.0946368591;-7.92153991006;HBA Cable entrance points
2049;3801700.75997;-528984.789809;5076951.25215;53.0945928257;-7.92151625744;HBA Cable entrance points
2050;3801704.85706;-528983.761096;5076948.30598;53.0945487903;-7.92149261948;HBA Cable entrance points
2051;3801708.95334;-528982.73248;5076945.36039;53.0945047637;-7.92146898465;HBA Cable entrance points
2052;3801713.0504;-528981.702775;5076942.41434;53.0944607302;-7.92144533217;HBA Cable entrance points
2053;3801672.64556;-528997.018846;5076970.90262;53.0948868229;-7.92175490111;HBA Cable entrance points
2054;3801676.74184;-528995.99023;5076967.95704;53.0948427964;-7.92173126583;HBA Cable entrance points
2055;3801680.83893;-528994.961517;5076965.01086;53.0947987611;-7.92170762751;HBA Cable entrance points
2056;3801684.93599;-528993.931812;5076962.06481;53.0947547276;-7.92168397464;HBA Cable entrance points
2057;3801689.03308;-528992.9031;5076959.11863;53.0947106923;-7.92166033641;HBA Cable entrance points
2058;3801693.12936;-528991.874483;5076956.17304;53.0946666658;-7.92163670132;HBA Cable entrance points
2059;3801697.22642;-528990.844779;5076953.22699;53.0946226323;-7.92161304859;HBA Cable entrance points
2060;3801701.32351;-528989.816066;5076950.28082;53.094578597;-7.92158941051;HBA Cable entrance points
2061;3801705.42059;-528988.787353;5076947.33464;53.0945345616;-7.92156577248;HBA Cable entrance points
2062;3801709.51765;-528987.757649;5076944.38859;53.0944905282;-7.9215421199;HBA Cable entrance points
2063;3801713.61394;-528986.729033;5076941.443;53.0944465016;-7.92151848505;HBA Cable entrance points
2064;3801673.20909;-529002.045103;5076969.93129;53.094872594;-7.92182805461;HBA Cable entrance points
2065;3801677.30618;-529001.01639;5076966.98511;53.0948285588;-7.92180441618;HBA Cable entrance points
2066;3801681.40244;-528999.986783;5076964.03965;53.0947845341;-7.92178076626;HBA Cable entrance points
2067;3801685.49952;-528998.95807;5076961.09347;53.0947404988;-7.92175712793;HBA Cable entrance points
2068;3801689.59661;-528997.929357;5076958.14729;53.0946964635;-7.92173348964;HBA Cable entrance points
2069;3801693.69367;-528996.899652;5076955.20124;53.0946524301;-7.92170983679;HBA Cable entrance points
2070;3801697.79075;-528995.87094;5076952.25507;53.0946083948;-7.9216861986;HBA Cable entrance points
2071;3801701.88704;-528994.842323;5076949.30948;53.0945643683;-7.92166256354;HBA Cable entrance points
2072;3801705.98412;-528993.81361;5076946.3633;53.0945203329;-7.92163892544;HBA Cable entrance points
2073;3801710.08119;-528992.783906;5076943.41725;53.0944762995;-7.92161527279;HBA Cable entrance points
2074;3801714.17827;-528991.755193;5076940.47107;53.0944322641;-7.92159163479;HBA Cable entrance points
2075;3801677.86971;-529006.042647;5076966.01377;53.0948143299;-7.92187756955;HBA Cable entrance points
2076;3801681.96677;-529005.012943;5076963.06772;53.0947702965;-7.9218539165;HBA Cable entrance points
2077;3801686.06386;-529003.98423;5076960.12154;53.0947262612;-7.92183027809;HBA Cable entrance points
2078;3801690.16014;-529002.955614;5076957.17596;53.0946822347;-7.92180664282;HBA Cable entrance points
2079;3801694.2572;-529001.92591;5076954.22991;53.0946382013;-7.9217829899;HBA Cable entrance points
2080;3801698.35429;-529000.897197;5076951.28373;53.094594166;-7.92175935165;HBA Cable entrance points
2081;3801702.45137;-528999.868484;5076948.33755;53.0945501307;-7.92173571343;HBA Cable entrance points
2082;3801706.54763;-528998.838876;5076945.39209;53.094506106;-7.92171206375;HBA Cable entrance points
2083;3801710.64472;-528997.810163;5076942.44591;53.0944620707;-7.92168842563;HBA Cable entrance points
2084;3801682.5303;-529010.0392;5076962.09638;53.0947560676;-7.92192706976;HBA Cable entrance points
2085;3801686.62739;-529009.010487;5076959.15021;53.0947120323;-7.92190343129;HBA Cable entrance points
2086;3801690.72445;-529007.980783;5076956.20416;53.0946679989;-7.92187977826;HBA Cable entrance points
2087;3801694.82073;-529006.952167;5076953.25857;53.0946239724;-7.92185614297;HBA Cable entrance points
2088;3801698.91782;-529005.923454;5076950.31239;53.0945799372;-7.92183250464;HBA Cable entrance points
2089;3801703.01488;-529004.89375;5076947.36634;53.0945359037;-7.92180885176;HBA Cable entrance points
2090;3801707.11197;-529003.865037;5076944.42016;53.0944918684;-7.92178521353;HBA Cable entrance points
2091;3801687.1909;-529014.035753;5076958.179;53.0946978053;-7.92197656983;HBA Cable entrance points
2092;3801691.28798;-529013.00704;5076955.23282;53.09465377;-7.92195293134;HBA Cable entrance points
2093;3801695.38507;-529011.978327;5076952.28664;53.0946097348;-7.9219292929;HBA Cable entrance points
2094;3801699.48216;-529010.949615;5076949.34046;53.0945656995;-7.92190565451;HBA Cable entrance points
2095;3801703.57841;-529009.920007;5076946.395;53.0945216749;-7.92188200464;HBA Cable entrance points
2100;3801678.94116;-528959.264545;5076970.33818;53.0948763594;-7.92118375452;HBA Marker points
2101;3801683.03825;-528958.235832;5076967.39201;53.094832324;-7.92116011674;HBA Marker points
2102;3801687.13451;-528957.206224;5076964.44655;53.0947882992;-7.92113646749;HBA Marker points
2103;3801691.23159;-528956.177511;5076961.50037;53.0947442638;-7.92111282981;HBA Marker points
2104;3801695.32868;-528955.148798;5076958.55419;53.0947002284;-7.92108919217;HBA Marker points
2105;3801699.42574;-528954.119094;5076955.60814;53.0946561948;-7.92106553998;HBA Marker points
2106;3801675.40761;-528965.319515;5076972.31302;53.0949061663;-7.92128054607;HBA Marker points
2107;3801679.5047;-528964.290802;5076969.36685;53.0948621309;-7.92125690818;HBA Marker points
2108;3801683.60176;-528963.261097;5076966.4208;53.0948180974;-7.92123325573;HBA Marker points
2109;3801687.69884;-528962.232385;5076963.47462;53.094774062;-7.92120961793;HBA Marker points
2110;3801691.79513;-528961.203768;5076960.52903;53.0947300354;-7.92118598327;HBA Marker points
2111;3801695.89219;-528960.174064;5076957.58298;53.0946860018;-7.92116233096;HBA Marker points
2112;3801699.98927;-528959.145351;5076954.6368;53.0946419664;-7.92113869331;HBA Marker points
2113;3801704.08636;-528958.116638;5076951.69063;53.094597931;-7.92111505571;HBA Marker points
2114;3801671.87486;-528971.374388;5076974.28727;53.0949359644;-7.92137733468;HBA Marker points
2115;3801675.97194;-528970.345675;5076971.3411;53.094891929;-7.92135369667;HBA Marker points
2116;3801680.06823;-528969.317059;5076968.39551;53.0948479024;-7.92133006179;HBA Marker points
2117;3801684.16529;-528968.287355;5076965.44946;53.0948038689;-7.92130640927;HBA Marker points
2118;3801688.26238;-528967.258642;5076962.50328;53.0947598335;-7.92128277141;HBA Marker points
2119;3801692.35946;-528966.229929;5076959.5571;53.0947157981;-7.9212591336;HBA Marker points
2120;3801696.45652;-528965.200225;5076956.61105;53.0946717646;-7.92123548122;HBA Marker points
2121;3801700.55281;-528964.171608;5076953.66547;53.0946277379;-7.92121184659;HBA Marker points
2122;3801704.64989;-528963.142895;5076950.71929;53.0945837025;-7.92118820892;HBA Marker points
2123;3801708.74695;-528962.113191;5076947.77324;53.094539669;-7.92116455669;HBA Marker points
2124;3801668.3413;-528977.429358;5076976.26211;53.0949657711;-7.9214741265;HBA Marker points
2125;3801672.43839;-528976.400645;5076973.31594;53.0949217358;-7.92145048838;HBA Marker points
2126;3801676.53548;-528975.371932;5076970.36976;53.0948777004;-7.9214268503;HBA Marker points
2127;3801680.63254;-528974.342228;5076967.42371;53.0948336669;-7.92140319767;HBA Marker points
2128;3801684.72962;-528973.313515;5076964.47753;53.0947896315;-7.92137955969;HBA Marker points
2129;3801688.82591;-528972.284899;5076961.53194;53.094745605;-7.92135592484;HBA Marker points
2130;3801692.92297;-528971.255195;5076958.58589;53.0947015714;-7.92133227235;HBA Marker points
2131;3801697.02006;-528970.226482;5076955.63972;53.0946575361;-7.92130863452;HBA Marker points
2132;3801701.11714;-528969.197769;5076952.69354;53.0946135007;-7.92128499674;HBA Marker points
2133;3801705.2134;-528968.168161;5076949.74808;53.0945694759;-7.92126134747;HBA Marker points
2134;3801709.31049;-528967.139448;5076946.8019;53.0945254405;-7.92123770978;HBA Marker points
2135;3801713.40757;-528966.110735;5076943.85572;53.0944814051;-7.92121407214;HBA Marker points
2136;3801668.90564;-528982.455519;5076975.29019;53.0949515337;-7.92154727714;HBA Marker points
2137;3801673.00192;-528981.426903;5076972.3446;53.0949075071;-7.92152364203;HBA Marker points
2138;3801677.09898;-528980.397198;5076969.39855;53.0948634736;-7.92149998928;HBA Marker points
2139;3801681.19607;-528979.368485;5076966.45237;53.0948194383;-7.92147635119;HBA Marker points
2140;3801685.29316;-528978.339772;5076963.50619;53.0947754029;-7.92145271314;HBA Marker points
2141;3801689.39022;-528977.310068;5076960.56014;53.0947313694;-7.92142906054;HBA Marker points
2142;3801693.4865;-528976.281452;5076957.61456;53.0946873429;-7.92140542567;HBA Marker points
2143;3801697.58359;-528975.252739;5076954.66838;53.0946433075;-7.92138178777;HBA Marker points
2144;3801701.68067;-528974.224026;5076951.7222;53.0945992721;-7.92135814992;HBA Marker points
2145;3801705.77773;-528973.194322;5076948.77615;53.0945552386;-7.92133449751;HBA Marker points
2146;3801709.87482;-528972.165609;5076945.82997;53.0945112032;-7.92131085975;HBA Marker points
2147;3801713.9711;-528971.136993;5076942.88439;53.0944671766;-7.92128722513;HBA Marker points
2148;3801669.46917;-528987.481776;5076974.31885;53.094937305;-7.92162043081;HBA Marker points
2149;3801673.56626;-528986.453063;5076971.37267;53.0948932697;-7.92159679255;HBA Marker points
2150;3801677.66332;-528985.423359;5076968.42662;53.0948492362;-7.92157313973;HBA Marker points
2151;3801681.7596;-528984.394743;5076965.48103;53.0948052096;-7.92154950466;HBA Marker points
2152;3801685.85669;-528983.36603;5076962.53486;53.0947611743;-7.92152586654;HBA Marker points
2153;3801689.95375;-528982.336325;5076959.58881;53.0947171408;-7.92150221387;HBA Marker points
2154;3801694.05084;-528981.307612;5076956.64263;53.0946731055;-7.92147857586;HBA Marker points
2155;3801698.14792;-528980.2789;5076953.69645;53.0946290701;-7.92145493789;HBA Marker points
2156;3801702.24418;-528979.249292;5076950.75099;53.0945850454;-7.92143128845;HBA Marker points
2157;3801706.34127;-528978.220579;5076947.80481;53.09454101;-7.92140765058;HBA Marker points
2158;3801710.43835;-528977.191866;5076944.85864;53.0944969747;-7.92138401275;HBA Marker points
2159;3801714.53541;-528976.162162;5076941.91259;53.0944529412;-7.92136036037;HBA Marker points
2160;3801670.03271;-528992.508033;5076973.34751;53.0949230762;-7.92169358443;HBA Marker points
2161;3801674.12977;-528991.478329;5076970.40146;53.0948790428;-7.9216699315;HBA Marker points
2162;3801678.22685;-528990.449616;5076967.45529;53.0948350075;-7.92164629322;HBA Marker points
2163;3801682.32394;-528989.420903;5076964.50911;53.0947909722;-7.921622655;HBA Marker points
2164;3801686.4202;-528988.391295;5076961.56365;53.0947469475;-7.92159900529;HBA Marker points
2165;3801690.51728;-528987.362583;5076958.61747;53.0947029121;-7.92157536716;HBA Marker points
2166;3801694.61437;-528986.33387;5076955.67129;53.0946588768;-7.92155172908;HBA Marker points
2167;3801698.71143;-528985.304165;5076952.72524;53.0946148433;-7.92152807644;HBA Marker points
2168;3801702.80852;-528984.275452;5076949.77906;53.094570808;-7.92150443845;HBA Marker points
2169;3801706.9048;-528983.246836;5076946.83348;53.0945267814;-7.9214808036;HBA Marker points
2170;3801711.00186;-528982.217132;5076943.88743;53.0944827479;-7.9214571511;HBA Marker points
2171;3801715.09895;-528981.188419;5076940.94125;53.0944387126;-7.92143351326;HBA Marker points
2172;3801670.59702;-528997.533202;5076972.37571;53.0949088405;-7.92176672032;HBA Marker points
2173;3801674.6933;-528996.504586;5076969.43012;53.094864814;-7.92174308501;HBA Marker points
2174;3801678.79039;-528995.475873;5076966.48395;53.0948207787;-7.92171944666;HBA Marker points
2175;3801682.88745;-528994.446169;5076963.5379;53.0947767453;-7.92169579376;HBA Marker points
2176;3801686.98453;-528993.417456;5076960.59172;53.09473271;-7.92167215552;HBA Marker points
2177;3801691.08162;-528992.388743;5076957.64554;53.0946886746;-7.92164851732;HBA Marker points
2178;3801695.1779;-528991.360127;5076954.69995;53.0946446481;-7.92162488225;HBA Marker points
2179;3801699.27496;-528990.330423;5076951.7539;53.0946006146;-7.92160122955;HBA Marker points
2180;3801703.37205;-528989.30171;5076948.80773;53.0945565793;-7.92157759149;HBA Marker points
2181;3801707.46914;-528988.272997;5076945.86155;53.094512544;-7.92155395349;HBA Marker points
2182;3801711.5662;-528987.243292;5076942.9155;53.0944685105;-7.92153030093;HBA Marker points
2183;3801715.66248;-528986.214676;5076939.96991;53.0944244839;-7.9215066661;HBA Marker points
2184;3801671.16055;-529002.55946;5076971.40438;53.0948946117;-7.92183987384;HBA Marker points
2185;3801675.25763;-529001.530747;5076968.4582;53.0948505764;-7.92181623539;HBA Marker points
2186;3801679.35472;-529000.502034;5076965.51202;53.0948065411;-7.92179259698;HBA Marker points
2187;3801683.45098;-528999.472426;5076962.56656;53.0947625165;-7.92176894709;HBA Marker points
2188;3801687.54806;-528998.443713;5076959.62038;53.0947184812;-7.92174530878;HBA Marker points
2189;3801691.64515;-528997.415;5076956.6742;53.0946744459;-7.92172167051;HBA Marker points
2190;3801695.74221;-528996.385296;5076953.72816;53.0946304124;-7.92169801769;HBA Marker points
2191;3801699.8385;-528995.35668;5076950.78257;53.0945863859;-7.9216743826;HBA Marker points
2192;3801703.93558;-528994.327967;5076947.83639;53.0945423506;-7.92165074448;HBA Marker points
2193;3801708.03264;-528993.298263;5076944.89034;53.0944983171;-7.92162709181;HBA Marker points
2194;3801712.12973;-528992.26955;5076941.94416;53.0944542818;-7.92160345378;HBA Marker points
2195;3801716.22682;-528991.240837;5076938.99798;53.0944102465;-7.92157981581;HBA Marker points
2196;3801675.82117;-529006.557004;5076967.48686;53.0948363475;-7.9218893888;HBA Marker points
2197;3801679.91823;-529005.5273;5076964.54081;53.0947923141;-7.92186573572;HBA Marker points
2198;3801684.01531;-529004.498587;5076961.59463;53.0947482789;-7.92184209729;HBA Marker points
2199;3801688.1116;-529003.46997;5076958.64904;53.0947042524;-7.92181846199;HBA Marker points
2200;3801692.20866;-529002.440266;5076955.70299;53.0946602189;-7.92179480905;HBA Marker points
2201;3801696.30574;-529001.411553;5076952.75682;53.0946161836;-7.92177117077;HBA Marker points
2202;3801700.40283;-529000.38284;5076949.81064;53.0945721483;-7.92174753253;HBA Marker points
2203;3801704.49989;-528999.353136;5076946.86459;53.0945281149;-7.92172387974;HBA Marker points
2204;3801708.59618;-528998.32452;5076943.919;53.0944840884;-7.92170024468;HBA Marker points
2205;3801712.69326;-528997.295807;5076940.97282;53.0944400531;-7.92167660659;HBA Marker points
2206;3801680.48176;-529010.553557;5076963.56947;53.0947780852;-7.92193888901;HBA Marker points
2207;3801684.57885;-529009.524844;5076960.6233;53.09473405;-7.92191525052;HBA Marker points
2208;3801688.67593;-529008.496131;5076957.67712;53.0946900147;-7.92189161207;HBA Marker points
2209;3801692.77299;-529007.466427;5076954.73107;53.0946459813;-7.92186795907;HBA Marker points
2210;3801696.86928;-529006.43781;5076951.78548;53.0946019548;-7.9218443238;HBA Marker points
2211;3801700.96636;-529005.409098;5076948.8393;53.0945579195;-7.9218206855;HBA Marker points
2212;3801705.06342;-529004.379393;5076945.89325;53.0945138861;-7.92179703264;HBA Marker points
2213;3801709.16051;-529003.35068;5076942.94708;53.0944698508;-7.92177339443;HBA Marker points
2214;3801685.14238;-529014.551101;5076959.65196;53.0947198211;-7.9219884037;HBA Marker points
2215;3801689.23944;-529013.521397;5076956.70591;53.0946757877;-7.92196475058;HBA Marker points
2216;3801693.33653;-529012.492684;5076953.75973;53.0946317524;-7.92194111212;HBA Marker points
2217;3801697.43361;-529011.463971;5076950.81355;53.0945877171;-7.9219174737;HBA Marker points
2218;3801701.52987;-529010.434363;5076947.86809;53.0945436925;-7.92189382381;HBA Marker points
2219;3801705.62696;-529009.40565;5076944.92191;53.0944996572;-7.92187018549;HBA Marker points
HBD101;3801682.78269;-529013.564555;5076961.52176;53.0947476798;-7.92197867244;Hulppiketten graven HBA veld
HBD102;3801687.01695;-529012.606438;5076958.46544;53.0947020042;-7.92195579548;Hulppiketten graven HBA veld
HBD103;3801691.10025;-529011.558401;5076955.53167;53.0946581531;-7.92193189966;Hulppiketten graven HBA veld
HBD104;3801695.18002;-529010.520237;5076952.59946;53.0946143258;-7.92190815713;Hulppiketten graven HBA veld
HBD105;3801699.32928;-529009.497572;5076949.61367;53.0945696995;-7.92188450084;Hulppiketten graven HBA veld
HBD106;3801703.41469;-529008.481404;5076946.67483;53.0945257745;-7.92186107201;Hulppiketten graven HBA veld
HBD107;3801678.14618;-529009.639494;5076965.41334;53.0948055608;-7.92193017979;Hulppiketten graven HBA veld
HBD108;3801682.37592;-529008.581968;5076962.37128;53.0947600926;-7.92190584237;Hulppiketten graven HBA veld
HBD109;3801686.45922;-529007.533931;5076959.43751;53.0947162415;-7.92188194657;Hulppiketten graven HBA veld
HBD110;3801690.539;-529006.495767;5076956.50529;53.0946724142;-7.92185820406;Hulppiketten graven HBA veld
HBD111;3801694.67792;-529005.441028;5076953.53073;53.0946279538;-7.92183409485;Hulppiketten graven HBA veld
HBD112;3801698.75711;-529004.40552;5076950.59866;53.0945841286;-7.92181039287;Hulppiketten graven HBA veld
HBD113;3801702.85596;-529003.370329;5076947.65187;53.0945400839;-7.9217866552;Hulppiketten graven HBA veld
HBD114;3801706.93455;-529002.311322;5076944.72282;53.0944963027;-7.92176260717;Hulppiketten graven HBA veld
HBD115;3801673.55066;-529005.659467;5076969.28033;53.0948630716;-7.92188078998;Hulppiketten graven HBA veld
HBD116;3801677.7287;-529004.607574;5076966.27625;53.0948181708;-7.92185664222;Hulppiketten graven HBA veld
HBD117;3801681.80719;-529003.544502;5076963.34773;53.0947743972;-7.92183253407;Hulppiketten graven HBA veld
HBD118;3801685.88695;-529002.530608;5076960.41286;53.0947305316;-7.92180915042;Hulppiketten graven HBA veld
HBD119;3801690.00653;-529001.487647;5076957.45145;53.0946862681;-7.92178525516;Hulppiketten graven HBA veld
HBD120;3801694.085;-529000.448845;5076954.52028;53.0946424563;-7.92176150601;Hulppiketten graven HBA veld
HBD121;3801698.16475;-528999.409888;5076951.58817;53.0945986304;-7.92173775197;Hulppiketten graven HBA veld
HBD122;3801702.28369;-528998.367005;5076948.62723;53.0945543739;-7.92171385932;Hulppiketten graven HBA veld
HBD123;3801706.37598;-528997.383327;5076945.67969;53.0945103208;-7.92169089685;Hulppiketten graven HBA veld
HBD124;3801710.45937;-528996.33528;5076942.74586;53.0944664688;-7.9216670011;Hulppiketten graven HBA veld
HBD125;3801669.83356;-529001.385931;5076972.52366;53.0949112568;-7.92182525334;Hulppiketten graven HBA veld
HBD126;3801673.07102;-529000.59605;5076970.19311;53.0948764243;-7.92180691451;Hulppiketten graven HBA veld
HBD127;3801677.15433;-528999.548112;5076967.25932;53.094832573;-7.92178302021;Hulppiketten graven HBA veld
HBD128;3801681.2341;-528998.509849;5076964.32712;53.0947887458;-7.92175927627;Hulppiketten graven HBA veld
HBD129;3801685.39493;-528997.517614;5076961.32936;53.0947439424;-7.92173604614;Hulppiketten graven HBA veld
HBD130;3801689.4734;-528996.478812;5076958.39818;53.0947001305;-7.921712297;Hulppiketten graven HBA veld
HBD131;3801693.55317;-528995.440648;5076955.46597;53.0946563031;-7.92168855467;Hulppiketten graven HBA veld
HBD132;3801697.63293;-528994.451816;5076952.52835;53.0946123978;-7.92166554176;Hulppiketten graven HBA veld
HBD133;3801701.71663;-528993.347637;5076949.60044;53.094568631;-7.92164081544;Hulppiketten graven HBA veld
HBD134;3801705.81486;-528992.378659;5076946.64686;53.0945244885;-7.92161805817;Hulppiketten graven HBA veld
HBD135;3801709.89816;-528991.330622;5076943.7131;53.0944806374;-7.92159416279;Hulppiketten graven HBA veld
HBD136;3801713.97794;-528990.292458;5076940.78088;53.0944368099;-7.9215704207;Hulppiketten graven HBA veld
HBD137;3801669.26248;-528996.391712;5076973.49712;53.094925519;-7.92175258899;Hulppiketten graven HBA veld
HBD138;3801672.5044;-528995.639884;5076971.15907;53.0948905767;-7.92173480367;Hulppiketten graven HBA veld
HBD139;3801676.58223;-528994.551828;5076968.23377;53.0948468498;-7.92171032754;Hulppiketten graven HBA veld
HBD140;3801680.66264;-528993.562918;5076965.29569;53.0948029375;-7.92168731204;Hulppiketten graven HBA veld
HBD141;3801684.82201;-528992.514368;5076962.30518;53.0947582394;-7.92166325236;Hulppiketten graven HBA veld
HBD142;3801688.85939;-528991.431186;5076959.40954;53.0947149556;-7.92163893166;Hulppiketten graven HBA veld
HBD143;3801692.97898;-528990.388226;5076956.44813;53.0946706921;-7.92161503658;Hulppiketten graven HBA veld
HBD144;3801697.01945;-528989.399353;5076953.53986;53.0946272247;-7.92159210398;Hulppiketten graven HBA veld
HBD145;3801701.10275;-528988.351316;5076950.60609;53.0945833735;-7.92156820857;Hulppiketten graven HBA veld
HBD146;3801705.18252;-528987.313152;5076947.67387;53.0945395461;-7.92154446645;Hulppiketten graven HBA veld
HBD147;3801709.33654;-528986.278674;5076944.68582;53.0944948854;-7.92152062612;Hulppiketten graven HBA veld
HBD148;3801713.40064;-528985.223004;5076941.76722;53.0944512603;-7.92149665752;Hulppiketten graven HBA veld
HBD149;3801668.72369;-528991.375801;5076974.44885;53.0949394556;-7.92167953744;Hulppiketten graven HBA veld
HBD150;3801671.92686;-528990.532965;5076972.14971;53.0949050891;-7.92166048634;Hulppiketten graven HBA veld
HBD151;3801676.01024;-528989.484918;5076969.21588;53.0948612371;-7.92163659041;Hulppiketten graven HBA veld
HBD152;3801680.08993;-528988.446764;5076966.28372;53.0948174106;-7.92161284837;Hulppiketten graven HBA veld
HBD153;3801684.24781;-528987.461946;5076963.28735;53.0947726283;-7.92158973409;Hulppiketten graven HBA veld
HBD154;3801688.32822;-528986.473036;5076960.34926;53.0947287159;-7.92156671876;Hulppiketten graven HBA veld
HBD155;3801696.48644;-528984.395277;5076954.48598;53.0946410781;-7.92151921597;Hulppiketten graven HBA veld
HBD156;3801700.56621;-528983.357113;5076951.55376;53.0945972506;-7.92149547386;Hulppiketten graven HBA veld
HBD157;3801704.60617;-528982.373077;5076948.64534;53.0945537814;-7.92147261399;Hulppiketten graven HBA veld
HBD158;3801708.8033;-528981.318188;5076945.62734;53.0945086725;-7.92144838328;Hulppiketten graven HBA veld
HBD159;3801712.80486;-528980.291237;5076942.75229;53.0944656989;-7.92142496799;Hulppiketten graven HBA veld
HBD160;3801668.18217;-528986.332172;5076975.40565;53.0949534665;-7.92160608166;Hulppiketten graven HBA veld
HBD161;3801671.39708;-528985.529295;5076973.09337;53.0949189059;-7.92158759725;Hulppiketten graven HBA veld
HBD162;3801675.43574;-528984.495289;5076970.19139;53.0948755301;-7.92156400098;Hulppiketten graven HBA veld
HBD163;3801679.51485;-528983.456409;5076967.25975;53.0948317112;-7.92154024948;Hulppiketten graven HBA veld
HBD164;3801683.67424;-528982.408653;5076964.26914;53.0947870116;-7.92151620163;Hulppiketten graven HBA veld
HBD165;3801687.71484;-528981.424539;5076961.36025;53.0947435353;-7.92149333917;Hulppiketten graven HBA veld
HBD166;3801691.83248;-528980.331687;5076958.40575;53.0946993723;-7.92146871056;Hulppiketten graven HBA veld
HBD167;3801695.94834;-528979.340793;5076955.44142;53.0946550679;-7.92144559311;Hulppiketten graven HBA veld
HBD168;3801700.03165;-528978.292855;5076952.50764;53.0946112165;-7.9214216993;Hulppiketten graven HBA veld
HBD169;3801704.11142;-528977.254592;5076949.57543;53.0945673893;-7.92139795585;Hulppiketten graven HBA veld
HBD170;3801708.25034;-528976.199853;5076946.60087;53.0945229288;-7.92137384718;Hulppiketten graven HBA veld
HBD171;3801712.32954;-528975.164443;5076943.66878;53.0944791034;-7.92135014719;Hulppiketten graven HBA veld
HBD172;3801667.62097;-528981.293202;5076976.37665;53.0949676894;-7.92153273522;Hulppiketten graven HBA veld
HBD173;3801670.78312;-528980.483156;5076974.10454;53.0949337281;-7.9215142534;Hulppiketten graven HBA veld
HBD174;3801674.86642;-528979.435218;5076971.17075;53.0948898768;-7.92149035936;Hulppiketten graven HBA veld
HBD175;3801678.94619;-528978.396955;5076968.23855;53.0948460495;-7.92146661569;Hulppiketten graven HBA veld
HBD176;3801683.08511;-528977.342216;5076965.26399;53.0948015891;-7.92144250679;Hulppiketten graven HBA veld
HBD177;3801687.1811;-528976.367243;5076962.31275;53.094757481;-7.92141966559;Hulppiketten graven HBA veld
HBD178;3801691.25893;-528975.279187;5076959.38745;53.0947137541;-7.92139518986;Hulppiketten graven HBA veld
HBD179;3801695.33932;-528974.289484;5076956.44946;53.0946698431;-7.92137216307;Hulppiketten graven HBA veld
HBD180;3801699.45826;-528973.246601;5076953.48852;53.0946255866;-7.92134827075;Hulppiketten graven HBA veld
HBD181;3801703.53737;-528972.207721;5076950.55688;53.0945817676;-7.92132451961;Hulppiketten graven HBA veld
HBD182;3801707.69676;-528971.159965;5076947.56627;53.094537068;-7.92130047212;Hulppiketten graven HBA veld
HBD183;3801711.7359;-528970.119635;5076944.66463;53.0944936968;-7.92127678187;Hulppiketten graven HBA veld
HBD184;3801667.08864;-528976.262588;5076977.32516;53.0949815771;-7.92145945286;Hulppiketten graven HBA veld
HBD185;3801674.28914;-528974.434487;5076972.14956;53.0949042183;-7.92141761142;Hulppiketten graven HBA veld
HBD186;3801678.36838;-528973.400663;5076969.21727;53.0948603899;-7.92139393454;Hulppiketten graven HBA veld
HBD187;3801682.52777;-528972.352907;5076966.22666;53.0948156902;-7.92136988683;Hulppiketten graven HBA veld
HBD188;3801686.56643;-528971.318901;5076963.32468;53.0947723144;-7.92134629083;Hulppiketten graven HBA veld
HBD189;3801690.68599;-528970.275148;5076960.36337;53.0947280523;-7.92132238434;Hulppiketten graven HBA veld
HBD190;3801694.80623;-528969.282235;5076957.39599;53.0946837023;-7.92129922818;Hulppiketten graven HBA veld
HBD191;3801698.88406;-528968.194178;5076954.47069;53.0946399753;-7.92127475261;Hulppiketten graven HBA veld
HBD192;3801702.96381;-528967.155221;5076951.53857;53.0945961493;-7.92125099907;Hulppiketten graven HBA veld
HBD193;3801707.10931;-528966.158469;5076948.55275;53.0945515239;-7.92122773432;Hulppiketten graven HBA veld
HBD194;3801670.83639;-528970.159334;5076975.1957;53.0949494595;-7.92136150649;Hulppiketten graven HBA veld
HBD195;3801677.83732;-528968.446777;5076970.15643;53.0948741421;-7.92132178413;Hulppiketten graven HBA veld
HBD196;3801681.95809;-528967.353547;5076967.19964;53.0948299447;-7.9212971436;Hulppiketten graven HBA veld
HBD197;3801686.03709;-528966.310404;5076964.26855;53.0947861337;-7.9212733296;Hulppiketten graven HBA veld
HBD198;3801690.1175;-528965.321494;5076961.33046;53.0947422213;-7.92125031457;Hulppiketten graven HBA veld
HBD199;3801694.20094;-528964.235646;5076958.40073;53.0946984283;-7.92122586012;Hulppiketten graven HBA veld
HBD200;3801698.31996;-528963.192754;5076955.43973;53.0946541708;-7.92120196763;Hulppiketten graven HBA veld
HBD201;3801702.39907;-528962.153874;5076952.50808;53.0946103518;-7.92117821662;Hulppiketten graven HBA veld
HBD202;3801674.73851;-528963.877454;5076972.97054;53.0949159037;-7.92126060172;Hulppiketten graven HBA veld
HBD203;3801681.37987;-528962.242135;5076968.19127;53.0948444716;-7.92122276121;Hulppiketten graven HBA veld
HBD204;3801685.41617;-528961.213485;5076965.29047;53.0948011135;-7.92119924939;Hulppiketten graven HBA veld
HBD205;3801689.5477;-528960.2213;5076962.31458;53.0947566365;-7.92117608086;Hulppiketten graven HBA veld
HBD206;3801693.66794;-528959.228387;5076959.34719;53.0947122865;-7.92115292483;Hulppiketten graven HBA veld
HBD207;3801697.75233;-528958.197524;5076956.41073;53.094668396;-7.9211292815;Hulppiketten graven HBA veld
CC;3801653.87297;-528970.320025;5076987.52129;53.0951365274;-7.92139877966;Container
C2;3801657.16049;-528970.403743;5076985.05658;53.0950997497;-7.92139325428;Container
C3;3801656.23074;-528967.201928;5076986.09455;53.0951151374;-7.92134782805;Container
C4;3801651.58216;-528973.443685;5076988.89742;53.0951571623;-7.92144967578;Container
C5;3801650.60806;-528970.256863;5076989.96692;53.0951730209;-7.92140456243;Container
