NAME;ETRS-X;ETRS-Y;ETRS-Z;STATION-P;STATION-Q;STATION-R
1554;3825859.713;461661.591;5065372.975;-44.184;-13.858;0.136
1555;3825857.962;461666.047;5065373.745;-39.550;-12.433;0.023
1556;3825856.242;461670.413;5065374.631;-35.011;-10.953;0.015
1557;3825854.652;461674.360;5065375.458;-30.901;-9.572;0.007
1558;3825853.079;461678.967;5065376.225;-26.140;-8.303;0.009
1559;3825851.239;461683.561;5065377.213;-21.358;-6.688;0.027
1560;3825849.564;461688.027;5065378.028;-16.724;-5.297;-0.004
1561;3825847.843;461692.345;5065378.924;-12.231;-3.805;-0.009
1562;3825846.178;461696.642;5065379.799;-7.766;-2.368;0.002
1563;3825844.552;461700.951;5065380.617;-3.293;-0.999;-0.009
1564;3825843.005;461705.046;5065381.430;0.957;0.326;0.009
1565;3825841.471;461708.986;5065382.199;5.053;1.629;-0.012
1566;3825839.675;461713.424;5065383.164;9.673;3.210;0.002
1567;3825837.852;461717.567;5065384.140;14.005;4.846;-0.012
1568;3825836.106;461721.800;5065385.065;18.416;6.383;-0.014
1569;3825834.081;461726.027;5065386.194;22.855;8.264;-0.021
1570;3825832.032;461730.170;5065387.352;27.213;10.190;-0.025
1571;3825830.546;461734.536;5065388.067;31.726;11.381;-0.029
1572;3825829.198;461738.994;5065388.683;36.313;12.395;-0.024
1573;3825832.383;461741.905;5065386.000;38.822;7.977;-0.048
1574;3825834.184;461737.468;5065385.097;34.202;6.430;-0.010
1575;3825836.056;461732.491;5065384.127;29.037;4.837;-0.021
1576;3825837.391;461728.750;5065383.479;25.163;3.746;-0.008
1577;3825839.007;461724.853;5065382.622;21.101;2.321;-0.005
1578;3825840.738;461721.018;5065381.667;17.086;0.740;-0.007
1579;3825842.388;461716.258;5065380.847;12.163;-0.607;-0.016
1580;3825844.267;461711.573;5065379.878;7.287;-2.233;-0.002
1581;3825845.826;461707.209;5065379.111;2.767;-3.513;0.004
1582;3825847.513;461703.185;5065378.198;-1.430;-5.016;-0.004
1583;3825848.995;461698.323;5065377.528;-6.433;-6.130;-0.002
1584;3825850.658;461693.857;5065376.698;-11.067;-7.521;0.010
1585;3825852.435;461689.220;5065375.768;-15.883;-9.047;-0.002
1586;3825854.327;461684.855;5065374.756;-20.443;-10.739;0.010
1587;3825856.481;461680.414;5065373.541;-25.110;-12.754;0.010
1588;3825858.474;461675.323;5065372.490;-30.403;-14.480;-0.003
1589;3825860.016;461671.451;5065371.651;-34.432;-15.838;-0.028
1590;3825861.893;461666.827;5065370.708;-39.247;-17.452;0.010
1591;3825862.753;461664.261;5065370.267;-41.897;-18.154;-0.011
1592;3825866.474;461665.150;5065367.433;-41.459;-22.895;0.020
1593;3825864.537;461669.855;5065368.459;-36.556;-21.191;0.018
1594;3825862.934;461673.971;5065369.258;-32.279;-19.833;-0.008
1595;3825861.538;461677.996;5065369.982;-28.116;-18.675;0.024
1596;3825859.693;461682.522;5065370.933;-23.401;-17.072;0.005
1597;3825857.950;461686.966;5065371.840;-18.781;-15.569;0.004
1598;3825856.256;461691.348;5065372.708;-14.227;-14.121;-0.002
1599;3825854.464;461695.867;5065373.637;-9.526;-12.574;-0.008
1600;3825852.886;461700.182;5065374.443;-5.054;-11.249;0.001
1601;3825851.287;461704.677;5065375.252;-0.400;-9.924;0.013
1602;3825849.678;461708.378;5065376.088;3.467;-8.499;-0.016
1603;3825847.925;461712.712;5065377.020;7.980;-6.962;-0.010
1604;3825846.238;461717.163;5065377.889;12.600;-5.526;-0.006
1605;3825844.533;461721.374;5065378.791;16.985;-4.034;-0.003
1606;3825843.060;461725.593;5065379.500;21.350;-2.842;-0.016
1607;3825841.436;461729.591;5065380.362;25.513;-1.417;-0.012
1608;3825839.916;461733.716;5065381.123;29.791;-0.148;-0.018
1609;3825837.939;461738.619;5065382.166;34.895;1.578;-0.016
1610;3825836.739;461741.509;5065382.801;37.908;2.635;-0.020
1611;3825835.780;461744.280;5065383.234;40.773;3.393;-0.049
1612;3825839.316;461746.475;5065380.402;42.530;-1.326;-0.032
1613;3825841.435;461741.392;5065379.279;37.230;-3.196;-0.027
1614;3825843.000;461737.137;5065378.501;32.818;-4.499;-0.017
1615;3825844.751;461732.572;5065377.603;28.077;-5.991;-0.013
1616;3825846.761;461727.625;5065376.563;22.925;-7.739;0.004
1617;3825848.616;461722.741;5065375.604;17.854;-9.320;-0.003
1618;3825850.231;461718.410;5065374.768;13.361;-10.689;-0.015
1619;3825851.954;461714.005;5065373.879;8.781;-12.170;-0.010
1620;3825853.503;461709.964;5065373.095;4.585;-13.484;0.001
1621;3825855.427;461705.088;5065372.100;-0.486;-15.143;0.007
1622;3825857.101;461700.155;5065371.265;-5.584;-16.501;-0.011
1623;3825859.120;461695.650;5065370.175;-10.299;-18.327;0.003
1624;3825860.634;461690.806;5065369.458;-15.289;-19.496;-0.012
1625;3825862.752;461686.055;5065368.294;-20.259;-21.422;-0.015
1626;3825864.441;461682.025;5065367.419;-24.463;-22.903;0.008
1627;3825866.167;461677.382;5065366.552;-29.278;-24.351;0.015
1628;3825868.036;461672.419;5065365.581;-34.430;-25.943;0.001
1629;3825869.134;461669.719;5065365.045;-37.241;-26.878;0.037
1630;3825869.883;461667.730;5065364.624;-39.306;-27.535;0.007
1631;3825872.744;461671.110;5065362.181;-36.292;-31.596;0.014
1632;3825871.378;461674.475;5065362.896;-32.788;-30.405;0.009
1633;3825869.284;461679.554;5065363.995;-27.495;-28.568;-0.002
1634;3825867.559;461684.210;5065364.885;-22.666;-27.109;0.011
1635;3825865.745;461688.808;5065365.833;-17.885;-25.540;0.013
1636;3825864.074;461693.233;5065366.685;-13.291;-24.126;0.011
1637;3825862.567;461697.177;5065367.434;-9.195;-22.856;-0.009
1638;3825860.925;461701.457;5065368.300;-4.750;-21.442;0.007
1639;3825859.069;461706.280;5065369.247;0.261;-19.861;-0.001
1640;3825857.316;461710.594;5065370.175;4.753;-18.325;0.0005
1641;3825855.448;461715.382;5065371.156;9.730;-16.710;0.009
1642;3825853.598;461720.504;5065372.048;15.037;-15.196;-0.017
1643;3825852.091;461724.339;5065372.837;19.025;-13.893;-0.014
1644;3825850.306;461728.730;5065373.791;23.598;-12.324;-0.005
1645;3825848.571;461733.080;5065374.692;28.124;-10.821;-0.011
1646;3825847.294;461736.869;5065375.295;32.039;-9.807;-0.022
1647;3825845.460;461740.929;5065376.316;36.289;-8.126;-0.013
1648;3825844.052;461745.122;5065376.995;40.620;-7.001;-0.012
1649;3825843.001;461747.942;5065377.503;43.546;-6.133;-0.033
1650;3825847.053;461747.835;5065374.447;42.955;-11.174;-0.052
1651;3825848.708;461743.482;5065373.643;38.435;-12.555;-0.016
1652;3825850.320;461739.253;5065372.819;34.044;-13.924;-0.013
1653;3825851.913;461735.096;5065372.001;29.726;-15.283;-0.011
1654;3825853.543;461730.788;5065371.170;25.254;-16.664;-0.009
1655;3825855.203;461726.368;5065370.324;20.667;-18.066;-0.009
1656;3825857.128;461721.743;5065369.296;15.845;-19.770;-0.010
1657;3825858.802;461717.250;5065368.458;11.184;-21.173;0.0002
1658;3825860.592;461712.906;5065367.517;6.658;-22.743;0.008
1659;3825862.073;461708.749;5065366.755;2.353;-23.979;-0.013
1660;3825863.830;461704.538;5065365.830;-2.039;-25.526;-0.003
1661;3825865.374;461700.375;5065365.057;-6.356;-26.818;0.005
1662;3825867.228;461695.619;5065364.100;-11.300;-28.410;0.010
1663;3825868.695;461691.589;5065363.357;-15.476;-29.635;0.004
1664;3825870.474;461686.763;5065362.456;-20.480;-31.127;0.003
1665;3825872.931;461680.671;5065361.156;-26.822;-33.275;-0.002
1666;3825874.533;461677.281;5065360.268;-30.380;-34.756;0.005
1667;3825877.392;461679.699;5065357.891;-28.321;-38.684;-0.005
1668;3825875.677;461684.282;5065358.783;-23.566;-37.225;0.010
1669;3825873.814;461688.948;5065359.751;-18.710;-35.611;0.002
1670;3825871.840;461693.818;5065360.773;-13.639;-33.897;-0.013
1671;3825870.198;461697.793;5065361.664;-9.496;-32.438;0.001
1672;3825868.818;461701.942;5065362.318;-5.212;-31.347;-0.004
1673;3825867.554;461705.915;5065362.912;-1.116;-30.367;-0.001
1674;3825865.835;461709.928;5065363.836;3.074;-28.831;-0.004
1675;3825864.217;461714.286;5065364.672;7.593;-27.461;0.008
1676;3825862.584;461718.546;5065365.510;12.019;-26.069;0.006
1677;3825860.861;461722.647;5065366.426;16.296;-24.544;0.001
1678;3825859.377;461727.061;5065367.131;20.856;-23.364;-0.007
1679;3825857.700;461731.438;5065368.004;25.402;-21.927;0.001
1680;3825855.748;461735.945;5065369.052;30.110;-20.179;-0.006
1681;3825854.227;461740.395;5065369.790;34.710;-18.954;-0.008
1682;3825852.322;461745.043;5065370.792;39.553;-17.284;-0.014
1683;3825857.438;461743.405;5065367.046;37.314;-23.439;-0.058
1684;3825859.284;461738.960;5065366.127;32.680;-25.031;-0.005
1685;3825860.878;461734.660;5065365.325;28.221;-26.367;-0.0003
1686;3825862.552;461730.303;5065364.453;23.695;-27.803;-0.008
1687;3825864.163;461726.101;5065363.631;19.330;-29.173;-0.002
1688;3825865.799;461721.631;5065362.821;14.696;-30.531;0.009
1689;3825867.609;461716.809;5065361.887;9.692;-32.068;0.0001
1690;3825869.386;461712.227;5065360.984;4.931;-33.582;0.013
1691;3825871.142;461707.588;5065360.064;0.115;-35.085;-0.004
1692;3825872.732;461703.363;5065359.268;-4.270;-36.421;0.009
1693;3825874.363;461698.912;5065358.435;-8.884;-37.791;0.0005
1694;3825876.134;461694.438;5065357.505;-13.538;-39.327;-0.004
1695;3825877.909;461689.679;5065356.627;-18.474;-40.808;0.016
1696;3825879.305;461685.322;5065355.962;-22.967;-41.899;0.007
1697;3825881.140;461692.332;5065353.965;-16.227;-45.226;0.017
1698;3825879.386;461696.605;5065354.848;-11.775;-43.712;-0.021
1699;3825877.697;461701.083;5065355.758;-7.127;-42.253;0.017
1700;3825876.105;461705.423;5065356.532;-2.628;-40.939;-0.006
1701;3825874.498;461709.720;5065357.353;1.831;-39.581;-0.003
1702;3825872.628;461714.847;5065358.276;7.144;-38.033;-0.017
1703;3825871.056;461719.352;5065359.084;11.805;-36.730;0.011
1704;3825869.120;461724.057;5065360.092;16.708;-35.038;-0.004
1705;3825867.487;461728.440;5065360.913;21.254;-33.669;-0.011
1706;3825865.803;461732.572;5065361.811;25.559;-32.188;-0.005
1707;3825864.198;461736.843;5065362.631;29.991;-30.829;-0.004
1708;3825862.841;461740.249;5065363.289;33.535;-29.683;-0.046
1709;3825868.063;461738.271;5065359.536;30.947;-35.893;-0.056
1710;3825869.623;461734.286;5065358.794;26.804;-37.195;-0.001
1711;3825871.314;461729.918;5065357.923;22.264;-38.643;0.002
1712;3825872.939;461725.900;5065357.058;18.081;-40.068;-0.005
1713;3825874.496;461721.583;5065356.261;13.608;-41.371;-0.020
1714;3825876.378;461716.790;5065355.315;8.625;-42.974;0.007
1715;3825878.107;461712.141;5065354.449;3.802;-44.422;0.016
1716;3825879.465;461707.956;5065353.780;-0.515;-45.502;-0.006
1717;3825881.109;461703.357;5065352.977;-5.277;-46.849;0.006
1718;3825881.032;461711.654;5065352.272;2.969;-48.005;-0.004
1719;3825879.848;461715.305;5065352.827;6.735;-47.081;-0.007
1720;3825878.492;461719.646;5065353.469;11.208;-46.034;0.005
1721;3825876.875;461723.997;5065354.286;15.721;-44.676;0.003
1722;3825875.195;461728.401;5065355.122;20.294;-43.262;-0.018
1723;3825825.906;461737.140;5065391.317;34.866;16.768;-0.028
1724;3825827.640;461732.864;5065390.407;30.414;15.254;-0.024
1725;3825829.181;461728.674;5065389.609;26.069;13.951;-0.040
1726;3825830.660;461724.584;5065388.890;21.832;12.738;-0.023
1727;3825832.298;461720.304;5065388.056;17.387;11.346;-0.016
1728;3825833.812;461715.975;5065387.329;12.907;10.121;-0.001
1729;3825835.486;461711.367;5065386.472;8.132;8.718;-0.015
1730;3825837.012;461707.358;5065385.699;3.969;7.426;-0.007
1731;3825838.631;461703.177;5065384.856;-0.375;6.035;-0.012
1732;3825840.188;461698.968;5065384.057;-4.740;4.721;-0.020
1733;3825841.728;461694.926;5065383.279;-8.937;3.418;-0.010
1734;3825843.690;461690.441;5065382.212;-13.625;1.648;-0.010
1735;3825845.556;461685.850;5065381.239;-18.406;0.023;0.0005
1736;3825847.014;461681.744;5065380.529;-22.657;-1.169;0.011
1737;3825848.942;461677.302;5065379.498;-27.297;-2.894;0.023
1738;3825850.755;461673.111;5065378.501;-31.676;-4.531;0.011
1739;3825852.301;461668.142;5065377.806;-36.794;-5.700;0.024
1740;3825853.904;461664.521;5065376.920;-40.580;-7.159;0.016
1741;3825852.614;461657.462;5065378.554;-47.434;-4.478;0.038
1742;3825851.015;461661.808;5065379.303;-42.928;-3.175;-0.009
1743;3825849.132;461665.869;5065380.371;-38.671;-1.427;0.009
1744;3825847.668;461669.398;5065381.130;-34.992;-0.147;-0.008
1745;3825845.765;461673.789;5065382.205;-30.405;1.590;0.026
1746;3825843.642;461678.167;5065383.377;-25.805;3.560;0.006
1747;3825842.529;461682.605;5065383.800;-21.265;4.273;-0.003
1748;3825840.760;461686.917;5065384.725;-16.773;5.821;-0.013
1749;3825839.334;461690.911;5065385.442;-12.637;7.001;-0.007
1750;3825837.745;461695.082;5065386.248;-8.305;8.348;-0.015
1751;3825836.229;461699.174;5065387.028;-4.062;9.629;-0.006
1752;3825834.641;461703.786;5065387.796;0.707;10.909;-0.011
1753;3825832.780;461708.466;5065388.770;5.576;12.524;-0.012
1754;3825831.506;461712.099;5065389.389;9.335;13.559;-0.018
1755;3825829.972;461715.864;5065390.204;13.256;14.906;-0.015
1756;3825828.905;461718.601;5065390.749;16.101;15.819;-0.022
1757;3825827.902;461721.447;5065391.249;19.047;16.643;-0.019
1758;3825827.015;461724.781;5065391.609;22.464;17.245;-0.022
1759;3825825.084;461728.803;5065392.682;26.687;19.037;-0.033
1760;3825823.354;461733.390;5065393.553;31.449;20.496;-0.043
1761;3825819.393;461732.269;5065396.644;30.809;25.604;-0.030
1762;3825821.068;461727.925;5065395.775;26.296;24.167;-0.033
1763;3825822.417;461724.091;5065395.113;22.328;23.065;-0.030
1764;3825824.244;461719.210;5065394.210;17.264;21.540;-0.009
1765;3825825.547;461715.499;5065393.543;13.424;20.460;-0.028
1766;3825826.722;461712.023;5065393.004;9.832;19.535;-0.005
1767;3825828.298;461707.681;5065392.208;5.333;18.221;-0.009
1768;3825829.800;461703.236;5065391.483;0.739;17.019;-0.009
1769;3825831.541;461698.588;5065390.597;-4.083;15.549;-0.008
1770;3825833.526;461693.896;5065389.544;-8.979;13.790;0.002
1771;3825835.469;461689.307;5065388.490;-13.767;12.053;-0.006
1772;3825837.267;461684.870;5065387.545;-18.388;10.483;-0.003
1773;3825839.026;461680.590;5065386.613;-22.847;8.936;-0.002
1774;3825840.722;461676.412;5065385.723;-27.198;7.455;0.002
1775;3825842.027;461672.606;5065385.081;-31.133;6.397;-0.003
1776;3825843.728;461668.164;5065384.212;-35.746;4.950;0.002
1777;3825845.631;461663.733;5065383.167;-40.373;3.236;-0.011
1778;3825847.459;461659.604;5065382.182;-44.691;1.588;0.0001
1779;3825844.557;461656.429;5065384.658;-47.496;5.683;0.008
1780;3825842.935;461660.610;5065385.479;-43.152;7.063;-0.007
1781;3825841.370;461664.540;5065386.298;-39.063;8.422;-0.007
1782;3825839.907;461668.530;5065387.039;-34.926;9.646;-0.004
1783;3825838.221;461672.743;5065387.946;-30.541;11.127;0.013
1784;3825836.846;461676.723;5065388.599;-26.425;12.229;-0.001
1785;3825835.098;461680.909;5065389.551;-22.061;13.788;0.013
1786;3825833.190;461685.394;5065390.560;-17.380;15.480;-0.002
1787;3825831.596;461690.120;5065391.338;-12.497;16.761;0.005
1788;3825829.706;461694.830;5065392.333;-7.594;18.409;0.007
1789;3825827.867;461699.486;5065393.277;-2.752;19.990;-0.005
1790;3825826.181;461703.876;5065394.139;1.808;21.426;-0.011
1791;3825824.536;461708.176;5065395.004;6.274;22.840;0.005
1792;3825822.827;461712.143;5065395.898;10.417;24.354;-0.020
1793;3825821.416;461716.193;5065396.606;14.607;25.512;-0.008
1794;3825819.785;461719.986;5065397.501;18.568;26.982;0.003
1795;3825818.251;461724.306;5065398.219;23.040;28.218;-0.031
1796;3825816.561;461728.682;5065399.074;27.587;29.654;-0.045
1797;3825813.149;461726.109;5065401.844;25.440;34.272;-0.064
1798;3825814.858;461721.688;5065401.025;20.847;32.847;-0.013
1799;3825816.432;461717.597;5065400.193;16.597;31.488;-0.029
1800;3825818.119;461713.634;5065399.308;12.460;29.997;-0.011
1801;3825819.715;461709.457;5065398.472;8.123;28.627;-0.023
1802;3825821.120;461706.138;5065397.724;4.659;27.380;-0.018
1803;3825822.643;461702.473;5065396.929;0.839;26.044;-0.004
1804;3825824.207;461698.191;5065396.144;-3.600;24.741;-0.003
1805;3825825.921;461693.818;5065395.248;-8.146;23.261;-0.007
1806;3825827.696;461689.520;5065394.314;-12.625;21.702;0.001
1807;3825829.227;461685.207;5065393.576;-17.091;20.455;0.018
1808;3825830.734;461681.222;5065392.764;-21.227;19.152;-0.015
1809;3825832.623;461676.823;5065391.760;-25.821;17.471;-0.002
1810;3825833.924;461672.895;5065391.131;-29.876;16.436;-0.008
1811;3825835.731;461668.690;5065390.180;-34.268;14.832;0.012
1812;3825837.380;461664.370;5065389.299;-38.754;13.407;-0.015
1813;3825839.265;461659.869;5065388.312;-43.448;11.748;0.002
1814;3825840.608;461656.630;5065387.587;-46.824;10.557;-0.006
1815;3825835.995;461657.611;5065390.985;-45.298;16.166;0.013
1816;3825834.233;461662.005;5065391.895;-40.725;17.691;0.001
1817;3825832.705;461666.109;5065392.661;-36.468;18.972;-0.007
1818;3825830.905;461670.112;5065393.663;-32.278;20.620;0.003
1819;3825829.451;461673.704;5065394.409;-28.539;21.878;-0.013
1820;3825827.796;461677.880;5065395.295;-24.194;23.325;0.004
1821;3825826.075;461682.185;5065396.173;-19.715;24.806;-0.016
1822;3825824.352;461686.692;5065397.096;-15.034;26.298;0.014
1823;3825822.596;461691.059;5065397.993;-10.488;27.812;-0.007
1824;3825820.729;461695.549;5065399.002;-5.807;29.471;0.004
1825;3825819.276;461699.832;5065399.673;-1.381;30.618;-0.022
1826;3825816.964;461704.288;5065401.015;3.320;32.833;-0.014
1827;3825815.522;461708.707;5065401.705;7.880;33.969;-0.009
1828;3825814.204;461711.746;5065402.392;11.054;35.138;-0.031
1829;3825812.597;461715.501;5065403.258;14.975;36.574;-0.032
1830;3825811.119;461719.774;5065403.987;19.393;37.776;-0.027
1831;3825808.718;461715.230;5065406.222;15.169;41.459;-0.010
1832;3825810.349;461711.104;5065405.347;10.878;40.034;-0.028
1833;3825811.914;461707.472;5065404.483;7.085;38.620;-0.043
1834;3825813.059;461704.392;5065403.912;3.891;37.663;-0.035
1835;3825814.737;461700.578;5065403.001;-0.098;36.149;-0.032
1836;3825816.651;461695.545;5065402.042;-5.323;34.534;-0.013
1837;3825818.503;461691.080;5065401.072;-9.977;32.909;-0.0003
1838;3825820.082;461686.888;5065400.267;-14.329;31.573;0.001
1839;3825821.904;461682.887;5065399.239;-18.518;29.892;-0.017
1840;3825823.464;461678.489;5065398.469;-23.072;28.611;-0.014
1841;3825825.242;461674.124;5065397.547;-27.618;27.064;-0.0001
1842;3825826.557;461670.292;5065396.932;-31.579;26.017;0.021
1843;3825828.450;461666.056;5065395.868;-36.011;24.280;0.001
1844;3825830.423;461661.166;5065394.824;-41.102;22.555;-0.004
1845;3825825.884;461662.238;5065398.131;-39.496;28.041;-0.007
1846;3825824.033;461666.722;5065399.123;-34.822;29.678;0.0004
1847;3825822.328;461670.900;5065400.000;-30.470;31.159;-0.020
1848;3825820.704;461674.450;5065400.903;-26.751;32.650;-0.016
1849;3825818.950;461679.055;5065401.821;-21.969;34.153;-0.002
1850;3825817.169;461683.129;5065402.784;-17.712;35.757;-0.007
1851;3825815.357;461687.232;5065403.786;-13.421;37.404;0.003
1852;3825813.596;461691.477;5065404.711;-8.996;38.952;-0.007
1853;3825811.726;461696.014;5065405.688;-4.268;40.588;-0.020
1854;3825809.970;461700.307;5065406.645;0.204;42.147;0.002
1855;3825808.182;461704.637;5065407.604;4.717;43.728;0.008
1856;3825806.370;461709.106;5065408.516;9.371;45.287;-0.028
1857;3825805.095;461702.171;5065410.135;2.638;47.934;0.001
1858;3825806.885;461697.957;5065409.142;-1.760;46.320;-0.023
1859;3825808.207;461694.478;5065408.462;-5.372;45.195;-0.025
1860;3825809.919;461690.505;5065407.552;-9.521;43.670;-0.012
1861;3825811.580;461686.336;5065406.675;-13.859;42.223;-0.018
1862;3825813.542;461682.162;5065405.581;-18.238;40.408;-0.017
1863;3825815.537;461678.142;5065404.482;-22.468;38.549;0.011
1864;3825817.159;461673.386;5065403.663;-27.384;37.224;-0.014
1865;3825818.780;461669.774;5065402.784;-31.164;35.755;-0.005
1866;3825820.645;461666.483;5065401.684;-34.654;33.929;-0.003
1867;3825811.063;461681.281;5065407.557;-18.816;43.647;0.011
