NAME,STATION-P,STATION-Q,STATION-R
N0,-0.010,1.190,0.000
M0,-0.060,-0.060,0.000
S0,-0.010,-1.140,0.000
N1,-0.010,3.740,0.000
M1,-0.060,2.490,0.000
S1,-0.010,1.410,0.000
N2,2.240,2.540,0.000
M2,2.190,1.290,0.000
S2,2.240,0.210,0.000
N3,2.240,-0.160,0.000
M3,2.190,-1.410,0.000
S3,2.240,-2.490,0.000
N4,-0.010,-1.360,0.000
M4,-0.060,-2.610,0.000
S4,-0.010,-3.690,0.000
N5,-2.260,-0.160,0.000
M5,-2.310,-1.410,0.000
S5,-2.260,-2.490,0.000
N6,-2.260,2.540,0.000
M6,-2.310,1.290,0.000
S6,-2.260,0.210,0.000
N7,-0.010,7.290,0.000
M7,-0.060,5.740,0.000
S7,-0.010,4.360,0.000
N8,3.718,5.933,0.000
M8,3.668,4.383,0.000
S8,3.718,3.003,0.000
N9,5.702,2.497,0.000
M9,5.652,0.947,0.000
S9,5.702,-0.433,0.000
N10,5.013,-1.410,0.000
M10,4.963,-2.960,0.000
S10,5.013,-4.340,0.000
N11,1.974,-3.960,0.000
M11,1.924,-5.510,0.000
S11,1.974,-6.890,0.000
N12,-1.994,-3.960,0.000
M12,-2.044,-5.510,0.000
S12,-1.994,-6.890,0.000
N13,-5.033,-1.410,0.000
M13,-5.083,-2.960,0.000
S13,-5.033,-4.340,0.000
N14,-5.722,2.497,0.000
M14,-5.772,0.947,0.000
S14,-5.722,-0.433,0.000
N15,-3.738,5.933,0.000
M15,-3.788,4.383,0.000
S15,-3.738,3.003,0.000
N16,-5.357,9.132,0.000
M16,-5.407,7.582,0.000
S16,-5.357,6.202,0.000
N17,-2.281,11.110,0.000
M17,-2.331,9.560,0.000
S17,-2.281,8.180,0.000
N18,2.747,11.441,0.000
M18,2.697,9.891,0.000
S18,2.747,8.511,0.000
N19,8.479,6.960,0.000
M19,8.429,5.410,0.000
S19,8.479,4.030,0.000
N20,9.832,4.028,0.000
M20,9.782,2.478,0.000
S20,9.832,1.098,0.000
N21,9.926,-0.264,0.000
M21,9.876,-1.814,0.000
S21,9.926,-3.194,0.000
N22,7.559,-3.805,0.000
M22,7.509,-5.355,0.000
S22,7.559,-6.735,0.000
N23,2.763,-7.055,0.000
M23,2.713,-8.605,0.000
S23,2.763,-9.985,0.000
N24,-1.871,-8.247,0.000
M24,-1.921,-9.797,0.000
S24,-1.871,-11.177,0.000
N25,-5.958,-6.658,0.000
M25,-6.008,-8.208,0.000
S25,-5.958,-9.588,0.000
N26,-8.005,-3.286,0.000
M26,-8.055,-4.836,0.000
S26,-8.005,-6.216,0.000
N27,-9.055,1.448,0.000
M27,-9.105,-0.102,0.000
S27,-9.055,-1.482,0.000
N28,-8.034,6.001,0.000
M28,-8.084,4.451,0.000
S28,-8.034,3.071,0.000
N29,-7.061,13.985,0.000
M29,-7.111,12.435,0.000
S29,-7.061,11.055,0.000
N30,-3.706,15.808,0.000
M30,-3.756,14.258,0.000
S30,-3.706,12.878,0.000
N31,-0.586,15.637,0.000
M31,-0.636,14.087,0.000
S31,-0.586,12.707,0.000
N32,6.866,12.750,0.000
M32,6.816,11.200,0.000
S32,6.866,9.820,0.000
N33,9.854,12.958,0.000
M33,9.804,11.408,0.000
S33,9.854,10.028,0.000
N34,12.535,5.962,0.000
M34,12.485,4.412,0.000
S34,12.535,3.032,0.000
N35,13.093,0.917,0.000
M35,13.043,-0.633,0.000
S35,13.093,-2.013,0.000
N36,13.941,-4.329,0.000
M36,13.891,-5.879,0.000
S36,13.941,-7.259,0.000
N37,11.120,-6.150,0.000
M37,11.070,-7.700,0.000
S37,11.120,-9.080,0.000
N38,7.473,-9.197,0.000
M38,7.423,-10.747,0.000
S38,7.473,-12.127,0.000
N39,0.930,-11.697,0.000
M39,0.880,-13.247,0.000
S39,0.930,-14.627,0.000
N40,-1.822,-12.141,0.000
M40,-1.872,-13.691,0.000
S40,-1.822,-15.071,0.000
N41,-6.691,-9.972,0.000
M41,-6.741,-11.522,0.000
S41,-6.691,-12.902,0.000
N42,-10.757,-9.124,0.000
M42,-10.807,-10.674,0.000
S42,-10.757,-12.054,0.000
N43,-13.955,-0.854,0.000
M43,-14.005,-2.404,0.000
S43,-13.955,-3.784,0.000
N44,-13.829,3.128,0.000
M44,-13.879,1.578,0.000
S44,-13.829,0.198,0.000
N45,-12.688,8.493,0.000
M45,-12.738,6.943,0.000
S45,-12.688,5.563,0.000
N48,-13.953,12.801,0.000
M48,-14.003,11.251,0.000
S48,-13.953,9.871,0.000
N49,-14.274,15.859,0.000
M49,-14.324,14.309,0.000
S49,-14.274,12.929,0.000
N50,0.036,21.881,0.000
M50,-0.014,20.331,0.000
S50,0.036,18.951,0.000
N51,14.570,14.916,0.000
M51,14.520,13.366,0.000
S51,14.570,11.986,0.000
N52,18.005,11.380,0.000
M52,17.955,9.830,0.000
S52,18.005,8.450,0.000
N53,18.183,-0.756,0.000
M53,18.133,-2.306,0.000
S53,18.183,-3.686,0.000
N54,11.491,-12.231,0.000
M54,11.441,-13.781,0.000
S54,11.491,-15.161,0.000
N55,6.042,-18.038,0.000
M55,5.992,-19.588,0.000
S55,6.042,-20.968,0.000
N56,-7.997,-14.715,0.000
M56,-8.047,-16.265,0.000
S56,-7.997,-17.645,0.000
N57,-15.345,-11.137,0.000
M57,-15.395,-12.687,0.000
S57,-15.345,-14.067,0.000
N58,-18.469,-1.689,0.000
M58,-18.519,-3.239,0.000
S58,-18.469,-4.619,0.000
N59,-24.767,3.550,0.000
M59,-24.817,2.000,0.000
S59,-24.767,0.620,0.000
N60,-20.469,15.834,0.000
M60,-20.519,14.284,0.000
S60,-20.469,12.904,0.000
N61,-10.879,24.427,0.000
M61,-10.929,22.877,0.000
S61,-10.879,21.497,0.000
N62,-4.997,26.604,0.000
M62,-5.047,25.054,0.000
S62,-4.997,23.674,0.000
N63,3.324,28.009,0.000
M63,3.274,26.459,0.000
S63,3.324,25.079,0.000
N64,17.634,17.700,0.000
M64,17.584,16.150,0.000
S64,17.634,14.770,0.000
N65,22.396,11.302,0.000
M65,22.346,9.752,0.000
S65,22.396,8.372,0.000
N66,25.904,-2.102,0.000
M66,25.854,-3.652,0.000
S66,25.904,-5.032,0.000
N67,19.259,-14.665,0.000
M67,19.209,-16.215,0.000
S67,19.259,-17.595,0.000
N68,12.686,-21.256,0.000
M68,12.636,-22.806,0.000
S68,12.686,-24.186,0.000
N69,1.127,-23.265,0.000
M69,1.077,-24.815,0.000
S69,1.127,-26.195,0.000
N70,-14.846,-21.098,0.000
M70,-14.896,-22.648,0.000
S70,-14.85,-24.03,0.000
N71,-25.66,-7.03,0.000
M71,-25.71,-8.58,0.000
S71,-25.66,-9.96,0.000
N72,-34.59,3.51,0.000
M72,-34.64,1.96,0.000
S72,-34.59,0.58,0.000
N73,-27.51,16.62,0.000
M73,-27.56,15.07,0.000
S73,-27.51,13.69,0.000
N74,-17.6,27.37,0.000
M74,-17.65,25.82,0.000
S74,-17.6,24.44,0.000
N75,-11.2,32.18,0.000
M75,-11.25,30.63,0.000
S75,-11.2,29.25,0.000
N76,7.7,32.12,0.000
M76,7.65,30.57,0.000
S76,7.7,29.19,0.000
N77,24.44,25.36,0.000
M77,24.39,23.81,0.000
S77,24.44,22.43,0.000
N78,31.23,15.12,0.000
M78,31.18,13.57,0.000
S78,31.23,12.19,0.000
N79,29.67,5.88,0.000
M79,29.62,4.33,0.000
S79,29.67,2.95,0.000
N80,32.71,-8.45,0.000
M80,32.66,-10,0.000
S80,32.71,-11.38,0.000
N81,22.11,-24.23,0.000
M81,22.06,-25.78,0.000
S81,22.11,-27.16,0.000
N82,14.53,-29.02,0.000
M82,14.48,-30.57,0.000
S82,14.53,-31.95,0.000
N83,-0.87,-33.18,0.000
M83,-0.92,-34.73,0.000
S83,-0.87,-36.11,0.000
N84,-8.35,-29.75,0.000
M84,-8.4,-31.3,0.000
S84,-8.35,-32.68,0.000
N85,-26.07,-19.22,0.000
M85,-26.12,-20.77,0.000
S85,-26.07,-22.15,0.000
N86,-27.25,-12.61,0.000
M86,-27.3,-14.16,0.000
S86,-27.25,-15.54,0.000
N87,-33.4,-13.85,0.000
M87,-33.45,-15.4,0.000
S87,-33.4,-16.78,0.000
N88,-34.31,25.34,0.000
M88,-34.36,23.79,0.000
S88,-34.31,22.41,0.000
N89,-12.84,39.39,0.000
M89,-12.89,37.84,0.000
S89,-12.84,36.46,0.000
N90,6.92,42.89,0.000
M90,6.87,41.34,0.000
S90,6.92,39.96,0.000
N91,21.31,35.71,0.000
M91,21.26,34.16,0.000
S91,21.31,32.78,0.000
N92,40.64,-5.01,0.000
M92,40.59,-6.56,0.000
S92,40.64,-7.94,0.000
N93,27.22,-22.91,0.000
M93,27.17,-24.46,0.000
S93,27.22,-25.84,0.000
N94,17.5,-36.08,0.000
M94,17.45,-37.63,0.000
S94,17.5,-39.01,0.000
N95,-24.95,-28.21,0.000
M95,-25,-29.76,0.000
S95,-24.95,-31.14,0.000
N46,-32.54,-54.85,0.000
M46,-32.59,-56.4,0.000
S46,-32.537,-57.778,0.000
N47,-56.348,34.017,0.000
M47,-56.4,32.47,0.000
S47,-56.35,31.09,0.000
D1,-33.5,-11.6,0.000
D2,-22.54,-11.66,0.000
D3,-20.61,-13.2,0.000
D4,-20.61,-29.8,0.000
D5,-17.61,-15.6,0.000
D6,-13.91,-15.6,0.000
D7,-10.35,-13.95,0.000
D8,-4.1,-13.8,0.000
D9,-4.1,-16.25,0.000
D10,-4.1,-34.9,0.000
D11,5.19,-16.25,0.000
D12,6.19,-16.25,0.000
D13,11.7,-16.25,0.000
D14,12.93,-18.75,0.000
D15,17.73,-20.72,0.000
D16,14.42,-16.25,0.000
D17,18.39,-6.6,0.000
D18,22.26,-6.6,0.000
D19,22.25,6.2,0.000
D20,30.05,7.65,0.000
D21,18.23,6.2,0.000
D22,16.13,4.35,0.000
D23,16.13,0.25,0.000
D24,-11.35,-4.85,0.000
D25,-11.35,-0.45,0.000
D26,-31.6,-5.65,0.000
D27,-31.6,14.95,0.000
D28,-17.65,1.75,0.000
D29,-17.65,4.4,0.000
D30,-17.65,16.95,0.000
D31,-13.81,22.9,0.000
D32,-13.81,30.65,0.000
D33,-10.05,16.95,0.000
D34,-10.05,9.75,0.000
D35,-4.95,16.95,0.000
D36,14.35,16.95,0.000
D37,21.39,23.8,0.000
