1001,52.4810855,06.4054511,58.317,C0
1002,52.4810827,06.4054782,58.308,C1
1003,52.4810798,06.4055053,58.300,C2
1004,52.4810770,06.4055323,58.292,C3
1005,52.4810691,06.4054464,58.328,C4
1006,52.4810663,06.4054735,58.319,C5
1007,52.4810634,06.4055006,58.311,C6
1008,52.4810606,06.4055276,58.303,C7
1009,52.4810584,06.4053875,58.355,C8
1010,52.4810556,06.4054146,58.347,C9
1011,52.4810527,06.4054417,58.339,C10
1012,52.4810499,06.4054688,58.331,C11
1013,52.4810470,06.4054959,58.322,C12
1014,52.4810442,06.4055229,58.314,C13
1015,52.4810413,06.4055500,58.306,C14
1016,52.4810385,06.4055771,58.298,C15
1017,52.4810420,06.4053828,58.366,C16
1018,52.4810391,06.4054099,58.358,C17
1019,52.4810363,06.4054370,58.350,C18
1020,52.4810334,06.4054641,58.342,C19
1021,52.4810306,06.4054912,58.334,C20
1022,52.4810277,06.4055182,58.325,C21
1023,52.4810249,06.4055453,58.317,C22
1024,52.4810220,06.4055724,58.309,C23
1025,52.4810256,06.4053781,58.378,C24
1026,52.4810227,06.4054052,58.369,C25
1027,52.4810199,06.4054323,58.361,C26
1028,52.4810170,06.4054594,58.353,C27
1029,52.4810142,06.4054865,58.345,C28
1030,52.4810113,06.4055135,58.337,C29
1031,52.4810085,06.4055406,58.328,C30
1032,52.4810056,06.4055677,58.320,C31
1033,52.4810092,06.4053734,58.389,C32
1034,52.4810063,06.4054005,58.380,C33
1035,52.4810035,06.4054276,58.372,C34
1036,52.4810006,06.4054547,58.364,C35
1037,52.4809978,06.4054817,58.356,C36
1038,52.4809949,06.4055088,58.348,C37
1039,52.4809921,06.4055359,58.339,C38
1040,52.4809892,06.4055630,58.331,C39
1041,52.4809870,06.4054229,58.383,C40
1042,52.4809842,06.4054500,58.375,C41
1043,52.4809814,06.4054770,58.367,C42
1044,52.4809785,06.4055041,58.359,C43
1045,52.4809706,06.4054182,58.395,C44
1046,52.4809678,06.4054453,58.386,C45
1047,52.4809649,06.4054723,58.378,C46
1048,52.4809621,06.4054994,58.370,C47
1049,52.4811034,06.4054423,58.310,A0
1050,52.4811005,06.4054693,58.301,A1
1051,52.4810977,06.4054964,58.293,A2
1052,52.4810948,06.4055235,58.285,A3
1053,52.4810920,06.4055506,58.277,A4
1054,52.4810870,06.4054375,58.321,A5
1055,52.4810841,06.4054646,58.312,A6
1056,52.4810784,06.4055188,58.296,A7
1057,52.4810756,06.4055459,58.288,A8
1058,52.4810762,06.4053787,58.348,A9
1059,52.4810734,06.4054058,58.340,A10
1060,52.4810705,06.4054328,58.332,A11
1061,52.4810648,06.4054870,58.315,A12
1062,52.4810591,06.4055412,58.299,A13
1063,52.4810563,06.4055683,58.291,A14
1064,52.4810534,06.4055954,58.283,A15
1065,52.4810598,06.4053740,58.359,A16
1066,52.4810570,06.4054011,58.351,A17
1067,52.4810513,06.4054552,58.335,A18
1068,52.4810456,06.4055094,58.318,A19
1069,52.4810399,06.4055636,58.302,A20
1070,52.4810370,06.4055907,58.294,A21
1071,52.4810434,06.4053693,58.371,A22
1072,52.4810377,06.4054234,58.354,A23
1073,52.4810320,06.4054776,58.338,A24
1074,52.4810263,06.4055318,58.321,A25
1075,52.4810206,06.4055859,58.305,A26
1076,52.4810270,06.4053646,58.382,A27
1077,52.4810242,06.4053917,58.373,A28
1078,52.4810185,06.4054458,58.357,A29
1079,52.4810128,06.4055000,58.341,A30
1080,52.4810071,06.4055542,58.324,A31
1081,52.4810042,06.4055812,58.316,A32
1082,52.4810106,06.4053599,58.393,A33
1083,52.4810049,06.4054140,58.376,A34
1084,52.4809992,06.4054682,58.360,A35
1085,52.4809935,06.4055224,58.344,A36
1086,52.4809878,06.4055765,58.327,A37
1087,52.4809885,06.4054093,58.388,A38
1088,52.4809856,06.4054364,58.379,A39
1089,52.4809799,06.4054906,58.363,A40
1090,52.4809771,06.4055177,58.355,A41
1091,52.4809721,06.4054046,58.399,A42
1092,52.4809664,06.4054588,58.382,A43
1093,52.4809607,06.4055130,58.366,A44
1094,52.4811699,06.4054157,58.281,D1
1095,52.4811575,06.4054400,58.279,D2
1096,52.4811450,06.4054643,58.278,D3
1097,52.4811326,06.4054887,58.276,D4
1098,52.4811202,06.4055130,58.274,D5
1099,52.4811078,06.4055374,58.272,D6
1100,52.4810954,06.4055617,58.271,D7
1101,52.4810830,06.4055861,58.269,D8
1102,52.4810553,06.4055781,58.288,D9
1103,52.4810581,06.4055510,58.296,D10
1104,52.4810938,06.4055334,58.282,D11
1105,52.4810966,06.4055063,58.290,D12
1106,52.4810995,06.4054792,58.298,D13
1107,52.4811023,06.4054521,58.307,D14
1108,52.4810724,06.4054156,58.337,D15
1109,52.4810752,06.4053885,58.345,D16
1110,52.4810367,06.4054333,58.351,D17
1111,52.4810338,06.4054604,58.343,D18
1112,52.4810310,06.4054875,58.335,D19
1113,52.4810281,06.4055146,58.326,D20
1114,52.4809918,06.4055599,58.331,D21
1115,52.4809946,06.4055329,58.339,D22
1116,52.4809646,06.4054964,58.370,D23
1117,52.4809675,06.4054693,58.378,D24
1118,52.4809703,06.4054422,58.386,D25
1119,52.4809732,06.4054151,58.394,D26
1120,52.4810089,06.4053974,58.380,D27
1121,52.4810117,06.4053703,58.388,D28
1122,52.4810877,06.4054517,58.315,D29
1123,52.4810848,06.4054788,58.307,D30
1124,52.4810820,06.4055059,58.299,D31
1125,52.4810791,06.4055330,58.290,D32
1126,52.4810713,06.4054470,58.326,D33
1127,52.4810684,06.4054741,58.318,D34
1128,52.4810656,06.4055012,58.310,D35
1129,52.4810627,06.4055283,58.302,D36
1130,52.4810606,06.4053881,58.354,D37
1131,52.4810577,06.4054152,58.346,D38
1132,52.4810549,06.4054423,58.337,D39
1133,52.4810520,06.4054694,58.329,D40
1134,52.4810492,06.4054965,58.321,D41
1135,52.4810463,06.4055236,58.313,D42
1136,52.4810435,06.4055506,58.305,D43
1137,52.4810406,06.4055777,58.296,D44
1138,52.4810441,06.4053834,58.365,D45
1139,52.4810413,06.4054105,58.357,D46
1140,52.4810384,06.4054376,58.349,D47
1141,52.4810356,06.4054647,58.340,D48
1142,52.4810327,06.4054918,58.332,D49
1143,52.4810299,06.4055189,58.324,D50
1144,52.4810270,06.4055459,58.316,D51
1145,52.4810242,06.4055730,58.307,D52
1146,52.4810277,06.4053787,58.376,D53
1147,52.4810249,06.4054058,58.368,D54
1148,52.4810220,06.4054329,58.360,D55
1149,52.4810192,06.4054600,58.351,D56
1150,52.4810163,06.4054871,58.343,D57
1151,52.4810135,06.4055142,58.335,D58
1152,52.4810106,06.4055412,58.327,D59
1153,52.4810078,06.4055683,58.319,D60
1154,52.4810113,06.4053740,58.387,D61
1155,52.4810085,06.4054011,58.379,D62
1156,52.4810056,06.4054282,58.371,D63
1157,52.4810028,06.4054553,58.363,D64
1158,52.4809999,06.4054824,58.354,D65
1159,52.4809971,06.4055094,58.346,D66
1160,52.4809942,06.4055365,58.338,D67
1161,52.4809914,06.4055636,58.330,D68
1162,52.4809892,06.4054235,58.382,D69
1163,52.4809864,06.4054506,58.374,D70
1164,52.4809835,06.4054777,58.366,D71
1165,52.4809807,06.4055047,58.357,D72
1166,52.4809728,06.4054188,58.393,D73
1167,52.4809699,06.4054459,58.385,D74
1168,52.4809671,06.4054730,58.377,D75
1169,52.4809642,06.4055000,58.369,D76
