NAME,STATION-P,STATION-Q,STATION-R
N0,-0.010,1.190,0.000
M0,-0.060,-0.060,0.000
S0,-0.010,-1.140,0.000
N1,-0.010,3.740,0.000
M1,-0.060,2.490,0.000
S1,-0.010,1.410,0.000
N2,2.240,2.540,0.000
M2,2.190,1.290,0.000
S2,2.240,0.210,0.000
N3,2.240,-0.160,0.000
M3,2.190,-1.410,0.000
S3,2.240,-2.490,0.000
N4,-0.010,-1.360,0.000
M4,-0.060,-2.610,0.000
S4,-0.010,-3.690,0.000
N5,-2.260,-0.160,0.000
M5,-2.310,-1.410,0.000
S5,-2.260,-2.490,0.000
N6,-2.260,2.540,0.000
M6,-2.310,1.290,0.000
S6,-2.260,0.210,0.000
N7,-2.733,-3.631,0.000
M7,-2.783,-5.181,0.000
S7,-2.733,-6.561,0.000
N8,-5.388,-0.683,0.000
M8,-5.438,-2.233,0.000
S8,-5.388,-3.613,0.000
N9,-5.526,3.282,0.000
M9,-5.576,1.732,0.000
S9,-5.526,0.352,0.000
N10,-3.084,6.409,0.000
M10,-3.134,4.859,0.000
S10,-3.084,3.479,0.000
N11,0.797,7.234,0.000
M11,0.747,5.684,0.000
S11,0.797,4.304,0.000
N12,4.300,5.371,0.000
M12,4.250,3.821,0.000
S12,4.300,2.441,0.000
N13,5.786,1.692,0.000
M13,5.736,0.142,0.000
S13,5.786,-1.238,0.000
N14,4.560,-2.081,0.000
M14,4.510,-3.631,0.000
S14,4.560,-5.011,0.000
N15,1.196,-4.183,0.000
M15,1.146,-5.733,0.000
S15,1.196,-7.113,0.000
N16,1.124,-7.768,0.000
M16,1.074,-9.318,0.000
S16,1.124,-10.698,0.000
N17,-2.521,-8.070,0.000
M17,-2.571,-9.620,0.000
S17,-2.521,-11.000,0.000
N18,-7.116,-6.002,0.000
M18,-7.166,-7.552,0.000
S18,-7.116,-8.932,0.000
N19,-10.073,0.646,0.000
M19,-10.123,-0.904,0.000
S19,-10.073,-2.284,0.000
N20,-9.892,3.869,0.000
M20,-9.942,2.319,0.000
S20,-9.892,0.939,0.000
N21,-7.959,7.703,0.000
M21,-8.009,6.153,0.000
S21,-7.959,4.773,0.000
N22,-4.207,9.719,0.000
M22,-4.257,8.169,0.000
S22,-4.207,6.789,0.000
N23,1.553,10.337,0.000
M23,1.503,8.787,0.000
S23,1.553,7.407,0.000
N24,6.205,9.214,0.000
M24,6.155,7.664,0.000
S24,6.205,6.284,0.000
N25,9.067,5.892,0.000
M25,9.017,4.342,0.000
S25,9.067,2.962,0.000
N26,9.291,1.954,0.000
M26,9.241,0.404,0.000
S26,9.291,-0.976,0.000
N27,7.996,-2.719,0.000
M27,7.946,-4.269,0.000
S27,7.996,-5.649,0.000
N28,4.957,-6.260,0.000
M28,4.907,-7.810,0.000
S28,4.957,-9.190,0.000
N29,0.349,-12.853,0.000
M29,0.299,-14.403,0.000
S29,0.349,-15.783,0.000
N30,-3.468,-12.887,0.000
M30,-3.518,-14.437,0.000
S30,-3.468,-15.817,0.000
N31,-6.143,-11.271,0.000
M31,-6.193,-12.821,0.000
S31,-6.143,-14.201,0.000
N32,-11.368,-5.224,0.000
M32,-11.418,-6.774,0.000
S32,-11.368,-8.154,0.000
N33,-14.103,-4.005,0.000
M33,-14.153,-5.555,0.000
S33,-14.103,-6.935,0.000
N34,-13.186,3.431,0.000
M34,-13.236,1.881,0.000
S34,-13.186,0.501,0.000
N35,-11.310,8.148,0.000
M35,-11.360,6.598,0.000
S35,-11.310,5.218,0.000
N36,-9.596,13.177,0.000
M36,-9.646,11.627,0.000
S36,-9.596,10.247,0.000
N37,-6.250,13.461,0.000
M37,-6.300,11.911,0.000
S37,-6.250,10.531,0.000
N38,-1.600,14.439,0.000
M38,-1.650,12.889,0.000
S38,-1.600,11.509,0.000
N39,5.351,13.575,0.000
M39,5.301,12.025,0.000
S39,5.351,10.645,0.000
N40,7.990,12.675,0.000
M40,7.940,11.125,0.000
S40,7.990,9.745,0.000
N41,11.270,8.474,0.000
M41,11.220,6.924,0.000
S41,11.270,5.544,0.000
N42,14.462,5.816,0.000
M42,14.412,4.266,0.000
S42,14.462,2.886,0.000
N43,13.403,-2.987,0.000
M43,13.353,-4.537,0.000
S43,13.403,-5.917,0.000
N44,11.422,-6.444,0.000
M44,11.372,-7.994,0.000
S44,11.422,-9.374,0.000
N45,7.896,-10.645,0.000
M45,7.846,-12.195,0.000
S45,7.896,-13.575,0.000
N48,6.991,-15.043,0.000
M48,6.941,-16.593,0.000
S48,6.991,-17.973,0.000
N49,5.839,-17.893,0.000
M49,5.789,-19.443,0.000
S49,5.839,-20.823,0.000
N50,-9.624,-16.493,0.000
M50,-9.674,-18.043,0.000
S50,-9.624,-19.423,0.000
N51,-19.187,-3.520,0.000
M51,-19.237,-5.070,0.000
S51,-19.187,-6.450,0.000
N52,-20.559,1.215,0.000
M52,-20.609,-0.335,0.000
S52,-20.559,-1.715,0.000
N53,-15.019,12.014,0.000
M53,-15.069,10.464,0.000
S53,-15.019,9.084,0.000
N54,-3.723,19.005,0.000
M54,-3.773,17.455,0.000
S54,-3.723,16.075,0.000
N55,3.814,21.573,0.000
M55,3.764,20.023,0.000
S55,3.814,18.643,0.000
N56,14.650,12.049,0.000
M56,14.600,10.499,0.000
S56,14.650,9.119,0.000
N57,19.458,5.440,0.000
M57,19.408,3.890,0.000
S57,19.458,2.510,0.000
N58,17.780,-4.369,0.000
M58,17.730,-5.919,0.000
S58,17.780,-7.299,0.000
N59,20.882,-11.952,0.000
M59,20.832,-13.502,0.000
S59,20.882,-14.882,0.000
N60,11.320,-20.780,0.000
M60,11.270,-22.330,0.000
S60,11.320,-23.710,0.000
N61,-1.181,-23.865,0.000
M61,-1.231,-25.415,0.000
S61,-1.181,-26.795,0.000
N62,-7.397,-23.025,0.000
M62,-7.447,-24.575,0.000
S62,-7.397,-25.955,0.000
N63,-15.404,-20.360,0.000
M63,-15.454,-21.910,0.000
S63,-15.404,-23.290,0.000
N64,-23.199,-4.539,0.000
M64,-23.249,-6.089,0.000
S64,-23.199,-7.469,0.000
N65,-24.400,3.345,0.000
M65,-24.450,1.795,0.000
S65,-24.400,0.415,0.000
N66,-21.204,16.827,0.000
M66,-21.254,15.277,0.000
S66,-21.204,13.897,0.000
N67,-9.439,24.800,0.000
M67,-9.489,23.250,0.000
S67,-9.439,21.870,0.000
N68,-0.541,27.534,0.000
M68,-0.591,25.984,0.000
S68,-0.541,24.604,0.000
N69,10.608,23.881,0.000
M69,10.558,22.331,0.000
S69,10.608,20.951,0.000
N70,23.694,14.469,0.000
M70,23.644,12.919,0.000
S70,23.694,11.539,0.000
N71,26.638,-3.028,0.000
M71,26.588,-4.578,0.000
S71,26.638,-5.958,0.000
N72,29.579,-16.528,0.000
M72,29.529,-18.078,0.000
S72,29.579,-19.458,0.000
N73,17.165,-24.775,0.000
M73,17.115,-26.325,0.000
S73,17.165,-27.705,0.000
N74,3.376,-29.620,0.000
M74,3.326,-31.170,0.000
S74,3.376,-32.550,0.000
N75,-4.535,-30.857,0.000
M75,-4.585,-32.407,0.000
S75,-4.535,-33.787,0.000
N76,-21.197,-21.937,0.000
M76,-21.247,-23.487,0.000
S76,-21.197,-24.867,0.000
N77,-32.802,-8.113,0.000
M77,-32.852,-9.663,0.000
S77,-32.802,-11.043,0.000
N78,-33.992,4.123,0.000
M78,-34.042,2.573,0.000
S78,-33.992,1.193,0.000
N79,-28.275,11.545,0.000
M79,-28.325,9.995,0.000
S79,-28.275,8.615,0.000
N80,-24.239,25.628,0.000
M80,-24.289,24.078,0.000
S80,-24.239,22.698,0.000
N81,-7.467,34.589,0.000
M81,-7.517,33.039,0.000
S81,-7.467,31.659,0.000
N82,1.475,35.256,0.000
M82,1.425,33.706,0.000
S82,1.475,32.326,0.000
N83,17.031,31.698,0.000
M83,16.981,30.148,0.000
S83,17.031,28.768,0.000
N84,22.023,25.157,0.000
M84,21.973,23.607,0.000
S84,22.023,22.227,0.000
N85,32.725,7.545,0.000
M85,32.675,5.995,0.000
S85,32.725,4.615,0.000
N86,30.658,1.155,0.000
M86,30.608,-0.395,0.000
S86,30.658,-1.775,0.000
N87,36.675,-0.637,0.000
M87,36.625,-2.187,0.000
S87,36.675,-3.567,0.000
N88,19.075,-35.671,0.000
M88,19.025,-37.221,0.000
S88,19.075,-38.601,0.000
N89,-6.471,-37.997,0.000
M89,-6.521,-39.547,0.000
S89,-6.471,-40.927,0.000
N90,-25.569,-31.812,0.000
M90,-25.619,-33.362,0.000
S90,-25.569,-34.742,0.000
N91,-34.902,-18.711,0.000
M91,-34.952,-20.261,0.000
S91,-34.902,-21.641,0.000
N92,-32.855,26.311,0.000
M92,-32.905,24.761,0.000
S92,-32.855,23.381,0.000
N93,-12.597,35.815,0.000
M93,-12.647,34.265,0.000
S93,-12.597,32.885,0.000
N94,2.171,42.881,0.000
M94,2.121,41.331,0.000
S94,2.171,39.951,0.000
N95,35.950,16.008,0.000
M95,35.900,14.458,0.000
S95,35.950,13.078,0.000
N46,32.517,57.828,0.000
M46,32.467,56.278,0.000
S46,32.517,54.898,0.000
N47,56.328,-31.037,0.000
M47,56.278,-32.587,0.000
S47,56.328,-33.967,0.000
D1,31.000,12.360,0.000
D2,27.350,15.360,0.000
D3,6.000,32.960,0.000
D4,6.000,39.960,0.000
D5,11.300,15.360,0.000
D6,11.300,9.710,0.000
D7,9.050,8.860,0.000
D8,2.000,15.360,0.000
D9,-7.700,30.060,0.000
D10,-11.800,30.060,0.000
D11,-4.200,15.360,0.000
D12,-15.000,15.360,0.000
D13,-4.200,11.960,0.000
D14,-4.200,10.110,0.000
D15,-6.000,10.110,0.000
D16,-6.000,4.960,0.000
D17,-6.000,4.260,0.000
D18,-7.800,4.260,0.000
D19,-7.800,-0.740,0.000
D20,-13.000,4.260,0.000
D21,-8.000,9.260,0.000
D22,-11.300,9.260,0.000
D23,-18.000,5.960,0.000
D24,-33.000,5.960,0.000
D25,33.000,2.960,0.000
D26,19.500,6.960,0.000
D27,24.000,0.960,0.000
D28,13.500,-1.640,0.000
D29,4.000,-1.640,0.000
D30,24.000,-4.340,0.000
D31,18.700,-10.040,0.000
D32,4.400,-10.040,0.000
D33,3.900,-11.840,0.000
D34,-3.500,-11.840,0.000
D35,-6.000,-9.640,0.000
D36,-5.000,-5.040,0.000
D37,2.500,-16.540,0.000
D38,-7.100,-16.540,0.000
D39,-7.800,-15.540,0.000
D40,-11.400,-9.640,0.000
D41,-10.500,-15.540,0.000
D42,-17.500,-20.040,0.000
D43,-21.200,-20.040,0.000
D44,0.900,-28.940,0.000
D45,-7.300,-28.940,0.000
D46,-4.000,-39.440,0.000
D47,24.000,-18.040,0.000
