N0,52.5503621,06.5132471,49.568,N0
M0,52.5503581,06.5132468,49.568,M0
S0,52.5503546,06.5132471,49.568,S0
N1,52.5503704,06.5132471,49.568,N1
M1,52.5503663,06.5132468,49.568,M1
S1,52.5503628,06.5132471,49.568,S1
N2,52.5503665,06.5132591,49.568,N2
M2,52.5503624,06.5132589,49.568,M2
S2,52.5503589,06.5132591,49.568,S2
N3,52.5503577,06.5132591,49.568,N3
M3,52.5503537,06.5132589,49.567,M3
S3,52.5503502,06.5132591,49.567,S3
N4,52.5503539,06.5132471,49.568,N4
M4,52.5503498,06.5132468,49.567,M4
S4,52.5503463,06.5132471,49.567,S4
N5,52.5503577,06.5132350,49.568,N5
M5,52.5503537,06.5132348,49.568,M5
S5,52.5503502,06.5132350,49.568,S5
N6,52.5503665,06.5132350,49.568,N6
M6,52.5503624,06.5132348,49.568,M6
S6,52.5503589,06.5132350,49.568,S6
N7,52.5503465,06.5132325,49.567,N7
M7,52.5503415,06.5132322,49.567,M7
S7,52.5503370,06.5132325,49.567,S7
N8,52.5503561,06.5132183,49.568,N8
M8,52.5503510,06.5132180,49.568,M8
S8,52.5503466,06.5132183,49.568,S8
N9,52.5503689,06.5132176,49.569,N9
M9,52.5503639,06.5132173,49.568,M9
S9,52.5503594,06.5132176,49.568,S9
N10,52.5503790,06.5132306,49.569,N10
M10,52.5503740,06.5132304,49.569,M10
S10,52.5503695,06.5132306,49.568,S10
N11,52.5503817,06.5132514,49.569,N11
M11,52.5503767,06.5132511,49.568,M11
S11,52.5503722,06.5132514,49.568,S11
N12,52.5503756,06.5132701,49.568,N12
M12,52.5503706,06.5132699,49.568,M12
S12,52.5503662,06.5132702,49.568,S12
N13,52.5503637,06.5132781,49.568,N13
M13,52.5503587,06.5132778,49.567,M13
S13,52.5503543,06.5132781,49.567,S13
N14,52.5503515,06.5132715,49.567,N14
M14,52.5503465,06.5132713,49.567,M14
S14,52.5503421,06.5132715,49.567,S14
N15,52.5503447,06.5132535,49.567,N15
M15,52.5503397,06.5132533,49.567,M15
S15,52.5503353,06.5132535,49.567,S15
N16,52.5503331,06.5132532,49.566,N16
M16,52.5503281,06.5132529,49.566,M16
S16,52.5503237,06.5132532,49.566,S16
N17,52.5503322,06.5132337,49.567,N17
M17,52.5503271,06.5132334,49.567,M17
S17,52.5503227,06.5132337,49.566,S17
N18,52.5503388,06.5132091,49.567,N18
M18,52.5503338,06.5132088,49.567,M18
S18,52.5503294,06.5132091,49.567,S18
N19,52.5503603,06.5131932,49.569,N19
M19,52.5503553,06.5131930,49.568,M19
S19,52.5503509,06.5131932,49.568,S19
N20,52.5503708,06.5131942,49.569,N20
M20,52.5503658,06.5131939,49.569,M20
S20,52.5503613,06.5131942,49.569,S20
N21,52.5503832,06.5132045,49.569,N21
M21,52.5503782,06.5132043,49.569,M21
S21,52.5503737,06.5132045,49.569,S21
N22,52.5503897,06.5132246,49.569,N22
M22,52.5503847,06.5132243,49.569,M22
S22,52.5503802,06.5132246,49.569,S22
N23,52.5503917,06.5132554,49.569,N23
M23,52.5503867,06.5132552,49.569,M23
S23,52.5503822,06.5132554,49.569,S23
N24,52.5503881,06.5132803,49.569,N24
M24,52.5503831,06.5132801,49.568,M24
S24,52.5503786,06.5132803,49.568,S24
N25,52.5503773,06.5132957,49.568,N25
M25,52.5503723,06.5132954,49.568,M25
S25,52.5503678,06.5132957,49.567,S25
N26,52.5503646,06.5132969,49.567,N26
M26,52.5503596,06.5132966,49.567,M26
S26,52.5503551,06.5132969,49.567,S26
N27,52.5503495,06.5132899,49.567,N27
M27,52.5503445,06.5132897,49.566,M27
S27,52.5503400,06.5132899,49.566,S27
N28,52.5503380,06.5132737,49.566,N28
M28,52.5503330,06.5132734,49.566,M28
S28,52.5503285,06.5132737,49.566,S28
N29,52.5503167,06.5132490,49.566,N29
M29,52.5503117,06.5132488,49.566,M29
S29,52.5503072,06.5132490,49.565,S29
N30,52.5503166,06.5132286,49.566,N30
M30,52.5503116,06.5132283,49.566,M30
S30,52.5503071,06.5132286,49.566,S30
N31,52.5503218,06.5132143,49.567,N31
M31,52.5503168,06.5132140,49.566,M31
S31,52.5503123,06.5132143,49.566,S31
N32,52.5503414,06.5131863,49.568,N32
M32,52.5503363,06.5131860,49.568,M32
S32,52.5503319,06.5131863,49.567,S32
N33,52.5503453,06.5131717,49.568,N33
M33,52.5503403,06.5131714,49.568,M33
S33,52.5503358,06.5131717,49.568,S33
N34,52.5503694,06.5131766,49.569,N34
M34,52.5503643,06.5131763,49.569,M34
S34,52.5503599,06.5131766,49.569,S34
N35,52.5503846,06.5131866,49.570,N35
M35,52.5503796,06.5131863,49.570,M35
S35,52.5503751,06.5131866,49.569,S35
N36,52.5504009,06.5131958,49.570,N36
M36,52.5503959,06.5131955,49.570,M36
S36,52.5503914,06.5131958,49.570,S36
N37,52.5504018,06.5132137,49.570,N37
M37,52.5503968,06.5132134,49.570,M37
S37,52.5503923,06.5132137,49.570,S37
N38,52.5504050,06.5132386,49.570,N38
M38,52.5504000,06.5132383,49.570,M38
S38,52.5503955,06.5132386,49.570,S38
N39,52.5504022,06.5132758,49.569,N39
M39,52.5503972,06.5132755,49.569,M39
S39,52.5503927,06.5132758,49.569,S39
N40,52.5503993,06.5132899,49.569,N40
M40,52.5503943,06.5132896,49.569,M40
S40,52.5503898,06.5132899,49.569,S40
N41,52.5503857,06.5133074,49.568,N41
M41,52.5503807,06.5133072,49.568,M41
S41,52.5503762,06.5133075,49.568,S41
N42,52.5503771,06.5133245,49.567,N42
M42,52.5503721,06.5133243,49.567,M42
S42,52.5503676,06.5133245,49.567,S42
N43,52.5503486,06.5133189,49.566,N43
M43,52.5503436,06.5133186,49.566,M43
S43,52.5503391,06.5133189,49.566,S43
N44,52.5503374,06.5133083,49.566,N44
M44,52.5503324,06.5133080,49.566,M44
S44,52.5503279,06.5133083,49.565,S44
N45,52.5503238,06.5132894,49.566,N45
M45,52.5503188,06.5132891,49.565,M45
S45,52.5503144,06.5132894,49.565,S45
N48,52.5503096,06.5132846,49.565,N48
M48,52.5503046,06.5132843,49.565,M48
S48,52.5503001,06.5132846,49.565,S48
N49,52.5503004,06.5132784,49.565,N49
M49,52.5502954,06.5132781,49.564,M49
S49,52.5502909,06.5132784,49.564,S49
N50,52.5503049,06.5131956,49.566,N50
M50,52.5502999,06.5131954,49.566,M50
S50,52.5502954,06.5131956,49.566,S50
N51,52.5503469,06.5131445,49.569,N51
M51,52.5503419,06.5131442,49.568,M51
S51,52.5503374,06.5131445,49.568,S51
N52,52.5503622,06.5131371,49.569,N52
M52,52.5503572,06.5131368,49.569,M52
S52,52.5503527,06.5131371,49.569,S52
N53,52.5503971,06.5131667,49.571,N53
M53,52.5503921,06.5131665,49.570,M53
S53,52.5503876,06.5131668,49.570,S53
N54,52.5504197,06.5132272,49.571,N54
M54,52.5504147,06.5132269,49.571,M54
S54,52.5504103,06.5132272,49.570,S54
N55,52.5504281,06.5132675,49.571,N55
M55,52.5504230,06.5132673,49.570,M55
S55,52.5504186,06.5132675,49.570,S55
N56,52.5503972,06.5133255,49.568,N56
M56,52.5503922,06.5133253,49.568,M56
S56,52.5503878,06.5133255,49.568,S56
N57,52.5503759,06.5133513,49.567,N57
M57,52.5503709,06.5133510,49.567,M57
S57,52.5503664,06.5133513,49.567,S57
N58,52.5503441,06.5133423,49.566,N58
M58,52.5503391,06.5133420,49.566,M58
S58,52.5503347,06.5133423,49.565,S58
N59,52.5503196,06.5133589,49.564,N59
M59,52.5503146,06.5133586,49.564,M59
S59,52.5503101,06.5133589,49.564,S59
N60,52.5502910,06.5133077,49.564,N60
M60,52.5502860,06.5133075,49.564,M60
S60,52.5502816,06.5133077,49.563,S60
N61,52.5502811,06.5132408,49.564,N61
M61,52.5502760,06.5132406,49.564,M61
S61,52.5502716,06.5132408,49.564,S61
N62,52.5502838,06.5132076,49.565,N62
M62,52.5502788,06.5132073,49.565,M62
S62,52.5502743,06.5132076,49.565,S62
N63,52.5502924,06.5131647,49.566,N63
M63,52.5502874,06.5131644,49.566,M63
S63,52.5502829,06.5131647,49.566,S63
N64,52.5503436,06.5131230,49.569,N64
M64,52.5503386,06.5131227,49.569,M64
S64,52.5503341,06.5131230,49.568,S64
N65,52.5503691,06.5131165,49.570,N65
M65,52.5503641,06.5131163,49.570,M65
S65,52.5503596,06.5131166,49.570,S65
N66,52.5504127,06.5131336,49.572,N66
M66,52.5504077,06.5131334,49.572,M66
S66,52.5504032,06.5131336,49.571,S66
N67,52.5504385,06.5131966,49.572,N67
M67,52.5504335,06.5131963,49.572,M67
S67,52.5504290,06.5131966,49.572,S67
N68,52.5504473,06.5132442,49.572,N68
M68,52.5504423,06.5132440,49.572,M68
S68,52.5504379,06.5132442,49.571,S68
N69,52.5504355,06.5133039,49.570,N69
M69,52.5504305,06.5133036,49.570,M69
S69,52.5504260,06.5133039,49.570,S69
N70,52.5504051,06.5133739,49.568,N70
M70,52.5504001,06.5133737,49.568,M70
S70,52.5503956,06.5133739,49.568,S70
N71,52.5503485,06.5133897,49.565,N71
M71,52.5503435,06.5133894,49.565,M71
S71,52.5503390,06.5133897,49.565,S71
N72,52.5503048,06.5134055,49.563,N72
M72,52.5502998,06.5134052,49.563,M72
S72,52.5502953,06.5134055,49.563,S72
N73,52.5502781,06.5133390,49.563,N73
M73,52.5502731,06.5133388,49.563,M73
S73,52.5502686,06.5133390,49.562,S73
N74,52.5502624,06.5132652,49.563,N74
M74,52.5502574,06.5132650,49.563,M74
S74,52.5502530,06.5132652,49.563,S74
N75,52.5502584,06.5132229,49.564,N75
M75,52.5502534,06.5132226,49.563,M75
S75,52.5502490,06.5132229,49.563,S75
N76,52.5502873,06.5131337,49.566,N76
M76,52.5502823,06.5131334,49.566,M76
S76,52.5502778,06.5131337,49.566,S76
N77,52.5503320,06.5130716,49.569,N77
M77,52.5503270,06.5130713,49.569,M77
S77,52.5503225,06.5130716,49.569,S77
N78,52.5503716,06.5130652,49.571,N78
M78,52.5503666,06.5130649,49.571,M78
S78,52.5503621,06.5130652,49.571,S78
N79,52.5503956,06.5130958,49.572,N79
M79,52.5503906,06.5130955,49.571,M79
S79,52.5503861,06.5130958,49.571,S79
N80,52.5504412,06.5131174,49.573,N80
M80,52.5504361,06.5131171,49.573,M80
S80,52.5504317,06.5131174,49.573,S80
N81,52.5504702,06.5132071,49.573,N81
M81,52.5504651,06.5132069,49.573,M81
S81,52.5504607,06.5132071,49.573,S81
N82,52.5504723,06.5132550,49.573,N82
M82,52.5504673,06.5132547,49.573,M82
S82,52.5504628,06.5132550,49.572,S82
N83,52.5504608,06.5133383,49.571,N83
M83,52.5504558,06.5133380,49.571,M83
S83,52.5504513,06.5133383,49.571,S83
N84,52.5504397,06.5133650,49.570,N84
M84,52.5504346,06.5133647,49.570,M84
S84,52.5504302,06.5133650,49.569,S84
N85,52.5503827,06.5134223,49.566,N85
M85,52.5503777,06.5134220,49.566,M85
S85,52.5503732,06.5134223,49.566,S85
N86,52.5503620,06.5134112,49.566,N86
M86,52.5503570,06.5134110,49.565,M86
S86,52.5503525,06.5134112,49.565,S86
N87,52.5503562,06.5134434,49.565,N87
M87,52.5503512,06.5134432,49.565,M87
S87,52.5503467,06.5134434,49.565,S87
N88,52.5502429,06.5133493,49.561,N88
M88,52.5502379,06.5133490,49.561,M88
S88,52.5502334,06.5133493,49.561,S88
N89,52.5502353,06.5132125,49.563,N89
M89,52.5502303,06.5132123,49.563,M89
S89,52.5502259,06.5132125,49.562,S89
N90,52.5502553,06.5131103,49.565,N90
M90,52.5502503,06.5131101,49.565,M90
S90,52.5502459,06.5131103,49.565,S90
N91,52.5502977,06.5130604,49.568,N91
M91,52.5502927,06.5130601,49.568,M91
S91,52.5502882,06.5130604,49.567,S91
N92,52.5504434,06.5130713,49.574,N92
M92,52.5504383,06.5130710,49.574,M92
S92,52.5504339,06.5130713,49.574,S92
N93,52.5504741,06.5131797,49.574,N93
M93,52.5504691,06.5131794,49.574,M93
S93,52.5504646,06.5131797,49.574,S93
N94,52.5504970,06.5132587,49.574,N94
M94,52.5504920,06.5132585,49.574,M94
S94,52.5504875,06.5132587,49.573,S94
N95,52.5504101,06.5134395,49.567,N95
M95,52.5504051,06.5134393,49.567,M95
S95,52.5504006,06.5134395,49.567,S95
N46,52.5505453,06.5134211,49.574,N46
M46,52.5505403,06.5134209,49.574,M46
S46,52.5505359,06.5134211,49.574,S46
N47,52.5502579,06.5135486,49.559,N47
M47,52.5502529,06.5135484,49.559,M47
S47,52.5502484,06.5135486,49.559,S47
D1,52.5503983,06.5134130,49.567,D1
D2,52.5504080,06.5133935,49.568,D2
D3,52.5504649,06.5132792,49.572,D3
D4,52.5504875,06.5132792,49.573,D4
D5,52.5504080,06.5133076,49.569,D5
D6,52.5503897,06.5133076,49.568,D6
D7,52.5503869,06.5132956,49.568,D7
D8,52.5504080,06.5132578,49.570,D8
D9,52.5504555,06.5132059,49.573,D9
D10,52.5504555,06.5131840,49.573,D10
D11,52.5504079,06.5132246,49.570,D11
D12,52.5504079,06.5131668,49.571,D12
D13,52.5503970,06.5132247,49.570,D13
D14,52.5503910,06.5132247,49.570,D14
D15,52.5503910,06.5132150,49.570,D15
D16,52.5503743,06.5132150,49.569,D16
D17,52.5503720,06.5132150,49.569,D17
D18,52.5503720,06.5132054,49.569,D18
D19,52.5503559,06.5132054,49.568,D19
D20,52.5503720,06.5131776,49.569,D20
D21,52.5503882,06.5132043,49.570,D21
D22,52.5503882,06.5131867,49.570,D22
D23,52.5503775,06.5131508,49.570,D23
D24,52.5503775,06.5130705,49.571,D24
D25,52.5503679,06.5134238,49.566,D25
D26,52.5503808,06.5133515,49.567,D26
D27,52.5503614,06.5133756,49.566,D27
D28,52.5503530,06.5133194,49.566,D28
D29,52.5503530,06.5132685,49.567,D29
D30,52.5503442,06.5133756,49.565,D30
D31,52.5503258,06.5133472,49.565,D31
D32,52.5503258,06.5132707,49.566,D32
D33,52.5503200,06.5132680,49.566,D33
D34,52.5503200,06.5132284,49.566,D34
D35,52.5503271,06.5132150,49.567,D35
D36,52.5503420,06.5132204,49.567,D36
D37,52.5503048,06.5132605,49.565,D37
D38,52.5503048,06.5132092,49.566,D38
D39,52.5503080,06.5132054,49.566,D39
D40,52.5503271,06.5131861,49.567,D40
D41,52.5503080,06.5131910,49.566,D41
D42,52.5502934,06.5131535,49.566,D42
D43,52.5502934,06.5131337,49.566,D43
D44,52.5502646,06.5132520,49.563,D44
D45,52.5502646,06.5132081,49.564,D45
D46,52.5502307,06.5132258,49.562,D46
D47,52.5502999,06.5133756,49.563,D47
