C0,53.2434352,06.4704858,41.497,C0
C1,53.2434245,06.4705072,41.465,C1
C2,53.2434138,06.4705286,41.432,C2
C3,53.2434031,06.4705500,41.400,C3
C4,53.2434224,06.4704679,41.465,C4
C5,53.2434117,06.4704893,41.433,C5
C6,53.2434010,06.4705107,41.401,C6
C7,53.2433903,06.4705321,41.368,C7
C8,53.2434310,06.4704073,41.498,C8
C9,53.2434203,06.4704287,41.466,C9
C10,53.2434096,06.4704501,41.434,C10
C11,53.2433990,06.4704714,41.401,C11
C12,53.2433883,06.4704928,41.369,C12
C13,53.2433776,06.4705142,41.337,C13
C14,53.2433669,06.4705356,41.305,C14
C15,53.2433562,06.4705569,41.272,C15
C16,53.2434183,06.4703894,41.466,C16
C17,53.2434076,06.4704108,41.434,C17
C18,53.2433969,06.4704322,41.402,C18
C19,53.2433862,06.4704535,41.370,C19
C20,53.2433755,06.4704749,41.337,C20
C21,53.2433648,06.4704963,41.305,C21
C22,53.2433541,06.4705177,41.273,C22
C23,53.2433434,06.4705390,41.241,C23
C24,53.2434055,06.4703715,41.435,C24
C25,53.2433948,06.4703929,41.403,C25
C26,53.2433841,06.4704143,41.370,C26
C27,53.2433734,06.4704356,41.338,C27
C28,53.2433627,06.4704570,41.306,C28
C29,53.2433520,06.4704784,41.274,C29
C30,53.2433413,06.4704998,41.241,C30
C31,53.2433306,06.4705212,41.209,C31
C32,53.2433927,06.4703536,41.403,C32
C33,53.2433820,06.4703750,41.371,C33
C34,53.2433713,06.4703964,41.339,C34
C35,53.2433606,06.4704177,41.306,C35
C36,53.2433499,06.4704391,41.274,C36
C37,53.2433392,06.4704605,41.242,C37
C38,53.2433286,06.4704819,41.210,C38
C39,53.2433179,06.4705033,41.178,C39
C40,53.2433586,06.4703785,41.307,C40
C41,53.2433479,06.4703998,41.275,C41
C42,53.2433372,06.4704212,41.243,C42
C43,53.2433265,06.4704426,41.210,C43
C44,53.2433458,06.4703606,41.275,C44
C45,53.2433351,06.4703820,41.243,C45
C46,53.2433244,06.4704033,41.211,C46
C47,53.2433137,06.4704247,41.179,C47
A0,53.2434533,06.4704930,41.545,A0
A1,53.2434426,06.4705144,41.512,A1
A2,53.2434319,06.4705358,41.480,A2
A3,53.2434212,06.4705572,41.448,A3
A4,53.2434105,06.4705786,41.416,A4
A5,53.2434405,06.4704752,41.513,A5
A6,53.2434298,06.4704965,41.481,A6
A7,53.2434192,06.4705179,41.448,A7
A8,53.2434085,06.4705393,41.416,A8
A9,53.2433978,06.4705607,41.384,A9
A10,53.2434492,06.4704145,41.546,A10
A11,53.2434385,06.4704359,41.514,A11
A12,53.2434278,06.4704573,41.481,A12
A13,53.2434171,06.4704786,41.449,A13
A14,53.2434064,06.4705000,41.417,A14
A15,53.2433957,06.4705214,41.385,A15
A16,53.2433850,06.4705428,41.352,A16
A17,53.2433743,06.4705641,41.320,A17
A18,53.2433636,06.4705855,41.288,A18
A19,53.2434364,06.4703966,41.514,A19
A20,53.2434257,06.4704180,41.482,A20
A21,53.2434150,06.4704394,41.450,A21
A22,53.2434043,06.4704607,41.417,A22
A23,53.2433936,06.4704821,41.385,A23
A24,53.2433829,06.4705035,41.353,A24
A25,53.2433722,06.4705249,41.321,A25
A26,53.2433615,06.4705463,41.288,A26
A27,53.2433508,06.4705676,41.256,A27
A28,53.2434236,06.4703787,41.483,A28
A29,53.2434129,06.4704001,41.450,A29
A30,53.2434022,06.4704215,41.418,A30
A31,53.2433915,06.4704428,41.386,A31
A32,53.2433808,06.4704642,41.354,A32
A33,53.2433701,06.4704856,41.321,A33
A34,53.2433595,06.4705070,41.289,A34
A35,53.2433488,06.4705284,41.257,A35
A36,53.2433381,06.4705497,41.225,A36
A37,53.2434108,06.4703608,41.451,A37
A38,53.2434001,06.4703822,41.419,A38
A39,53.2433894,06.4704036,41.386,A39
A40,53.2433788,06.4704250,41.354,A40
A41,53.2433681,06.4704463,41.322,A41
A42,53.2433574,06.4704677,41.290,A42
A43,53.2433467,06.4704891,41.257,A43
A44,53.2433360,06.4705105,41.225,A44
A45,53.2433253,06.4705318,41.193,A45
A46,53.2433981,06.4703429,41.419,A46
A47,53.2433874,06.4703643,41.387,A47
A48,53.2433767,06.4703857,41.355,A48
A49,53.2433660,06.4704071,41.323,A49
A50,53.2433553,06.4704284,41.290,A50
A51,53.2433446,06.4704498,41.258,A51
A52,53.2433339,06.4704712,41.226,A52
A53,53.2433232,06.4704926,41.194,A53
A54,53.2433125,06.4705139,41.161,A54
A55,53.2433639,06.4703678,41.323,A55
A56,53.2433532,06.4703892,41.291,A56
A57,53.2433425,06.4704105,41.259,A57
A58,53.2433318,06.4704319,41.226,A58
A59,53.2433211,06.4704533,41.194,A59
A60,53.2433511,06.4703499,41.292,A60
A61,53.2433404,06.4703713,41.259,A61
A62,53.2433297,06.4703926,41.227,A62
A63,53.2433190,06.4704140,41.195,A63
A64,53.2433084,06.4704354,41.163,A64
D101,53.2433945,06.4705838,41.372,D101
D102,53.2433604,06.4706087,41.275,D102
D103,53.2433476,06.4705908,41.244,D103
D104,53.2433348,06.4705729,41.212,D104
D105,53.2433220,06.4705550,41.181,D105
D106,53.2433093,06.4705371,41.149,D106
D107,53.2432965,06.4705192,41.117,D107
D108,53.2433051,06.4704586,41.150,D108
D109,53.2433134,06.4704420,41.175,D109
D110,53.2433262,06.4704598,41.207,D110
D111,53.2433176,06.4705205,41.174,D111
D112,53.2433303,06.4705384,41.206,D112
D113,53.2433431,06.4705563,41.237,D113
D114,53.2433559,06.4705742,41.269,D114
D115,53.2433901,06.4705493,41.365,D115
D116,53.2434028,06.4705672,41.397,D116
D117,53.2433985,06.4704890,41.397,D117
D118,53.2433857,06.4704711,41.366,D118
D119,53.2433730,06.4704532,41.334,D119
D120,53.2433602,06.4704353,41.302,D120
D121,53.2433507,06.4703674,41.288,D121
D122,53.2433635,06.4703853,41.319,D122
D123,53.2433976,06.4703605,41.415,D123
D124,53.2434104,06.4703784,41.447,D124
D125,53.2434232,06.4703963,41.479,D125
D126,53.2434359,06.4704142,41.510,D126
D127,53.2434273,06.4704748,41.477,D127
D128,53.2434401,06.4704927,41.509,D128
R0,53.2434401,06.4704927,41.509,R0
R1,53.2434294,06.4705141,41.477,R1
R2,53.2434187,06.4705355,41.444,R2
R3,53.2434080,06.4705568,41.412,R3
R4,53.2434273,06.4704748,41.477,R4
R5,53.2434166,06.4704962,41.445,R5
R6,53.2434059,06.4705176,41.413,R6
R7,53.2433952,06.4705389,41.381,R7
R8,53.2434359,06.4704142,41.510,R8
R9,53.2434252,06.4704355,41.478,R9
R10,53.2434145,06.4704569,41.446,R10
R11,53.2434039,06.4704783,41.413,R11
R12,53.2433932,06.4704997,41.381,R12
R13,53.2433825,06.4705211,41.349,R13
R14,53.2433718,06.4705424,41.317,R14
R15,53.2433611,06.4705638,41.285,R15
R16,53.2434232,06.4703963,41.479,R16
R17,53.2434125,06.4704176,41.446,R17
R18,53.2434018,06.4704390,41.414,R18
R19,53.2433911,06.4704604,41.382,R19
R20,53.2433804,06.4704818,41.350,R20
R21,53.2433697,06.4705032,41.317,R21
R22,53.2433590,06.4705245,41.285,R22
R23,53.2433483,06.4705459,41.253,R23
R24,53.2434104,06.4703784,41.447,R24
R25,53.2433997,06.4703997,41.415,R25
R26,53.2433890,06.4704211,41.382,R26
R27,53.2433783,06.4704425,41.350,R27
R28,53.2433676,06.4704639,41.318,R28
R29,53.2433569,06.4704853,41.286,R29
R30,53.2433462,06.4705066,41.253,R30
R31,53.2433355,06.4705280,41.221,R31
R32,53.2433976,06.4703605,41.415,R32
R33,53.2433869,06.4703819,41.383,R33
R34,53.2433762,06.4704032,41.351,R34
R35,53.2433655,06.4704246,41.319,R35
R36,53.2433548,06.4704460,41.286,R36
R37,53.2433441,06.4704674,41.254,R37
R38,53.2433335,06.4704887,41.222,R38
R39,53.2433228,06.4705101,41.190,R39
R40,53.2433635,06.4703853,41.319,R40
R41,53.2433528,06.4704067,41.287,R41
R42,53.2433421,06.4704281,41.255,R42
R43,53.2433314,06.4704495,41.222,R43
R44,53.2433507,06.4703674,41.288,R44
R45,53.2433400,06.4703888,41.255,R45
R46,53.2433293,06.4704102,41.223,R46
R47,53.2433186,06.4704316,41.191,R47
R48,53.2433353,06.4703773,41.244,R48
