NAME,STATION-P,STATION-Q,STATION-R
N0,-0.010,1.190,0.000
M0,-0.060,-0.060,0.000
S0,-0.010,-1.140,0.000
N1,-0.010,3.740,0.000
M1,-0.060,2.490,0.000
S1,-0.010,1.410,0.000
N2,2.240,2.540,0.000
M2,2.190,1.290,0.000
S2,2.240,0.210,0.000
N3,2.240,-0.160,0.000
M3,2.190,-1.410,0.000
S3,2.240,-2.490,0.000
N4,-0.010,-1.360,0.000
M4,-0.060,-2.610,0.000
S4,-0.010,-3.690,0.000
N5,-2.260,-0.160,0.000
M5,-2.310,-1.410,0.000
S5,-2.260,-2.490,0.000
N6,-2.260,2.540,0.000
M6,-2.310,1.290,0.000
S6,-2.260,0.210,0.000
N7,0.797,7.234,0.000
M7,0.747,5.684,0.000
S7,0.797,4.304,0.000
N8,4.300,5.371,0.000
M8,4.250,3.821,0.000
S8,4.300,2.441,0.000
N9,5.787,1.692,0.000
M9,5.737,0.142,0.000
S9,5.787,-1.238,0.000
N10,4.561,-2.081,0.000
M10,4.511,-3.631,0.000
S10,4.561,-5.011,0.000
N11,1.196,-4.183,0.000
M11,1.146,-5.733,0.000
S11,1.196,-7.113,0.000
N12,-2.733,-3.631,0.000
M12,-2.783,-5.181,0.000
S12,-2.733,-6.561,0.000
N13,-5.388,-0.683,0.000
M13,-5.438,-2.233,0.000
S13,-5.388,-3.613,0.000
N14,-5.526,3.282,0.000
M14,-5.576,1.732,0.000
S14,-5.526,0.352,0.000
N15,-3.084,6.409,0.000
M15,-3.134,4.859,0.000
S15,-3.084,3.479,0.000
N16,-4.242,9.801,0.000
M16,-4.292,8.251,0.000
S16,-4.242,6.871,0.000
N17,-0.920,11.333,0.000
M17,-0.970,9.783,0.000
S17,-0.920,8.403,0.000
N18,4.105,10.961,0.000
M18,4.055,9.411,0.000
S18,4.105,8.031,0.000
N19,9.158,5.725,0.000
M19,9.108,4.175,0.000
S19,9.158,2.795,0.000
N20,10.089,2.634,0.000
M20,10.039,1.084,0.000
S20,10.089,-0.296,0.000
N21,9.585,-1.630,0.000
M21,9.535,-3.180,0.000
S21,9.585,-4.560,0.000
N22,6.749,-4.807,0.000
M22,6.699,-6.357,0.000
S22,6.749,-7.737,0.000
N23,1.547,-7.358,0.000
M23,1.497,-8.908,0.000
S23,1.547,-10.288,0.000
N24,-3.208,-7.893,0.000
M24,-3.258,-9.443,0.000
S24,-3.208,-10.823,0.000
N25,-7.034,-5.751,0.000
M25,-7.084,-7.301,0.000
S25,-7.034,-8.681,0.000
N26,-8.592,-2.127,0.000
M26,-8.642,-3.677,0.000
S26,-8.592,-5.057,0.000
N27,-8.972,2.708,0.000
M27,-9.022,1.158,0.000
S27,-8.972,-0.222,0.000
N28,-7.328,7.074,0.000
M28,-7.378,5.524,0.000
S28,-7.328,4.144,0.000
N29,-5.253,14.845,0.000
M29,-5.303,13.295,0.000
S29,-5.253,11.915,0.000
N30,-1.678,16.183,0.000
M30,-1.728,14.633,0.000
S30,-1.678,13.253,0.000
N31,1.389,15.579,0.000
M31,1.339,14.029,0.000
S31,1.389,12.649,0.000
N32,8.367,11.684,0.000
M32,8.317,10.134,0.000
S32,8.367,8.754,0.000
N33,11.354,11.473,0.000
M33,11.304,9.923,0.000
S33,11.354,8.543,0.000
N34,13.036,4.173,0.000
M34,12.986,2.623,0.000
S34,13.036,1.243,0.000
N35,12.886,-0.901,0.000
M35,12.836,-2.451,0.000
S35,12.886,-3.831,0.000
N36,12.995,-6.214,0.000
M36,12.945,-7.764,0.000
S36,12.995,-9.144,0.000
N37,9.948,-7.625,0.000
M37,9.898,-9.175,0.000
S37,9.948,-10.555,0.000
N38,5.913,-10.135,0.000
M38,5.863,-11.685,0.000
S38,5.913,-13.065,0.000
N39,-0.915,-11.699,0.000
M39,-0.965,-13.249,0.000
S39,-0.915,-14.629,0.000
N40,-3.702,-11.756,0.000
M40,-3.752,-13.306,0.000
S40,-3.702,-14.686,0.000
N41,-8.221,-8.931,0.000
M41,-8.271,-10.481,0.000
S41,-8.221,-11.861,0.000
N42,-12.130,-7.525,0.000
M42,-12.180,-9.075,0.000
S42,-12.130,-10.455,0.000
N43,-14.145,1.109,0.000
M43,-14.195,-0.441,0.000
S43,-14.145,-1.821,0.000
N44,-13.466,5.036,0.000
M44,-13.516,3.486,0.000
S44,-13.466,2.106,0.000
N45,-11.590,10.189,0.000
M45,-11.640,8.639,0.000
S45,-11.590,7.259,0.000
N48,-12.243,14.632,0.000
M48,-12.293,13.082,0.000
S48,-12.243,11.702,0.000
N49,-12.136,17.704,0.000
M49,-12.186,16.154,0.000
S49,-12.136,14.774,0.000
N50,2.873,21.676,0.000
M50,2.823,20.126,0.000
S50,2.873,18.746,0.000
N51,16.297,12.756,0.000
M51,16.247,11.206,0.000
S51,16.297,9.826,0.000
N52,19.206,8.777,0.000
M52,19.156,7.227,0.000
S52,19.206,5.847,0.000
N53,17.693,-3.266,0.000
M53,17.643,-4.816,0.000
S53,17.693,-6.196,0.000
N54,9.469,-13.698,0.000
M54,9.419,-15.248,0.000
S54,9.469,-16.628,0.000
N55,3.265,-18.690,0.000
M55,3.215,-20.240,0.000
S55,3.265,-21.620,0.000
N56,-10.175,-13.446,0.000
M56,-10.225,-14.996,0.000
S56,-10.175,-16.376,0.000
N57,-16.953,-8.880,0.000
M57,-17.003,-10.430,0.000
S57,-16.953,-11.810,0.000
N58,-18.731,0.911,0.000
M58,-18.781,-0.639,0.000
S58,-18.731,-2.019,0.000
N59,-24.239,6.976,0.000
M59,-24.289,5.426,0.000
S59,-24.239,4.046,0.000
N60,-18.274,18.542,0.000
M60,-18.324,16.992,0.000
S60,-18.274,15.612,0.000
N61,-7.581,25.716,0.000
M61,-7.631,24.166,0.000
S61,-7.581,22.786,0.000
N62,-1.453,27.054,0.000
M62,-1.503,25.504,0.000
S62,-1.453,24.124,0.000
N63,6.983,27.287,0.000
M63,6.933,25.737,0.000
S63,6.983,24.357,0.000
N64,19.718,15.087,0.000
M64,19.668,13.537,0.000
S64,19.718,12.157,0.000
N65,23.544,8.088,0.000
M65,23.494,6.538,0.000
S65,23.544,5.158,0.000
N66,25.151,-5.674,0.000
M66,25.101,-7.224,0.000
S66,25.151,-8.604,0.000
N67,16.823,-17.190,0.000
M67,16.773,-18.740,0.000
S67,16.823,-20.120,0.000
N68,9.397,-22.802,0.000
M68,9.347,-24.352,0.000
S68,9.397,-25.732,0.000
N69,-2.330,-23.182,0.000
M69,-2.380,-24.732,0.000
S69,-2.330,-26.112,0.000
N70,-17.845,-18.814,0.000
M70,-17.895,-20.364,0.000
S70,-17.85,-21.74,0.000
N71,-26.6,-3.38,0.000
M71,-26.65,-4.93,0.000
S71,-26.6,-6.31,0.000
N72,-33.98,8.3,0.000
M72,-34.03,6.75,0.000
S72,-33.98,5.37,0.000
N73,-25.13,20.3,0.000
M73,-25.18,18.75,0.000
S73,-25.13,17.37,0.000
N74,-13.83,29.57,0.000
M74,-13.88,28.02,0.000
S74,-13.83,26.64,0.000
N75,-6.82,33.43,0.000
M75,-6.87,31.88,0.000
S75,-6.82,30.5,0.000
N76,11.89,30.75,0.000
M76,11.84,29.2,0.000
S76,11.89,27.82,0.000
N77,27.52,21.73,0.000
M77,27.47,20.18,0.000
S77,27.52,18.8,0.000
N78,32.82,10.64,0.000
M78,32.77,9.09,0.000
S78,32.82,7.71,0.000
N79,29.99,1.71,0.000
M79,29.94,0.16,0.000
S79,29.99,-1.22,0.000
N80,31.01,-12.91,0.000
M80,30.96,-14.46,0.000
S80,31.01,-15.84,0.000
N81,18.32,-27.06,0.000
M81,18.27,-28.61,0.000
S81,18.32,-29.99,0.000
N82,10.14,-30.75,0.000
M82,10.09,-32.3,0.000
S82,10.14,-33.68,0.000
N83,-5.69,-32.72,0.000
M83,-5.74,-34.27,0.000
S83,-5.69,-35.65,0.000
N84,-12.62,-28.29,0.000
M84,-12.67,-29.84,0.000
S84,-12.62,-31.22,0.000
N85,-28.7,-15.4,0.000
M85,-28.75,-16.95,0.000
S85,-28.7,-18.33,0.000
N86,-28.94,-8.68,0.000
M86,-28.99,-10.23,0.000
S86,-28.94,-11.61,0.000
N87,-35.21,-9.06,0.000
M87,-35.26,-10.61,0.000
S87,-35.21,-11.99,0.000
N88,-30.65,29.88,0.000
M88,-30.7,28.33,0.000
S88,-30.65,26.95,0.000
N89,-7.44,40.81,0.000
M89,-7.49,39.26,0.000
S89,-7.44,37.88,0.000
N90,12.62,41.52,0.000
M90,12.57,39.97,0.000
S90,12.62,38.59,0.000
N91,25.87,32.41,0.000
M91,25.82,30.86,0.000
S91,25.87,29.48,0.000
N92,39.34,-10.6,0.000
M92,39.29,-12.15,0.000
S92,39.34,-13.53,0.000
N93,23.56,-26.46,0.000
M93,23.51,-28.01,0.000
S93,23.56,-29.39,0.000
N94,12.1,-38.15,0.000
M94,12.05,-39.7,0.000
S94,12.1,-41.08,0.000
N95,-28.84,-24.45,0.000
M95,-28.89,-26,0.000
S95,-28.84,-27.38,0.000
N46,32.52,57.83,0.000
M46,32.47,56.28,0.000
S46,32.517,54.898,0.000
N47,56.328,-31.037,0.000
M47,56.28,-32.59,0.000
S47,56.33,-33.97,0.000
D1,24.75,16.36,0.000
D2,24.75,21.86,0.000
D3,15.25,16.36,0.000
D4,15.25,30.36,0.000
D5,5.25,16.36,0.000
D6,4.25,11.36,0.000
D7,2.25,11.36,0.000
D8,1.75,9.86,0.000
D9,-4.75,18.06,0.000
D10,-3.75,29.86,0.000
D11,-3.75,37.86,0.000
D12,-8.25,18.66,0.000
D13,-8.25,9.36,0.000
D14,-24.25,21.36,0.000
D15,-29.75,25.36,0.000
D16,35.25,5.86,0.000
D17,32.25,-11.14,0.000
D18,28.25,3.36,0.000
D19,18.25,3.36,0.000
D20,15.45,-0.34,0.000
D21,13.45,-0.34,0.000
D22,15.45,-5.14,0.000
D23,13.25,-5.44,0.000
D24,10.25,-6.14,0.000
D25,11.25,6.56,0.000
D26,6.95,6.56,0.000
D27,6.95,2.36,0.000
D28,12.25,-18.14,0.000
D29,13.25,-25.64,0.000
D30,22.75,-25.64,0.000
D31,13.25,-37.14,0.000
D32,6.75,-18.14,0.000
D33,3.45,-13.84,0.000
D34,4.25,-6.64,0.000
D35,-5.75,-18.14,0.000
D36,-5.75,-29.64,0.000
D37,-12.25,-18.14,0.000
D38,-14.45,-16.84,0.000
D39,-14.45,-6.64,0.000
D40,-11.45,-3.64,0.000
D41,-11.45,0.36,0.000
D42,-16.25,-15.74,0.000
D43,-28.75,-23.64,0.000
D44,-19.75,-13.64,0.000
D45,-34.25,-13.64,0.000
D46,-22.75,-1.04,0.000
D47,-33.25,3.36,0.000
