1001,52.5456699,06.5348790,49.284,N0
1002,52.5456658,06.5348788,49.284,M0
1003,52.5456623,06.5348790,49.284,S0
1004,52.5456781,06.5348790,49.284,N1
1005,52.5456741,06.5348788,49.284,M1
1006,52.5456706,06.5348790,49.284,S1
1007,52.5456742,06.5348911,49.285,N2
1008,52.5456702,06.5348908,49.285,M2
1009,52.5456667,06.5348911,49.285,S2
1010,52.5456655,06.5348911,49.285,N3
1011,52.5456614,06.5348908,49.285,M3
1012,52.5456579,06.5348911,49.284,S3
1013,52.5456616,06.5348790,49.284,N4
1014,52.5456576,06.5348788,49.284,M4
1015,52.5456541,06.5348790,49.284,S4
1016,52.5456655,06.5348670,49.283,N5
1017,52.5456614,06.5348667,49.283,M5
1018,52.5456580,06.5348670,49.283,S5
1019,52.5456742,06.5348670,49.284,N6
1020,52.5456702,06.5348667,49.283,M6
1021,52.5456667,06.5348670,49.283,S6
1022,52.5456880,06.5348917,49.286,N7
1023,52.5456830,06.5348914,49.285,M7
1024,52.5456785,06.5348917,49.285,S7
1025,52.5456790,06.5349069,49.286,N8
1026,52.5456740,06.5349067,49.286,M8
1027,52.5456696,06.5349069,49.286,S8
1028,52.5456663,06.5349092,49.286,N9
1029,52.5456613,06.5349089,49.286,M9
1030,52.5456568,06.5349091,49.285,S9
1031,52.5456556,06.5348973,49.285,N10
1032,52.5456506,06.5348970,49.285,M10
1033,52.5456462,06.5348973,49.284,S10
1034,52.5456521,06.5348769,49.283,N11
1035,52.5456471,06.5348766,49.283,M11
1036,52.5456426,06.5348769,49.283,S11
1037,52.5456573,06.5348575,49.282,N12
1038,52.5456523,06.5348572,49.282,M12
1039,52.5456479,06.5348575,49.282,S12
1040,52.5456689,06.5348482,49.282,N13
1041,52.5456639,06.5348479,49.282,M13
1042,52.5456594,06.5348482,49.282,S13
1043,52.5456813,06.5348533,49.283,N14
1044,52.5456763,06.5348530,49.283,M14
1045,52.5456718,06.5348533,49.283,S14
1046,52.5456889,06.5348705,49.284,N15
1047,52.5456838,06.5348702,49.284,M15
1048,52.5456794,06.5348705,49.284,S15
1049,52.5457004,06.5348695,49.285,N16
1050,52.5456954,06.5348693,49.284,M16
1051,52.5456910,06.5348695,49.284,S16
1052,52.5457022,06.5348889,49.286,N17
1053,52.5456972,06.5348886,49.286,M17
1054,52.5456928,06.5348889,49.286,S17
1055,52.5456966,06.5349142,49.287,N18
1056,52.5456916,06.5349139,49.287,M18
1057,52.5456871,06.5349142,49.287,S18
1058,52.5456758,06.5349324,49.288,N19
1059,52.5456708,06.5349322,49.287,M19
1060,52.5456663,06.5349324,49.287,S19
1061,52.5456654,06.5349327,49.287,N20
1062,52.5456604,06.5349324,49.287,M20
1063,52.5456559,06.5349327,49.287,S20
1064,52.5456526,06.5349238,49.286,N21
1065,52.5456475,06.5349235,49.286,M21
1066,52.5456431,06.5349238,49.286,S21
1067,52.5456452,06.5349045,49.285,N22
1068,52.5456402,06.5349042,49.285,M22
1069,52.5456357,06.5349045,49.284,S22
1070,52.5456419,06.5348740,49.283,N23
1071,52.5456369,06.5348737,49.283,M23
1072,52.5456324,06.5348740,49.283,S23
1073,52.5456445,06.5348487,49.281,N24
1074,52.5456395,06.5348485,49.281,M24
1075,52.5456350,06.5348487,49.281,S24
1076,52.5456546,06.5348322,49.281,N25
1077,52.5456496,06.5348319,49.281,M25
1078,52.5456451,06.5348322,49.280,S25
1079,52.5456672,06.5348296,49.281,N26
1080,52.5456622,06.5348293,49.281,M26
1081,52.5456578,06.5348295,49.281,S26
1082,52.5456826,06.5348347,49.282,N27
1083,52.5456776,06.5348345,49.282,M27
1084,52.5456731,06.5348347,49.282,S27
1085,52.5456947,06.5348496,49.283,N28
1086,52.5456897,06.5348494,49.283,M28
1087,52.5456852,06.5348496,49.283,S28
1088,52.5457170,06.5348718,49.285,N29
1089,52.5457120,06.5348715,49.285,M29
1090,52.5457076,06.5348718,49.285,S29
1091,52.5457180,06.5348922,49.287,N30
1092,52.5457130,06.5348919,49.286,M30
1093,52.5457085,06.5348922,49.286,S30
1094,52.5457134,06.5349070,49.287,N31
1095,52.5457084,06.5349068,49.287,M31
1096,52.5457039,06.5349070,49.287,S31
1097,52.5456950,06.5349372,49.289,N32
1098,52.5456900,06.5349369,49.288,M32
1099,52.5456856,06.5349372,49.288,S32
1100,52.5456917,06.5349522,49.289,N33
1101,52.5456867,06.5349520,49.289,M33
1102,52.5456822,06.5349522,49.289,S33
1103,52.5456675,06.5349501,49.288,N34
1104,52.5456625,06.5349498,49.288,M34
1105,52.5456580,06.5349501,49.288,S34
1106,52.5456519,06.5349418,49.287,N35
1107,52.5456469,06.5349416,49.287,M35
1108,52.5456424,06.5349418,49.287,S35
1109,52.5456353,06.5349346,49.286,N36
1110,52.5456302,06.5349343,49.286,M36
1111,52.5456258,06.5349345,49.286,S36
1112,52.5456336,06.5349168,49.285,N37
1113,52.5456286,06.5349165,49.285,M37
1114,52.5456241,06.5349168,49.285,S37
1115,52.5456294,06.5348923,49.284,N38
1116,52.5456244,06.5348921,49.283,M38
1117,52.5456199,06.5348923,49.283,S38
1118,52.5456306,06.5348549,49.281,N39
1119,52.5456256,06.5348546,49.281,M39
1120,52.5456211,06.5348549,49.281,S39
1121,52.5456329,06.5348405,49.281,N40
1122,52.5456279,06.5348402,49.280,M40
1123,52.5456235,06.5348405,49.280,S40
1124,52.5456458,06.5348214,49.280,N41
1125,52.5456407,06.5348211,49.280,M41
1126,52.5456363,06.5348214,49.279,S41
1127,52.5456536,06.5348034,49.279,N42
1128,52.5456486,06.5348031,49.279,M42
1129,52.5456441,06.5348034,49.279,S42
1130,52.5456823,06.5348058,49.280,N43
1131,52.5456772,06.5348055,49.280,M43
1132,52.5456728,06.5348058,49.280,S43
1133,52.5456939,06.5348151,49.281,N44
1134,52.5456888,06.5348148,49.281,M44
1135,52.5456844,06.5348150,49.281,S44
1136,52.5457082,06.5348323,49.283,N45
1137,52.5457032,06.5348320,49.282,M45
1138,52.5456987,06.5348323,49.282,S45
1139,52.5457226,06.5348355,49.283,N48
1140,52.5457176,06.5348353,49.283,M48
1141,52.5457131,06.5348355,49.283,S48
1142,52.5457321,06.5348406,49.284,N49
1143,52.5457271,06.5348403,49.284,M49
1144,52.5457226,06.5348406,49.284,S49
1145,52.5457310,06.5349237,49.289,N50
1146,52.5457260,06.5349234,49.289,M50
1147,52.5457215,06.5349237,49.289,S50
1148,52.5456913,06.5349796,49.291,N51
1149,52.5456863,06.5349793,49.291,M51
1150,52.5456818,06.5349796,49.291,S51
1151,52.5456763,06.5349886,49.291,N52
1152,52.5456713,06.5349884,49.291,M52
1153,52.5456668,06.5349886,49.291,S52
1154,52.5456402,06.5349631,49.288,N53
1155,52.5456352,06.5349628,49.288,M53
1156,52.5456308,06.5349631,49.288,S53
1157,52.5456151,06.5349054,49.284,N54
1158,52.5456101,06.5349051,49.284,M54
1159,52.5456057,06.5349054,49.284,S54
1160,52.5456052,06.5348661,49.281,N55
1161,52.5456001,06.5348658,49.281,M55
1162,52.5455957,06.5348661,49.281,S55
1163,52.5456335,06.5348047,49.278,N56
1164,52.5456284,06.5348044,49.278,M56
1165,52.5456240,06.5348047,49.278,S56
1166,52.5456537,06.5347766,49.277,N57
1167,52.5456487,06.5347763,49.277,M57
1168,52.5456442,06.5347766,49.277,S57
1169,52.5456857,06.5347819,49.279,N58
1170,52.5456807,06.5347816,49.279,M58
1171,52.5456763,06.5347819,49.279,S58
1172,52.5457095,06.5347625,49.279,N59
1173,52.5457045,06.5347622,49.278,M59
1174,52.5457000,06.5347625,49.278,S59
1175,52.5457402,06.5348103,49.282,N60
1176,52.5457351,06.5348100,49.282,M60
1177,52.5457307,06.5348103,49.282,S60
1178,52.5457529,06.5348759,49.287,N61
1179,52.5457479,06.5348756,49.287,M61
1180,52.5457434,06.5348759,49.287,S61
1181,52.5457516,06.5349094,49.289,N62
1182,52.5457466,06.5349091,49.289,M62
1183,52.5457421,06.5349094,49.288,S62
1184,52.5457448,06.5349531,49.291,N63
1185,52.5457398,06.5349528,49.291,M63
1186,52.5457353,06.5349531,49.291,S63
1187,52.5456955,06.5350006,49.292,N64
1188,52.5456905,06.5350003,49.292,M64
1189,52.5456860,06.5350006,49.292,S64
1190,52.5456703,06.5350099,49.292,N65
1191,52.5456653,06.5350097,49.292,M65
1192,52.5456608,06.5350099,49.292,S65
1193,52.5456261,06.5349979,49.290,N66
1194,52.5456211,06.5349976,49.290,M66
1195,52.5456166,06.5349979,49.289,S66
1196,52.5455977,06.5349380,49.285,N67
1197,52.5455927,06.5349378,49.285,M67
1198,52.5455882,06.5349380,49.285,S67
1199,52.5455869,06.5348915,49.282,N68
1200,52.5455819,06.5348913,49.282,M68
1201,52.5455774,06.5348915,49.282,S68
1202,52.5455962,06.5348307,49.279,N69
1203,52.5455912,06.5348304,49.279,M69
1204,52.5455867,06.5348307,49.278,S69
1205,52.5456236,06.5347573,49.275,N70
1206,52.5456186,06.5347570,49.275,M70
1207,52.5456141,06.5347573,49.275,S70
1208,52.5456794,06.5347351,49.276,N71
1209,52.5456744,06.5347348,49.276,M71
1210,52.5456699,06.5347351,49.275,S71
1211,52.5457223,06.5347144,49.276,N72
1212,52.5457173,06.5347141,49.276,M72
1213,52.5457129,06.5347144,49.276,S72
1214,52.5457517,06.5347776,49.281,N73
1215,52.5457467,06.5347773,49.281,M73
1216,52.5457423,06.5347776,49.281,S73
1217,52.5457705,06.5348494,49.286,N74
1218,52.5457654,06.5348491,49.286,M74
1219,52.5457610,06.5348494,49.286,S74
1220,52.5457762,06.5348912,49.289,N75
1221,52.5457712,06.5348909,49.288,M75
1222,52.5457668,06.5348912,49.288,S75
1223,52.5457512,06.5349834,49.293,N76
1224,52.5457462,06.5349832,49.293,M76
1225,52.5457417,06.5349834,49.293,S76
1226,52.5457092,06.5350505,49.296,N77
1227,52.5457042,06.5350503,49.296,M77
1228,52.5456997,06.5350505,49.296,S77
1229,52.5456700,06.5350614,49.295,N78
1230,52.5456649,06.5350612,49.295,M78
1231,52.5456605,06.5350614,49.295,S78
1232,52.5456447,06.5350337,49.293,N79
1233,52.5456397,06.5350334,49.292,M79
1234,52.5456352,06.5350337,49.292,S79
1235,52.5455984,06.5350173,49.290,N80
1236,52.5455934,06.5350171,49.290,M80
1237,52.5455889,06.5350173,49.290,S80
1238,52.5455657,06.5349311,49.284,N81
1239,52.5455607,06.5349309,49.284,M81
1240,52.5455562,06.5349311,49.283,S81
1241,52.5455615,06.5348836,49.281,N82
1242,52.5455565,06.5348834,49.281,M82
1243,52.5455520,06.5348836,49.280,S82
1244,52.5455695,06.5347993,49.276,N83
1245,52.5455645,06.5347990,49.276,M83
1246,52.5455600,06.5347993,49.276,S83
1247,52.5455895,06.5347702,49.275,N84
1248,52.5455845,06.5347699,49.275,M84
1249,52.5455800,06.5347702,49.275,S84
1250,52.5456439,06.5347065,49.273,N85
1251,52.5456389,06.5347062,49.273,M85
1252,52.5456345,06.5347065,49.273,S85
1253,52.5456650,06.5347152,49.274,N86
1254,52.5456600,06.5347149,49.274,M86
1255,52.5456555,06.5347152,49.274,S86
1256,52.5456695,06.5346824,49.272,N87
1257,52.5456644,06.5346821,49.272,M87
1258,52.5456600,06.5346824,49.272,S87
1259,52.5457865,06.5347633,49.281,N88
1260,52.5457815,06.5347631,49.281,M88
1261,52.5457770,06.5347633,49.281,S88
1262,52.5457997,06.5348989,49.290,N89
1263,52.5457947,06.5348986,49.290,M89
1264,52.5457902,06.5348989,49.290,S89
1265,52.5457840,06.5350031,49.296,N90
1266,52.5457790,06.5350029,49.295,M90
1267,52.5457746,06.5350031,49.295,S90
1268,52.5457439,06.5350578,49.298,N91
1269,52.5457388,06.5350575,49.297,M91
1270,52.5457344,06.5350578,49.297,S91
1271,52.5455981,06.5350636,49.293,N92
1272,52.5455931,06.5350633,49.293,M92
1273,52.5455886,06.5350636,49.293,S92
1274,52.5455629,06.5349590,49.285,N93
1275,52.5455579,06.5349587,49.285,M93
1276,52.5455534,06.5349590,49.285,S93
1277,52.5455368,06.5348828,49.280,N94
1278,52.5455318,06.5348825,49.280,M94
1279,52.5455273,06.5348828,49.280,S94
1280,52.5456159,06.5346924,49.271,N95
1281,52.5456109,06.5346922,49.271,M95
1282,52.5456064,06.5346924,49.271,S95
1283,52.5456709,06.5345309,49.263,N46
1284,52.5456659,06.5345306,49.263,M46
1285,52.5456614,06.5345309,49.263,S46
1286,52.5458813,06.5348792,49.292,N47
1287,52.5458763,06.5348789,49.292,M47
1288,52.5458718,06.5348792,49.291,S47
1289,52.5457648,06.5347781,49.281,D1
1290,52.5457837,06.5348659,49.287,D2
1291,52.5457352,06.5348626,49.285,D3
1292,52.5457352,06.5349349,49.290,D4
1293,52.5457284,06.5349493,49.290,D5
1294,52.5457132,06.5349258,49.288,D6
1295,52.5456844,06.5349258,49.287,D7
1296,52.5456750,06.5349204,49.287,D8
1297,52.5456608,06.5349204,49.286,D9
1298,52.5456996,06.5349654,49.290,D10
1299,52.5456624,06.5349654,49.289,D11
1300,52.5456510,06.5349653,49.289,D12
1301,52.5456510,06.5350082,49.291,D13
1302,52.5456510,06.5350606,49.295,D14
1303,52.5457117,06.5347939,49.280,D15
1304,52.5457106,06.5348482,49.284,D16
1305,52.5457048,06.5348482,49.283,D17
1306,52.5457048,06.5348894,49.286,D18
1307,52.5456705,06.5347938,49.279,D19
1308,52.5456705,06.5348535,49.283,D20
1309,52.5456561,06.5347930,49.278,D21
1310,52.5456559,06.5348439,49.282,D22
1311,52.5456462,06.5348465,49.281,D23
1312,52.5456462,06.5348615,49.282,D24
1313,52.5456381,06.5348615,49.282,D25
1314,52.5456414,06.5347893,49.278,D26
1315,52.5456320,06.5348219,49.279,D27
1316,52.5456178,06.5348246,49.279,D28
1317,52.5456177,06.5348545,49.281,D29
1318,52.5455932,06.5349054,49.283,D30
1319,52.5455692,06.5349054,49.282,D31
1320,52.5455692,06.5349562,49.285,D32
1321,52.5455323,06.5349053,49.281,D33
1322,52.5456177,06.5349043,49.284,D34
1323,52.5456177,06.5349348,49.286,D35
1324,52.5456087,06.5349974,49.289,D36
1325,52.5457174,06.5346967,49.275,D37
1326,52.5456521,06.5346988,49.273,D38
1327,52.5456479,06.5347234,49.274,D39
1328,52.5455638,06.5347261,49.271,D40
