NAME;ETRS-X;ETRS-Y;ETRS-Z;STATION-P;STATION-Q;STATION-R
1006;3826988.946;460912.615;5064594.628;-10.259;-80.552;-0.027
1007;3826987.507;460909.942;5064595.988;-12.742;-78.337;0.004
1008;3826985.913;460907.202;5064597.429;-15.271;-75.944;0.001
1009;3826984.439;460904.551;5064598.782;-17.727;-73.707;0.006
1010;3826982.907;460901.893;5064600.170;-20.182;-71.404;0.004
1011;3826981.468;460899.219;5064601.493;-22.665;-69.211;0.005
1012;3826979.962;460896.585;5064602.863;-25.100;-66.941;0.006
1013;3826978.420;460893.858;5064604.263;-27.623;-64.615;0.004
1014;3826977.001;460891.228;5064605.564;-30.065;-62.456;0.002
1015;3826975.589;460888.354;5064606.891;-32.749;-60.263;0.008
1016;3826974.461;460885.460;5064607.996;-35.487;-58.427;0.006
1017;3826973.197;460882.523;5064609.212;-38.252;-56.413;0.007
1018;3826971.957;460879.758;5064610.375;-40.849;-54.465;-0.007
1019;3826971.320;460878.136;5064610.999;-42.383;-53.430;-0.007
1020;3826973.649;460876.499;5064609.406;-44.287;-56.079;-0.002
1021;3826975.049;460879.270;5064608.121;-41.703;-58.226;0.011
1022;3826976.439;460881.992;5064606.816;-39.167;-60.374;-0.001
1023;3826977.891;460884.836;5064605.481;-36.516;-62.600;0.008
1024;3826979.243;460887.710;5064604.188;-33.826;-64.726;-0.007
1025;3826980.693;460890.459;5064602.872;-31.269;-66.929;0.010
1026;3826982.137;460893.276;5064601.543;-28.645;-69.144;0.017
1027;3826983.540;460896.155;5064600.205;-25.954;-71.337;-0.003
1028;3826985.058;460898.940;5064598.819;-23.371;-73.640;0.002
1029;3826986.433;460901.844;5064597.522;-20.653;-75.788;-0.0004
1030;3826987.876;460904.626;5064596.185;-18.063;-78.003;-0.001
1031;3826989.326;460907.410;5064594.857;-15.473;-80.218;0.008
1032;3826990.864;460910.448;5064593.390;-12.641;-82.610;-0.022
1033;3826992.889;460908.110;5064592.100;-15.204;-84.769;-0.008
1034;3826991.397;460905.206;5064593.502;-17.909;-82.465;0.008
1035;3826989.964;460902.370;5064594.824;-20.553;-80.262;-0.0002
1036;3826988.569;460899.553;5064596.127;-23.183;-78.103;0.001
1037;3826987.162;460896.808;5064597.425;-25.739;-75.944;-0.004
1038;3826985.814;460893.895;5064598.718;-28.471;-73.818;0.011
1039;3826984.330;460891.067;5064600.087;-31.101;-71.548;0.010
1040;3826982.875;460888.222;5064601.417;-33.752;-69.322;-0.006
1041;3826981.419;460885.383;5064602.747;-36.396;-67.096;-0.021
1042;3826979.995;460882.569;5064604.085;-39.019;-64.893;-0.009
1043;3826978.651;460879.832;5064605.356;-41.576;-62.800;0.002
1044;3826977.235;460877.053;5064606.674;-44.166;-60.619;0.006
1045;3826976.353;460875.341;5064607.459;-45.760;-59.284;-0.020
1046;3826979.458;460874.874;5064605.208;-46.594;-63.056;0.010
1047;3826980.825;460877.702;5064603.926;-43.951;-65.182;0.010
1048;3826982.188;460880.570;5064602.626;-41.266;-67.319;-0.005
1049;3826983.641;460883.381;5064601.288;-38.649;-69.544;0.001
1050;3826985.069;460886.250;5064599.927;-35.972;-71.770;-0.022
1051;3826986.534;460889.089;5064598.609;-33.328;-73.996;0.008
1052;3826987.915;460891.878;5064597.302;-30.725;-76.144;-0.006
1053;3826989.336;460894.672;5064595.993;-28.121;-78.325;0.002
1054;3826990.774;460897.576;5064594.650;-25.410;-80.551;0.001
1055;3826992.195;460900.322;5064593.352;-22.854;-82.721;0.014
1056;3826993.605;460903.107;5064592.028;-20.257;-84.903;0.003
1057;3826994.652;460905.232;5064591.044;-18.272;-86.527;-0.002
1058;3826995.691;460900.858;5064590.665;-22.739;-87.162;0.002
1059;3826994.263;460898.138;5064591.977;-25.269;-84.980;-0.002
1060;3826992.860;460895.333;5064593.289;-27.886;-82.810;0.002
1061;3826991.479;460892.511;5064594.572;-30.523;-80.673;-0.004
1062;3826990.043;460889.736;5064595.901;-33.106;-78.470;-0.004
1063;3826988.689;460886.862;5064597.174;-35.797;-76.355;-0.007
1064;3826987.322;460884.007;5064598.452;-38.468;-74.229;-0.012
1065;3826985.914;460881.168;5064599.771;-41.119;-72.048;-0.007
1066;3826984.523;460878.419;5064601.071;-43.682;-69.900;-0.001
1067;3826983.093;460875.461;5064602.416;-46.447;-67.674;0.001
1068;3826986.658;460876.250;5064599.656;-46.090;-72.237;-0.008
1069;3826988.145;460879.065;5064598.309;-43.473;-74.496;0.011
1070;3826989.504;460881.776;5064597.034;-40.944;-76.600;0.003
1071;3826991.022;460884.615;5064595.657;-38.307;-78.903;0.018
1072;3826992.384;460887.442;5064594.368;-35.663;-81.029;0.009
1073;3826993.852;460890.370;5064592.994;-32.932;-83.299;0.003
1074;3826995.221;460893.124;5064591.704;-30.362;-85.425;-0.008
1075;3826996.390;460895.359;5064590.622;-28.283;-87.217;-0.010
1076;3826995.135;460886.764;5064592.357;-36.665;-84.357;0.003
1077;3826993.715;460883.977;5064593.649;-39.262;-82.186;-0.018
1078;3826992.176;460881.224;5064595.067;-41.812;-79.849;-0.006
1079;3826969.049;460880.052;5064612.527;-40.209;-50.893;-0.011
1080;3826970.597;460883.030;5064611.100;-37.438;-53.263;-0.007
1081;3826971.998;460885.719;5064609.822;-34.935;-55.400;0.006
1082;3826973.321;460888.609;5064608.565;-32.224;-57.481;0.004
1083;3826974.606;460891.461;5064607.327;-29.547;-59.518;-0.009
1084;3826976.141;460894.214;5064605.940;-26.997;-61.833;0.002
1085;3826977.607;460896.905;5064604.581;-24.501;-64.070;-0.010
1086;3826978.981;460899.631;5064603.330;-21.958;-66.173;0.011
1087;3826980.444;460902.444;5064601.968;-19.341;-68.421;0.004
1088;3826981.923;460905.136;5064600.609;-16.845;-70.669;-0.001
1089;3826983.367;460907.925;5064599.274;-14.248;-72.884;0.0003
1090;3826984.787;460910.739;5064597.949;-11.625;-75.076;-0.004
1091;3826986.181;460913.319;5064596.681;-9.230;-77.191;0.005
1092;3826986.801;460914.431;5064596.103;-8.201;-78.137;-0.003
1093;3826984.294;460915.701;5064597.883;-6.640;-75.199;0.006
1094;3826982.731;460912.795;5064599.301;-9.337;-72.828;-0.008
1095;3826981.321;460909.990;5064600.623;-11.954;-70.647;0.0002
1096;3826979.830;460907.249;5064601.996;-14.497;-68.377;0.005
1097;3826978.366;460904.504;5064603.329;-17.047;-66.151;-0.006
1098;3826976.935;460901.825;5064604.662;-19.536;-63.959;0.007
1099;3826975.504;460899.071;5064605.983;-22.099;-61.766;0.006
1100;3826973.985;460896.272;5064607.365;-24.696;-59.462;-0.003
1101;3826972.574;460893.574;5064608.683;-27.205;-57.292;0.009
1102;3826971.171;460890.790;5064609.980;-29.802;-55.133;0.003
1103;3826969.742;460887.982;5064611.313;-32.419;-52.930;0.007
1104;3826968.293;460885.219;5064612.646;-34.989;-50.715;0.004
1105;3826966.965;460882.660;5064613.874;-37.370;-48.678;0.004
1106;3826965.134;460885.956;5064614.944;-33.879;-46.898;-0.001
1107;3826966.747;460889.003;5064613.466;-31.046;-49.358;0.005
1108;3826968.198;460891.509;5064612.151;-28.732;-51.539;0.006
1109;3826969.619;460894.472;5064610.813;-25.960;-53.753;0.002
1110;3826971.073;460897.317;5064609.463;-23.310;-55.990;0.002
1111;3826972.482;460900.177;5064608.149;-20.639;-58.172;0.004
1112;3826973.885;460902.941;5064606.850;-18.063;-60.331;0.007
1113;3826975.323;460905.655;5064605.532;-15.540;-62.523;0.012
1114;3826976.725;460908.474;5064604.202;-12.909;-64.704;-0.006
1115;3826978.249;460911.348;5064602.801;-10.239;-67.030;-0.004
1116;3826979.614;460914.039;5064601.550;-7.729;-69.123;0.010
1117;3826980.779;460916.450;5064600.452;-5.476;-70.937;0.005
1118;3826977.646;460916.777;5064602.757;-4.776;-67.097;-0.008
1119;3826976.219;460914.017;5064604.082;-7.346;-64.905;-0.005
1120;3826974.765;460911.287;5064605.431;-9.882;-62.679;0.004
1121;3826973.383;460908.478;5064606.715;-12.506;-60.542;-0.002
1122;3826971.922;460905.713;5064608.086;-15.075;-58.294;0.018
1123;3826970.473;460902.883;5064609.408;-17.713;-56.080;-0.001
1124;3826969.055;460900.015;5064610.747;-20.390;-53.876;0.012
1125;3826967.583;460897.175;5064612.092;-23.034;-51.628;-0.001
1126;3826966.108;460894.388;5064613.459;-25.624;-49.369;0.005
1127;3826964.664;460891.639;5064614.783;-28.180;-47.165;-0.001
1128;3826963.659;460889.702;5064615.721;-29.983;-45.618;0.006
1129;3826962.737;460894.307;5064615.977;-25.301;-45.173;-0.010
1130;3826964.165;460897.142;5064614.665;-22.657;-47.366;0.003
1131;3826965.558;460899.756;5064613.401;-20.228;-49.480;0.017
1132;3826966.938;460902.653;5064612.092;-17.517;-51.639;0.008
1133;3826968.310;460905.516;5064610.804;-14.840;-53.776;0.008
1134;3826969.850;460908.283;5064609.389;-12.277;-56.113;0.001
1135;3826971.131;460911.093;5064608.175;-9.640;-58.128;0.002
1136;3826972.518;460913.781;5064606.897;-7.137;-60.253;0.008
1137;3826973.794;460916.218;5064605.711;-4.870;-62.212;0.002
1138;3826968.112;460911.767;5064610.389;-8.610;-54.466;0.009
1139;3826966.602;460908.983;5064611.767;-11.193;-52.174;0.004
1140;3826965.262;460906.097;5064613.039;-13.898;-50.070;0.008
1141;3826963.915;460903.523;5064614.276;-16.293;-48.012;0.003
1142;3826963.082;460900.820;5064615.135;-18.876;-46.576;-0.006
1143;3826975.842;460916.106;5064604.175;-5.226;-64.749;-0.006
1144;3826977.178;460918.286;5064602.989;-3.222;-66.730;0.005
1145;3826978.766;460920.531;5064601.593;-1.183;-69.045;0.004
1146;3826977.149;460922.111;5064602.653;0.579;-67.276;-0.004
1147;3826975.756;460920.033;5064603.908;-1.318;-65.217;0.013
1148;3826974.179;460917.722;5064605.291;-3.423;-62.913;0.005
1149;3826972.278;460919.756;5064606.530;-1.176;-60.854;0.002
1150;3826973.806;460921.939;5064605.192;0.808;-63.080;0.007
1151;3826975.321;460924.148;5064603.859;2.820;-65.295;0.010
1152;3826953.536;460943.411;5064618.469;24.551;-41.069;0.009
1153;3826950.403;460940.391;5064621.093;21.927;-36.717;0.009
1154;3826947.502;460937.548;5064623.532;19.451;-32.678;0.012
1155;3826944.498;460934.665;5064626.051;16.949;-28.504;0.015
1156;3826941.547;460931.802;5064628.513;14.460;-24.409;0.005
1157;3826938.391;460928.881;5064631.141;11.937;-20.047;0.001
1158;3826935.347;460925.906;5064633.704;9.347;-15.806;0.009
1159;3826932.208;460922.966;5064636.312;6.804;-11.466;-0.002
1160;3826929.110;460920.018;5064638.920;4.248;-7.159;0.010
1161;3826925.968;460917.031;5064641.536;1.658;-2.808;0.0001
1162;3826922.970;460914.102;5064644.056;-0.892;1.365;0.005
1163;3826919.928;460911.228;5064646.600;-3.381;5.583;0.005
1164;3826916.871;460908.218;5064649.159;-6.004;9.834;-0.001
1165;3826913.900;460905.319;5064651.663;-8.527;13.974;0.008
1166;3826910.758;460902.243;5064654.285;-11.204;18.337;-0.003
1167;3826907.681;460899.332;5064656.870;-13.727;22.610;0.007
1168;3826904.626;460896.457;5064659.415;-16.216;26.839;0.0004
1169;3826901.562;460893.465;5064661.986;-18.819;31.101;0.001
1170;3826898.497;460890.785;5064664.530;-21.113;35.319;0.002
1171;3826896.077;460888.556;5064666.536;-23.037;38.658;-0.007
1172;3826898.987;460884.936;5064664.691;-26.979;35.587;0.002
1173;3826902.223;460887.989;5064661.987;-24.336;31.102;0.003
1174;3826905.259;460890.888;5064659.458;-21.820;26.895;0.012
1175;3826908.440;460893.867;5064656.799;-19.243;22.488;0.011
1176;3826911.565;460896.825;5064654.174;-16.680;18.148;0.001
1177;3826914.635;460899.729;5064651.615;-14.164;13.896;0.007
1178;3826917.781;460902.805;5064648.963;-11.487;9.512;-0.002
1179;3826920.900;460905.830;5064646.358;-8.857;5.183;0.005
1180;3826924.102;460908.770;5064643.685;-6.321;0.753;0.002
1181;3826927.240;460911.736;5064641.059;-3.751;-3.598;0.0002
1182;3826930.315;460914.763;5064638.471;-1.114;-7.883;-0.006
1183;3826933.310;460917.712;5064635.970;1.456;-12.045;0.006
1184;3826936.403;460920.612;5064633.386;3.965;-16.329;0.006
1185;3826939.594;460923.599;5064630.723;6.548;-20.747;0.007
1186;3826942.682;460926.545;5064628.139;9.105;-25.032;0.007
1187;3826945.739;460929.556;5064625.563;11.728;-29.294;0.001
1188;3826948.821;460932.408;5064622.993;14.190;-33.557;0.001
1189;3826951.907;460935.422;5064620.400;16.814;-37.852;-0.002
1190;3826955.052;460938.396;5064617.786;19.391;-42.204;0.010
1191;3826956.470;460939.597;5064616.608;20.413;-44.151;0.006
1192;3826957.945;460934.957;5064615.910;15.630;-45.297;-0.002
1193;3826954.686;460931.928;5064618.644;13.013;-40.779;0.009
1194;3826951.584;460928.885;5064621.248;10.362;-36.461;0.010
1195;3826948.500;460925.972;5064623.824;7.840;-32.188;0.008
1196;3826945.423;460923.020;5064626.402;5.277;-27.914;0.009
1197;3826942.359;460920.056;5064628.959;2.700;-23.663;0.0004
1198;3826939.312;460917.093;5064631.520;0.124;-19.423;0.005
1199;3826936.166;460914.112;5064634.149;-2.460;-15.060;0.004
1200;3826933.129;460911.084;5064636.713;-5.103;-10.820;0.013
1201;3826930.011;460908.099;5064639.306;-7.693;-6.502;-0.002
1202;3826926.942;460905.304;5064641.883;-10.102;-2.251;0.015
1203;3826923.875;460902.298;5064644.447;-12.718;2.011;0.007
1204;3826920.777;460899.296;5064647.046;-15.329;6.318;0.009
1205;3826917.721;460896.367;5064649.600;-17.871;10.558;0.006
1206;3826914.623;460893.426;5064652.189;-20.421;14.854;0.003
1207;3826911.511;460890.408;5064654.803;-23.045;19.183;0.008
1208;3826908.341;460887.397;5064657.454;-25.655;23.579;0.008
1209;3826905.220;460884.365;5064660.072;-28.292;27.919;0.008
1210;3826902.200;460881.616;5064662.536;-30.659;32.059;-0.033
1211;3826905.187;460878.134;5064660.594;-34.474;28.854;-0.045
1212;3826908.308;460881.078;5064658.034;-31.925;24.558;-0.005
1213;3826911.412;460884.054;5064655.440;-29.341;20.251;-0.001
1214;3826914.553;460886.953;5064652.827;-26.839;15.911;0.004
1215;3826917.719;460889.902;5064650.180;-24.289;11.527;0.001
1216;3826920.835;460892.974;5064647.580;-21.612;7.197;0.014
1217;3826923.978;460895.874;5064644.950;-19.110;2.846;0.007
1218;3826927.137;460898.863;5064642.319;-16.520;-1.528;0.015
1219;3826930.152;460901.638;5064639.798;-14.125;-5.701;0.010
1220;3826933.285;460904.746;5064637.152;-11.414;-10.075;-0.001
1221;3826936.450;460907.770;5064634.516;-8.790;-14.459;0.009
1222;3826939.563;460910.842;5064631.894;-6.113;-18.799;0.003
1223;3826942.705;460913.755;5064629.284;-3.597;-23.140;0.012
1224;3826945.804;460916.757;5064626.687;-0.987;-27.447;0.013
1225;3826948.923;460919.687;5064624.049;1.549;-31.787;-0.012
1226;3826952.110;460922.680;5064621.400;4.139;-36.194;-0.002
1227;3826955.091;460925.628;5064618.898;6.709;-40.345;0.0003
1228;3826958.167;460928.532;5064616.330;9.225;-44.607;0.002
1229;3826959.854;460930.308;5064614.913;10.786;-46.966;0.011
1230;3826961.262;460925.138;5064614.321;5.484;-47.946;0.009
1231;3826957.989;460922.033;5064617.061;2.794;-43.405;0.010
1232;3826954.917;460919.115;5064619.615;0.264;-39.154;-0.002
1233;3826951.753;460916.173;5064622.264;-2.279;-34.769;0.004
1234;3826948.712;460913.326;5064624.796;-4.741;-30.562;-0.001
1235;3826945.605;460910.391;5064627.393;-7.284;-26.256;-0.002
1236;3826942.524;460907.397;5064629.977;-9.887;-21.971;-0.002
1237;3826939.369;460904.469;5064632.605;-12.416;-17.609;-0.006
1238;3826936.210;460901.473;5064635.253;-15.013;-13.224;-0.001
1239;3826933.039;460898.462;5064637.920;-17.623;-8.817;0.011
1240;3826930.096;460895.669;5064640.387;-20.045;-4.732;0.016
1241;3826926.854;460892.656;5064643.089;-22.648;-0.248;0.012
1242;3826923.741;460889.638;5064645.684;-25.272;4.070;0.001
1243;3826920.632;460886.689;5064648.293;-27.828;8.388;0.008
1244;3826917.639;460883.638;5064650.801;-30.499;12.562;-0.003
1245;3826914.487;460880.629;5064653.437;-33.109;16.935;-0.005
1246;3826911.468;460877.894;5064655.960;-35.463;21.109;0.003
1247;3826908.661;460875.374;5064658.186;-37.629;24.915;-0.084
1248;3826912.435;460872.387;5064655.658;-41.047;20.686;-0.056
1249;3826915.650;460875.410;5064653.032;-38.430;16.268;-0.008
1250;3826918.836;460878.341;5064650.391;-35.901;11.872;0.005
1251;3826921.975;460881.287;5064647.764;-33.352;7.521;0.001
1252;3826925.081;460884.196;5064645.161;-30.836;3.214;-0.006
1253;3826928.237;460887.184;5064642.544;-28.246;-1.149;0.011
1254;3826931.299;460889.972;5064639.994;-25.844;-5.378;0.012
1255;3826934.391;460892.940;5064637.401;-23.268;-9.673;0.009
1256;3826937.543;460895.969;5064634.767;-20.637;-14.047;0.013
1257;3826940.612;460898.812;5064632.218;-18.182;-18.287;0.022
1258;3826943.711;460901.753;5064629.611;-15.632;-22.594;0.011
1259;3826946.849;460904.693;5064626.981;-13.090;-26.945;0.003
1260;3826949.986;460907.625;5064624.386;-10.553;-31.274;0.023
1261;3826953.060;460910.516;5064621.795;-8.051;-35.548;0.005
1262;3826956.126;460913.447;5064619.217;-5.508;-39.810;-0.004
1263;3826958.994;460916.116;5064616.835;-3.201;-43.772;0.006
1264;3826962.169;460919.175;5064614.163;-0.543;-48.190;-0.004
1265;3826962.321;460913.129;5064614.587;-6.565;-47.478;-0.011
1266;3826959.089;460910.124;5064617.304;-9.161;-42.993;0.005
1267;3826956.038;460907.236;5064619.854;-11.664;-38.764;0.003
1268;3826953.004;460904.309;5064622.382;-14.207;-34.557;-0.008
1269;3826949.907;460901.375;5064624.973;-16.750;-30.261;-0.007
1270;3826946.777;460898.403;5064627.590;-19.326;-25.921;-0.007
1271;3826943.769;460895.459;5064630.113;-21.889;-21.737;-0.008
1272;3826940.664;460892.530;5064632.731;-24.425;-17.419;0.009
1273;3826937.589;460889.585;5064635.295;-26.981;-13.157;0.002
1274;3826934.435;460886.582;5064637.930;-29.585;-8.783;-0.002
1275;3826931.315;460883.544;5064640.548;-32.229;-4.443;-0.0004
1276;3826928.167;460880.664;5064643.156;-34.711;-0.102;-0.013
1277;3826925.091;460877.759;5064645.725;-37.227;4.160;-0.015
1278;3826922.001;460874.813;5064648.325;-39.783;8.456;-0.003
1279;3826918.819;460871.949;5064650.944;-42.245;12.829;-0.025
1280;3826924.278;460871.231;5064646.928;-43.611;6.152;-0.012
1281;3826927.586;460874.204;5064644.195;-41.055;1.601;0.002
1282;3826930.676;460876.996;5064641.608;-38.653;-2.673;-0.009
1283;3826933.869;460879.880;5064638.969;-36.171;-7.069;0.005
1284;3826936.983;460882.763;5064636.373;-33.682;-11.376;0.007
1285;3826940.111;460885.687;5064633.746;-31.153;-15.716;-0.006
1286;3826943.204;460888.641;5064631.171;-28.590;-20.000;0.006
1287;3826946.328;460891.572;5064628.559;-26.053;-24.330;0.004
1288;3826949.482;460894.527;5064625.916;-23.497;-28.703;-0.003
1289;3826952.567;460897.426;5064623.339;-20.988;-32.977;-0.002
1290;3826955.659;460900.306;5064620.770;-18.499;-37.250;0.007
1291;3826958.856;460903.266;5064618.109;-15.943;-41.668;0.013
1292;3826961.912;460906.256;5064615.529;-13.339;-45.931;-0.0001
1293;3826961.051;460898.997;5064616.830;-20.443;-43.771;-0.001
1294;3826957.780;460896.102;5064619.549;-22.926;-39.264;0.001
1295;3826954.612;460893.180;5064622.198;-25.448;-34.879;0.006
1296;3826951.548;460890.263;5064624.762;-27.978;-30.628;0.006
1297;3826948.476;460887.372;5064627.320;-30.480;-26.377;-0.001
1298;3826945.408;460884.502;5064629.886;-32.963;-22.126;0.002
1299;3826942.241;460881.573;5064632.535;-35.492;-17.741;0.007
1300;3826939.061;460878.575;5064635.191;-38.089;-13.334;0.006
1301;3826935.997;460875.766;5064637.736;-40.510;-9.105;-0.001
1302;3826932.993;460873.101;5064640.216;-42.797;-4.976;-0.013
1303;3826931.257;460871.563;5064641.605;-44.116;-2.617;-0.055
1304;3826937.967;460871.199;5064636.629;-45.280;-10.897;-0.034
1305;3826941.210;460874.138;5064633.972;-42.751;-15.348;0.0004
1306;3826944.256;460877.140;5064631.397;-40.134;-19.599;-0.013
1307;3826947.291;460879.993;5064628.860;-37.665;-23.806;-0.014
1308;3826950.374;460882.946;5064626.308;-35.102;-28.068;0.009
1309;3826953.417;460885.799;5064623.761;-32.633;-32.286;0.005
1310;3826956.587;460888.674;5064621.108;-30.158;-36.671;-0.005
1311;3826951.678;460880.182;5064625.571;-38.002;-29.281;0.002
1312;3826893.669;460892.433;5064667.973;-18.900;41.061;-0.024
1313;3826896.703;460895.340;5064665.460;-16.377;36.866;-0.002
1314;3826899.722;460898.360;5064662.926;-13.740;32.659;0.002
1315;3826902.846;460901.385;5064660.311;-11.110;28.319;0.004
1316;3826905.812;460904.277;5064657.835;-8.594;24.201;0.014
1317;3826908.909;460907.198;5064655.242;-6.064;19.906;0.011
1318;3826911.955;460910.085;5064652.704;-3.562;15.688;0.018
1319;3826915.057;460913.034;5064650.121;-1.006;11.392;0.027
1320;3826918.148;460916.055;5064647.499;1.625;7.074;0.004
1321;3826921.269;460918.959;5064644.878;4.134;2.745;-0.008
1322;3826924.335;460921.991;5064642.299;6.778;-1.528;-0.011
1323;3826927.343;460925.057;5064639.795;9.462;-5.713;0.014
1324;3826930.464;460928.130;5064637.164;12.139;-10.064;0.005
1325;3826933.530;460931.047;5064634.603;14.669;-14.315;0.009
1326;3826936.598;460934.005;5064632.032;17.238;-18.578;0.008
1327;3826939.756;460937.042;5064629.389;19.876;-22.962;0.009
1328;3826942.882;460939.925;5064626.791;22.365;-27.280;0.017
1329;3826945.941;460942.862;5064624.224;24.914;-31.532;0.012
1330;3826949.004;460945.860;5064621.653;27.524;-35.794;0.012
1334;3826947.673;460950.904;5064622.216;32.691;-34.882;0.027
1335;3826944.361;460947.781;5064624.974;29.987;-30.296;0.019
1336;3826941.306;460944.892;5064627.499;27.484;-26.079;-0.004
1337;3826938.400;460941.933;5064629.951;24.894;-22.017;-0.001
1338;3826935.292;460939.072;5064632.559;22.425;-17.710;0.012
1339;3826932.227;460936.121;5064635.115;19.862;-13.459;0.002
1340;3826929.154;460933.115;5064637.690;17.245;-9.185;0.0002
1341;3826926.148;460930.165;5064640.215;14.676;-5.001;0.002
1342;3826923.091;460927.161;5064642.774;12.059;-0.750;-0.004
1343;3826919.986;460924.157;5064645.382;9.449;3.568;0.001
1344;3826916.911;460921.219;5064647.964;6.899;7.842;0.007
1345;3826913.763;460918.231;5064650.591;4.309;12.204;0.002
1346;3826910.865;460915.382;5064653.033;1.827;16.244;0.010
1347;3826907.802;460912.438;5064655.594;-0.729;20.495;0.007
1348;3826904.811;460909.625;5064658.087;-3.165;24.635;0.001
1349;3826901.804;460906.667;5064660.627;-5.741;28.831;0.014
1350;3826898.797;460903.676;5064663.143;-8.351;33.015;0.005
1351;3826895.800;460900.842;5064665.642;-10.807;37.166;-0.001
1352;3826892.815;460897.941;5064668.129;-13.329;41.306;-0.014
1353;3826890.551;460902.717;5064669.360;-8.317;43.387;-0.043
1354;3826893.898;460905.972;5064666.614;-5.485;38.768;0.005
1355;3826897.032;460908.952;5064663.984;-2.902;34.417;-0.001
1356;3826900.138;460911.901;5064661.389;-0.346;30.110;0.001
1357;3826903.210;460914.825;5064658.818;2.191;25.848;0.001
1358;3826906.296;460917.786;5064656.234;4.760;21.563;0.0005
1359;3826909.453;460920.714;5064653.610;7.290;17.201;0.009
1360;3826912.556;460923.777;5064650.990;9.960;12.872;-0.002
1361;3826915.689;460926.757;5064648.362;12.544;8.520;-0.008
1362;3826918.849;460929.767;5064645.736;15.154;4.147;0.006
1363;3826921.957;460932.648;5064643.131;17.643;-0.160;-0.002
1364;3826925.089;460935.634;5064640.519;20.233;-4.500;0.004
1365;3826928.217;460938.599;5064637.899;22.802;-8.840;0.001
1366;3826931.275;460941.536;5064635.331;25.352;-13.092;-0.005
1367;3826934.368;460944.490;5064632.755;27.915;-17.376;0.006
1368;3826937.418;460947.419;5064630.193;30.458;-21.616;-0.001
1369;3826940.527;460950.267;5064627.604;32.913;-25.912;0.001
1370;3826943.701;460953.353;5064624.933;35.598;-30.330;-0.007
1371;3826940.929;460956.902;5064626.708;39.453;-27.403;0.005
1372;3826937.839;460953.921;5064629.301;36.863;-23.108;0.009
1373;3826934.758;460951.049;5064631.869;34.380;-18.845;0.005
1374;3826931.710;460948.141;5064634.419;31.858;-14.616;0.004
1375;3826928.670;460945.308;5064636.954;29.409;-10.410;0.002
1376;3826925.620;460942.447;5064639.508;26.933;-6.181;0.007
1377;3826922.537;460939.623;5064642.061;24.498;-1.930;-0.006
1378;3826919.449;460936.622;5064644.672;21.888;2.377;0.011
1379;3826916.340;460933.754;5064647.260;19.412;6.673;0.007
1380;3826913.196;460930.834;5064649.884;16.890;11.024;0.007
1381;3826910.130;460927.910;5064652.444;14.353;15.275;0.003
1382;3826907.135;460925.117;5064654.953;11.938;19.426;0.009
1383;3826903.905;460922.153;5064657.623;9.382;23.878;-0.008
1384;3826900.845;460919.311;5064660.187;6.927;28.118;0.0000
1385;3826897.752;460916.391;5064662.767;4.397;32.403;-0.004
1386;3826894.676;460913.391;5064665.357;1.787;36.687;0.003
1387;3826891.640;460910.627;5064667.890;-0.594;40.883;0.007
1388;3826889.452;460908.635;5064669.721;-2.310;43.910;0.014
1389;3826888.379;460914.062;5064670.037;3.207;44.433;0.015
1390;3826891.568;460916.927;5064667.371;5.669;40.026;0.004
1391;3826894.664;460919.807;5064664.788;8.158;35.741;0.005
1392;3826897.842;460922.717;5064662.132;10.667;31.345;-0.001
1393;3826900.998;460925.638;5064659.505;13.190;26.983;0.004
1394;3826904.139;460928.557;5064656.895;15.713;22.642;0.013
1395;3826907.261;460931.393;5064654.284;18.155;18.325;0.004
1396;3826910.330;460934.439;5064651.692;20.812;14.040;-0.006
1397;3826913.504;460937.254;5064649.072;23.227;9.677;0.007
1398;3826916.599;460940.154;5064646.490;25.736;5.393;0.009
1399;3826919.741;460943.169;5064643.840;28.353;1.019;-0.006
1400;3826922.794;460946.003;5064641.305;30.802;-3.198;0.005
1401;3826925.887;460948.971;5064638.714;33.378;-7.494;0.004
1402;3826929.052;460951.934;5064636.068;35.941;-11.879;0.002
1403;3826932.112;460954.749;5064633.519;38.370;-16.108;0.003
1404;3826935.011;460957.463;5064631.094;40.718;-20.125;0.0004
1405;3826936.894;460959.201;5064629.523;42.218;-22.729;0.001
1406;3826932.737;460961.058;5064632.478;44.559;-17.833;0.002
1407;3826929.600;460958.247;5064635.092;42.144;-13.504;0.007
1408;3826926.572;460955.531;5064637.587;39.810;-9.342;-0.012
1409;3826923.470;460952.603;5064640.191;37.273;-5.035;-0.003
1410;3826920.451;460949.800;5064642.722;34.852;-0.850;0.005
1411;3826917.328;460946.890;5064645.321;32.336;3.467;-0.001
1412;3826914.319;460944.027;5064647.836;29.853;7.641;-0.003
1413;3826911.185;460941.122;5064650.458;27.344;11.981;0.003
1414;3826908.127;460938.287;5064653.024;24.895;16.221;0.014
1415;3826905.073;460935.439;5064655.556;22.433;20.439;0.0002
1416;3826902.041;460932.567;5064658.096;19.944;24.645;0.004
1417;3826898.970;460929.703;5064660.659;17.469;28.897;0.003
1418;3826895.886;460926.777;5064663.232;14.933;33.170;-0.001
1419;3826892.727;460923.863;5064665.875;12.417;37.544;0.005
1420;3826889.574;460920.881;5064668.514;9.833;41.917;0.007
1421;3826887.291;460918.824;5064670.377;8.064;45.044;-0.022
1422;3826886.303;460924.729;5064670.566;14.045;45.378;-0.037
1423;3826889.588;460927.469;5064667.896;16.373;40.904;-0.002
1424;3826892.793;460930.294;5064665.245;18.794;36.497;0.005
1425;3826895.815;460933.152;5064662.726;21.270;32.313;0.011
1426;3826898.990;460936.035;5064660.081;23.752;27.928;0.011
1427;3826901.996;460938.809;5064657.566;26.147;23.766;0.004
1428;3826905.111;460941.793;5064654.951;28.737;19.437;-0.002
1429;3826908.222;460944.675;5064652.369;31.226;15.141;0.009
1430;3826911.363;460947.675;5064649.735;33.829;10.779;0.006
1431;3826914.556;460950.533;5064647.073;36.285;6.372;-0.0001
1432;3826917.622;460953.362;5064644.516;38.727;2.132;0.0001
1433;3826920.730;460956.278;5064641.917;41.249;-2.175;-0.003
1434;3826923.778;460959.152;5064639.362;43.739;-6.404;-0.007
1435;3826926.969;460962.213;5064636.693;46.396;-10.833;-0.005
1436;3826921.501;460963.004;5064640.727;47.836;-4.145;-0.005
1437;3826918.302;460960.342;5064643.357;45.575;0.229;-0.014
1438;3826915.252;460957.610;5064645.913;43.228;4.446;0.002
1439;3826912.118;460954.698;5064648.535;40.712;8.787;0.007
1440;3826909.085;460951.982;5064651.042;38.377;12.960;-0.006
1441;3826906.015;460949.186;5064653.616;35.969;17.211;0.008
1442;3826902.922;460946.428;5064656.168;33.601;21.462;-0.007
1443;3826899.785;460943.550;5064658.789;31.119;25.803;-0.002
1444;3826896.684;460940.717;5064661.374;28.677;30.087;-0.001
1445;3826893.543;460937.859;5064663.993;26.215;34.427;0.001
1446;3826890.484;460935.024;5064666.558;23.766;38.667;0.011
1447;3826887.292;460932.179;5064669.206;21.324;43.063;0.007
1448;3826890.447;460941.070;5064666.027;29.774;37.799;0.001
1449;3826893.631;460943.988;5064663.363;32.289;33.392;-0.007
1450;3826896.770;460946.799;5064660.751;34.704;29.063;-0.009
1451;3826899.820;460949.538;5064658.214;37.059;24.856;-0.008
1452;3826902.903;460952.355;5064655.641;39.487;20.594;-0.011
1453;3826906.023;460955.130;5064653.054;41.869;16.298;-0.007
1454;3826909.251;460958.046;5064650.374;44.378;11.847;-0.002
1455;3826912.348;460960.818;5064647.793;46.760;7.574;-0.006
1456;3826913.990;460979.643;5064644.863;65.253;2.710;-0.003
1457;3826915.794;460977.801;5064643.675;63.208;0.740;-0.003
1458;3826917.525;460975.888;5064642.545;61.102;-1.129;-0.006
1459;3826919.025;460977.959;5064641.244;62.979;-3.299;0.004
1460;3826917.383;460979.842;5064642.283;65.045;-1.552;-0.015
1461;3826915.458;460981.751;5064643.581;67.171;0.573;0.006
1462;3826916.787;460984.025;5064642.365;69.270;-1.430;-0.005
1463;3826918.494;460982.144;5064641.264;67.197;-3.266;0.003
1464;3826920.420;460980.133;5064640.005;64.971;-5.358;0.007
1465;3826912.587;460988.270;5064645.142;73.986;3.166;0.001
1466;3826910.127;460986.821;5064647.107;72.842;6.438;-0.009
1467;3826907.747;460985.478;5064649.028;71.793;9.609;0.002
1468;3826905.331;460984.055;5064650.981;70.669;12.837;0.011
1469;3826903.160;460982.885;5064652.706;69.768;15.708;0.002
1470;3826900.856;460981.469;5064654.568;68.638;18.791;0.006
1471;3826898.521;460980.185;5064656.429;67.642;21.884;0.0001
1472;3826896.225;460978.818;5064658.272;66.559;24.945;-0.003
1473;3826893.859;460977.483;5064660.176;65.516;28.094;0.003
1474;3826891.432;460976.065;5064662.117;64.400;31.321;-0.004
1475;3826889.094;460974.781;5064663.991;63.404;34.426;-0.003
1476;3826886.690;460973.299;5064665.933;62.220;37.642;0.001
1477;3826884.332;460971.910;5064667.802;61.124;40.770;-0.021
1478;3826882.694;460971.184;5064669.115;60.599;42.929;-0.006
1479;3826881.743;460974.241;5064669.532;63.747;43.641;-0.022
1480;3826884.212;460975.690;5064667.560;64.891;40.358;-0.013
1481;3826886.677;460977.031;5064665.602;65.927;37.097;-0.002
1482;3826889.012;460978.423;5064663.722;67.030;33.981;-0.004
1483;3826891.364;460979.804;5064661.807;68.120;30.832;-0.022
1484;3826893.738;460981.175;5064659.901;69.196;27.671;-0.023
1485;3826896.122;460982.471;5064658.014;70.199;24.522;-0.007
1486;3826898.494;460983.909;5064656.097;71.342;21.350;-0.013
1487;3826900.818;460985.192;5064654.240;72.338;18.267;-0.010
1488;3826903.192;460986.603;5064652.341;73.454;15.107;-0.002
1489;3826905.526;460987.927;5064650.466;74.490;12.002;-0.004
1490;3826907.797;460989.353;5064648.637;75.634;8.964;-0.0002
1491;3826909.997;460990.573;5064646.866;76.583;6.037;-0.008
1492;3826911.267;460991.228;5064645.851;77.080;4.357;-0.010
1493;3826909.662;460993.731;5064646.833;79.758;5.981;-0.007
1494;3826907.082;460992.336;5064648.907;78.682;9.409;0.002
1495;3826904.769;460991.089;5064650.748;77.720;12.469;-0.005
1496;3826902.375;460989.709;5064652.682;76.637;15.663;0.005
1497;3826899.988;460988.324;5064654.587;75.547;18.835;-0.004
1498;3826897.624;460987.016;5064656.461;74.531;21.962;-0.019
1499;3826895.291;460985.685;5064658.354;73.488;25.078;-0.002
1500;3826892.956;460984.313;5064660.238;72.405;28.194;0.004
1501;3826890.596;460983.025;5064662.120;71.410;31.321;-0.001
1502;3826888.200;460981.680;5064664.038;70.360;34.504;-0.003
1503;3826885.929;460980.295;5064665.875;69.257;37.542;0.003
1504;3826883.520;460979.009;5064667.785;68.268;40.725;-0.008
1505;3826881.121;460977.663;5064669.700;67.219;43.908;-0.014
1506;3826880.779;460981.423;5064669.623;70.993;43.774;-0.009
1507;3826883.378;460982.779;5064667.549;72.029;40.335;-0.010
1508;3826885.679;460984.107;5064665.706;73.071;37.275;-0.007
1509;3826888.038;460985.394;5064663.822;74.067;34.148;-0.004
1510;3826890.455;460986.756;5064661.879;75.130;30.932;-0.009
1511;3826892.768;460988.125;5064660.021;76.213;27.849;-0.008
1512;3826895.010;460989.479;5064658.198;77.289;24.844;-0.021
1513;3826897.312;460990.726;5064656.380;78.251;21.806;-0.003
1514;3826899.589;460992.091;5064654.548;79.334;18.768;-0.003
1515;3826902.012;460993.365;5064652.618;80.310;15.563;0.0002
1516;3826904.349;460994.758;5064650.721;81.413;12.436;-0.013
1517;3826906.830;460996.229;5064648.749;82.577;9.142;0.006
1518;3826904.437;460998.428;5064650.329;85.046;11.779;-0.009
1519;3826901.948;460997.105;5064652.313;84.030;15.073;-0.012
1520;3826899.671;460995.834;5064654.141;83.041;18.100;-0.008
1521;3826897.403;460994.585;5064655.947;82.072;21.105;-0.016
1522;3826895.041;460993.230;5064657.872;81.010;24.266;0.008
1523;3826892.744;460991.808;5064659.705;79.873;27.326;-0.008
1524;3826890.485;460990.574;5064661.507;78.917;30.320;-0.013
1525;3826888.188;460989.227;5064663.371;77.855;33.391;0.002
1526;3826885.783;460987.894;5064665.280;76.819;36.574;-0.011
1527;3826883.473;460986.538;5064667.125;75.749;39.645;-0.020
1528;3826881.165;460985.244;5064669.000;74.740;42.728;0.001
1529;3826882.260;460989.726;5064667.770;79.059;40.691;-0.002
1530;3826884.703;460991.036;5064665.815;80.068;37.453;-0.004
1531;3826887.020;460992.345;5064663.954;81.091;34.370;-0.007
1532;3826889.363;460993.692;5064662.059;82.147;31.243;-0.019
1533;3826891.776;460995.107;5064660.137;83.263;28.038;-0.005
1534;3826894.051;460996.465;5064658.301;84.340;25.000;-0.010
1535;3826896.343;460997.663;5064656.464;85.255;21.962;-0.016
1536;3826898.744;460999.016;5064654.534;86.311;18.768;-0.020
1537;3826900.898;461000.224;5064652.830;87.253;15.919;-0.003
1538;3826894.915;461000.567;5064657.280;88.309;23.308;-0.012
1539;3826892.469;460999.188;5064659.220;87.233;26.547;-0.028
1540;3826890.048;460997.846;5064661.179;86.190;29.774;-0.011
1541;3826887.738;460996.355;5064663.058;84.986;32.879;-0.003
1542;3826885.415;460995.012;5064664.925;83.930;35.973;-0.001
1543;3826883.916;460968.343;5064668.444;57.632;41.827;-0.015
1544;3826886.389;460969.698;5064666.463;58.681;38.544;-0.016
1545;3826888.720;460970.907;5064664.622;59.603;35.472;-0.003
1546;3826891.205;460972.332;5064662.630;60.720;32.167;-0.0004
1547;3826893.593;460973.683;5064660.703;61.776;28.984;-0.010
1548;3826896.023;460975.006;5064658.751;62.798;25.757;-0.017
1549;3826898.429;460976.319;5064656.841;63.814;22.574;-0.005
1550;3826900.903;460977.721;5064654.868;64.911;19.291;0.003
1551;3826903.242;460979.148;5064652.962;66.047;16.153;-0.013
1552;3826905.605;460980.415;5064651.080;67.023;13.026;-0.009
1553;3826908.002;460981.795;5064649.150;68.106;9.832;-0.014
1554;3826910.369;460983.164;5064647.271;69.182;6.694;0.004
1555;3826912.604;460984.369;5064645.469;70.111;3.723;-0.009
1556;3826913.762;460984.935;5064644.570;70.534;2.209;0.008
1557;3826914.480;460981.776;5064644.294;67.312;1.775;-0.010
1558;3826911.860;460980.376;5064646.389;66.236;5.247;-0.009
1559;3826909.458;460979.057;5064648.303;65.213;8.430;-0.015
1560;3826907.069;460977.719;5064650.233;64.170;11.613;-0.002
1561;3826904.665;460976.338;5064652.172;63.087;14.818;0.006
1562;3826902.318;460975.039;5064654.050;62.078;17.934;0.005
1563;3826899.879;460973.600;5064656.008;60.941;21.183;0.002
1564;3826897.482;460972.241;5064657.923;59.879;24.366;-0.003
1565;3826895.070;460970.839;5064659.848;58.775;27.571;-0.013
1566;3826892.737;460969.541;5064661.728;57.766;30.676;-0.003
1567;3826890.399;460968.216;5064663.597;56.730;33.781;-0.008
1568;3826887.999;460966.877;5064665.529;55.688;36.975;-0.001
1569;3826885.869;460965.733;5064667.219;54.806;39.790;-0.011
1570;3826888.077;460963.125;5064665.794;51.954;37.431;-0.014
1571;3826890.475;460964.492;5064663.883;53.024;34.248;-0.003
1572;3826892.781;460965.813;5064662.026;54.059;31.177;-0.008
1573;3826895.145;460967.175;5064660.142;55.129;28.039;0.002
1574;3826897.459;460968.464;5064658.292;56.131;24.967;0.005
1575;3826899.771;460969.826;5064656.414;57.208;21.873;-0.011
1576;3826902.093;460971.109;5064654.573;58.203;18.802;0.004
1577;3826904.459;460972.464;5064652.672;59.266;15.653;0.002
1578;3826906.806;460973.791;5064650.778;60.302;12.525;-0.008
1579;3826909.139;460975.129;5064648.924;61.352;9.432;0.006
1580;3826911.584;460976.365;5064646.979;62.287;6.204;0.008
1581;3826913.845;460977.783;5064645.135;63.423;3.166;-0.008
1582;3826914.570;460978.094;5064644.568;63.645;2.220;-0.002
1583;3826914.177;460974.272;5064645.218;59.898;3.289;0.005
1584;3826911.774;460972.898;5064647.142;58.822;6.483;0.001
1585;3826909.393;460971.622;5064649.053;57.840;9.643;0.008
1586;3826907.033;460970.294;5064650.929;56.804;12.770;-0.004
1587;3826904.741;460968.880;5064652.789;55.674;15.842;0.006
1588;3826902.289;460967.602;5064654.737;54.698;19.080;-0.0004
1589;3826899.974;460966.185;5064656.603;53.568;22.174;-0.001
1590;3826897.567;460964.845;5064658.526;52.525;25.368;-0.005
1591;3826895.209;460963.436;5064660.429;51.409;28.517;0.0001
1592;3826892.891;460962.106;5064662.286;50.366;31.600;-0.002
1593;3826890.658;460960.990;5064664.048;49.525;34.538;-0.014
1594;3826894.204;460959.459;5064661.524;47.581;30.354;-0.015
1595;3826896.656;460960.771;5064659.564;48.590;27.104;-0.016
1596;3826899.015;460962.010;5064657.691;49.538;23.988;-0.008
1597;3826901.369;460963.270;5064655.833;50.507;20.883;0.010
1598;3826903.819;460964.608;5064653.855;51.543;17.622;-0.004
1599;3826906.180;460965.875;5064651.970;52.518;14.495;-0.003
1600;3826908.386;460967.110;5064650.191;53.480;11.557;-0.012
1601;3826910.721;460968.353;5064648.361;54.436;8.486;0.015
1602;3826913.017;460969.674;5064646.493;55.472;5.414;-0.004
1603;3826910.199;460964.747;5064649.061;50.917;9.666;0.001
1604;3826907.698;460963.321;5064651.069;49.801;12.993;0.003
1605;3826905.442;460962.080;5064652.873;48.839;15.987;0.002
1606;3826903.125;460960.811;5064654.724;47.856;19.058;-0.0002
1607;3826903.657;460959.263;5064654.457;46.255;18.624;-0.006
1608;3826900.772;460959.437;5064656.601;46.773;22.185;-0.011
